[
  {
    "value": "1921 Tequila Cream",
    "synonyms": [
      "1921 Tequila Cream"
    ]
  },
  {
    "value": "20th Century Cocktail",
    "synonyms": [
      "20th Century Cocktail"
    ]
  },
  {
    "value": "A Black Jack",
    "synonyms": [
      "A Black Jack"
    ]
  },
  {
    "value": "Absinthe",
    "synonyms": [
      "Absinthe"
    ]
  },
  {
    "value": "Agent Orange",
    "synonyms": [
      "Agent Orange"
    ]
  },
  {
    "value": "Agua de Sevilla",
    "synonyms": [
      "Agua de Sevilla"
    ]
  },
  {
    "value": "Agua de Valencia",
    "synonyms": [
      "Agua de Valencia"
    ]
  },
  {
    "value": "Aguaymanto Sour",
    "synonyms": [
      "Aguaymanto Sour"
    ]
  },
  {
    "value": "Akvavit",
    "synonyms": [
      "Akvavit"
    ]
  },
  {
    "value": "Alabama Slammer",
    "synonyms": [
      "Alabama Slammer"
    ]
  },
  {
    "value": "Ale",
    "synonyms": [
      "Ale"
    ]
  },
  {
    "value": "Alexander",
    "synonyms": [
      "Alexander"
    ]
  },
  {
    "value": "Amber Moon",
    "synonyms": [
      "Amber Moon"
    ]
  },
  {
    "value": "Angel Face",
    "synonyms": [
      "Angel Face   "
    ]
  },
  {
    "value": "Aperol Spritz",
    "synonyms": [
      "Aperol Spritz"
    ]
  },
  {
    "value": "Apple Martini",
    "synonyms": [
      "Apple Martini"
    ]
  },
  {
    "value": "Apple-Kneel",
    "synonyms": [
      "Apple-Kneel"
    ]
  },
  {
    "value": "Applejack",
    "synonyms": [
      "Applejack"
    ]
  },
  {
    "value": "Appletini",
    "synonyms": [
      "Appletini"
    ]
  },
  {
    "value": "Arak",
    "synonyms": [
      "Arak"
    ]
  },
  {
    "value": "Armagnac",
    "synonyms": [
      "Armagnac"
    ]
  },
  {
    "value": "Arrack",
    "synonyms": [
      "Arrack"
    ]
  },
  {
    "value": "Astro pop",
    "synonyms": [
      "Astro pop"
    ]
  },
  {
    "value": "Aviation",
    "synonyms": [
      "Aviation   "
    ]
  },
  {
    "value": "Awamori",
    "synonyms": [
      "Awamori"
    ]
  },
  {
    "value": "B \u0026 B",
    "synonyms": [
      "B \u0026 B"
    ]
  },
  {
    "value": "B-52",
    "synonyms": [
      "B-52"
    ]
  },
  {
    "value": "BLT cocktail",
    "synonyms": [
      "BLT cocktail"
    ]
  },
  {
    "value": "Baby Guinness",
    "synonyms": [
      "Baby Guinness"
    ]
  },
  {
    "value": "Bacardi",
    "synonyms": [
      "Bacardi   "
    ]
  },
  {
    "value": "Baijiu",
    "synonyms": [
      "Baijiu"
    ]
  },
  {
    "value": "Bananarita",
    "synonyms": [
      "Bananarita"
    ]
  },
  {
    "value": "Barleywine",
    "synonyms": [
      "Barleywine"
    ]
  },
  {
    "value": "Batida",
    "synonyms": [
      "Batida"
    ]
  },
  {
    "value": "Bay Breeze",
    "synonyms": [
      "Bay Breeze"
    ]
  },
  {
    "value": "Bee\u0027s Knees",
    "synonyms": [
      "Bee\u0027s Knees"
    ]
  },
  {
    "value": "Beer",
    "synonyms": [
      "Beer"
    ]
  },
  {
    "value": "Bellini Cocktail",
    "synonyms": [
      "Bellini Cocktail"
    ]
  },
  {
    "value": "Between the Sheets",
    "synonyms": [
      "Between the Sheets   "
    ]
  },
  {
    "value": "Bijou",
    "synonyms": [
      "Bijou"
    ]
  },
  {
    "value": "Bishop",
    "synonyms": [
      "Bishop"
    ]
  },
  {
    "value": "Bitter ale",
    "synonyms": [
      "Bitter ale"
    ]
  },
  {
    "value": "Black Russian",
    "synonyms": [
      "Black Russian"
    ]
  },
  {
    "value": "Black Velvet",
    "synonyms": [
      "Black Velvet"
    ]
  },
  {
    "value": "Black and Tan",
    "synonyms": [
      "Black and Tan"
    ]
  },
  {
    "value": "Bloodhound",
    "synonyms": [
      "Bloodhound"
    ]
  },
  {
    "value": "Bloody Aztec",
    "synonyms": [
      "Bloody Aztec"
    ]
  },
  {
    "value": "Bloody Mary",
    "synonyms": [
      "Bloody Mary   "
    ]
  },
  {
    "value": "Blue Blazer",
    "synonyms": [
      "Blue Blazer"
    ]
  },
  {
    "value": "Blue Hawaii",
    "synonyms": [
      "Blue Hawaii"
    ]
  },
  {
    "value": "Blue Lagoon",
    "synonyms": [
      "Blue Lagoon"
    ]
  },
  {
    "value": "Blueberry Tea Cocktail",
    "synonyms": [
      "Blueberry Tea Cocktail"
    ]
  },
  {
    "value": "Bobby Burns",
    "synonyms": [
      "Bobby Burns"
    ]
  },
  {
    "value": "Bock",
    "synonyms": [
      "Bock "
    ]
  },
  {
    "value": "Boilermaker",
    "synonyms": [
      "Boilermaker"
    ]
  },
  {
    "value": "Borovička",
    "synonyms": [
      "Borovička"
    ]
  },
  {
    "value": "Bourbon Lancer",
    "synonyms": [
      "Bourbon Lancer"
    ]
  },
  {
    "value": "Bourbon whiskey",
    "synonyms": [
      "Bourbon whiskey"
    ]
  },
  {
    "value": "Bramble",
    "synonyms": [
      "Bramble   "
    ]
  },
  {
    "value": "Brandy",
    "synonyms": [
      "Brandy"
    ]
  },
  {
    "value": "Brandy Alexander",
    "synonyms": [
      "Brandy Alexander   "
    ]
  },
  {
    "value": "Brandy Manhattan",
    "synonyms": [
      "Brandy Manhattan"
    ]
  },
  {
    "value": "Brandy Sour",
    "synonyms": [
      "Brandy Sour"
    ]
  },
  {
    "value": "Brass Monkey",
    "synonyms": [
      "Brass Monkey"
    ]
  },
  {
    "value": "Breakfast martini",
    "synonyms": [
      "Breakfast martini"
    ]
  },
  {
    "value": "Bronx Cocktail",
    "synonyms": [
      "Bronx Cocktail"
    ]
  },
  {
    "value": "Brooklyn Cocktail",
    "synonyms": [
      "Brooklyn Cocktail"
    ]
  },
  {
    "value": "Brown ale",
    "synonyms": [
      "Brown ale"
    ]
  },
  {
    "value": "Brut Cocktail",
    "synonyms": [
      "Brut Cocktail"
    ]
  },
  {
    "value": "Buck\u0027s Fizz",
    "synonyms": [
      "Buck\u0027s Fizz"
    ]
  },
  {
    "value": "Bull Shot",
    "synonyms": [
      "Bull Shot"
    ]
  },
  {
    "value": "Bumbo",
    "synonyms": [
      "Bumbo "
    ]
  },
  {
    "value": "Bushwacker",
    "synonyms": [
      "Bushwacker"
    ]
  },
  {
    "value": "Buttery Nipple",
    "synonyms": [
      "Buttery Nipple"
    ]
  },
  {
    "value": "Cachaça",
    "synonyms": [
      "Cachaça"
    ]
  },
  {
    "value": "Caesar Cocktail",
    "synonyms": [
      "Caesar Cocktail"
    ]
  },
  {
    "value": "Caipirinha",
    "synonyms": [
      "Caipirinha "
    ]
  },
  {
    "value": "Caipiroska",
    "synonyms": [
      "Caipiroska"
    ]
  },
  {
    "value": "Caju Amigo",
    "synonyms": [
      "Caju Amigo"
    ]
  },
  {
    "value": "Canadian whisky",
    "synonyms": [
      "Canadian whisky"
    ]
  },
  {
    "value": "Cape Cod",
    "synonyms": [
      "Cape Cod"
    ]
  },
  {
    "value": "Caribou Lou",
    "synonyms": [
      "Caribou Lou"
    ]
  },
  {
    "value": "Casino Cocktail",
    "synonyms": [
      "Casino Cocktail"
    ]
  },
  {
    "value": "Cask ale",
    "synonyms": [
      "Cask ale"
    ]
  },
  {
    "value": "Cauim",
    "synonyms": [
      "Cauim "
    ]
  },
  {
    "value": "Champagne",
    "synonyms": [
      "Champagne"
    ]
  },
  {
    "value": "Champagne Cocktail",
    "synonyms": [
      "Champagne Cocktail"
    ]
  },
  {
    "value": "Chi-Chi",
    "synonyms": [
      "Chi-Chi"
    ]
  },
  {
    "value": "Chicago Cocktail",
    "synonyms": [
      "Chicago Cocktail"
    ]
  },
  {
    "value": "Chicha",
    "synonyms": [
      "Chicha "
    ]
  },
  {
    "value": "Chimayó Cocktail",
    "synonyms": [
      "Chimayó Cocktail"
    ]
  },
  {
    "value": "Chocolate martini",
    "synonyms": [
      "Chocolate martini"
    ]
  },
  {
    "value": "Churchill Cocktail",
    "synonyms": [
      "Churchill Cocktail"
    ]
  },
  {
    "value": "Cider",
    "synonyms": [
      "Cider "
    ]
  },
  {
    "value": "Clover Club Cocktail",
    "synonyms": [
      "Clover Club Cocktail   "
    ]
  },
  {
    "value": "Cobbler",
    "synonyms": [
      "Cobbler"
    ]
  },
  {
    "value": "Cognac",
    "synonyms": [
      "Cognac"
    ]
  },
  {
    "value": "Cojito",
    "synonyms": [
      "Cojito"
    ]
  },
  {
    "value": "Collins Cocktail",
    "synonyms": [
      "Collins Cocktail"
    ]
  },
  {
    "value": "Colombia",
    "synonyms": [
      "Colombia"
    ]
  },
  {
    "value": "Corn N\u0027 Oil",
    "synonyms": [
      "Corn N\u0027 Oil"
    ]
  },
  {
    "value": "Corpse Reviver",
    "synonyms": [
      "Corpse Reviver"
    ]
  },
  {
    "value": "Cosmopolitan",
    "synonyms": [
      "Cosmopolitan   "
    ]
  },
  {
    "value": "Crusta",
    "synonyms": [
      "Crusta"
    ]
  },
  {
    "value": "Cuba Libre",
    "synonyms": [
      "Cuba Libre   "
    ]
  },
  {
    "value": "Culto A La Vida",
    "synonyms": [
      "Culto A La Vida"
    ]
  },
  {
    "value": "Curacao Punch",
    "synonyms": [
      "Curacao Punch"
    ]
  },
  {
    "value": "Daiquiri",
    "synonyms": [
      "Daiquiri   "
    ]
  },
  {
    "value": "Daisy",
    "synonyms": [
      "Daisy"
    ]
  },
  {
    "value": "Damassine",
    "synonyms": [
      "Damassine"
    ]
  },
  {
    "value": "Damn the Weather",
    "synonyms": [
      "Damn the Weather"
    ]
  },
  {
    "value": "Damson gin",
    "synonyms": [
      "Damson gin"
    ]
  },
  {
    "value": "Dark and Stormy",
    "synonyms": [
      "Dark and Stormy   "
    ]
  },
  {
    "value": "Death in the Afternoon",
    "synonyms": [
      "Death in the Afternoon"
    ]
  },
  {
    "value": "Derby",
    "synonyms": [
      "Derby   "
    ]
  },
  {
    "value": "Desi daru",
    "synonyms": [
      "Desi daru"
    ]
  },
  {
    "value": "Dirty Mother Cocktail",
    "synonyms": [
      "Dirty Mother Cocktail"
    ]
  },
  {
    "value": "Earthquake",
    "synonyms": [
      "Earthquake"
    ]
  },
  {
    "value": "El Presidente",
    "synonyms": [
      "El Presidente"
    ]
  },
  {
    "value": "El Toro Loco Patron and Redbull",
    "synonyms": [
      "El Toro Loco Patron and Redbull"
    ]
  },
  {
    "value": "Farnell Cocktail",
    "synonyms": [
      "Farnell Cocktail"
    ]
  },
  {
    "value": "Fish House Punch",
    "synonyms": [
      "Fish House Punch"
    ]
  },
  {
    "value": "Fix Cocktail",
    "synonyms": [
      "Fix Cocktail"
    ]
  },
  {
    "value": "Fizz",
    "synonyms": [
      "Fizz"
    ]
  },
  {
    "value": "Fizzy apple cocktail",
    "synonyms": [
      "Fizzy apple cocktail"
    ]
  },
  {
    "value": "Flaming Dr Pepper",
    "synonyms": [
      "Flaming Dr Pepper"
    ]
  },
  {
    "value": "Flaming Volcano",
    "synonyms": [
      "Flaming Volcano"
    ]
  },
  {
    "value": "Flip",
    "synonyms": [
      "Flip"
    ]
  },
  {
    "value": "Flirtini",
    "synonyms": [
      "Flirtini"
    ]
  },
  {
    "value": "Fluffy Critter",
    "synonyms": [
      "Fluffy Critter"
    ]
  },
  {
    "value": "Fortified wine",
    "synonyms": [
      "Fortified wine"
    ]
  },
  {
    "value": "Four Horsemen",
    "synonyms": [
      "Four Horsemen"
    ]
  },
  {
    "value": "Four Score",
    "synonyms": [
      "Four Score"
    ]
  },
  {
    "value": "French 75",
    "synonyms": [
      "French 75   "
    ]
  },
  {
    "value": "French Connection",
    "synonyms": [
      "French Connection   "
    ]
  },
  {
    "value": "Fruit beer",
    "synonyms": [
      "Fruit beer"
    ]
  },
  {
    "value": "Fruit brandy",
    "synonyms": [
      "Fruit brandy"
    ]
  },
  {
    "value": "Fruit wine",
    "synonyms": [
      "Fruit wine"
    ]
  },
  {
    "value": "Fuzzy Navel",
    "synonyms": [
      "Fuzzy Navel"
    ]
  },
  {
    "value": "Gibson",
    "synonyms": [
      "Gibson"
    ]
  },
  {
    "value": "Gimlet",
    "synonyms": [
      "Gimlet"
    ]
  },
  {
    "value": "Gin",
    "synonyms": [
      "Gin"
    ]
  },
  {
    "value": "Gin Fizz",
    "synonyms": [
      "Gin Fizz   "
    ]
  },
  {
    "value": "Gin Sour",
    "synonyms": [
      "Gin Sour"
    ]
  },
  {
    "value": "Gin and tonic",
    "synonyms": [
      "Gin and tonic"
    ]
  },
  {
    "value": "Gin buck",
    "synonyms": [
      "Gin buck"
    ]
  },
  {
    "value": "Gin pahit",
    "synonyms": [
      "Gin pahit"
    ]
  },
  {
    "value": "Ginza Mary",
    "synonyms": [
      "Ginza Mary"
    ]
  },
  {
    "value": "Glowtini",
    "synonyms": [
      "Glowtini"
    ]
  },
  {
    "value": "Glögg",
    "synonyms": [
      "Glögg"
    ]
  },
  {
    "value": "Godfather Cocktail",
    "synonyms": [
      "Godfather Cocktail"
    ]
  },
  {
    "value": "Godmother",
    "synonyms": [
      "Godmother   "
    ]
  },
  {
    "value": "Godmother Cocktail",
    "synonyms": [
      "Godmother Cocktail"
    ]
  },
  {
    "value": "Golden Doublet",
    "synonyms": [
      "Golden Doublet"
    ]
  },
  {
    "value": "Golden Dream",
    "synonyms": [
      "Golden Dream"
    ]
  },
  {
    "value": "Gose",
    "synonyms": [
      "Gose"
    ]
  },
  {
    "value": "Grasshopper",
    "synonyms": [
      "Grasshopper   "
    ]
  },
  {
    "value": "Green Russians",
    "synonyms": [
      "Green Russians"
    ]
  },
  {
    "value": "Green Vesper",
    "synonyms": [
      "Green Vesper"
    ]
  },
  {
    "value": "Greyhound",
    "synonyms": [
      "Greyhound"
    ]
  },
  {
    "value": "Grog",
    "synonyms": [
      "Grog"
    ]
  },
  {
    "value": "Gunfire",
    "synonyms": [
      "Gunfire"
    ]
  },
  {
    "value": "Hangman\u0027s Blood",
    "synonyms": [
      "Hangman\u0027s Blood"
    ]
  },
  {
    "value": "Hanky-Panky",
    "synonyms": [
      "Hanky-Panky"
    ]
  },
  {
    "value": "Harrogate Nights",
    "synonyms": [
      "Harrogate Nights"
    ]
  },
  {
    "value": "Harvey Wallbanger",
    "synonyms": [
      "Harvey Wallbanger   "
    ]
  },
  {
    "value": "Havana Cooler",
    "synonyms": [
      "Havana Cooler"
    ]
  },
  {
    "value": "Hennchata",
    "synonyms": [
      "Hennchata"
    ]
  },
  {
    "value": "Hi-fi",
    "synonyms": [
      "Hi-fi"
    ]
  },
  {
    "value": "Himbeergeist",
    "synonyms": [
      "Himbeergeist"
    ]
  },
  {
    "value": "Horilka",
    "synonyms": [
      "Horilka"
    ]
  },
  {
    "value": "Horse\u0027s Neck",
    "synonyms": [
      "Horse\u0027s Neck   "
    ]
  },
  {
    "value": "Hot buttered rum",
    "synonyms": [
      "Hot buttered rum"
    ]
  },
  {
    "value": "Huangjiu",
    "synonyms": [
      "Huangjiu"
    ]
  },
  {
    "value": "Hurricane",
    "synonyms": [
      "Hurricane"
    ]
  },
  {
    "value": "Icariine Liquor",
    "synonyms": [
      "Icariine Liquor"
    ]
  },
  {
    "value": "Incredible Hulk Cocktail",
    "synonyms": [
      "Incredible Hulk Cocktail"
    ]
  },
  {
    "value": "Irish Car Bomb",
    "synonyms": [
      "Irish Car Bomb"
    ]
  },
  {
    "value": "Irish Coffee",
    "synonyms": [
      "Irish Coffee   "
    ]
  },
  {
    "value": "Irish whiskey",
    "synonyms": [
      "Irish whiskey"
    ]
  },
  {
    "value": "Jack Rose",
    "synonyms": [
      "Jack Rose"
    ]
  },
  {
    "value": "Jack and Coke",
    "synonyms": [
      "Jack and Coke"
    ]
  },
  {
    "value": "Jagertee",
    "synonyms": [
      "Jagertee"
    ]
  },
  {
    "value": "Jamaican Coffee",
    "synonyms": [
      "Jamaican Coffee"
    ]
  },
  {
    "value": "Japanese Slipper",
    "synonyms": [
      "Japanese Slipper"
    ]
  },
  {
    "value": "Japanese whisky",
    "synonyms": [
      "Japanese whisky"
    ]
  },
  {
    "value": "Jazmin Sour",
    "synonyms": [
      "Jazmin Sour"
    ]
  },
  {
    "value": "John Collins",
    "synonyms": [
      "John Collins   "
    ]
  },
  {
    "value": "Joker Cocktail",
    "synonyms": [
      "Joker Cocktail"
    ]
  },
  {
    "value": "Juan Collins",
    "synonyms": [
      "Juan Collins"
    ]
  },
  {
    "value": "Julep",
    "synonyms": [
      "Julep"
    ]
  },
  {
    "value": "Jungle Juice",
    "synonyms": [
      "Jungle Juice"
    ]
  },
  {
    "value": "Kalimotxo or Calimocho or Rioja Libre",
    "synonyms": [
      "Kalimotxo or Calimocho or Rioja Libre"
    ]
  },
  {
    "value": "Kamikaze",
    "synonyms": [
      "Kamikaze   "
    ]
  },
  {
    "value": "Kaoliang",
    "synonyms": [
      "Kaoliang"
    ]
  },
  {
    "value": "Kasiri",
    "synonyms": [
      "Kasiri"
    ]
  },
  {
    "value": "Kensington Court Special",
    "synonyms": [
      "Kensington Court Special"
    ]
  },
  {
    "value": "Kilju",
    "synonyms": [
      "Kilju"
    ]
  },
  {
    "value": "Kir",
    "synonyms": [
      "Kir   "
    ]
  },
  {
    "value": "Kir Royal",
    "synonyms": [
      "Kir Royal"
    ]
  },
  {
    "value": "Kirsch",
    "synonyms": [
      "Kirsch"
    ]
  },
  {
    "value": "Kremlin Colonel",
    "synonyms": [
      "Kremlin Colonel"
    ]
  },
  {
    "value": "Kumis",
    "synonyms": [
      "Kumis "
    ]
  },
  {
    "value": "Lager",
    "synonyms": [
      "Lager"
    ]
  },
  {
    "value": "Leite de Onça",
    "synonyms": [
      "Leite de Onça"
    ]
  },
  {
    "value": "Lemon Drop",
    "synonyms": [
      "Lemon Drop"
    ]
  },
  {
    "value": "Lime Rickey",
    "synonyms": [
      "Lime Rickey"
    ]
  },
  {
    "value": "Link Up",
    "synonyms": [
      "Link Up"
    ]
  },
  {
    "value": "London Fog",
    "synonyms": [
      "London Fog"
    ]
  },
  {
    "value": "Long Island Iced Tea",
    "synonyms": [
      "Long Island Iced Tea"
    ]
  },
  {
    "value": "Lorraine",
    "synonyms": [
      "Lorraine"
    ]
  },
  {
    "value": "Lynchburg Lemonade",
    "synonyms": [
      "Lynchburg Lemonade"
    ]
  },
  {
    "value": "Macuá",
    "synonyms": [
      "Macuá"
    ]
  },
  {
    "value": "Madeira",
    "synonyms": [
      "Madeira"
    ]
  },
  {
    "value": "Maerzen",
    "synonyms": [
      "Maerzen"
    ]
  },
  {
    "value": "Mai-Tai",
    "synonyms": [
      "Mai-Tai   "
    ]
  },
  {
    "value": "ManX Spirit",
    "synonyms": [
      "ManX Spirit"
    ]
  },
  {
    "value": "Mango Sour",
    "synonyms": [
      "Mango Sour"
    ]
  },
  {
    "value": "Manhattan Cocktail",
    "synonyms": [
      "Manhattan Cocktail "
    ]
  },
  {
    "value": "Maotai",
    "synonyms": [
      "Maotai"
    ]
  },
  {
    "value": "Margarita",
    "synonyms": [
      "Margarita   "
    ]
  },
  {
    "value": "Marsala",
    "synonyms": [
      "Marsala"
    ]
  },
  {
    "value": "Martini",
    "synonyms": [
      "Martini   "
    ]
  },
  {
    "value": "Matador",
    "synonyms": [
      "Matador"
    ]
  },
  {
    "value": "Mead",
    "synonyms": [
      "Mead"
    ]
  },
  {
    "value": "Metaxa",
    "synonyms": [
      "Metaxa"
    ]
  },
  {
    "value": "Mezcal",
    "synonyms": [
      "Mezcal"
    ]
  },
  {
    "value": "Michelada",
    "synonyms": [
      "Michelada"
    ]
  },
  {
    "value": "Mickey Slim",
    "synonyms": [
      "Mickey Slim"
    ]
  },
  {
    "value": "Midori Sour",
    "synonyms": [
      "Midori Sour"
    ]
  },
  {
    "value": "Mild ale",
    "synonyms": [
      "Mild ale"
    ]
  },
  {
    "value": "Mimosa",
    "synonyms": [
      "Mimosa   "
    ]
  },
  {
    "value": "Mint Julep",
    "synonyms": [
      "Mint Julep   "
    ]
  },
  {
    "value": "Missouri Mule",
    "synonyms": [
      "Missouri Mule"
    ]
  },
  {
    "value": "Mojito",
    "synonyms": [
      "Mojito   "
    ]
  },
  {
    "value": "Moloko Plus",
    "synonyms": [
      "Moloko Plus"
    ]
  },
  {
    "value": "Monkey Gland",
    "synonyms": [
      "Monkey Gland   "
    ]
  },
  {
    "value": "Moonwalk",
    "synonyms": [
      "Moonwalk"
    ]
  },
  {
    "value": "Moscow Mule",
    "synonyms": [
      "Moscow Mule   "
    ]
  },
  {
    "value": "Mudslide",
    "synonyms": [
      "Mudslide"
    ]
  },
  {
    "value": "My Fair Lady",
    "synonyms": [
      "My Fair Lady"
    ]
  },
  {
    "value": "Negroni",
    "synonyms": [
      "Negroni"
    ]
  },
  {
    "value": "Negroni Sbagliato",
    "synonyms": [
      "Negroni Sbagliato"
    ]
  },
  {
    "value": "Negus",
    "synonyms": [
      "Negus"
    ]
  },
  {
    "value": "Neutral grain spirit",
    "synonyms": [
      "Neutral grain spirit"
    ]
  },
  {
    "value": "Nihamanchi",
    "synonyms": [
      "Nihamanchi "
    ]
  },
  {
    "value": "Nikolaschka",
    "synonyms": [
      "Nikolaschka"
    ]
  },
  {
    "value": "Nixon Cocktail",
    "synonyms": [
      "Nixon Cocktail"
    ]
  },
  {
    "value": "Nuclear Iced Tea",
    "synonyms": [
      "Nuclear Iced Tea"
    ]
  },
  {
    "value": "Oatmeal Cookie",
    "synonyms": [
      "Oatmeal Cookie"
    ]
  },
  {
    "value": "Ogogoro",
    "synonyms": [
      "Ogogoro"
    ]
  },
  {
    "value": "Old Etonian",
    "synonyms": [
      "Old Etonian"
    ]
  },
  {
    "value": "Old Fashioned",
    "synonyms": [
      "Old Fashioned   "
    ]
  },
  {
    "value": "Old Spanish",
    "synonyms": [
      "Old Spanish"
    ]
  },
  {
    "value": "Old ale",
    "synonyms": [
      "Old ale"
    ]
  },
  {
    "value": "Orange Tundra",
    "synonyms": [
      "Orange Tundra"
    ]
  },
  {
    "value": "Orgasm Cocktail",
    "synonyms": [
      "Orgasm Cocktail"
    ]
  },
  {
    "value": "Ouzini",
    "synonyms": [
      "Ouzini"
    ]
  },
  {
    "value": "Ouzo",
    "synonyms": [
      "Ouzo"
    ]
  },
  {
    "value": "Painkiller",
    "synonyms": [
      "Painkiller"
    ]
  },
  {
    "value": "Pale ale",
    "synonyms": [
      "Pale ale"
    ]
  },
  {
    "value": "Pale lager",
    "synonyms": [
      "Pale lager "
    ]
  },
  {
    "value": "Palinka",
    "synonyms": [
      "Palinka"
    ]
  },
  {
    "value": "Pall Mall",
    "synonyms": [
      "Pall Mall"
    ]
  },
  {
    "value": "Palm wine",
    "synonyms": [
      "Palm wine"
    ]
  },
  {
    "value": "Paloma Cocktail",
    "synonyms": [
      "Paloma Cocktail"
    ]
  },
  {
    "value": "Paradise",
    "synonyms": [
      "Paradise"
    ]
  },
  {
    "value": "Parakari",
    "synonyms": [
      "Parakari "
    ]
  },
  {
    "value": "Paralyzer",
    "synonyms": [
      "Paralyzer"
    ]
  },
  {
    "value": "Pegu",
    "synonyms": [
      "Pegu"
    ]
  },
  {
    "value": "Perry",
    "synonyms": [
      "Perry "
    ]
  },
  {
    "value": "Pilsener",
    "synonyms": [
      "Pilsener "
    ]
  },
  {
    "value": "Pimm\u0027s Cup",
    "synonyms": [
      "Pimm\u0027s Cup"
    ]
  },
  {
    "value": "Pink Gin",
    "synonyms": [
      "Pink Gin"
    ]
  },
  {
    "value": "Pink Lady",
    "synonyms": [
      "Pink Lady"
    ]
  },
  {
    "value": "Pisco",
    "synonyms": [
      "Pisco"
    ]
  },
  {
    "value": "Pisco Sour",
    "synonyms": [
      "Pisco Sour   "
    ]
  },
  {
    "value": "Piña Colada",
    "synonyms": [
      "Piña Colada   "
    ]
  },
  {
    "value": "Planter\u0027s Punch",
    "synonyms": [
      "Planter\u0027s Punch   "
    ]
  },
  {
    "value": "Plum jerkum",
    "synonyms": [
      "Plum jerkum "
    ]
  },
  {
    "value": "Poire Williams",
    "synonyms": [
      "Poire Williams"
    ]
  },
  {
    "value": "Poitín",
    "synonyms": [
      "Poitín"
    ]
  },
  {
    "value": "Polar Bear",
    "synonyms": [
      "Polar Bear"
    ]
  },
  {
    "value": "Porchcrawler",
    "synonyms": [
      "Porchcrawler"
    ]
  },
  {
    "value": "Port",
    "synonyms": [
      "Port"
    ]
  },
  {
    "value": "Porter",
    "synonyms": [
      "Porter"
    ]
  },
  {
    "value": "Porto flip",
    "synonyms": [
      "Porto flip   "
    ]
  },
  {
    "value": "Prince of Wales",
    "synonyms": [
      "Prince of Wales"
    ]
  },
  {
    "value": "Pulque",
    "synonyms": [
      "Pulque "
    ]
  },
  {
    "value": "Punch",
    "synonyms": [
      "Punch"
    ]
  },
  {
    "value": "Quentão",
    "synonyms": [
      "Quentão"
    ]
  },
  {
    "value": "Rabo-de-galo",
    "synonyms": [
      "Rabo-de-galo"
    ]
  },
  {
    "value": "Rakia",
    "synonyms": [
      "Rakia"
    ]
  },
  {
    "value": "Rakı",
    "synonyms": [
      "Rakı"
    ]
  },
  {
    "value": "Ramos Gin Fizz",
    "synonyms": [
      "Ramos Gin Fizz   "
    ]
  },
  {
    "value": "Red Lotus",
    "synonyms": [
      "Red Lotus"
    ]
  },
  {
    "value": "Red Russian",
    "synonyms": [
      "Red Russian"
    ]
  },
  {
    "value": "Rickey",
    "synonyms": [
      "Rickey"
    ]
  },
  {
    "value": "Rob Roy",
    "synonyms": [
      "Rob Roy"
    ]
  },
  {
    "value": "Rose Kennedy Cocktail",
    "synonyms": [
      "Rose Kennedy Cocktail"
    ]
  },
  {
    "value": "Rossini Cocktail",
    "synonyms": [
      "Rossini Cocktail"
    ]
  },
  {
    "value": "Royal Arrival",
    "synonyms": [
      "Royal Arrival"
    ]
  },
  {
    "value": "Royal Bermuda Cocktail",
    "synonyms": [
      "Royal Bermuda Cocktail"
    ]
  },
  {
    "value": "Royce",
    "synonyms": [
      "Royce"
    ]
  },
  {
    "value": "Ruby Dutchess",
    "synonyms": [
      "Ruby Dutchess"
    ]
  },
  {
    "value": "Rum",
    "synonyms": [
      "Rum"
    ]
  },
  {
    "value": "Rum Swizzle",
    "synonyms": [
      "Rum Swizzle"
    ]
  },
  {
    "value": "Rusty Nail",
    "synonyms": [
      "Rusty Nail   "
    ]
  },
  {
    "value": "Rye whiskey",
    "synonyms": [
      "Rye whiskey"
    ]
  },
  {
    "value": "Sahti",
    "synonyms": [
      "Sahti "
    ]
  },
  {
    "value": "Sake",
    "synonyms": [
      "Sake "
    ]
  },
  {
    "value": "Sake Bomb",
    "synonyms": [
      "Sake Bomb"
    ]
  },
  {
    "value": "Sakurá",
    "synonyms": [
      "Sakurá "
    ]
  },
  {
    "value": "Salmiakki Koskenkorva",
    "synonyms": [
      "Salmiakki Koskenkorva"
    ]
  },
  {
    "value": "Salty Dog",
    "synonyms": [
      "Salty Dog"
    ]
  },
  {
    "value": "Sangria",
    "synonyms": [
      "Sangria"
    ]
  },
  {
    "value": "Savoy Affair",
    "synonyms": [
      "Savoy Affair"
    ]
  },
  {
    "value": "Savoy Corpse Reviver",
    "synonyms": [
      "Savoy Corpse Reviver"
    ]
  },
  {
    "value": "Sazerac",
    "synonyms": [
      "Sazerac   "
    ]
  },
  {
    "value": "Schwarzbier",
    "synonyms": [
      "Schwarzbier"
    ]
  },
  {
    "value": "Scotch ale",
    "synonyms": [
      "Scotch ale"
    ]
  },
  {
    "value": "Scotch whisky",
    "synonyms": [
      "Scotch whisky"
    ]
  },
  {
    "value": "Screaming Orgasm",
    "synonyms": [
      "Screaming Orgasm"
    ]
  },
  {
    "value": "Screwdriver",
    "synonyms": [
      "Screwdriver   "
    ]
  },
  {
    "value": "Sea Breeze",
    "synonyms": [
      "Sea Breeze   "
    ]
  },
  {
    "value": "Seven and Seven",
    "synonyms": [
      "Seven and Seven"
    ]
  },
  {
    "value": "Sex on the Beach",
    "synonyms": [
      "Sex on the Beach   "
    ]
  },
  {
    "value": "Shandy",
    "synonyms": [
      "Shandy"
    ]
  },
  {
    "value": "Sherry",
    "synonyms": [
      "Sherry"
    ]
  },
  {
    "value": "Shirley Temple Black",
    "synonyms": [
      "Shirley Temple Black"
    ]
  },
  {
    "value": "Shochu",
    "synonyms": [
      "Shochu"
    ]
  },
  {
    "value": "Shrub",
    "synonyms": [
      "Shrub"
    ]
  },
  {
    "value": "Sidecar",
    "synonyms": [
      "Sidecar   "
    ]
  },
  {
    "value": "Singani",
    "synonyms": [
      "Singani"
    ]
  },
  {
    "value": "Singapore Sling",
    "synonyms": [
      "Singapore Sling   "
    ]
  },
  {
    "value": "Skittle Bomb",
    "synonyms": [
      "Skittle Bomb"
    ]
  },
  {
    "value": "Sling",
    "synonyms": [
      "Sling"
    ]
  },
  {
    "value": "Slippery Nipple",
    "synonyms": [
      "Slippery Nipple"
    ]
  },
  {
    "value": "Slivovitz",
    "synonyms": [
      "Slivovitz"
    ]
  },
  {
    "value": "Sloe gin",
    "synonyms": [
      "Sloe gin"
    ]
  },
  {
    "value": "Small beer",
    "synonyms": [
      "Small beer"
    ]
  },
  {
    "value": "Smash",
    "synonyms": [
      "Smash"
    ]
  },
  {
    "value": "Snakebite",
    "synonyms": [
      "Snakebite"
    ]
  },
  {
    "value": "Soju",
    "synonyms": [
      "Soju"
    ]
  },
  {
    "value": "Sonti",
    "synonyms": [
      "Sonti"
    ]
  },
  {
    "value": "Sour",
    "synonyms": [
      "Sour"
    ]
  },
  {
    "value": "Sparkling wine",
    "synonyms": [
      "Sparkling wine"
    ]
  },
  {
    "value": "Springbokkie",
    "synonyms": [
      "Springbokkie"
    ]
  },
  {
    "value": "Spritzer",
    "synonyms": [
      "Spritzer"
    ]
  },
  {
    "value": "Staten Island Ferry",
    "synonyms": [
      "Staten Island Ferry"
    ]
  },
  {
    "value": "Stinger",
    "synonyms": [
      "Stinger"
    ]
  },
  {
    "value": "Stock ale",
    "synonyms": [
      "Stock ale"
    ]
  },
  {
    "value": "Stout",
    "synonyms": [
      "Stout"
    ]
  },
  {
    "value": "Sundowner",
    "synonyms": [
      "Sundowner"
    ]
  },
  {
    "value": "Table wine",
    "synonyms": [
      "Table wine"
    ]
  },
  {
    "value": "Tamagozake",
    "synonyms": [
      "Tamagozake"
    ]
  },
  {
    "value": "Tennessee whiskey",
    "synonyms": [
      "Tennessee whiskey"
    ]
  },
  {
    "value": "Tepache",
    "synonyms": [
      "Tepache"
    ]
  },
  {
    "value": "Tequila",
    "synonyms": [
      "Tequila"
    ]
  },
  {
    "value": "Tequila Mockingbird",
    "synonyms": [
      "Tequila Mockingbird"
    ]
  },
  {
    "value": "Tequila Sour",
    "synonyms": [
      "Tequila Sour"
    ]
  },
  {
    "value": "Tequila Sunrise",
    "synonyms": [
      "Tequila Sunrise   "
    ]
  },
  {
    "value": "Tequila and Tonic",
    "synonyms": [
      "Tequila and Tonic"
    ]
  },
  {
    "value": "Terry Cocktail",
    "synonyms": [
      "Terry Cocktail"
    ]
  },
  {
    "value": "The Blenheim",
    "synonyms": [
      "The Blenheim"
    ]
  },
  {
    "value": "The Goldeneye",
    "synonyms": [
      "The Goldeneye"
    ]
  },
  {
    "value": "The Last Word",
    "synonyms": [
      "The Last Word"
    ]
  },
  {
    "value": "The T.J.",
    "synonyms": [
      "The T.J."
    ]
  },
  {
    "value": "Three Wise Men",
    "synonyms": [
      "Three Wise Men"
    ]
  },
  {
    "value": "Ti\u0027 Punch",
    "synonyms": [
      "Ti\u0027 Punch"
    ]
  },
  {
    "value": "Tinto de Verano",
    "synonyms": [
      "Tinto de Verano"
    ]
  },
  {
    "value": "Tiswin",
    "synonyms": [
      "Tiswin"
    ]
  },
  {
    "value": "Toddy",
    "synonyms": [
      "Toddy"
    ]
  },
  {
    "value": "Tom Collins",
    "synonyms": [
      "Tom Collins"
    ]
  },
  {
    "value": "Tom and Jerry Cocktail",
    "synonyms": [
      "Tom and Jerry Cocktail"
    ]
  },
  {
    "value": "Tonto",
    "synonyms": [
      "Tonto"
    ]
  },
  {
    "value": "Torito Tequila Cocktail",
    "synonyms": [
      "Torito Tequila Cocktail"
    ]
  },
  {
    "value": "Tschunk",
    "synonyms": [
      "Tschunk"
    ]
  },
  {
    "value": "Tuxedo",
    "synonyms": [
      "Tuxedo   "
    ]
  },
  {
    "value": "Two kids in A Cup",
    "synonyms": [
      "Two kids in A Cup"
    ]
  },
  {
    "value": "U-Boot",
    "synonyms": [
      "U-Boot"
    ]
  },
  {
    "value": "Vermouth",
    "synonyms": [
      "Vermouth"
    ]
  },
  {
    "value": "Vesper",
    "synonyms": [
      "Vesper   "
    ]
  },
  {
    "value": "Vesper Martini",
    "synonyms": [
      "Vesper Martini   "
    ]
  },
  {
    "value": "Vinsanto",
    "synonyms": [
      "Vinsanto"
    ]
  },
  {
    "value": "Vodka",
    "synonyms": [
      "Vodka"
    ]
  },
  {
    "value": "Vodka Gimlet",
    "synonyms": [
      "Vodka Gimlet"
    ]
  },
  {
    "value": "Vodka Martini or Kangaroo",
    "synonyms": [
      "Vodka Martini or Kangaroo"
    ]
  },
  {
    "value": "Vodka McGovern",
    "synonyms": [
      "Vodka McGovern"
    ]
  },
  {
    "value": "Vodka Sundowner",
    "synonyms": [
      "Vodka Sundowner"
    ]
  },
  {
    "value": "Vodka Sunrise",
    "synonyms": [
      "Vodka Sunrise"
    ]
  },
  {
    "value": "Ward 8",
    "synonyms": [
      "Ward 8"
    ]
  },
  {
    "value": "Wheat beer",
    "synonyms": [
      "Wheat beer "
    ]
  },
  {
    "value": "Whiskey sour",
    "synonyms": [
      "Whiskey sour"
    ]
  },
  {
    "value": "Whisky",
    "synonyms": [
      "Whisky",
      "whiskey"
    ]
  },
  {
    "value": "Whisky Mac",
    "synonyms": [
      "Whisky Mac"
    ]
  },
  {
    "value": "White Lady or Delilah",
    "synonyms": [
      "White Lady or Delilah"
    ]
  },
  {
    "value": "White Russian",
    "synonyms": [
      "White Russian"
    ]
  },
  {
    "value": "Williamine",
    "synonyms": [
      "Williamine"
    ]
  },
  {
    "value": "Wine",
    "synonyms": [
      "Wine",
      "red wine"
    ]
  },
  {
    "value": "Witbier",
    "synonyms": [
      "Witbier "
    ]
  },
  {
    "value": "Wolfram",
    "synonyms": [
      "Wolfram"
    ]
  },
  {
    "value": "Woo Woo",
    "synonyms": [
      "Woo Woo"
    ]
  },
  {
    "value": "Yellow Bird",
    "synonyms": [
      "Yellow Bird"
    ]
  },
  {
    "value": "Yorsh",
    "synonyms": [
      "Yorsh"
    ]
  },
  {
    "value": "Zombie Cocktail",
    "synonyms": [
      "Zombie Cocktail"
    ]
  },
  {
    "value": "Zurracapote",
    "synonyms": [
      "Zurracapote"
    ]
  },
  {
    "value": "alcohol",
    "synonyms": [
      "alcohol"
    ]
  },
  {
    "value": "Ţuică",
    "synonyms": [
      "Ţuică"
    ]
  }
]