[
  {
    "value": "10 Ginger Man",
    "synonyms": [
      "10 Ginger Man"
    ]
  },
  {
    "value": "Barcade",
    "synonyms": [
      "Barcade"
    ]
  },
  {
    "value": "Capital Ale House",
    "synonyms": [
      "Capital Ale House"
    ]
  },
  {
    "value": "Club Hollywood",
    "synonyms": [
      "Club Hollywood"
    ]
  },
  {
    "value": "Fabric",
    "synonyms": [
      "Fabric"
    ]
  },
  {
    "value": "Flying Saucer",
    "synonyms": [
      "Flying Saucer"
    ]
  },
  {
    "value": "Gatecrasher",
    "synonyms": [
      "Gatecrasher"
    ]
  },
  {
    "value": "Hard Rock Café",
    "synonyms": [
      "Hard Rock Café"
    ]
  },
  {
    "value": "HopCat",
    "synonyms": [
      "HopCat"
    ]
  },
  {
    "value": "International Tap House",
    "synonyms": [
      "International Tap House"
    ]
  },
  {
    "value": "James E. McNellie’s Public House",
    "synonyms": [
      "James E. McNellie’s Public House"
    ]
  },
  {
    "value": "Luminar",
    "synonyms": [
      "Luminar"
    ]
  },
  {
    "value": "McMenamins",
    "synonyms": [
      "McMenamins"
    ]
  },
  {
    "value": "Ministry of Sound",
    "synonyms": [
      "Ministry of Sound"
    ]
  },
  {
    "value": "Mitchells and Butlers",
    "synonyms": [
      "Mitchells and Butlers"
    ]
  },
  {
    "value": "Paladium",
    "synonyms": [
      "Paladium"
    ]
  },
  {
    "value": "Playboy Club",
    "synonyms": [
      "Playboy Club"
    ]
  },
  {
    "value": "Revolution",
    "synonyms": [
      "Revolution"
    ]
  },
  {
    "value": "San Diego sister bar",
    "synonyms": [
      "San Diego sister bar"
    ]
  },
  {
    "value": "San Fran original",
    "synonyms": [
      "San Fran original"
    ]
  },
  {
    "value": "Seattle outpost",
    "synonyms": [
      "Seattle outpost"
    ]
  },
  {
    "value": "Tiger Tiger",
    "synonyms": [
      "Tiger Tiger"
    ]
  },
  {
    "value": "Walkabout",
    "synonyms": [
      "Walkabout"
    ]
  },
  {
    "value": "Winking Lizard Tavern",
    "synonyms": [
      "Winking Lizard Tavern"
    ]
  },
  {
    "value": "World of Beer",
    "synonyms": [
      "World of Beer"
    ]
  },
  {
    "value": "Xkandalo",
    "synonyms": [
      "Xkandalo"
    ]
  }
]