{
  "id": "e2f161ee-5c18-4934-86e5-464e5e2eed74",
  "name": "room-facility",
  "isOverridable": true,
  "isEnum": false,
  "isRegexp": false,
  "automatedExpansion": false,
  "allowFuzzyExtraction": false
}