{
  "id": "7290a22e-15c6-4f56-b2e0-65ccd99eb1c7",
  "name": "venue-facility",
  "isOverridable": true,
  "isEnum": false,
  "isRegexp": false,
  "automatedExpansion": true,
  "allowFuzzyExtraction": false
}