{
  "id": "5e80aa04-2045-4516-8735-88bb448b6139",
  "name": "venue-arts-entertainment-title",
  "isOverridable": true,
  "isEnum": false,
  "isRegexp": false,
  "automatedExpansion": true,
  "allowFuzzyExtraction": false
}