[
  {
    "id": "5bc89e4b-6a6b-4dd0-8fa6-3ca0fc5a6940",
    "data": [
      {
        "text": "check ",
        "userDefined": false
      },
      {
        "text": "9:30",
        "alias": "time-from",
        "meta": "@sys.time",
        "userDefined": false
      },
      {
        "text": " for ",
        "userDefined": false
      },
      {
        "text": "me",
        "meta": "@sys.ignore",
        "userDefined": false
      }
    ],
    "isTemplate": false,
    "count": 0,
    "updated": 0
  },
  {
    "id": "b5e15d6b-68d1-49df-9f81-dfa4dd57a27c",
    "data": [
      {
        "text": "check ",
        "userDefined": false
      },
      {
        "text": "7 am",
        "alias": "time-from",
        "meta": "@sys.time",
        "userDefined": true
      }
    ],
    "isTemplate": false,
    "count": 0,
    "updated": 0
  },
  {
    "id": "0c7fa284-d848-48ef-a9fe-0f0453a5086f",
    "data": [
      {
        "text": "can",
        "meta": "@sys.ignore",
        "userDefined": false
      },
      {
        "text": " you calculate it for ",
        "userDefined": false
      },
      {
        "text": "7 pm",
        "alias": "time-from",
        "meta": "@sys.time",
        "userDefined": false
      },
      {
        "text": " too",
        "userDefined": false
      }
    ],
    "isTemplate": false,
    "count": 0,
    "updated": 0
  },
  {
    "id": "b1816de7-9626-4921-b1cc-bc86def7573c",
    "data": [
      {
        "text": "and ",
        "userDefined": false
      },
      {
        "text": "9 am",
        "alias": "time-from",
        "meta": "@sys.time",
        "userDefined": true
      }
    ],
    "isTemplate": false,
    "count": 0,
    "updated": 0
  },
  {
    "id": "068cfb29-35ea-415d-acc0-9205b3195107",
    "data": [
      {
        "text": "what about ",
        "userDefined": false
      },
      {
        "text": "10 pm",
        "alias": "time-from",
        "meta": "@sys.time",
        "userDefined": false
      }
    ],
    "isTemplate": false,
    "count": 0,
    "updated": 0
  },
  {
    "id": "3590dc48-5dce-46da-9d49-c687cc71bda7",
    "data": [
      {
        "text": "can",
        "meta": "@sys.ignore",
        "userDefined": false
      },
      {
        "text": " you check it for ",
        "userDefined": false
      },
      {
        "text": "7 am",
        "alias": "time-from",
        "meta": "@sys.time",
        "userDefined": true
      }
    ],
    "isTemplate": false,
    "count": 0,
    "updated": 0
  }
]