{
  "id": "71c72595-b69a-48d5-a8bb-12313545eaee",
  "name": "time.time_zones",
  "auto": true,
  "contexts": [],
  "responses": [
    {
      "resetContexts": false,
      "action": "time.time_zones",
      "affectedContexts": [
        {
          "name": "time-zones",
          "parameters": {},
          "lifespan": 5
        }
      ],
      "parameters": [
        {
          "id": "c55f69fb-66b3-44af-a239-308e2d70b916",
          "required": false,
          "dataType": "@sys.location",
          "name": "location",
          "value": "$location",
          "promptMessages": [],
          "noMatchPromptMessages": [],
          "noInputPromptMessages": [],
          "outputDialogContexts": [],
          "isList": false
        }
      ],
      "messages": [
        {
          "type": 0,
          "lang": "en",
          "condition": "",
          "speech": []
        }
      ],
      "defaultResponsePlatforms": {},
      "speech": []
    }
  ],
  "priority": 500000,
  "webhookUsed": false,
  "webhookForSlotFilling": false,
  "fallbackIntent": false,
  "events": [],
  "conditionalResponses": [],
  "condition": "",
  "conditionalFollowupEvents": []
}