[
  {
    "id": "a9f810cd-0c7d-49c4-bc92-abb7dc443862",
    "data": [
      {
        "text": "what about ",
        "userDefined": false
      },
      {
        "text": "New Delhi",
        "alias": "location-to",
        "meta": "@sys.location",
        "userDefined": true
      }
    ],
    "isTemplate": false,
    "count": 0,
    "updated": 0
  },
  {
    "id": "7495a1d9-abf2-4916-bc07-ef2d08ec2831",
    "data": [
      {
        "text": "now ",
        "userDefined": false
      },
      {
        "text": "Paris",
        "alias": "location-to",
        "meta": "@sys.location",
        "userDefined": true
      }
    ],
    "isTemplate": false,
    "count": 0,
    "updated": 0
  },
  {
    "id": "af5f5e05-cd1f-46b8-9b86-ccffb632738a",
    "data": [
      {
        "text": "and in ",
        "userDefined": false
      },
      {
        "text": "London",
        "alias": "location-to",
        "meta": "@sys.location",
        "userDefined": true
      }
    ],
    "isTemplate": false,
    "count": 0,
    "updated": 0
  },
  {
    "id": "baa0b808-b2e0-4fdd-a1d1-96e749d7f91f",
    "data": [
      {
        "text": "how about ",
        "userDefined": false
      },
      {
        "text": "Amsterdam",
        "alias": "location-to",
        "meta": "@sys.location",
        "userDefined": true
      }
    ],
    "isTemplate": false,
    "count": 0,
    "updated": 0
  },
  {
    "id": "2e71a875-f3ee-460f-8db7-e31a77b2799b",
    "data": [
      {
        "text": "and ",
        "userDefined": false
      },
      {
        "text": "New York",
        "alias": "location-to",
        "meta": "@sys.location",
        "userDefined": true
      }
    ],
    "isTemplate": false,
    "count": 0,
    "updated": 0
  },
  {
    "id": "701dce9c-2a4d-4e20-9f36-224c5bf4bc35",
    "data": [
      {
        "text": "check ",
        "userDefined": false
      },
      {
        "text": "Berlin",
        "alias": "location-to",
        "meta": "@sys.location",
        "userDefined": false
      }
    ],
    "isTemplate": false,
    "count": 0,
    "updated": 0
  }
]