{
  "id": "9b5938e4-d166-4b9b-bb99-14df80eb531e",
  "name": "order.last",
  "auto": true,
  "contexts": [],
  "responses": [
    {
      "resetContexts": false,
      "action": "order.last",
      "affectedContexts": [
        {
          "name": "orderlast-followup",
          "parameters": {},
          "lifespan": 2
        }
      ],
      "parameters": [
        {
          "id": "9613592e-170a-4cf5-aa1c-f9c86e7b1f7a",
          "required": true,
          "dataType": "@delivery-pickup",
          "name": "delivery-pickup",
          "value": "$delivery-pickup",
          "prompts": [
            {
              "lang": "en",
              "value": "Will it be for delivery or pick-up?"
            }
          ],
          "promptMessages": [],
          "noMatchPromptMessages": [],
          "noInputPromptMessages": [],
          "outputDialogContexts": [],
          "isList": false
        }
      ],
      "messages": [
        {
          "type": "suggestion_chips",
          "platform": "google",
          "lang": "en",
          "condition": "",
          "suggestions": [
            {
              "title": "Yes"
            },
            {
              "title": "No"
            }
          ]
        },
        {
          "type": 0,
          "lang": "en",
          "condition": "",
          "speech": "Are you using the same card?"
        }
      ],
      "defaultResponsePlatforms": {
        "google": true
      },
      "speech": []
    }
  ],
  "priority": 500000,
  "webhookUsed": false,
  "webhookForSlotFilling": false,
  "fallbackIntent": false,
  "events": [],
  "conditionalResponses": [],
  "condition": "",
  "conditionalFollowupEvents": []
}