[
  {
    "id": "86c1bff7-4b02-4167-85d9-aeb8f23d1832",
    "data": [
      {
        "text": "音声アクティベーションが正しく機能しない",
        "alias": "message",
        "meta": "@sys.any",
        "userDefined": true
      },
      {
        "text": "バグのレポートをデベロッパーに送信します",
        "userDefined": false
      }
    ],
    "isTemplate": false,
    "count": 0,
    "updated": 0
  },
  {
    "id": "19726a2c-de7c-4b56-bbe6-5b8f5d5da682",
    "data": [
      {
        "text": "ウィジェットが動作しない",
        "alias": "message",
        "meta": "@sys.any",
        "userDefined": true
      },
      {
        "text": "問題をレポートします",
        "userDefined": false
      }
    ],
    "isTemplate": false,
    "count": 4,
    "updated": 0
  },
  {
    "id": "6e6c2f80-87a8-4ef0-b51d-542b4d73d5db",
    "data": [
      {
        "text": "問題解決のためにご協力ください",
        "userDefined": false
      }
    ],
    "isTemplate": false,
    "count": 1,
    "updated": 0
  },
  {
    "id": "fa556864-bd93-4f8e-b846-8ad55f7d938d",
    "data": [
      {
        "text": "デベロッパー向けにエラーを表示します",
        "userDefined": false
      }
    ],
    "isTemplate": false,
    "count": 0,
    "updated": 0
  },
  {
    "id": "23477151-7a86-48aa-b6d4-c6e86d5e18f9",
    "data": [
      {
        "text": "想定どおりに動作しない",
        "alias": "message",
        "meta": "@sys.any",
        "userDefined": true
      },
      {
        "text": "バグをレポートします",
        "userDefined": false
      }
    ],
    "isTemplate": false,
    "count": 1,
    "updated": 0
  },
  {
    "id": "cb7e5d25-8615-45ac-ab9f-d33fa7de69e4",
    "data": [
      {
        "text": "マイク",
        "alias": "message",
        "meta": "@sys.any",
        "userDefined": true
      },
      {
        "text": "に問題があります",
        "userDefined": false
      }
    ],
    "isTemplate": false,
    "count": 2,
    "updated": 0
  },
  {
    "id": "320b7d87-6f81-4e88-b741-b32ae1ea54b8",
    "data": [
      {
        "text": "動作しない",
        "alias": "message",
        "meta": "@sys.any",
        "userDefined": true
      },
      {
        "text": "バグをレポートします",
        "userDefined": false
      }
    ],
    "isTemplate": false,
    "count": 1,
    "updated": 0
  },
  {
    "id": "f462d97d-409f-4c2e-a532-6832108ed78e",
    "data": [
      {
        "text": "バグレポートを送信します",
        "userDefined": false
      }
    ],
    "isTemplate": false,
    "count": 2,
    "updated": 0
  },
  {
    "id": "16abb552-ad09-4230-9ccf-d3fd1c7b61ac",
    "data": [
      {
        "text": "カレンダー",
        "alias": "message",
        "meta": "@sys.any",
        "userDefined": true
      },
      {
        "text": "に関するバグを見つけました",
        "userDefined": false
      }
    ],
    "isTemplate": false,
    "count": 0,
    "updated": 0
  },
  {
    "id": "79d3a2b5-f769-4ca1-82d7-6fc0be6a2588",
    "data": [
      {
        "text": "このバグについてデベロッパーに知らせてください",
        "userDefined": false
      }
    ],
    "isTemplate": false,
    "count": 1,
    "updated": 0
  }
]