[
  {
    "id": "ebe9fa3a-815b-4813-8f25-cde6afd8aafb",
    "data": [
      {
        "text": "誰是你的創作者",
        "userDefined": false
      }
    ],
    "isTemplate": false,
    "count": 0,
    "updated": 0
  },
  {
    "id": "780901e9-27d3-4d98-b9a3-a8ad518ca126",
    "data": [
      {
        "text": "你知道誰做了你",
        "userDefined": false
      }
    ],
    "isTemplate": false,
    "count": 0,
    "updated": 0
  },
  {
    "id": "e37f6bb1-cf67-4dd2-a164-b891da209e7f",
    "data": [
      {
        "text": "我想知道是誰造你的",
        "userDefined": false
      }
    ],
    "isTemplate": false,
    "count": 0,
    "updated": 0
  },
  {
    "id": "7f3fc865-b1d0-4546-8bc0-dca66c5b9835",
    "data": [
      {
        "text": "誰發明了你",
        "userDefined": false
      }
    ],
    "isTemplate": false,
    "count": 0,
    "updated": 0
  },
  {
    "id": "5511290e-aa3c-47f8-ad30-77dc84842a47",
    "data": [
      {
        "text": "我想知道是誰造你",
        "userDefined": false
      }
    ],
    "isTemplate": false,
    "count": 0,
    "updated": 0
  },
  {
    "id": "6de7c9ff-bda3-4a14-a6d0-8ff79ab5ce82",
    "data": [
      {
        "text": "你的開發者的名字是什麽",
        "userDefined": false
      }
    ],
    "isTemplate": false,
    "count": 0,
    "updated": 0
  },
  {
    "id": "3d9d92cb-a900-4d9a-8d9d-8d73db6a0de3",
    "data": [
      {
        "text": "你的開發者",
        "userDefined": false
      }
    ],
    "isTemplate": false,
    "count": 0,
    "updated": 0
  },
  {
    "id": "f5770912-4b7e-40d5-a97a-ebb72391865e",
    "data": [
      {
        "text": "你的開發者是誰",
        "userDefined": false
      }
    ],
    "isTemplate": false,
    "count": 0,
    "updated": 0
  },
  {
    "id": "24e8a386-f3af-4ac5-a095-33afc4bfe38d",
    "data": [
      {
        "text": "誰是你的創造者",
        "userDefined": false
      }
    ],
    "isTemplate": false,
    "count": 0,
    "updated": 0
  },
  {
    "id": "8fbf8874-9537-45a3-bb79-e7fea8bd7199",
    "data": [
      {
        "text": "我想知道你開發者的名字",
        "userDefined": false
      }
    ],
    "isTemplate": false,
    "count": 0,
    "updated": 0
  },
  {
    "id": "d983b664-b4d1-41d9-958a-b2a5508e718c",
    "data": [
      {
        "text": "你的創作者的名字是什麽",
        "userDefined": false
      }
    ],
    "isTemplate": false,
    "count": 0,
    "updated": 0
  },
  {
    "id": "35e085f6-8e66-4a17-aaca-4e67e00a3ec2",
    "data": [
      {
        "text": "你知道誰創造了你嗎",
        "userDefined": false
      }
    ],
    "isTemplate": false,
    "count": 0,
    "updated": 0
  },
  {
    "id": "519410ea-4c0f-429c-9f51-baff82e485d0",
    "data": [
      {
        "text": "誰是你的程序員",
        "userDefined": false
      }
    ],
    "isTemplate": false,
    "count": 0,
    "updated": 0
  },
  {
    "id": "0b868745-40ad-4581-baae-cf351637b406",
    "data": [
      {
        "text": "你的老師是誰",
        "userDefined": false
      }
    ],
    "isTemplate": false,
    "count": 0,
    "updated": 0
  },
  {
    "id": "95db3ded-3d48-42ef-8948-1653537834e0",
    "data": [
      {
        "text": "你",
        "userDefined": false
      },
      {
        "text": "的",
        "meta": "@sys.ignore",
        "userDefined": false
      },
      {
        "text": "開發",
        "meta": "@sys.ignore",
        "userDefined": false
      },
      {
        "text": "人員",
        "userDefined": false
      }
    ],
    "isTemplate": false,
    "count": 0,
    "updated": 0
  },
  {
    "id": "2fa885bf-1be9-45f2-ac4f-4a164fbf17a8",
    "data": [
      {
        "text": "你的開發者名稱是什麽",
        "userDefined": false
      }
    ],
    "isTemplate": false,
    "count": 0,
    "updated": 0
  },
  {
    "id": "3bd28819-0c21-432e-80ea-2e6958e1606c",
    "data": [
      {
        "text": "誰是你的開發者",
        "userDefined": false
      }
    ],
    "isTemplate": false,
    "count": 0,
    "updated": 0
  },
  {
    "id": "1ec243f1-be2a-45ab-a7d9-1d5a29b38bd4",
    "data": [
      {
        "text": "你的程序員的名字是什麽",
        "userDefined": false
      }
    ],
    "isTemplate": false,
    "count": 0,
    "updated": 0
  },
  {
    "id": "a8e2b677-1e2a-41c8-88a1-5fc74c96201f",
    "data": [
      {
        "text": "誰創造你",
        "userDefined": false
      }
    ],
    "isTemplate": false,
    "count": 0,
    "updated": 0
  },
  {
    "id": "76b90a60-c287-4499-a62e-330d6d5f7017",
    "data": [
      {
        "text": "誰創作你",
        "userDefined": false
      }
    ],
    "isTemplate": false,
    "count": 0,
    "updated": 0
  },
  {
    "id": "6547a3cd-f38e-452a-9878-24b852cf9926",
    "data": [
      {
        "text": "誰是你的創始人",
        "userDefined": false
      }
    ],
    "isTemplate": false,
    "count": 0,
    "updated": 0
  },
  {
    "id": "0e03190d-b2a4-49de-8325-989a04f07985",
    "data": [
      {
        "text": "誰創造了你",
        "userDefined": false
      }
    ],
    "isTemplate": false,
    "count": 0,
    "updated": 0
  },
  {
    "id": "abd76be0-bc95-44ca-944b-5fbaf290a686",
    "data": [
      {
        "text": "你的開發者名字是什麽",
        "userDefined": false
      }
    ],
    "isTemplate": false,
    "count": 0,
    "updated": 0
  },
  {
    "id": "f3104ace-34cb-4285-8c8d-1f8a94704bf8",
    "data": [
      {
        "text": "你",
        "userDefined": false
      },
      {
        "text": "的",
        "meta": "@sys.ignore",
        "userDefined": false
      },
      {
        "text": "開發",
        "meta": "@sys.ignore",
        "userDefined": false
      },
      {
        "text": "人員是誰",
        "userDefined": false
      }
    ],
    "isTemplate": false,
    "count": 0,
    "updated": 0
  },
  {
    "id": "f00d9afe-8bd7-4513-a03a-623963018854",
    "data": [
      {
        "text": "你能告訴我你創造你的人嗎",
        "userDefined": false
      }
    ],
    "isTemplate": false,
    "count": 0,
    "updated": 0
  },
  {
    "id": "9a904cb6-00a0-420f-b86a-e423ae157b13",
    "data": [
      {
        "text": "你知道誰制造你嗎",
        "userDefined": false
      }
    ],
    "isTemplate": false,
    "count": 0,
    "updated": 0
  },
  {
    "id": "25ca92ef-7d7e-4654-ad11-39431e4d8191",
    "data": [
      {
        "text": "你老師的名字是什麽",
        "userDefined": false
      }
    ],
    "isTemplate": false,
    "count": 0,
    "updated": 0
  },
  {
    "id": "2c2a8c15-e59a-44d2-bf02-cf09cec59e4c",
    "data": [
      {
        "text": "你能不能告訴我你的創作者",
        "userDefined": false
      }
    ],
    "isTemplate": false,
    "count": 0,
    "updated": 0
  },
  {
    "id": "5ba22a58-327e-487b-ad7c-4fe79874ff99",
    "data": [
      {
        "text": "你知道你的創作者嗎",
        "userDefined": false
      }
    ],
    "isTemplate": false,
    "count": 0,
    "updated": 0
  },
  {
    "id": "771ee096-32b3-4478-889f-a97bedb626f2",
    "data": [
      {
        "text": "你的創造者的名字是什麽",
        "userDefined": false
      }
    ],
    "isTemplate": false,
    "count": 0,
    "updated": 0
  }
]