[
  {
    "id": "7ea6b9aa-344c-4a96-94ac-456595db02ec",
    "data": [
      {
        "text": "我想知道你公司的主要辦公室在哪裏",
        "userDefined": false
      }
    ],
    "isTemplate": false,
    "count": 0,
    "updated": 0
  },
  {
    "id": "843a17f5-7bdc-4ca1-b175-5e076622e017",
    "data": [
      {
        "text": "告訴我你的開發者地址",
        "userDefined": false
      }
    ],
    "isTemplate": false,
    "count": 0,
    "updated": 0
  },
  {
    "id": "f677e7c4-6e5f-4736-a682-35e92c5aa5af",
    "data": [
      {
        "text": "您的開發人員的位置",
        "userDefined": false
      }
    ],
    "isTemplate": false,
    "count": 0,
    "updated": 0
  },
  {
    "id": "85fc286b-96e6-461b-b83b-bc1f35013c36",
    "data": [
      {
        "text": "我需要你的公司地址",
        "userDefined": false
      }
    ],
    "isTemplate": false,
    "count": 0,
    "updated": 0
  },
  {
    "id": "ea72e4c4-e29c-4c4b-a1f4-eb1fadbbc3d9",
    "data": [
      {
        "text": "你的開發者辦公室的地址",
        "userDefined": false
      }
    ],
    "isTemplate": false,
    "count": 0,
    "updated": 0
  },
  {
    "id": "31c2affc-2c75-46c4-854c-8b62d908bfdc",
    "data": [
      {
        "text": "你的開發人員在哪裏工作",
        "userDefined": false
      }
    ],
    "isTemplate": false,
    "count": 0,
    "updated": 0
  },
  {
    "id": "020a67f3-28bd-4612-9f36-7e6846a8ab4c",
    "data": [
      {
        "text": "你的開發者的地址",
        "userDefined": false
      }
    ],
    "isTemplate": false,
    "count": 0,
    "updated": 0
  },
  {
    "id": "a7a246e5-6ec8-4d9b-90c6-cc46b05af3ef",
    "data": [
      {
        "text": "向我提供開發人員的地址",
        "userDefined": false
      }
    ],
    "isTemplate": false,
    "count": 0,
    "updated": 0
  },
  {
    "id": "29ec6e74-76af-475c-9dca-002c8339f3ea",
    "data": [
      {
        "text": "你的創作者在哪裏",
        "userDefined": false
      }
    ],
    "isTemplate": false,
    "count": 0,
    "updated": 0
  },
  {
    "id": "8f2504d8-efca-4ef9-a2dc-d0bd94bdd180",
    "data": [
      {
        "text": "在哪裏可以找到你公司的地址",
        "userDefined": false
      }
    ],
    "isTemplate": false,
    "count": 0,
    "updated": 0
  },
  {
    "id": "55b71658-6f28-459b-b1a8-f83f576c31f0",
    "data": [
      {
        "text": "你",
        "userDefined": false
      },
      {
        "text": "的",
        "meta": "@sys.ignore",
        "userDefined": false
      },
      {
        "text": "開發",
        "meta": "@sys.ignore",
        "userDefined": false
      },
      {
        "text": "人員住在哪兒",
        "userDefined": false
      }
    ],
    "isTemplate": false,
    "count": 0,
    "updated": 0
  },
  {
    "id": "3588cb3f-7aa0-4b08-ae01-ca6960303193",
    "data": [
      {
        "text": "你能給我你的開發者地址嗎",
        "userDefined": false
      }
    ],
    "isTemplate": false,
    "count": 0,
    "updated": 0
  },
  {
    "id": "c4f8d815-3f67-48c6-9d03-aca68649fc3e",
    "data": [
      {
        "text": "你",
        "userDefined": false
      },
      {
        "text": "的",
        "meta": "@sys.ignore",
        "userDefined": false
      },
      {
        "text": "開發",
        "meta": "@sys.ignore",
        "userDefined": false
      },
      {
        "text": "人員",
        "userDefined": false
      },
      {
        "text": "的地址",
        "meta": "@sys.ignore",
        "userDefined": false
      }
    ],
    "isTemplate": false,
    "count": 0,
    "updated": 0
  },
  {
    "id": "f2f64b7e-6719-4330-8cfb-7082b9e92d9f",
    "data": [
      {
        "text": "告訴我你的開發人員的辦公室在哪裏",
        "userDefined": false
      }
    ],
    "isTemplate": false,
    "count": 0,
    "updated": 0
  },
  {
    "id": "f9f83dec-5be1-4806-a38f-b9c949d80c24",
    "data": [
      {
        "text": "你的開發者的地址是什麽",
        "userDefined": false
      }
    ],
    "isTemplate": false,
    "count": 0,
    "updated": 0
  },
  {
    "id": "4f195c55-e726-433c-a1c4-486e0c990ee1",
    "data": [
      {
        "text": "你公司在哪裏",
        "userDefined": false
      }
    ],
    "isTemplate": false,
    "count": 0,
    "updated": 0
  },
  {
    "id": "003e6359-d210-413e-a25e-5e082ee99ecf",
    "data": [
      {
        "text": "你的開發人員在哪裏",
        "userDefined": false
      }
    ],
    "isTemplate": false,
    "count": 0,
    "updated": 0
  },
  {
    "id": "5fd4cc7b-dc9d-470c-8de8-1e27d94c9ae0",
    "data": [
      {
        "text": "你的開發人員住在哪裏",
        "userDefined": false
      }
    ],
    "isTemplate": false,
    "count": 0,
    "updated": 0
  },
  {
    "id": "dbbc7606-7a73-4a3f-b65e-aef71905d160",
    "data": [
      {
        "text": "給我你的開發者的地址",
        "userDefined": false
      }
    ],
    "isTemplate": false,
    "count": 0,
    "updated": 0
  }
]