[
  {
    "id": "0161c35a-f47d-4653-839f-0f8342a3e82e",
    "data": [
      {
        "text": "и ещё ",
        "userDefined": false
      },
      {
        "text": "про звук",
        "alias": "message",
        "meta": "@sys.any",
        "userDefined": true
      }
    ],
    "isTemplate": false,
    "count": 0,
    "updated": 0
  },
  {
    "id": "c5705bc6-8ac3-4997-96ca-7df089e2658a",
    "data": [
      {
        "text": "и про то что ",
        "userDefined": false
      },
      {
        "text": "есть проблема с распознаванием",
        "alias": "message",
        "meta": "@sys.any",
        "userDefined": true
      }
    ],
    "isTemplate": false,
    "count": 0,
    "updated": 0
  },
  {
    "id": "594b23af-43b6-4c89-8d2b-fd3bf94d64ba",
    "data": [
      {
        "text": "скажи также что ",
        "userDefined": false
      },
      {
        "text": "у меня проблема",
        "alias": "message",
        "meta": "@sys.any",
        "userDefined": true
      }
    ],
    "isTemplate": false,
    "count": 0,
    "updated": 0
  },
  {
    "id": "9fd99377-4b2c-4d37-b855-a170370838e5",
    "data": [
      {
        "text": "и дополни про ",
        "userDefined": false
      },
      {
        "text": "микрофон",
        "alias": "message",
        "meta": "@sys.any",
        "userDefined": true
      }
    ],
    "isTemplate": false,
    "count": 0,
    "updated": 0
  },
  {
    "id": "afb52c72-6c85-4f7c-8094-edc7839fb457",
    "data": [
      {
        "text": "и что ",
        "userDefined": false
      },
      {
        "text": "я хотел бы помочь в разработке",
        "alias": "message",
        "meta": "@sys.any",
        "userDefined": true
      }
    ],
    "isTemplate": false,
    "count": 0,
    "updated": 0
  },
  {
    "id": "b0f0853d-edcd-4e8c-a5e5-e87a78bd7181",
    "data": [
      {
        "text": "добавь что ",
        "userDefined": false
      },
      {
        "text": "мне это не нравится",
        "alias": "message",
        "meta": "@sys.any",
        "userDefined": true
      }
    ],
    "isTemplate": false,
    "count": 0,
    "updated": 0
  },
  {
    "id": "ccae38b9-0ec6-443e-9f00-93ae85aec062",
    "data": [
      {
        "text": "также скажи что ",
        "userDefined": false
      },
      {
        "text": "есть ещё проблемы",
        "alias": "message",
        "meta": "@sys.any",
        "userDefined": true
      }
    ],
    "isTemplate": false,
    "count": 0,
    "updated": 0
  },
  {
    "id": "e9253853-3b99-4a64-8879-245631448b04",
    "data": [
      {
        "text": "и не забудь сказать также ",
        "userDefined": false
      },
      {
        "text": "про микрофон",
        "alias": "message",
        "meta": "@sys.any",
        "userDefined": true
      }
    ],
    "isTemplate": false,
    "count": 0,
    "updated": 0
  },
  {
    "id": "acedf69a-d411-492d-b062-002fd025e7c0",
    "data": [
      {
        "text": "и также ",
        "userDefined": false
      },
      {
        "text": "про микрофон",
        "alias": "message",
        "meta": "@sys.any",
        "userDefined": true
      }
    ],
    "isTemplate": false,
    "count": 0,
    "updated": 0
  },
  {
    "id": "94162aca-319e-4c05-ac3d-d9545f2e5bac",
    "data": [
      {
        "text": "и ",
        "userDefined": false
      },
      {
        "text": "приложение всё время вылетает",
        "alias": "message",
        "meta": "@sys.any",
        "userDefined": true
      }
    ],
    "isTemplate": false,
    "count": 0,
    "updated": 0
  },
  {
    "id": "6c9dc7d1-e7e9-46f2-a0bf-81f97c3eebc0",
    "data": [
      {
        "text": "напиши также что ",
        "userDefined": false
      },
      {
        "text": "не работает звук",
        "alias": "message",
        "meta": "@sys.any",
        "userDefined": true
      }
    ],
    "isTemplate": false,
    "count": 0,
    "updated": 0
  },
  {
    "id": "9c2bc88c-4ecd-44e5-9c69-110fd986ce4d",
    "data": [
      {
        "text": "ещё ",
        "userDefined": false
      },
      {
        "text": "совсем не работает распознавание",
        "alias": "message",
        "meta": "@sys.any",
        "userDefined": true
      }
    ],
    "isTemplate": false,
    "count": 0,
    "updated": 0
  }
]