[
  {
    "id": "452f791a-f1ea-4957-bf0d-1535c0a3411b",
    "data": [
      {
        "text": "メールについてはどうですか",
        "userDefined": false
      }
    ],
    "isTemplate": false,
    "count": 1,
    "updated": 0
  },
  {
    "id": "fe388db4-51aa-48c1-94f8-b630f70bb6cc",
    "data": [
      {
        "text": "メールも",
        "userDefined": false
      }
    ],
    "isTemplate": false,
    "count": 1,
    "updated": 0
  },
  {
    "id": "8d81a89c-3f8c-4134-9873-2d9294436237",
    "data": [
      {
        "text": "メールも同様",
        "userDefined": false
      }
    ],
    "isTemplate": false,
    "count": 2,
    "updated": 0
  },
  {
    "id": "01e95df0-e1ae-40f0-8d5d-a89426605dd7",
    "data": [
      {
        "text": "その人たちのメールアドレスを知っていますか",
        "userDefined": false
      }
    ],
    "isTemplate": false,
    "count": 0,
    "updated": 0
  },
  {
    "id": "7d179722-b155-49ba-b699-9895e340e2dd",
    "data": [
      {
        "text": "メールもお願いします",
        "userDefined": false
      }
    ],
    "isTemplate": false,
    "count": 2,
    "updated": 0
  },
  {
    "id": "06209ce8-31ed-466d-896d-5e017c150a56",
    "data": [
      {
        "text": "現在のメールアドレス",
        "userDefined": false
      }
    ],
    "isTemplate": false,
    "count": 0,
    "updated": 0
  },
  {
    "id": "f669b7b7-d424-48f0-a1d9-10777b7ab9d4",
    "data": [
      {
        "text": "その人たちのメール",
        "userDefined": false
      }
    ],
    "isTemplate": false,
    "count": 0,
    "updated": 0
  },
  {
    "id": "fbb34226-250d-4525-b39e-d1c00d32d1b7",
    "data": [
      {
        "text": "その人たちのメールアドレス",
        "userDefined": false
      }
    ],
    "isTemplate": false,
    "count": 0,
    "updated": 0
  },
  {
    "id": "4fb45f61-dfb7-41b6-9225-08facfa6f305",
    "data": [
      {
        "text": "今のメール",
        "userDefined": false
      }
    ],
    "isTemplate": false,
    "count": 1,
    "updated": 0
  },
  {
    "id": "b2c508c2-f975-4972-915e-7da4e978c927",
    "data": [
      {
        "text": "メールアドレスは",
        "userDefined": false
      }
    ],
    "isTemplate": false,
    "count": 0,
    "updated": 0
  }
]