[
  {
    "id": "79882867-dad5-47b6-9f85-bf2a82ccd3f4",
    "data": [
      {
        "text": "並且",
        "userDefined": false
      },
      {
        "text": "麥克風故障",
        "alias": "message",
        "meta": "@sys.any",
        "userDefined": true
      }
    ],
    "isTemplate": false,
    "count": 0,
    "updated": 0
  },
  {
    "id": "1317c7c8-45aa-4bcd-85ce-f51d2f023cf1",
    "data": [
      {
        "text": "並",
        "userDefined": false
      },
      {
        "text": "麥克風故障",
        "alias": "message",
        "meta": "@sys.any",
        "userDefined": true
      }
    ],
    "isTemplate": false,
    "count": 0,
    "updated": 0
  },
  {
    "id": "ebd7e047-a693-4b75-8f7a-af566d2cbae3",
    "data": [
      {
        "text": "還",
        "userDefined": false
      },
      {
        "text": "我愛你",
        "alias": "message",
        "meta": "@sys.any",
        "userDefined": true
      }
    ],
    "isTemplate": false,
    "count": 0,
    "updated": 0
  },
  {
    "id": "b5d5826a-3eb2-4a40-b157-aef77c2dbf94",
    "data": [
      {
        "text": "現在還一個問題",
        "userDefined": false
      }
    ],
    "isTemplate": false,
    "count": 0,
    "updated": 0
  },
  {
    "id": "0e264ea3-2ad6-4465-9e26-c93b4e25864a",
    "data": [
      {
        "text": "並",
        "userDefined": false
      },
      {
        "text": "我有問題",
        "alias": "message",
        "meta": "@sys.any",
        "userDefined": true
      }
    ],
    "isTemplate": false,
    "count": 0,
    "updated": 0
  },
  {
    "id": "3bab3ad1-b74d-4f44-bc3b-522d8dde70ec",
    "data": [
      {
        "text": "現在還",
        "userDefined": false
      },
      {
        "text": "很難讓他了解我說的話",
        "alias": "message",
        "meta": "@sys.any",
        "userDefined": true
      }
    ],
    "isTemplate": false,
    "count": 0,
    "updated": 0
  },
  {
    "id": "2cbbebb9-df68-4c41-a3a4-0426b88b5caa",
    "data": [
      {
        "text": "現在",
        "userDefined": false
      },
      {
        "text": "語音識別也不准確",
        "alias": "message",
        "meta": "@sys.any",
        "userDefined": true
      }
    ],
    "isTemplate": false,
    "count": 0,
    "updated": 0
  },
  {
    "id": "a4ef70e6-a4ad-4322-aa55-689c64ff0846",
    "data": [
      {
        "text": "關",
        "meta": "@sys.ignore",
        "userDefined": true
      },
      {
        "text": "于",
        "userDefined": false
      },
      {
        "text": "麥克風故障",
        "alias": "message",
        "meta": "@sys.any",
        "userDefined": true
      }
    ],
    "isTemplate": false,
    "count": 0,
    "updated": 0
  }
]