[
  {
    "id": "b9358b52-dbbc-4100-a5b9-34b6947e02f8",
    "data": [
      {
        "text": "你的测试版在哪里",
        "userDefined": false
      }
    ],
    "isTemplate": false,
    "count": 0,
    "updated": 0
  },
  {
    "id": "67a52044-5e25-4bb5-bfb1-48f0eed58294",
    "data": [
      {
        "text": "搜索您的测试版本",
        "userDefined": false
      }
    ],
    "isTemplate": false,
    "count": 0,
    "updated": 0
  },
  {
    "id": "2ab66c74-fe73-453a-9979-4ec58f25615b",
    "data": [
      {
        "text": "测试版本",
        "userDefined": false
      }
    ],
    "isTemplate": false,
    "count": 0,
    "updated": 0
  },
  {
    "id": "f70e8a3b-1ebe-4ba3-9781-de3d5ed804a9",
    "data": [
      {
        "text": "显示您的测试版本",
        "userDefined": false
      }
    ],
    "isTemplate": false,
    "count": 0,
    "updated": 0
  },
  {
    "id": "73dcd776-6378-4a25-8c76-bc6d0432c68e",
    "data": [
      {
        "text": "你有测试版吗",
        "userDefined": false
      }
    ],
    "isTemplate": false,
    "count": 0,
    "updated": 0
  },
  {
    "id": "b007a26c-0b51-43bb-a7eb-1cccae75274e",
    "data": [
      {
        "text": "参加你的测试版",
        "userDefined": false
      }
    ],
    "isTemplate": false,
    "count": 0,
    "updated": 0
  },
  {
    "id": "b5eff450-3633-4c72-b856-ce0051ac71ac",
    "data": [
      {
        "text": "你有测试版本吗",
        "userDefined": false
      }
    ],
    "isTemplate": false,
    "count": 0,
    "updated": 0
  },
  {
    "id": "101d0941-1d4b-4549-a677-c35e278ab834",
    "data": [
      {
        "text": "你有这测试版吗",
        "userDefined": false
      }
    ],
    "isTemplate": false,
    "count": 0,
    "updated": 0
  },
  {
    "id": "d48131ac-dcca-4e6c-96e8-a34f8b402143",
    "data": [
      {
        "text": "你的测试版本",
        "userDefined": false
      }
    ],
    "isTemplate": false,
    "count": 0,
    "updated": 0
  },
  {
    "id": "9d0336f0-95b8-44ad-880e-c5d927e9c318",
    "data": [
      {
        "text": "你的测试版",
        "userDefined": false
      }
    ],
    "isTemplate": false,
    "count": 0,
    "updated": 0
  },
  {
    "id": "3d8cb329-d3eb-459c-97c6-f1df9d5f057e",
    "data": [
      {
        "text": "如何下载你的测试版",
        "userDefined": false
      }
    ],
    "isTemplate": false,
    "count": 0,
    "updated": 0
  },
  {
    "id": "b1e56311-2d5d-4879-a84b-040386fe807f",
    "data": [
      {
        "text": "测试版本的应用程序",
        "userDefined": false
      }
    ],
    "isTemplate": false,
    "count": 0,
    "updated": 0
  },
  {
    "id": "d2f5099d-0adc-4f49-9a6a-193c40d1d7c3",
    "data": [
      {
        "text": "我想成为您的测试人员",
        "userDefined": false
      }
    ],
    "isTemplate": false,
    "count": 0,
    "updated": 0
  },
  {
    "id": "1bc81380-2342-43e8-89f6-c0a0bc5893b4",
    "data": [
      {
        "text": "在哪里可以找到你的测试版本",
        "userDefined": false
      }
    ],
    "isTemplate": false,
    "count": 0,
    "updated": 0
  },
  {
    "id": "a6d95b97-fa51-4144-bd23-75f65ca77303",
    "data": [
      {
        "text": "搜索你的测试版",
        "userDefined": false
      }
    ],
    "isTemplate": false,
    "count": 0,
    "updated": 0
  },
  {
    "id": "3b1167fa-aa98-4ba2-a707-99b4a99538fb",
    "data": [
      {
        "text": "关于测试版",
        "userDefined": false
      }
    ],
    "isTemplate": false,
    "count": 0,
    "updated": 0
  },
  {
    "id": "a8475425-034e-45bb-943d-26179b6bbbad",
    "data": [
      {
        "text": "我想参加你的测试版",
        "userDefined": false
      }
    ],
    "isTemplate": false,
    "count": 0,
    "updated": 0
  },
  {
    "id": "46073c6e-951c-405b-aef2-4b4ac9ba993b",
    "data": [
      {
        "text": "我想加入 Beta 版测试组",
        "userDefined": false
      }
    ],
    "isTemplate": false,
    "count": 0,
    "updated": 0
  },
  {
    "id": "03626db2-bee9-4f40-b78f-069f67a60721",
    "data": [
      {
        "text": "显示你的测试版",
        "userDefined": false
      }
    ],
    "isTemplate": false,
    "count": 0,
    "updated": 0
  },
  {
    "id": "60edeb99-42f4-45da-9382-826c77164501",
    "data": [
      {
        "text": "我想测试你的测试版本",
        "userDefined": false
      }
    ],
    "isTemplate": false,
    "count": 0,
    "updated": 0
  },
  {
    "id": "3467862a-1c85-4fdf-8ea4-437b66652be5",
    "data": [
      {
        "text": "你有没有测试版",
        "userDefined": false
      }
    ],
    "isTemplate": false,
    "count": 0,
    "updated": 0
  },
  {
    "id": "58cff5a5-2bc6-411c-abc5-11f7628d0413",
    "data": [
      {
        "text": "下载捏的测试版",
        "userDefined": false
      }
    ],
    "isTemplate": false,
    "count": 0,
    "updated": 0
  }
]