[
  {
    "id": "b13b9ded-2fe7-4e38-90e5-ff00d1aacc88",
    "data": [
      {
        "text": "dammi più informazioni sui tuoi developer",
        "userDefined": false
      }
    ],
    "isTemplate": false,
    "count": 0,
    "updated": 0
  },
  {
    "id": "87410675-b507-4fd5-9da7-309882f4b985",
    "data": [
      {
        "text": "mostrami informazioni sui tuoi sviluppatori",
        "userDefined": false
      }
    ],
    "isTemplate": false,
    "count": 0,
    "updated": 0
  },
  {
    "id": "0b8ac588-d1d0-402d-9051-0986b328b6e6",
    "data": [
      {
        "text": "raccontami dei tuoi sviluppatori",
        "userDefined": false
      }
    ],
    "isTemplate": false,
    "count": 0,
    "updated": 0
  },
  {
    "id": "1152f707-aaed-4510-b1d4-ed190f017056",
    "data": [
      {
        "text": "raccontami chi sono i tuoi developer",
        "userDefined": false
      }
    ],
    "isTemplate": false,
    "count": 0,
    "updated": 0
  },
  {
    "id": "e03b7301-58d4-45dd-9cfb-45b8f7191818",
    "data": [
      {
        "text": "raccontami dei tuoi developer",
        "userDefined": false
      }
    ],
    "isTemplate": false,
    "count": 0,
    "updated": 0
  },
  {
    "id": "a640c770-ade2-4fef-a8a6-182242c232ad",
    "data": [
      {
        "text": "informazioni sui tuoi sviluppatori",
        "userDefined": false
      }
    ],
    "isTemplate": false,
    "count": 0,
    "updated": 0
  },
  {
    "id": "d7440892-b344-49bc-ab99-d0222fd8b2c5",
    "data": [
      {
        "text": "informazioni sui tuoi developer",
        "userDefined": false
      }
    ],
    "isTemplate": false,
    "count": 0,
    "updated": 0
  },
  {
    "id": "0007e0cd-0e68-4271-b29a-ffd5c7859b58",
    "data": [
      {
        "text": "raccontami chi sono i tuoi sviluppatori",
        "userDefined": false
      }
    ],
    "isTemplate": false,
    "count": 0,
    "updated": 0
  }
]