[
  {
    "id": "05c44843-c0cb-42eb-a526-d2f11111c7e0",
    "data": [
      {
        "text": "告訴你的開發人員改善你",
        "userDefined": false
      }
    ],
    "isTemplate": false,
    "count": 0,
    "updated": 0
  },
  {
    "id": "77394792-4024-4c12-b757-ba3a3cb021dd",
    "data": [
      {
        "text": "告訴你的開發者",
        "userDefined": false
      },
      {
        "text": "我不開心",
        "alias": "message",
        "meta": "@sys.any",
        "userDefined": true
      }
    ],
    "isTemplate": false,
    "count": 0,
    "updated": 0
  },
  {
    "id": "1d078003-9b4e-4b27-961c-213fe02c8c5f",
    "data": [
      {
        "text": "我想給你反饋",
        "userDefined": false
      }
    ],
    "isTemplate": false,
    "count": 0,
    "updated": 0
  },
  {
    "id": "fed5d186-0600-438c-8e8b-047e629aec75",
    "data": [
      {
        "text": "我想聯系你的開發人員並告訴",
        "userDefined": false
      },
      {
        "text": "他們做了那麽好的你",
        "alias": "message",
        "meta": "@sys.any",
        "userDefined": true
      }
    ],
    "isTemplate": false,
    "count": 0,
    "updated": 0
  },
  {
    "id": "66378eea-9905-4cfd-beb6-fe91104e4dbc",
    "data": [
      {
        "text": "將反饋發送給你的團隊",
        "userDefined": false
      }
    ],
    "isTemplate": false,
    "count": 0,
    "updated": 0
  },
  {
    "id": "c631cdfc-dc0f-4394-8ee1-a3fe11ae5bb4",
    "data": [
      {
        "text": "發送消息給你的開發人員",
        "userDefined": false
      }
    ],
    "isTemplate": false,
    "count": 0,
    "updated": 0
  },
  {
    "id": "bea67274-6207-48c5-b9a8-e33824b6d66d",
    "data": [
      {
        "text": "我對你的開發者有反饋",
        "userDefined": false
      }
    ],
    "isTemplate": false,
    "count": 0,
    "updated": 0
  },
  {
    "id": "44479397-01f8-49bc-92f3-06fd9fc615cb",
    "data": [
      {
        "text": "告訴你的開發者，",
        "userDefined": false
      },
      {
        "text": "我對你很滿意",
        "alias": "message",
        "meta": "@sys.any",
        "userDefined": true
      }
    ],
    "isTemplate": false,
    "count": 1,
    "updated": 0
  },
  {
    "id": "d911ed95-a9dc-420c-9dc1-4f74ff57bd56",
    "data": [
      {
        "text": "告訴你的開發者",
        "userDefined": false
      },
      {
        "text": "你很討厭",
        "alias": "message",
        "meta": "@sys.any",
        "userDefined": true
      }
    ],
    "isTemplate": false,
    "count": 0,
    "updated": 0
  },
  {
    "id": "b7656fd2-327b-4711-9ee7-046b0c0a5031",
    "data": [
      {
        "text": "告訴你的開發人員",
        "userDefined": false
      },
      {
        "text": "很難讓你明白我在說什麽",
        "alias": "message",
        "meta": "@sys.any",
        "userDefined": true
      }
    ],
    "isTemplate": false,
    "count": 0,
    "updated": 0
  },
  {
    "id": "346ddfd6-4796-4cc3-bd68-353c0e3c6d44",
    "data": [
      {
        "text": "告訴你的開發者",
        "userDefined": false
      },
      {
        "text": "我愛你",
        "alias": "message",
        "meta": "@sys.any",
        "userDefined": true
      }
    ],
    "isTemplate": false,
    "count": 0,
    "updated": 0
  },
  {
    "id": "7a6ee1a0-6cf8-4912-90ab-5ba1cc74fbb8",
    "data": [
      {
        "text": "告訴你的創作者",
        "userDefined": false
      },
      {
        "text": "我想要退款",
        "alias": "message",
        "meta": "@sys.any",
        "userDefined": true
      }
    ],
    "isTemplate": false,
    "count": 0,
    "updated": 0
  },
  {
    "id": "98955399-8356-46bc-92ba-5090e5e9a579",
    "data": [
      {
        "text": "告訴你的開發者",
        "userDefined": false
      },
      {
        "text": "你就像我媽媽一樣",
        "alias": "message",
        "meta": "@sys.any",
        "userDefined": true
      }
    ],
    "isTemplate": false,
    "count": 0,
    "updated": 0
  },
  {
    "id": "6deb37c1-ecd3-47df-9866-da57fe58a939",
    "data": [
      {
        "text": "告訴你的開發者",
        "userDefined": false
      },
      {
        "text": "你真棒",
        "alias": "message",
        "meta": "@sys.any",
        "userDefined": true
      }
    ],
    "isTemplate": false,
    "count": 0,
    "updated": 0
  },
  {
    "id": "621bd9df-f54f-44c4-9e63-0f4f333826e2",
    "data": [
      {
        "text": "告訴你的開發者",
        "userDefined": false
      },
      {
        "text": "你需要更好的了解我說什麽",
        "alias": "message",
        "meta": "@sys.any",
        "userDefined": true
      }
    ],
    "isTemplate": false,
    "count": 0,
    "updated": 0
  },
  {
    "id": "911834db-a559-4149-8ea7-828e5c772862",
    "data": [
      {
        "text": "告訴你的開發人員",
        "userDefined": false
      }
    ],
    "isTemplate": false,
    "count": 0,
    "updated": 0
  },
  {
    "id": "35f2137f-006a-42c2-9969-b098772b4ac0",
    "data": [
      {
        "text": "告訴你的開發人員",
        "userDefined": false
      },
      {
        "text": "我喜歡你",
        "alias": "message",
        "meta": "@sys.any",
        "userDefined": true
      }
    ],
    "isTemplate": false,
    "count": 0,
    "updated": 0
  },
  {
    "id": "07308b58-2de6-42cc-b771-169b31d126c4",
    "data": [
      {
        "text": "告訴你的開發人員",
        "userDefined": false
      },
      {
        "text": "他們做更好的工作",
        "alias": "message",
        "meta": "@sys.any",
        "userDefined": true
      }
    ],
    "isTemplate": false,
    "count": 0,
    "updated": 0
  },
  {
    "id": "7839bd30-9eac-4277-b75e-e7fb1ae9833b",
    "data": [
      {
        "text": "我想告訴你的開發者",
        "userDefined": false
      },
      {
        "text": "我喜歡你",
        "alias": "message",
        "meta": "@sys.any",
        "userDefined": true
      }
    ],
    "isTemplate": false,
    "count": 0,
    "updated": 0
  },
  {
    "id": "2428673b-5b2e-4fd9-9ffb-97a17b377198",
    "data": [
      {
        "text": "你可以聯系你的開發人員嗎",
        "userDefined": false
      }
    ],
    "isTemplate": false,
    "count": 0,
    "updated": 0
  },
  {
    "id": "3eebe730-9e61-4ed6-a3f0-b7a512a1b042",
    "data": [
      {
        "text": "告訴你的創作者",
        "userDefined": false
      },
      {
        "text": "該應用程序是真棒",
        "alias": "message",
        "meta": "@sys.any",
        "userDefined": true
      }
    ],
    "isTemplate": false,
    "count": 0,
    "updated": 0
  },
  {
    "id": "c77f5bef-bb74-457e-a7d9-f1b61e4bb3d2",
    "data": [
      {
        "text": "發送反饋給你的開發人員",
        "userDefined": false
      },
      {
        "text": "保持偉大的工作",
        "alias": "message",
        "meta": "@sys.any",
        "userDefined": true
      }
    ],
    "isTemplate": false,
    "count": 0,
    "updated": 0
  },
  {
    "id": "95fe6e5f-4a4c-4dbe-ac20-be9fba51e83b",
    "data": [
      {
        "text": "發送反饋給你的開發人員",
        "userDefined": false
      }
    ],
    "isTemplate": false,
    "count": 0,
    "updated": 0
  },
  {
    "id": "6b4ca098-9eed-45f5-aa08-30ffb6a47e50",
    "data": [
      {
        "text": "告訴你的開發者",
        "userDefined": false
      }
    ],
    "isTemplate": false,
    "count": 0,
    "updated": 0
  },
  {
    "id": "0104d75b-f554-45f0-a225-a16354fe4f15",
    "data": [
      {
        "text": "給你",
        "userDefined": false
      },
      {
        "text": "的",
        "meta": "@sys.ignore",
        "userDefined": false
      },
      {
        "text": "開發",
        "meta": "@sys.ignore",
        "userDefined": false
      },
      {
        "text": "人員告訴",
        "userDefined": false
      },
      {
        "text": "我愛你",
        "alias": "message",
        "meta": "@sys.any",
        "userDefined": true
      }
    ],
    "isTemplate": false,
    "count": 0,
    "updated": 0
  }
]