[
  {
    "id": "b6a98b93-c401-45bb-a8ea-aad7c38e5aa8",
    "data": [
      {
        "text": "wie lautet deine E-Mail",
        "userDefined": false
      }
    ],
    "isTemplate": false,
    "count": 0,
    "updated": 0
  },
  {
    "id": "a653ebb1-3ec1-4476-a418-dd2e20fe6487",
    "data": [
      {
        "text": "E-Mail-Adresse von deiner Firma",
        "userDefined": false
      }
    ],
    "isTemplate": false,
    "count": 0,
    "updated": 0
  },
  {
    "id": "311c0289-f960-4c43-a8bb-543927fbcba8",
    "data": [
      {
        "text": "sag mir die E-Mail-Adresse von deiner Firma",
        "userDefined": false
      }
    ],
    "isTemplate": false,
    "count": 0,
    "updated": 0
  },
  {
    "id": "db35dd1e-1b27-4096-9591-9f0dea1d7698",
    "data": [
      {
        "text": "deine E-Mail-Adresse",
        "userDefined": false
      }
    ],
    "isTemplate": false,
    "count": 0,
    "updated": 0
  },
  {
    "id": "aa62f892-7744-4511-9886-c2186b36ae6d",
    "data": [
      {
        "text": "wie kann ich eine E-Mail an deinen Entwickler schreiben",
        "userDefined": false
      }
    ],
    "isTemplate": false,
    "count": 0,
    "updated": 0
  },
  {
    "id": "1b7a07d4-05b9-40fc-ba37-3316279ada9c",
    "data": [
      {
        "text": "was ",
        "userDefined": false
      },
      {
        "text": "ist",
        "meta": "@sys.ignore",
        "userDefined": false
      },
      {
        "text": " die E-mail von deinem Entwickler",
        "userDefined": false
      }
    ],
    "isTemplate": false,
    "count": 0,
    "updated": 0
  },
  {
    "id": "8bb99194-6049-4094-bbec-a9869a7693dd",
    "data": [
      {
        "text": "gib mir bitte die E-Mail-Adresse von deiner Firma",
        "userDefined": false
      }
    ],
    "isTemplate": false,
    "count": 0,
    "updated": 0
  },
  {
    "id": "05f50989-eefd-4f42-835a-137c480dd864",
    "data": [
      {
        "text": "wie schreibe ich eine E-Mail an deinen Enwickler",
        "userDefined": false
      }
    ],
    "isTemplate": false,
    "count": 0,
    "updated": 0
  },
  {
    "id": "0ea0dd85-56ef-454f-bb1a-3713dcb2d94c",
    "data": [
      {
        "text": "wie lautet die E-Mail-Adresse von deiner Firma",
        "userDefined": false
      }
    ],
    "isTemplate": false,
    "count": 0,
    "updated": 0
  },
  {
    "id": "4d21a8a3-c611-4826-b469-f405163f6e53",
    "data": [
      {
        "text": "wie kann ich deinem Entwickler eine E-Mail schicken",
        "userDefined": false
      }
    ],
    "isTemplate": false,
    "count": 0,
    "updated": 0
  }
]