[
  {
    "id": "6922e9d0-e06a-4bfc-838d-2cc1f7497bc3",
    "data": [
      {
        "text": "あなたのウェブサイトにアクセスするにはどうすればよいですか",
        "userDefined": false
      }
    ],
    "isTemplate": false,
    "count": 0,
    "updated": 0
  },
  {
    "id": "d227badd-ae9d-4b96-8771-ad1ee4691b80",
    "data": [
      {
        "text": "会社のサイトを開いてください",
        "userDefined": false
      }
    ],
    "isTemplate": false,
    "count": 0,
    "updated": 0
  },
  {
    "id": "afe3ed27-f966-4d49-af6d-f7307db536f6",
    "data": [
      {
        "text": "あなたのサイトを開いてください",
        "userDefined": false
      }
    ],
    "isTemplate": false,
    "count": 2,
    "updated": 0
  },
  {
    "id": "f34f41ba-dd93-47fe-98bf-7df23a6d2b55",
    "data": [
      {
        "text": "あなたのウェブサイトを開いてください",
        "userDefined": false
      }
    ],
    "isTemplate": false,
    "count": 0,
    "updated": 0
  },
  {
    "id": "9b6d0e6f-490c-48a9-bd87-0265ea1c2019",
    "data": [
      {
        "text": "あなたのウェブサイトを見せてください",
        "userDefined": false
      }
    ],
    "isTemplate": false,
    "count": 0,
    "updated": 0
  },
  {
    "id": "daaccafe-8e92-41cc-b8c5-e2fcbea1eaa5",
    "data": [
      {
        "text": "会社のウェブサイトはどこにありますか",
        "userDefined": false
      }
    ],
    "isTemplate": false,
    "count": 0,
    "updated": 0
  },
  {
    "id": "92acc86e-b731-424f-8ff7-9de82b32a03e",
    "data": [
      {
        "text": "ウェブサイトをお持ちですか",
        "userDefined": false
      }
    ],
    "isTemplate": false,
    "count": 0,
    "updated": 0
  },
  {
    "id": "4f6f17e8-2c79-4c60-baff-eef9ab909b56",
    "data": [
      {
        "text": "ウェブサイトがありますか",
        "userDefined": false
      }
    ],
    "isTemplate": false,
    "count": 0,
    "updated": 0
  },
  {
    "id": "22976b98-90fe-411a-afb3-6e2701228700",
    "data": [
      {
        "text": "あなたのウェブサイト",
        "userDefined": false
      }
    ],
    "isTemplate": false,
    "count": 0,
    "updated": 0
  },
  {
    "id": "97d4c8c4-45bb-4326-98a8-1e747520f592",
    "data": [
      {
        "text": "あなたのウェブサイトを表示して",
        "userDefined": false
      }
    ],
    "isTemplate": false,
    "count": 0,
    "updated": 0
  },
  {
    "id": "b4357e56-3d85-4544-b237-b6965db9021d",
    "data": [
      {
        "text": "デベロッパーのウェブサイトを教えてください",
        "userDefined": false
      }
    ],
    "isTemplate": false,
    "count": 1,
    "updated": 0
  }
]