[
  {
    "id": "71aa55fb-d8c7-4e75-93ba-2a901ad1428e",
    "data": [
      {
        "text": "enviar um relatório do bug",
        "userDefined": false
      }
    ],
    "isTemplate": false,
    "count": 0,
    "updated": 0
  },
  {
    "id": "dd65b30d-d9ac-492c-a774-6a9cb45f9ae8",
    "data": [
      {
        "text": "tenho um problema com ",
        "userDefined": false
      },
      {
        "text": "o microfone",
        "alias": "message",
        "meta": "@sys.any",
        "userDefined": true
      }
    ],
    "isTemplate": false,
    "count": 0,
    "updated": 0
  },
  {
    "id": "3299867b-0f32-45bc-a20b-689032bebb7a",
    "data": [
      {
        "text": "denunciar problema ",
        "userDefined": false
      },
      {
        "text": "o widget não está funcionando",
        "alias": "message",
        "meta": "@sys.any",
        "userDefined": true
      }
    ],
    "isTemplate": false,
    "count": 0,
    "updated": 0
  },
  {
    "id": "3155c397-1428-4471-9759-bba621a15ea2",
    "data": [
      {
        "text": "você pode me ajudar a resolver o problema",
        "userDefined": false
      }
    ],
    "isTemplate": false,
    "count": 0,
    "updated": 0
  },
  {
    "id": "5586cc9d-98e0-49aa-a7a5-ab62f9ecd99f",
    "data": [
      {
        "text": "você comete muitos erros",
        "userDefined": false
      }
    ],
    "isTemplate": false,
    "count": 0,
    "updated": 0
  },
  {
    "id": "17708477-b1ae-4dd9-a7cc-5b388ce1fee0",
    "data": [
      {
        "text": "percebi um bug na ",
        "userDefined": false
      },
      {
        "text": "agenda",
        "alias": "message",
        "meta": "@sys.any",
        "userDefined": true
      }
    ],
    "isTemplate": false,
    "count": 0,
    "updated": 0
  },
  {
    "id": "96d3daf3-c4dc-4757-ab61-7fb63f12ca5e",
    "data": [
      {
        "text": "denunciar bug ",
        "userDefined": false
      },
      {
        "text": "ele não funciona como deveria",
        "alias": "message",
        "meta": "@sys.any",
        "userDefined": true
      }
    ],
    "isTemplate": false,
    "count": 0,
    "updated": 0
  },
  {
    "id": "f7062282-bc2f-4402-a545-4e0bfeea7f87",
    "data": [
      {
        "text": "quero mostrar o erro aos seus desenvolvedores",
        "userDefined": false
      }
    ],
    "isTemplate": false,
    "count": 0,
    "updated": 0
  },
  {
    "id": "c727643d-760f-48a3-a5cf-94978aa387af",
    "data": [
      {
        "text": "avisar seus desenvolvedores sobre esse bug",
        "userDefined": false
      }
    ],
    "isTemplate": false,
    "count": 0,
    "updated": 0
  },
  {
    "id": "3b45ea2f-cba7-4522-9f41-09deb85d1fd1",
    "data": [
      {
        "text": "relatar bug ",
        "userDefined": false
      },
      {
        "text": "não está funcionando",
        "alias": "message",
        "meta": "@sys.any",
        "userDefined": true
      }
    ],
    "isTemplate": false,
    "count": 0,
    "updated": 0
  },
  {
    "id": "f9e38758-9cbe-49d7-9e87-b3dd01e8605f",
    "data": [
      {
        "text": "enviar relatório do bug para seus desenvolvedores ",
        "userDefined": false
      },
      {
        "text": "a ativação por voz não funciona",
        "alias": "message",
        "meta": "@sys.any",
        "userDefined": true
      }
    ],
    "isTemplate": false,
    "count": 0,
    "updated": 0
  }
]