[
  {
    "id": "31331056-2570-431b-a7c9-b354864257e1",
    "data": [
      {
        "text": "come si chiama questa app",
        "userDefined": false
      }
    ],
    "isTemplate": false,
    "count": 0,
    "updated": 0
  },
  {
    "id": "9abc806a-85b1-440a-8238-c4618269ed0c",
    "data": [
      {
        "text": "nome di questa app",
        "userDefined": false
      }
    ],
    "isTemplate": false,
    "count": 0,
    "updated": 0
  },
  {
    "id": "6a0011d8-5af5-473c-82b5-aa306dd33e16",
    "data": [
      {
        "text": "il tuo ",
        "userDefined": false
      },
      {
        "text": "nome",
        "meta": "@sys.ignore",
        "userDefined": false
      }
    ],
    "isTemplate": false,
    "count": 0,
    "updated": 0
  }
]