[
  {
    "id": "42d75179-afea-4fd3-b249-c7fd0f8e0896",
    "data": [
      {
        "text": "und jetzt die Telefonnummer",
        "userDefined": false
      }
    ],
    "isTemplate": false,
    "count": 0,
    "updated": 0
  },
  {
    "id": "a50fa2a5-5956-42eb-855b-ad8f1f589ee9",
    "data": [
      {
        "text": "und",
        "meta": "@sys.ignore",
        "userDefined": false
      },
      {
        "text": " Telefon",
        "userDefined": false
      }
    ],
    "isTemplate": false,
    "count": 0,
    "updated": 0
  },
  {
    "id": "9ec9eaa5-93fe-45f3-93b0-3104821f8d45",
    "data": [
      {
        "text": "und jetzt Telefon",
        "userDefined": false
      }
    ],
    "isTemplate": false,
    "count": 0,
    "updated": 0
  },
  {
    "id": "53dcfcea-02ac-4aed-b305-5b1b082a5209",
    "data": [
      {
        "text": "ich brauche auch Ihre Telefonnummer",
        "userDefined": false
      }
    ],
    "isTemplate": false,
    "count": 0,
    "updated": 0
  },
  {
    "id": "0fff8d3a-b6b6-4a4b-92fa-ab33b1fd3fd5",
    "data": [
      {
        "text": "sag mir auch die Telefonnummer",
        "userDefined": false
      }
    ],
    "isTemplate": false,
    "count": 0,
    "updated": 0
  },
  {
    "id": "fdace4b0-0ec4-424a-beda-d887ef382ec9",
    "data": [
      {
        "text": "ich brauche auch die Telefonnummer",
        "userDefined": false
      }
    ],
    "isTemplate": false,
    "count": 0,
    "updated": 0
  },
  {
    "id": "4cf1bf4d-dfe4-4069-9c5e-2a3ad3d19124",
    "data": [
      {
        "text": "bitte gib mir auch die Telefonnummer",
        "userDefined": false
      }
    ],
    "isTemplate": false,
    "count": 0,
    "updated": 0
  },
  {
    "id": "674364ea-e57f-4ece-8c8a-0763df7e4edc",
    "data": [
      {
        "text": "und die Telefonnummer",
        "userDefined": false
      }
    ],
    "isTemplate": false,
    "count": 0,
    "updated": 0
  },
  {
    "id": "5e0cdee5-3c3d-4860-b6de-0d15af1ca435",
    "data": [
      {
        "text": "jetzt Ihre Telefonnummer",
        "userDefined": false
      }
    ],
    "isTemplate": false,
    "count": 0,
    "updated": 0
  },
  {
    "id": "5614f7d7-60dd-4895-b85a-fbcc84088781",
    "data": [
      {
        "text": "die Telefonnummer auch noch",
        "userDefined": false
      }
    ],
    "isTemplate": false,
    "count": 0,
    "updated": 0
  }
]