[
  {
    "id": "e2033da5-398f-4592-b18c-876781f81b48",
    "data": [
      {
        "text": "можно позвонить разработчикам",
        "userDefined": false
      }
    ],
    "isTemplate": false,
    "count": 0,
    "updated": 0
  },
  {
    "id": "7623f9ed-fb9b-4f06-8d19-07c5d5f774dc",
    "data": [
      {
        "text": "я хочу связаться с разработчиками дай мне их номер",
        "userDefined": false
      }
    ],
    "isTemplate": false,
    "count": 0,
    "updated": 0
  },
  {
    "id": "ae11ab9c-3f4c-420c-9ca6-43f8482dc677",
    "data": [
      {
        "text": "поищи номер телефона разработчиков",
        "userDefined": false
      }
    ],
    "isTemplate": false,
    "count": 0,
    "updated": 0
  },
  {
    "id": "d2704097-fa2a-4fca-a2e7-04e783779c1e",
    "data": [
      {
        "text": "я бы хотел поговорить с разработчиками по телефону",
        "userDefined": false
      }
    ],
    "isTemplate": false,
    "count": 0,
    "updated": 0
  },
  {
    "id": "49341156-8204-4356-8371-a31e9dc3dc7d",
    "data": [
      {
        "text": "телефонный номер разработчиков",
        "userDefined": false
      }
    ],
    "isTemplate": false,
    "count": 0,
    "updated": 0
  },
  {
    "id": "30638b22-9ef7-4632-a844-d89954e754a9",
    "data": [
      {
        "text": "хочу позвонить твоим разработчикам",
        "userDefined": false
      }
    ],
    "isTemplate": false,
    "count": 0,
    "updated": 0
  },
  {
    "id": "5c69d50a-d7b1-4e75-b177-e133560d3dc4",
    "data": [
      {
        "text": "могу я связаться с разработчиками по телефону",
        "userDefined": false
      }
    ],
    "isTemplate": false,
    "count": 0,
    "updated": 0
  },
  {
    "id": "d6630382-85ec-4665-9a72-e02d635bfc15",
    "data": [
      {
        "text": "дай телефон разработчиков",
        "userDefined": false
      }
    ],
    "isTemplate": false,
    "count": 0,
    "updated": 0
  },
  {
    "id": "795ce21c-49d5-4c6d-b447-663bbb3e311d",
    "data": [
      {
        "text": "найди телефонный номер разработчиков",
        "userDefined": false
      }
    ],
    "isTemplate": false,
    "count": 0,
    "updated": 0
  },
  {
    "id": "e6395f9f-16be-4a62-a9eb-baaecb77c951",
    "data": [
      {
        "text": "где найти номер телефона разработчиков",
        "userDefined": false
      }
    ],
    "isTemplate": false,
    "count": 0,
    "updated": 0
  },
  {
    "id": "da33f715-489e-4b70-a68f-3cc3a5c4532d",
    "data": [
      {
        "text": "скажи мне номер телефона твоих разработчиков я бы хотел поговорить с ними",
        "userDefined": false
      }
    ],
    "isTemplate": false,
    "count": 0,
    "updated": 0
  },
  {
    "id": "bb90c6e9-7648-4273-bbea-e920cdbd9a09",
    "data": [
      {
        "text": "покажи номер телефона разработчиков",
        "userDefined": false
      }
    ],
    "isTemplate": false,
    "count": 0,
    "updated": 0
  },
  {
    "id": "dfcc85b5-9b5d-4a60-8b4d-e8d2f1cd54ea",
    "data": [
      {
        "text": "номер телефона твоих разработчиков",
        "userDefined": false
      }
    ],
    "isTemplate": false,
    "count": 0,
    "updated": 0
  },
  {
    "id": "10163807-d115-4f7d-84c5-b7858bb9e99b",
    "data": [
      {
        "text": "покажи номер телефона",
        "userDefined": false
      }
    ],
    "isTemplate": false,
    "count": 0,
    "updated": 0
  },
  {
    "id": "96f7a8eb-5a91-4492-b333-e3c8b9c1e57e",
    "data": [
      {
        "text": "дай пожалуйста телефон разработчиков",
        "userDefined": false
      }
    ],
    "isTemplate": false,
    "count": 0,
    "updated": 0
  },
  {
    "id": "f3c3668d-c41e-4361-8d02-295962991b95",
    "data": [
      {
        "text": "нужен номер телефона разработчиков",
        "userDefined": false
      }
    ],
    "isTemplate": false,
    "count": 0,
    "updated": 0
  }
]