[
  {
    "id": "9595f1aa-e51b-42fe-97df-0c3128b09855",
    "data": [
      {
        "text": "me fale o nome do seu app",
        "userDefined": false
      }
    ],
    "isTemplate": false,
    "count": 0,
    "updated": 0
  },
  {
    "id": "f27a9bd6-bcff-4d15-bbff-9524a287fed0",
    "data": [
      {
        "text": "diga o nome do seu app",
        "userDefined": false
      }
    ],
    "isTemplate": false,
    "count": 0,
    "updated": 0
  },
  {
    "id": "8998e0d0-ba7d-4d47-b1f8-424d09a02433",
    "data": [
      {
        "text": "nome do app",
        "userDefined": false
      }
    ],
    "isTemplate": false,
    "count": 2,
    "updated": 0
  },
  {
    "id": "a2435892-b4d7-45bb-bd06-e02d9de2ca7c",
    "data": [
      {
        "text": "qual é o nome do seu aplicativo",
        "userDefined": false
      }
    ],
    "isTemplate": false,
    "count": 1,
    "updated": 0
  },
  {
    "id": "6bfd579b-fba6-4b2a-9666-d4430da964c2",
    "data": [
      {
        "text": "qual é o nome do app",
        "userDefined": false
      }
    ],
    "isTemplate": false,
    "count": 0,
    "updated": 0
  },
  {
    "id": "c42074e7-dc2b-445e-b2f2-11ac3d448611",
    "data": [
      {
        "text": "como posso saber o nome do seu app",
        "userDefined": false
      }
    ],
    "isTemplate": false,
    "count": 0,
    "updated": 0
  },
  {
    "id": "61280d07-1d73-428c-a427-f3df1517d4e1",
    "data": [
      {
        "text": "como chama seu app",
        "userDefined": false
      }
    ],
    "isTemplate": false,
    "count": 0,
    "updated": 0
  }
]