[
  {
    "id": "27ed6139-b2d9-4eff-9e4b-98b5948dfc0a",
    "data": [
      {
        "text": "мне нужны контакты твоих разработчиков адрес",
        "userDefined": false
      }
    ],
    "isTemplate": false,
    "count": 0,
    "updated": 0
  },
  {
    "id": "e51ba1c8-1c2d-4874-9ff5-3a2a6aaaca37",
    "data": [
      {
        "text": "можешь предоставить адрес разработчиков",
        "userDefined": false
      }
    ],
    "isTemplate": false,
    "count": 0,
    "updated": 0
  },
  {
    "id": "40761fcd-2006-4291-baaf-999904528dbd",
    "data": [
      {
        "text": "дай мне адрес твоих разработчиков",
        "userDefined": false
      }
    ],
    "isTemplate": false,
    "count": 0,
    "updated": 0
  },
  {
    "id": "dd2b6d85-220a-4ff4-8a22-ddcc1c5e8a00",
    "data": [
      {
        "text": "где живут твои разработчики",
        "userDefined": false
      }
    ],
    "isTemplate": false,
    "count": 0,
    "updated": 0
  },
  {
    "id": "528ca0d4-8a25-43c3-b395-fc21be2b7111",
    "data": [
      {
        "text": "предоставь мне адрес разработчиков",
        "userDefined": false
      }
    ],
    "isTemplate": false,
    "count": 0,
    "updated": 0
  },
  {
    "id": "a396b2e7-4362-4cf4-a4bc-f67abbbde5db",
    "data": [
      {
        "text": "откуда твои разработчики",
        "userDefined": false
      }
    ],
    "isTemplate": false,
    "count": 0,
    "updated": 0
  },
  {
    "id": "c2bce151-0185-4b51-b05d-43541b109176",
    "data": [
      {
        "text": "адрес твоих создателей",
        "userDefined": false
      }
    ],
    "isTemplate": false,
    "count": 0,
    "updated": 0
  },
  {
    "id": "1af5d28e-0c1c-4087-bef2-9085ac821f1a",
    "data": [
      {
        "text": "скажи мне адрес разработчиков",
        "userDefined": false
      }
    ],
    "isTemplate": false,
    "count": 0,
    "updated": 0
  },
  {
    "id": "4ae12002-18ad-4af9-96dd-6141913ccc14",
    "data": [
      {
        "text": "где располагаются твои создатели",
        "userDefined": false
      }
    ],
    "isTemplate": false,
    "count": 0,
    "updated": 0
  },
  {
    "id": "daa86807-f858-4a81-ba72-826a66631b3b",
    "data": [
      {
        "text": "где работают твои разработчики",
        "userDefined": false
      }
    ],
    "isTemplate": false,
    "count": 0,
    "updated": 0
  },
  {
    "id": "40efe339-d589-4d4b-94d5-61ba2bf9411b",
    "data": [
      {
        "text": "где расположена твоя компания",
        "userDefined": false
      }
    ],
    "isTemplate": false,
    "count": 0,
    "updated": 0
  },
  {
    "id": "f05bd582-7541-4ad6-b818-b7cdea54dcd1",
    "data": [
      {
        "text": "где можно найти адрес твоих разработчиков",
        "userDefined": false
      }
    ],
    "isTemplate": false,
    "count": 0,
    "updated": 0
  },
  {
    "id": "5ab768a3-46ce-4e36-9d6e-dec8fdaba529",
    "data": [
      {
        "text": "местоположение твоих разработчиков",
        "userDefined": false
      }
    ],
    "isTemplate": false,
    "count": 0,
    "updated": 0
  },
  {
    "id": "0ef38d17-ae08-4b0f-8a6e-91374dad0006",
    "data": [
      {
        "text": "адрес разработчиков",
        "userDefined": false
      }
    ],
    "isTemplate": false,
    "count": 0,
    "updated": 0
  },
  {
    "id": "2869aa2d-638f-42bd-8086-02192e015030",
    "data": [
      {
        "text": "адрес офиса разработчиков",
        "userDefined": false
      }
    ],
    "isTemplate": false,
    "count": 0,
    "updated": 0
  },
  {
    "id": "642be0f2-6481-48ea-bb8c-b93158c41e84",
    "data": [
      {
        "text": "что за адрес у твоих разработчиков",
        "userDefined": false
      }
    ],
    "isTemplate": false,
    "count": 0,
    "updated": 0
  },
  {
    "id": "e9637adf-d269-44b5-ab71-85d7f011ed74",
    "data": [
      {
        "text": "где располагается главный офис твоей компании",
        "userDefined": false
      }
    ],
    "isTemplate": false,
    "count": 0,
    "updated": 0
  },
  {
    "id": "bdc2869f-c15f-4e19-a640-4097c692e661",
    "data": [
      {
        "text": "покажи мне где находится офис разработчиков",
        "userDefined": false
      }
    ],
    "isTemplate": false,
    "count": 0,
    "updated": 0
  }
]