[
  {
    "id": "56569c98-8a9a-4d45-beba-0310b31a5b10",
    "data": [
      {
        "text": "关于你的",
        "userDefined": false
      },
      {
        "text": "推特",
        "alias": "media",
        "meta": "@media",
        "userDefined": false
      }
    ],
    "isTemplate": false,
    "count": 0,
    "updated": 0
  },
  {
    "id": "8445f82c-e7d3-489a-be25-fdf3f8830a03",
    "data": [
      {
        "text": "能不能给我看你的",
        "userDefined": false
      },
      {
        "text": "街旁",
        "alias": "media",
        "meta": "@media",
        "userDefined": false
      }
    ],
    "isTemplate": false,
    "count": 0,
    "updated": 0
  },
  {
    "id": "b1299beb-52df-4e87-95bc-02158a0470bb",
    "data": [
      {
        "text": "怎么能给我看你的",
        "userDefined": false
      },
      {
        "text": "丁香园",
        "alias": "media",
        "meta": "@media",
        "userDefined": false
      }
    ],
    "isTemplate": false,
    "count": 0,
    "updated": 0
  },
  {
    "id": "0a5f7d09-4f4e-4040-8a67-3b2ea3b1ccda",
    "data": [
      {
        "text": "你",
        "userDefined": false
      },
      {
        "text": "的",
        "meta": "@sys.ignore",
        "userDefined": false
      },
      {
        "text": "脸书",
        "alias": "media",
        "meta": "@media",
        "userDefined": true
      }
    ],
    "isTemplate": false,
    "count": 0,
    "updated": 0
  },
  {
    "id": "da47ff22-cf2e-460b-9415-405146e08baa",
    "data": [
      {
        "text": "还要你的",
        "userDefined": false
      },
      {
        "text": "微博",
        "alias": "media",
        "meta": "@media",
        "userDefined": false
      }
    ],
    "isTemplate": false,
    "count": 0,
    "updated": 0
  },
  {
    "id": "541774a7-7ee9-4685-8fae-48c3c234d25c",
    "data": [
      {
        "text": "还能不能给我看你的",
        "userDefined": false
      },
      {
        "text": "开心网",
        "alias": "media",
        "meta": "@media",
        "userDefined": false
      }
    ],
    "isTemplate": false,
    "count": 0,
    "updated": 0
  },
  {
    "id": "3c81a32c-58f6-4a97-8188-50bf0ff8b276",
    "data": [
      {
        "text": "会不会给我看你的",
        "userDefined": false
      },
      {
        "text": "豆瓣",
        "alias": "media",
        "meta": "@media",
        "userDefined": false
      }
    ],
    "isTemplate": false,
    "count": 0,
    "updated": 0
  },
  {
    "id": "95a5c1f2-2a38-4abf-a451-e50469a2c4e1",
    "data": [
      {
        "text": "我还要你的",
        "userDefined": false
      },
      {
        "text": "instagram",
        "alias": "media",
        "meta": "@media",
        "userDefined": false
      }
    ],
    "isTemplate": false,
    "count": 0,
    "updated": 0
  },
  {
    "id": "292fcb71-f57b-48e1-8768-a4d31c9270cf",
    "data": [
      {
        "text": "我还很想看你的",
        "userDefined": false
      },
      {
        "text": "新浪微博",
        "alias": "media",
        "meta": "@media",
        "userDefined": false
      }
    ],
    "isTemplate": false,
    "count": 0,
    "updated": 0
  },
  {
    "id": "5aff407e-8666-4719-9c39-12b6bc3c763b",
    "data": [
      {
        "text": "你的",
        "userDefined": false
      },
      {
        "text": "推特",
        "alias": "media",
        "meta": "@media",
        "userDefined": true
      }
    ],
    "isTemplate": false,
    "count": 0,
    "updated": 0
  },
  {
    "id": "c9f58927-fd72-47ce-8ae2-f63af1d1fc64",
    "data": [
      {
        "text": "现在你的",
        "userDefined": false
      },
      {
        "text": "脸书",
        "alias": "media",
        "meta": "@media",
        "userDefined": false
      }
    ],
    "isTemplate": false,
    "count": 0,
    "updated": 0
  }
]