[
  {
    "id": "d12fc8e3-df1a-4ade-823d-5b9d6157ec9e",
    "data": [
      {
        "text": "cómo encuentro tu sitio web",
        "userDefined": false
      }
    ],
    "isTemplate": false,
    "count": 0,
    "updated": 0
  },
  {
    "id": "321c6d68-2382-4046-8b9b-10dc5cfabf4f",
    "data": [
      {
        "text": "cómo ubico tu sitio web",
        "userDefined": false
      }
    ],
    "isTemplate": false,
    "count": 0,
    "updated": 0
  },
  {
    "id": "c23b70ed-be97-4cb1-9f1c-a827c9e88a2c",
    "data": [
      {
        "text": "tu dirección web",
        "userDefined": false
      }
    ],
    "isTemplate": false,
    "count": 0,
    "updated": 0
  },
  {
    "id": "eb2faa55-83f6-43bf-b3b5-77159d6f50a5",
    "data": [
      {
        "text": "quiero acceder a tu página web",
        "userDefined": false
      }
    ],
    "isTemplate": false,
    "count": 0,
    "updated": 0
  },
  {
    "id": "5cd0d05a-c6ad-4cfa-a9ae-dff5e085b3d8",
    "data": [
      {
        "text": "tu página",
        "userDefined": false
      }
    ],
    "isTemplate": false,
    "count": 0,
    "updated": 0
  },
  {
    "id": "0b99054a-9060-4e68-a718-d4b48b7b3086",
    "data": [
      {
        "text": "tu sitio web",
        "userDefined": false
      }
    ],
    "isTemplate": false,
    "count": 0,
    "updated": 0
  },
  {
    "id": "25ec2f0a-9761-473f-898d-43475622a9f4",
    "data": [
      {
        "text": "tienes ",
        "userDefined": false
      },
      {
        "text": "una",
        "meta": "@sys.ignore",
        "userDefined": false
      },
      {
        "text": " ",
        "userDefined": false
      },
      {
        "text": "página",
        "meta": "@sys.ignore",
        "userDefined": false
      },
      {
        "text": " web",
        "userDefined": false
      }
    ],
    "isTemplate": false,
    "count": 0,
    "updated": 0
  },
  {
    "id": "c7149b1a-8c4f-4c3d-8a48-4f14bc4f4b04",
    "data": [
      {
        "text": "cómo localizo tu sitio web",
        "userDefined": false
      }
    ],
    "isTemplate": false,
    "count": 0,
    "updated": 0
  },
  {
    "id": "b4ea6707-346f-48b5-83cb-c731a2e28192",
    "data": [
      {
        "text": "me vas a dar tu sitio web",
        "userDefined": false
      }
    ],
    "isTemplate": false,
    "count": 0,
    "updated": 0
  },
  {
    "id": "1e3798dc-588d-400a-a791-dde911f5d3fd",
    "data": [
      {
        "text": "quisiera saber tu dirección web",
        "userDefined": false
      }
    ],
    "isTemplate": false,
    "count": 0,
    "updated": 0
  },
  {
    "id": "c60ba261-a7d2-4b59-821b-32e9ff5d8583",
    "data": [
      {
        "text": "dame tu página web",
        "userDefined": false
      }
    ],
    "isTemplate": false,
    "count": 0,
    "updated": 0
  },
  {
    "id": "b6c62f25-d95c-43bb-9f02-0551515f59b8",
    "data": [
      {
        "text": "podrías darme tu dirección web",
        "userDefined": false
      }
    ],
    "isTemplate": false,
    "count": 0,
    "updated": 0
  },
  {
    "id": "fdf6ab98-61dc-49ca-95df-14d99847b1ce",
    "data": [
      {
        "text": "dime tu dirección web",
        "userDefined": false
      }
    ],
    "isTemplate": false,
    "count": 0,
    "updated": 0
  },
  {
    "id": "100499f0-ed67-4b79-845b-d8a18ca377f8",
    "data": [
      {
        "text": "tu página web",
        "userDefined": false
      }
    ],
    "isTemplate": false,
    "count": 0,
    "updated": 0
  },
  {
    "id": "42887ea6-79c2-465a-b8d8-d60d55d2a707",
    "data": [
      {
        "text": "abre tu página web",
        "userDefined": false
      }
    ],
    "isTemplate": false,
    "count": 0,
    "updated": 0
  }
]