[
  {
    "id": "6943adf2-69db-4973-bfbc-db30ceed7e54",
    "data": [
      {
        "text": "voglio far parte del gruppo di beta testing",
        "userDefined": false
      }
    ],
    "isTemplate": false,
    "count": 0,
    "updated": 0
  },
  {
    "id": "980d70d5-7d33-4ce1-b977-69dd4b31e950",
    "data": [
      {
        "text": "mostrami la tua versione beta",
        "userDefined": false
      }
    ],
    "isTemplate": false,
    "count": 0,
    "updated": 0
  },
  {
    "id": "5a1877b6-77a7-4579-a463-904863890a84",
    "data": [
      {
        "text": "versione beta della tua app",
        "userDefined": false
      }
    ],
    "isTemplate": false,
    "count": 0,
    "updated": 0
  },
  {
    "id": "516ca633-0c7b-4b7b-9193-155b0850a006",
    "data": [
      {
        "text": "dove posso trovare la tua versione beta",
        "userDefined": false
      }
    ],
    "isTemplate": false,
    "count": 0,
    "updated": 0
  },
  {
    "id": "bce8e811-bfee-4dca-b30a-abe63c4aad4c",
    "data": [
      {
        "text": "beta testing",
        "userDefined": false
      }
    ],
    "isTemplate": false,
    "count": 0,
    "updated": 0
  },
  {
    "id": "fbb46a3c-efa6-4967-8a67-3163f9b3a092",
    "data": [
      {
        "text": "beta test",
        "userDefined": false
      }
    ],
    "isTemplate": false,
    "count": 0,
    "updated": 0
  },
  {
    "id": "ee77334c-e3f1-4fba-afe6-a148669f641b",
    "data": [
      {
        "text": "dove trovo la tua versione beta",
        "userDefined": false
      }
    ],
    "isTemplate": false,
    "count": 0,
    "updated": 0
  },
  {
    "id": "60316029-c2ff-49fa-81df-4f3e43196866",
    "data": [
      {
        "text": "ce l\u0027hai un beta test",
        "userDefined": false
      }
    ],
    "isTemplate": false,
    "count": 0,
    "updated": 0
  },
  {
    "id": "87cb3fe9-cac4-428a-bae7-db8c7660430e",
    "data": [
      {
        "text": "hai un beta test",
        "userDefined": false
      }
    ],
    "isTemplate": false,
    "count": 0,
    "updated": 0
  },
  {
    "id": "4c944420-db3d-427c-ada3-57af1c55677c",
    "data": [
      {
        "text": "dove posso cercare la tua versione beta",
        "userDefined": false
      }
    ],
    "isTemplate": false,
    "count": 0,
    "updated": 0
  },
  {
    "id": "fc597c28-0d4c-49c5-97d3-0074d8aeea8c",
    "data": [
      {
        "text": "la tua versione beta",
        "userDefined": false
      }
    ],
    "isTemplate": false,
    "count": 0,
    "updated": 0
  }
]