[
  {
    "id": "b8593f47-a615-41ac-b027-8c3d117ff09f",
    "data": [
      {
        "text": "\"你的 ",
        "userDefined": false
      },
      {
        "text": "Facebook",
        "alias": "media",
        "meta": "@media",
        "userDefined": false
      },
      {
        "text": " 主頁網址是什麽",
        "userDefined": false
      }
    ],
    "isTemplate": false,
    "count": 0,
    "updated": 0
  },
  {
    "id": "e14e0d93-910a-42b8-8f40-63ace782be1e",
    "data": [
      {
        "text": "你有",
        "userDefined": false
      },
      {
        "text": "微博",
        "alias": "media",
        "meta": "@media",
        "userDefined": true
      },
      {
        "text": "帳號嗎",
        "userDefined": false
      }
    ],
    "isTemplate": false,
    "count": 0,
    "updated": 0
  },
  {
    "id": "686f06f9-3270-48ae-9ec6-7baeefb7e684",
    "data": [
      {
        "text": "你的頁面在",
        "userDefined": false
      },
      {
        "text": "臉書",
        "alias": "media",
        "meta": "@media",
        "userDefined": true
      }
    ],
    "isTemplate": false,
    "count": 0,
    "updated": 0
  },
  {
    "id": "5831006b-7f2c-49b9-8215-7b8de6bee311",
    "data": [
      {
        "text": "你的社交網站 你那一個",
        "userDefined": false
      }
    ],
    "isTemplate": false,
    "count": 0,
    "updated": 0
  },
  {
    "id": "ae8b1ab1-be1f-42ef-8d1e-973113cf91a3",
    "data": [
      {
        "text": "給我說你",
        "userDefined": false
      },
      {
        "text": "的",
        "meta": "@sys.ignore",
        "userDefined": false
      },
      {
        "text": "臉書",
        "alias": "media",
        "meta": "@media",
        "userDefined": false
      }
    ],
    "isTemplate": false,
    "count": 0,
    "updated": 0
  },
  {
    "id": "a34210a5-8d2d-4e21-a297-e8121ca31363",
    "data": [
      {
        "text": "你的微博",
        "userDefined": false
      }
    ],
    "isTemplate": false,
    "count": 0,
    "updated": 0
  },
  {
    "id": "887de5a8-7449-432f-9b05-70def122f81f",
    "data": [
      {
        "text": "你有",
        "userDefined": false
      },
      {
        "text": "臉書",
        "alias": "media",
        "meta": "@media",
        "userDefined": true
      },
      {
        "text": "頁面嗎",
        "userDefined": false
      }
    ],
    "isTemplate": false,
    "count": 0,
    "updated": 0
  },
  {
    "id": "85ee082a-193a-4a2c-9b53-959585da8633",
    "data": [
      {
        "text": "你有 ",
        "userDefined": false
      },
      {
        "text": "Instagram",
        "alias": "media",
        "meta": "@media",
        "userDefined": false
      },
      {
        "text": " 帳號嗎",
        "userDefined": false
      }
    ],
    "isTemplate": false,
    "count": 0,
    "updated": 0
  },
  {
    "id": "2cc66a53-df8e-4c22-9e86-297e84ee16ae",
    "data": [
      {
        "text": "我想知道你的社交網站",
        "userDefined": false
      }
    ],
    "isTemplate": false,
    "count": 0,
    "updated": 0
  },
  {
    "id": "d60d652a-6b33-4628-81b6-2ddd3db06652",
    "data": [
      {
        "text": "你有社交網站嗎",
        "userDefined": false
      }
    ],
    "isTemplate": false,
    "count": 0,
    "updated": 0
  },
  {
    "id": "38a705a3-959a-485d-91ad-49e59e3414bc",
    "data": [
      {
        "text": "我要知道你有社交網站對不對",
        "userDefined": false
      }
    ],
    "isTemplate": false,
    "count": 0,
    "updated": 0
  },
  {
    "id": "d8780ddb-3d7d-461c-b619-31e27d07fd9e",
    "data": [
      {
        "text": "你有沒有社交網站",
        "userDefined": false
      }
    ],
    "isTemplate": false,
    "count": 0,
    "updated": 0
  },
  {
    "id": "b9d65d3c-dc38-4a17-a03c-baaa1cb640ea",
    "data": [
      {
        "text": "你的",
        "userDefined": false
      },
      {
        "text": "臉書",
        "alias": "media",
        "meta": "@media",
        "userDefined": true
      },
      {
        "text": "頁面是什麽",
        "userDefined": false
      }
    ],
    "isTemplate": false,
    "count": 0,
    "updated": 0
  },
  {
    "id": "f8df230b-68b8-4b6b-9098-20b3b9ce408b",
    "data": [
      {
        "text": "打開你的",
        "userDefined": false
      },
      {
        "text": "臉書",
        "alias": "media",
        "meta": "@media",
        "userDefined": true
      },
      {
        "text": "頁面",
        "userDefined": false
      }
    ],
    "isTemplate": false,
    "count": 0,
    "updated": 0
  },
  {
    "id": "f783cfe4-77d2-4bc7-8f7e-2313fcb31ca7",
    "data": [
      {
        "text": "告訴我你的",
        "userDefined": false
      },
      {
        "text": "微博",
        "alias": "media",
        "meta": "@media",
        "userDefined": true
      },
      {
        "text": "頁面",
        "userDefined": false
      }
    ],
    "isTemplate": false,
    "count": 0,
    "updated": 0
  },
  {
    "id": "b7e8e8e5-4742-42cb-8b41-756e3cd4ece9",
    "data": [
      {
        "text": "告訴我你的社交網站",
        "userDefined": false
      }
    ],
    "isTemplate": false,
    "count": 0,
    "updated": 0
  },
  {
    "id": "2ca17c44-d48f-4591-9bca-1cf20425c9dd",
    "data": [
      {
        "text": "你有用",
        "userDefined": false
      },
      {
        "text": "微博",
        "alias": "media",
        "meta": "@media",
        "userDefined": true
      },
      {
        "text": "嗎",
        "userDefined": false
      }
    ],
    "isTemplate": false,
    "count": 0,
    "updated": 0
  },
  {
    "id": "cfaa520d-a2f7-47b3-a15e-eb5ac83ec2ac",
    "data": [
      {
        "text": "我想訪問你的",
        "userDefined": false
      },
      {
        "text": "instagram",
        "alias": "media",
        "meta": "@media",
        "userDefined": true
      },
      {
        "text": "網站",
        "userDefined": false
      }
    ],
    "isTemplate": false,
    "count": 0,
    "updated": 0
  },
  {
    "id": "7099c9bf-6c05-4b83-8016-a6f293ae5953",
    "data": [
      {
        "text": "給我介紹你",
        "userDefined": false
      },
      {
        "text": "的",
        "meta": "@sys.ignore",
        "userDefined": false
      },
      {
        "text": "推特",
        "alias": "media",
        "meta": "@media",
        "userDefined": false
      }
    ],
    "isTemplate": false,
    "count": 0,
    "updated": 0
  },
  {
    "id": "14355759-8bef-440c-9a2e-ac0a840e7a4c",
    "data": [
      {
        "text": "你的臉書頁面在哪裏",
        "userDefined": false
      }
    ],
    "isTemplate": false,
    "count": 0,
    "updated": 0
  },
  {
    "id": "c13b7b4b-e768-4e0e-be89-50be5ad7dc32",
    "data": [
      {
        "text": "你的社交網站",
        "userDefined": false
      }
    ],
    "isTemplate": false,
    "count": 0,
    "updated": 0
  },
  {
    "id": "b11e5bbb-4fc4-4317-9b63-eb65f3bbe511",
    "data": [
      {
        "text": "你有",
        "userDefined": false
      },
      {
        "text": "instagram",
        "alias": "media",
        "meta": "@media",
        "userDefined": true
      },
      {
        "text": "帳號嗎",
        "userDefined": false
      }
    ],
    "isTemplate": false,
    "count": 0,
    "updated": 0
  }
]