[
  {
    "id": "e5e5897a-3537-486c-ac08-201148e41499",
    "data": [
      {
        "text": "你的",
        "userDefined": false
      },
      {
        "text": "推特",
        "alias": "media",
        "meta": "@media",
        "userDefined": true
      }
    ],
    "isTemplate": false,
    "count": 0,
    "updated": 0
  },
  {
    "id": "82972944-7187-42a2-891b-7409072bdb8f",
    "data": [
      {
        "text": "還要你的",
        "userDefined": false
      },
      {
        "text": "微博",
        "alias": "media",
        "meta": "@media",
        "userDefined": false
      }
    ],
    "isTemplate": false,
    "count": 0,
    "updated": 0
  },
  {
    "id": "366e5b21-724b-4a45-be35-f8c17aafffbc",
    "data": [
      {
        "text": "我還要你的",
        "userDefined": false
      },
      {
        "text": "instagram",
        "alias": "media",
        "meta": "@media",
        "userDefined": false
      }
    ],
    "isTemplate": false,
    "count": 0,
    "updated": 0
  },
  {
    "id": "59a91510-29be-4cae-a669-457b92211390",
    "data": [
      {
        "text": "關于你的",
        "userDefined": false
      },
      {
        "text": "推特",
        "alias": "media",
        "meta": "@media",
        "userDefined": false
      }
    ],
    "isTemplate": false,
    "count": 0,
    "updated": 0
  },
  {
    "id": "65754bc2-ec0c-4184-b1db-17804e59fc71",
    "data": [
      {
        "text": "怎麽能給我看你的",
        "userDefined": false
      },
      {
        "text": "丁香園",
        "alias": "media",
        "meta": "@media",
        "userDefined": false
      }
    ],
    "isTemplate": false,
    "count": 0,
    "updated": 0
  },
  {
    "id": "b679bd0a-65eb-4d7c-873c-cf85030393a9",
    "data": [
      {
        "text": "現在你的",
        "userDefined": false
      },
      {
        "text": "臉書",
        "alias": "media",
        "meta": "@media",
        "userDefined": false
      }
    ],
    "isTemplate": false,
    "count": 0,
    "updated": 0
  },
  {
    "id": "5de70e30-e222-43a1-9955-3a5f27f48df1",
    "data": [
      {
        "text": "能不能給我看你的",
        "userDefined": false
      },
      {
        "text": "街旁",
        "alias": "media",
        "meta": "@media",
        "userDefined": false
      }
    ],
    "isTemplate": false,
    "count": 0,
    "updated": 0
  },
  {
    "id": "d18bf161-38d2-4114-9fa1-aa4097181dc1",
    "data": [
      {
        "text": "會不會給我看你的",
        "userDefined": false
      },
      {
        "text": "豆瓣",
        "alias": "media",
        "meta": "@media",
        "userDefined": false
      }
    ],
    "isTemplate": false,
    "count": 0,
    "updated": 0
  },
  {
    "id": "59dd340a-a636-4e82-9c65-e649bb946194",
    "data": [
      {
        "text": "你",
        "userDefined": false
      },
      {
        "text": "的",
        "meta": "@sys.ignore",
        "userDefined": false
      },
      {
        "text": "臉書",
        "alias": "media",
        "meta": "@media",
        "userDefined": true
      }
    ],
    "isTemplate": false,
    "count": 0,
    "updated": 0
  },
  {
    "id": "cc15d4af-7fd0-468c-809a-2ee32a58428e",
    "data": [
      {
        "text": "還能不能給我看你的",
        "userDefined": false
      },
      {
        "text": "開心網",
        "alias": "media",
        "meta": "@media",
        "userDefined": false
      }
    ],
    "isTemplate": false,
    "count": 0,
    "updated": 0
  },
  {
    "id": "7be1da71-0b1b-4f4b-9673-5d2e6a1422cb",
    "data": [
      {
        "text": "我還很想看你的",
        "userDefined": false
      },
      {
        "text": "新浪微博",
        "alias": "media",
        "meta": "@media",
        "userDefined": false
      }
    ],
    "isTemplate": false,
    "count": 0,
    "updated": 0
  }
]