[
  {
    "id": "bb87f1de-4808-4952-8262-9f7c96df4c1d",
    "data": [
      {
        "text": "además dígales que ",
        "userDefined": false
      },
      {
        "text": "el avatar me gusta mucho",
        "alias": "message",
        "meta": "@sys.any",
        "userDefined": true
      }
    ],
    "isTemplate": false,
    "count": 0,
    "updated": 0
  },
  {
    "id": "2caf8f08-2e8f-45e2-980d-51fbe98859f4",
    "data": [
      {
        "text": "y que ",
        "userDefined": false
      },
      {
        "text": "quiero la versión premium",
        "alias": "message",
        "meta": "@sys.any",
        "userDefined": true
      }
    ],
    "isTemplate": false,
    "count": 0,
    "updated": 0
  },
  {
    "id": "017b61d2-8346-499c-bf5e-8802b3597692",
    "data": [
      {
        "text": "además ",
        "userDefined": false
      },
      {
        "text": "hay que mejorar unas funciones",
        "alias": "message",
        "meta": "@sys.any",
        "userDefined": true
      }
    ],
    "isTemplate": false,
    "count": 0,
    "updated": 0
  },
  {
    "id": "23ade8e4-3159-4946-bfc5-2cfd58d9fa8f",
    "data": [
      {
        "text": "y que ",
        "userDefined": false
      },
      {
        "text": "tengo un problema",
        "alias": "message",
        "meta": "@sys.any",
        "userDefined": true
      }
    ],
    "isTemplate": false,
    "count": 0,
    "updated": 0
  },
  {
    "id": "4c70b32c-a01e-4f60-95b3-18677a31bd2d",
    "data": [
      {
        "text": "y ",
        "userDefined": false
      },
      {
        "text": "otra",
        "meta": "@sys.ignore",
        "userDefined": true
      },
      {
        "text": " cosa que quería comentar es que ",
        "userDefined": false
      },
      {
        "text": "funciona muy bien",
        "alias": "message",
        "meta": "@sys.any",
        "userDefined": true
      }
    ],
    "isTemplate": false,
    "count": 0,
    "updated": 0
  }
]