[
  {
    "id": "af409a07-b179-4bcb-aa66-9bc696d99b28",
    "data": [
      {
        "text": "你的老师是谁",
        "userDefined": false
      }
    ],
    "isTemplate": false,
    "count": 0,
    "updated": 0
  },
  {
    "id": "6af9f26b-f20d-42e6-8f46-6e3bc733b749",
    "data": [
      {
        "text": "我想知道是谁造你的",
        "userDefined": false
      }
    ],
    "isTemplate": false,
    "count": 0,
    "updated": 0
  },
  {
    "id": "a67731f4-73ec-408f-9973-5067ede0dfdc",
    "data": [
      {
        "text": "你的开发者名称是什么",
        "userDefined": false
      }
    ],
    "isTemplate": false,
    "count": 0,
    "updated": 0
  },
  {
    "id": "e6ee245e-b5c0-4e47-97af-71879780929e",
    "data": [
      {
        "text": "谁创造了你",
        "userDefined": false
      }
    ],
    "isTemplate": false,
    "count": 0,
    "updated": 0
  },
  {
    "id": "012979ec-f89f-4dc9-86f6-72b9d5510994",
    "data": [
      {
        "text": "谁是你的开发者",
        "userDefined": false
      }
    ],
    "isTemplate": false,
    "count": 0,
    "updated": 0
  },
  {
    "id": "0abce76f-78b1-4c21-81a2-5ded304e3120",
    "data": [
      {
        "text": "你的开发者是谁",
        "userDefined": false
      }
    ],
    "isTemplate": false,
    "count": 1,
    "updated": 0
  },
  {
    "id": "1975a27e-5ac8-4c38-8187-981bcfdfaa14",
    "data": [
      {
        "text": "你",
        "userDefined": false
      },
      {
        "text": "的",
        "meta": "@sys.ignore",
        "userDefined": false
      },
      {
        "text": "开发",
        "meta": "@sys.ignore",
        "userDefined": false
      },
      {
        "text": "人员是谁",
        "userDefined": false
      }
    ],
    "isTemplate": false,
    "count": 0,
    "updated": 0
  },
  {
    "id": "0e0867bc-50a1-4ec6-abc6-d50cbcbecad5",
    "data": [
      {
        "text": "谁是你的程序员",
        "userDefined": false
      }
    ],
    "isTemplate": false,
    "count": 0,
    "updated": 0
  },
  {
    "id": "ab0d9f14-cca4-45a5-b223-b3d94d733ece",
    "data": [
      {
        "text": "你能不能告诉我你的创作者",
        "userDefined": false
      }
    ],
    "isTemplate": false,
    "count": 0,
    "updated": 0
  },
  {
    "id": "c0f1bc10-1133-4221-aad2-351765b821dd",
    "data": [
      {
        "text": "谁发明了你",
        "userDefined": false
      }
    ],
    "isTemplate": false,
    "count": 0,
    "updated": 0
  },
  {
    "id": "f357672f-7fe4-4c1b-b2c8-9d241e7f5a57",
    "data": [
      {
        "text": "你的开发者名字是什么",
        "userDefined": false
      }
    ],
    "isTemplate": false,
    "count": 0,
    "updated": 0
  },
  {
    "id": "eb3400ed-6b19-4e2e-aecd-74dd74354e02",
    "data": [
      {
        "text": "谁是你的创造者",
        "userDefined": false
      }
    ],
    "isTemplate": false,
    "count": 0,
    "updated": 0
  },
  {
    "id": "42fa5c29-6216-4da2-ad9a-e5a224633fb9",
    "data": [
      {
        "text": "谁是你的创始人",
        "userDefined": false
      }
    ],
    "isTemplate": false,
    "count": 0,
    "updated": 0
  },
  {
    "id": "6625abbb-dc19-4670-9d87-e6bc259c63fe",
    "data": [
      {
        "text": "我想知道是谁造你",
        "userDefined": false
      }
    ],
    "isTemplate": false,
    "count": 0,
    "updated": 0
  },
  {
    "id": "0bcfe12c-3146-4eef-ba32-10bde5395281",
    "data": [
      {
        "text": "谁是你的创作者",
        "userDefined": false
      }
    ],
    "isTemplate": false,
    "count": 0,
    "updated": 0
  },
  {
    "id": "1f6352d3-c114-4d2a-be54-398ee297b89a",
    "data": [
      {
        "text": "你知道谁创造了你吗",
        "userDefined": false
      }
    ],
    "isTemplate": false,
    "count": 0,
    "updated": 0
  },
  {
    "id": "be232d1e-5ced-4bf8-8c4a-43fa976efb52",
    "data": [
      {
        "text": "你",
        "userDefined": false
      },
      {
        "text": "的",
        "meta": "@sys.ignore",
        "userDefined": false
      },
      {
        "text": "开发",
        "meta": "@sys.ignore",
        "userDefined": false
      },
      {
        "text": "人员",
        "userDefined": false
      }
    ],
    "isTemplate": false,
    "count": 0,
    "updated": 0
  },
  {
    "id": "67c653cd-69c8-4af8-9251-f278e34c58b6",
    "data": [
      {
        "text": "你知道谁制造你吗",
        "userDefined": false
      }
    ],
    "isTemplate": false,
    "count": 0,
    "updated": 0
  },
  {
    "id": "17cf9c8b-1675-400d-bed1-bf7de2e531f6",
    "data": [
      {
        "text": "你能告诉我你创造你的人吗",
        "userDefined": false
      }
    ],
    "isTemplate": false,
    "count": 0,
    "updated": 0
  },
  {
    "id": "225839e8-6731-472b-bb0e-107569ce9811",
    "data": [
      {
        "text": "谁创作你",
        "userDefined": false
      }
    ],
    "isTemplate": false,
    "count": 0,
    "updated": 0
  },
  {
    "id": "d2410977-12e9-40a5-ab8e-4049e75e448d",
    "data": [
      {
        "text": "你的程序员的名字是什么",
        "userDefined": false
      }
    ],
    "isTemplate": false,
    "count": 0,
    "updated": 0
  },
  {
    "id": "afc6b2fd-b8ee-4416-82e1-4116c7393961",
    "data": [
      {
        "text": "我想知道你开发者的名字",
        "userDefined": false
      }
    ],
    "isTemplate": false,
    "count": 0,
    "updated": 0
  },
  {
    "id": "3fbcb261-6f58-4cd7-9779-dcfa2d6f6bfb",
    "data": [
      {
        "text": "你老师的名字是什么",
        "userDefined": false
      }
    ],
    "isTemplate": false,
    "count": 0,
    "updated": 0
  },
  {
    "id": "f81abee5-c803-4990-939d-a35b7af93482",
    "data": [
      {
        "text": "谁创造你",
        "userDefined": false
      }
    ],
    "isTemplate": false,
    "count": 0,
    "updated": 0
  },
  {
    "id": "2502dfec-db2a-4d31-a3ad-97d1c2a194ea",
    "data": [
      {
        "text": "你的开发者的名字是什么",
        "userDefined": false
      }
    ],
    "isTemplate": false,
    "count": 0,
    "updated": 0
  },
  {
    "id": "f0f48115-9a0d-4e4f-bd2f-f239403a3c3d",
    "data": [
      {
        "text": "你的开发者",
        "userDefined": false
      }
    ],
    "isTemplate": false,
    "count": 0,
    "updated": 0
  },
  {
    "id": "4cafee8e-64fa-48e8-b7ac-aeccecc2c238",
    "data": [
      {
        "text": "你知道谁做了你",
        "userDefined": false
      }
    ],
    "isTemplate": false,
    "count": 0,
    "updated": 0
  },
  {
    "id": "8ccb217f-1a66-4805-9f5e-430d308d7ceb",
    "data": [
      {
        "text": "你的创造者的名字是什么",
        "userDefined": false
      }
    ],
    "isTemplate": false,
    "count": 0,
    "updated": 0
  },
  {
    "id": "3a8e8be3-c03a-4497-83db-42dc1e5d822c",
    "data": [
      {
        "text": "你的创作者的名字是什么",
        "userDefined": false
      }
    ],
    "isTemplate": false,
    "count": 0,
    "updated": 0
  },
  {
    "id": "5cc2ab70-c3a3-403e-82f7-15d9f37b0e21",
    "data": [
      {
        "text": "你知道你的创作者吗",
        "userDefined": false
      }
    ],
    "isTemplate": false,
    "count": 0,
    "updated": 0
  }
]