[
  {
    "id": "5ebd3868-906d-4364-91cb-07106fb9ac8c",
    "data": [
      {
        "text": "dame el contacto telefónico de tus diseñadores",
        "userDefined": false
      }
    ],
    "isTemplate": false,
    "count": 0,
    "updated": 0
  },
  {
    "id": "784808fb-8448-4652-95bf-3957b2131bbd",
    "data": [
      {
        "text": "contáctame a tus creadores vía teléfono",
        "userDefined": false
      }
    ],
    "isTemplate": false,
    "count": 0,
    "updated": 0
  },
  {
    "id": "d80b47c8-8448-446c-a1c8-cb769f27ce34",
    "data": [
      {
        "text": "ponme en contacto con tus creadores por teléfono",
        "userDefined": false
      }
    ],
    "isTemplate": false,
    "count": 0,
    "updated": 0
  },
  {
    "id": "ed2d3bf3-2221-4a98-a83e-eacfcdae377a",
    "data": [
      {
        "text": "me podrías dar el número de teléfono de tus creadores",
        "userDefined": false
      }
    ],
    "isTemplate": false,
    "count": 0,
    "updated": 0
  },
  {
    "id": "39444c16-972f-4820-bae4-ec2d11b28c02",
    "data": [
      {
        "text": "me gustaría hablar con tus desarrolladores por teléfono",
        "userDefined": false
      }
    ],
    "isTemplate": false,
    "count": 0,
    "updated": 0
  },
  {
    "id": "c63e5818-854f-4db5-8a08-f516c823088d",
    "data": [
      {
        "text": "dame el número de teléfono de tus diseñadores",
        "userDefined": false
      }
    ],
    "isTemplate": false,
    "count": 0,
    "updated": 0
  },
  {
    "id": "f2cebcba-8ea5-4594-9dca-9154dfa0f014",
    "data": [
      {
        "text": "puedo llamar a tus creadores",
        "userDefined": false
      }
    ],
    "isTemplate": false,
    "count": 0,
    "updated": 0
  },
  {
    "id": "fbabf291-50c0-4c0c-bdbd-6ed81d3bc0c0",
    "data": [
      {
        "text": "necesito contactar a tus creadores por teléfono",
        "userDefined": false
      }
    ],
    "isTemplate": false,
    "count": 0,
    "updated": 0
  },
  {
    "id": "d3d67c2f-9a54-4093-ae79-4168c201732a",
    "data": [
      {
        "text": "quiero ponerme en contacto con tus creadores por teléfono",
        "userDefined": false
      }
    ],
    "isTemplate": false,
    "count": 0,
    "updated": 0
  },
  {
    "id": "6763f30e-c9ec-4dc6-9774-bd98df6c977f",
    "data": [
      {
        "text": "encuentra el número de teléfono de tus creadores",
        "userDefined": false
      }
    ],
    "isTemplate": false,
    "count": 0,
    "updated": 0
  },
  {
    "id": "0cbe3ee9-7407-43aa-9f46-dc707b51f027",
    "data": [
      {
        "text": "quisiera contactar con tus desarrolladores por teléfono",
        "userDefined": false
      }
    ],
    "isTemplate": false,
    "count": 0,
    "updated": 0
  },
  {
    "id": "2147e09b-1045-4b88-8c20-36e16c485c11",
    "data": [
      {
        "text": "dime el número de teléfono de tus creadores",
        "userDefined": false
      }
    ],
    "isTemplate": false,
    "count": 0,
    "updated": 0
  }
]