[
  {
    "id": "7baa0b89-6abd-463e-a43d-d29a928ac88c",
    "data": [
      {
        "text": "私はあなたが好きだ",
        "alias": "message",
        "meta": "@sys.any",
        "userDefined": true
      },
      {
        "text": "と開発者に伝えてください",
        "userDefined": false
      }
    ],
    "isTemplate": false,
    "count": 0,
    "updated": 0
  },
  {
    "id": "aa75d056-52f9-4ad4-903f-ca9a4f6a291f",
    "data": [
      {
        "text": "私が不満に思っている",
        "alias": "message",
        "meta": "@sys.any",
        "userDefined": true
      },
      {
        "text": "とデベロッパーに伝えてください",
        "userDefined": false
      }
    ],
    "isTemplate": false,
    "count": 1,
    "updated": 0
  },
  {
    "id": "cede092d-c7e3-4216-8bb4-16ee674514a0",
    "data": [
      {
        "text": "私が嫌っている",
        "alias": "message",
        "meta": "@sys.any",
        "userDefined": true
      },
      {
        "text": "とデベロッパーに伝えて下さい",
        "userDefined": false
      }
    ],
    "isTemplate": false,
    "count": 0,
    "updated": 0
  },
  {
    "id": "65733727-d3bd-4166-89c1-042536854752",
    "data": [
      {
        "text": "私はあなたが大好きだ",
        "alias": "message",
        "meta": "@sys.any",
        "userDefined": true
      },
      {
        "text": "とデベロッパーに伝えてください",
        "userDefined": false
      }
    ],
    "isTemplate": false,
    "count": 0,
    "updated": 0
  },
  {
    "id": "0965cee7-e995-4b5e-b9c2-04e0778ed500",
    "data": [
      {
        "text": "あなたが大好きだ",
        "alias": "message",
        "meta": "@sys.any",
        "userDefined": true
      },
      {
        "text": "ってことをデベロッパーに伝えて",
        "userDefined": false
      }
    ],
    "isTemplate": false,
    "count": 0,
    "updated": 0
  },
  {
    "id": "32940a83-cd34-4148-a9c9-0cf3f70ab6aa",
    "data": [
      {
        "text": "このアプリはすばらしい",
        "alias": "message",
        "meta": "@sys.any",
        "userDefined": true
      },
      {
        "text": "と作成者にメッセージを伝えて",
        "userDefined": false
      }
    ],
    "isTemplate": false,
    "count": 1,
    "updated": 0
  },
  {
    "id": "47717f66-6a9f-44fd-ba18-5b9271d93278",
    "data": [
      {
        "text": "まるでお母さんみたいだ",
        "alias": "message",
        "meta": "@sys.any",
        "userDefined": true
      },
      {
        "text": "とデベロッパーに伝えてください",
        "userDefined": false
      }
    ],
    "isTemplate": false,
    "count": 0,
    "updated": 0
  },
  {
    "id": "5406859d-8e1c-453d-aced-254a55460039",
    "data": [
      {
        "text": "払い戻しがしたい",
        "alias": "message",
        "meta": "@sys.any",
        "userDefined": true
      },
      {
        "text": "と作成者に伝えて",
        "userDefined": false
      }
    ],
    "isTemplate": false,
    "count": 0,
    "updated": 0
  },
  {
    "id": "9089a8cf-5a82-421b-b119-86877da1ef24",
    "data": [
      {
        "text": "デベロッパーに",
        "userDefined": false
      },
      {
        "text": "あなたのことが大好きだ",
        "alias": "message",
        "meta": "@sys.any",
        "userDefined": true
      },
      {
        "text": "と伝えてください",
        "userDefined": false
      }
    ],
    "isTemplate": false,
    "count": 0,
    "updated": 0
  },
  {
    "id": "9ff21c82-cf0c-45ad-9093-3a6bd1d40ed5",
    "data": [
      {
        "text": "デベロッパーに",
        "userDefined": false
      },
      {
        "text": "私はあなたのことが大好きだ",
        "alias": "message",
        "meta": "@sys.any",
        "userDefined": true
      },
      {
        "text": "と伝えてください",
        "userDefined": false
      }
    ],
    "isTemplate": false,
    "count": 0,
    "updated": 0
  }
]