[
  {
    "id": "ed89f7a4-0dae-495d-88a0-bce17abbedc4",
    "data": [
      {
        "text": "o ",
        "userDefined": false
      },
      {
        "text": "Instagram",
        "alias": "media",
        "meta": "@media",
        "userDefined": true
      },
      {
        "text": " também",
        "userDefined": false
      }
    ],
    "isTemplate": false,
    "count": 0,
    "updated": 0
  },
  {
    "id": "d7ab2721-2144-4d0d-b5db-84cd3f2e5a0c",
    "data": [
      {
        "text": "o seu ",
        "userDefined": false
      },
      {
        "text": "Twitter",
        "alias": "media",
        "meta": "@media",
        "userDefined": true
      },
      {
        "text": " também",
        "userDefined": false
      }
    ],
    "isTemplate": false,
    "count": 0,
    "updated": 0
  },
  {
    "id": "7aab4351-fb9b-4f2e-a759-c8f854287696",
    "data": [
      {
        "text": "também preciso da página do ",
        "userDefined": false
      },
      {
        "text": "Facebook",
        "alias": "media",
        "meta": "@media",
        "userDefined": true
      }
    ],
    "isTemplate": false,
    "count": 0,
    "updated": 0
  },
  {
    "id": "6e29cc74-df16-482f-b2fc-b4bb3970e2e4",
    "data": [
      {
        "text": "e o seu ",
        "userDefined": false
      },
      {
        "text": "Twitter",
        "alias": "media",
        "meta": "@media",
        "userDefined": true
      }
    ],
    "isTemplate": false,
    "count": 0,
    "updated": 0
  },
  {
    "id": "c35f42c6-2b09-46b2-b183-a5a50217f69b",
    "data": [
      {
        "text": "e o ",
        "userDefined": false
      },
      {
        "text": "Twitter",
        "alias": "media",
        "meta": "@media",
        "userDefined": true
      }
    ],
    "isTemplate": false,
    "count": 0,
    "updated": 0
  },
  {
    "id": "3012a21e-d2c5-4310-b8c3-0c34eda9f222",
    "data": [
      {
        "text": "e o ",
        "userDefined": false
      },
      {
        "text": "Instagram",
        "alias": "media",
        "meta": "@media",
        "userDefined": true
      }
    ],
    "isTemplate": false,
    "count": 0,
    "updated": 0
  },
  {
    "id": "c7af2b48-a5a3-4aa2-b727-5b3821d192ee",
    "data": [
      {
        "text": "também o ",
        "userDefined": false
      },
      {
        "text": "Twitter",
        "alias": "media",
        "meta": "@media",
        "userDefined": true
      }
    ],
    "isTemplate": false,
    "count": 0,
    "updated": 0
  },
  {
    "id": "d16ea559-e838-4a7a-877c-b86e11b94ddf",
    "data": [
      {
        "text": "o seu ",
        "userDefined": false
      },
      {
        "text": "Instagram",
        "alias": "media",
        "meta": "@media",
        "userDefined": true
      }
    ],
    "isTemplate": false,
    "count": 0,
    "updated": 0
  },
  {
    "id": "b6899894-0466-4b89-bc7d-47bd18591cb5",
    "data": [
      {
        "text": "e a página do ",
        "userDefined": false
      },
      {
        "text": "Facebook",
        "alias": "media",
        "meta": "@media",
        "userDefined": true
      }
    ],
    "isTemplate": false,
    "count": 1,
    "updated": 0
  }
]