[
  {
    "id": "83ca322d-b24f-4c63-a4b2-43561a076caf",
    "data": [
      {
        "text": "je t\u0027aime",
        "alias": "text",
        "meta": "@sys.any",
        "userDefined": true
      }
    ],
    "isTemplate": false,
    "count": 0,
    "updated": 0
  },
  {
    "id": "d6582d3c-8c59-45e7-9d8c-1bd9c7e8a801",
    "data": [
      {
        "text": "「",
        "userDefined": false
      },
      {
        "text": "こんにちは",
        "alias": "text",
        "meta": "@sys.any",
        "userDefined": true
      },
      {
        "text": "」",
        "userDefined": false
      }
    ],
    "isTemplate": false,
    "count": 1,
    "updated": 0
  },
  {
    "id": "2ced735c-283a-4ae1-83c0-2f1e4bd96cb4",
    "data": [
      {
        "text": "「",
        "userDefined": false
      },
      {
        "text": "bonjour",
        "alias": "text",
        "meta": "@sys.any",
        "userDefined": true
      },
      {
        "text": "」も教えて",
        "userDefined": false
      }
    ],
    "isTemplate": false,
    "count": 0,
    "updated": 0
  },
  {
    "id": "2b65df47-8189-4d90-9755-3dc7b356c4d0",
    "data": [
      {
        "text": "じゃあ「",
        "userDefined": false
      },
      {
        "text": "朝食",
        "alias": "text",
        "meta": "@sys.any",
        "userDefined": true
      },
      {
        "text": "」は",
        "userDefined": false
      }
    ],
    "isTemplate": false,
    "count": 0,
    "updated": 0
  },
  {
    "id": "9b0c65ff-9abe-4b13-a041-9cf4980d43ae",
    "data": [
      {
        "text": "「",
        "userDefined": false
      },
      {
        "text": "明日電話して",
        "alias": "text",
        "meta": "@sys.any",
        "userDefined": true
      },
      {
        "text": "」は何て言う",
        "userDefined": false
      }
    ],
    "isTemplate": false,
    "count": 0,
    "updated": 0
  },
  {
    "id": "570e8f78-0ba9-468a-898e-a7376fd5e484",
    "data": [
      {
        "text": "じゃあ「",
        "userDefined": false
      },
      {
        "text": "最近どう",
        "alias": "text",
        "meta": "@sys.any",
        "userDefined": true
      },
      {
        "text": "」は何",
        "userDefined": false
      }
    ],
    "isTemplate": false,
    "count": 0,
    "updated": 0
  },
  {
    "id": "3c3c3f5b-3edf-43df-95ed-ea3ff904f08d",
    "data": [
      {
        "text": "「",
        "userDefined": false
      },
      {
        "text": "あなたを愛しています",
        "alias": "text",
        "meta": "@sys.any",
        "userDefined": true
      },
      {
        "text": "」",
        "userDefined": false
      }
    ],
    "isTemplate": false,
    "count": 0,
    "updated": 0
  },
  {
    "id": "d6b9257b-6fd1-4ad9-8e27-d2ad84c348dc",
    "data": [
      {
        "text": "「",
        "userDefined": false
      },
      {
        "text": "調子はどうですか",
        "alias": "text",
        "meta": "@sys.any",
        "userDefined": true
      },
      {
        "text": "」は何になるの",
        "userDefined": false
      }
    ],
    "isTemplate": false,
    "count": 0,
    "updated": 0
  },
  {
    "id": "54841004-6c34-4ab6-b4ce-a85a67b2caca",
    "data": [
      {
        "text": "じゃあ「",
        "userDefined": false
      },
      {
        "text": "お元気ですか",
        "alias": "text",
        "meta": "@sys.any",
        "userDefined": true
      },
      {
        "text": "」",
        "userDefined": false
      }
    ],
    "isTemplate": false,
    "count": 0,
    "updated": 0
  }
]