[
  {
    "id": "e61f0e68-8604-4eef-b40a-499460fca5fb",
    "data": [
      {
        "text": "y ",
        "userDefined": false
      },
      {
        "text": "perro",
        "alias": "text",
        "meta": "@sys.any",
        "userDefined": true
      },
      {
        "text": " en ",
        "userDefined": false
      },
      {
        "text": "alemán",
        "alias": "lang-to",
        "meta": "@sys.language",
        "userDefined": true
      }
    ],
    "isTemplate": false,
    "count": 0,
    "updated": 0
  },
  {
    "id": "a2bfe4e7-0f8e-4c02-aae8-8c898e7de041",
    "data": [
      {
        "text": "al ",
        "userDefined": false
      },
      {
        "text": "polaco",
        "alias": "lang-to",
        "meta": "@sys.language",
        "userDefined": true
      },
      {
        "text": " ",
        "userDefined": false
      },
      {
        "text": "te quiero",
        "alias": "text",
        "meta": "@sys.any",
        "userDefined": true
      }
    ],
    "isTemplate": false,
    "count": 0,
    "updated": 0
  },
  {
    "id": "aa527aaf-8707-47ba-bf30-3715b9d76315",
    "data": [
      {
        "text": "ahora",
        "meta": "@sys.ignore",
        "userDefined": true
      },
      {
        "text": " ",
        "userDefined": false
      },
      {
        "text": "pasta",
        "alias": "text",
        "meta": "@sys.any",
        "userDefined": true
      },
      {
        "text": " ",
        "userDefined": false
      },
      {
        "text": "al",
        "meta": "@sys.ignore",
        "userDefined": true
      },
      {
        "text": " ",
        "userDefined": false
      },
      {
        "text": "francés",
        "alias": "lang-to",
        "meta": "@sys.language",
        "userDefined": true
      }
    ],
    "isTemplate": false,
    "count": 0,
    "updated": 0
  },
  {
    "id": "b143a3a9-5ed8-4b5b-9c6a-5d03a1e7a0cc",
    "data": [
      {
        "text": "y ",
        "userDefined": false
      },
      {
        "text": "hola qué tal",
        "alias": "text",
        "meta": "@sys.any",
        "userDefined": true
      }
    ],
    "isTemplate": false,
    "count": 0,
    "updated": 0
  },
  {
    "id": "82f07f6f-9601-4a53-bfd5-9d301efe4aee",
    "data": [
      {
        "text": "ahora",
        "meta": "@sys.ignore",
        "userDefined": true
      },
      {
        "text": " ",
        "userDefined": false
      },
      {
        "text": "gato",
        "alias": "text",
        "meta": "@sys.any",
        "userDefined": true
      }
    ],
    "isTemplate": false,
    "count": 0,
    "updated": 0
  }
]