[
  {
    "id": "9144724a-cc4b-4b91-a352-d216ea2c0c84",
    "data": [
      {
        "text": "olá",
        "alias": "text",
        "meta": "@sys.any",
        "userDefined": true
      },
      {
        "text": " em ",
        "userDefined": false
      },
      {
        "text": "russo",
        "alias": "lang-to",
        "meta": "@sys.language",
        "userDefined": true
      }
    ],
    "isTemplate": false,
    "count": 0,
    "updated": 0
  },
  {
    "id": "47d1a181-82ed-4e96-8510-ff9bdbf0aa49",
    "data": [
      {
        "text": "e para ",
        "userDefined": false
      },
      {
        "text": "espanhol",
        "alias": "lang-to",
        "meta": "@sys.language",
        "userDefined": true
      },
      {
        "text": " agora",
        "userDefined": false
      }
    ],
    "isTemplate": false,
    "count": 0,
    "updated": 0
  },
  {
    "id": "947592e0-e237-4085-8240-2df551ea50df",
    "data": [
      {
        "text": "agora para ",
        "userDefined": false
      },
      {
        "text": "russo",
        "alias": "lang-to",
        "meta": "@sys.language",
        "userDefined": true
      }
    ],
    "isTemplate": false,
    "count": 0,
    "updated": 0
  },
  {
    "id": "2ed1375d-d11f-41f7-b8fc-77399c5e7a54",
    "data": [
      {
        "text": "e ",
        "userDefined": false
      },
      {
        "text": "olá",
        "alias": "text",
        "meta": "@sys.any",
        "userDefined": true
      },
      {
        "text": " em ",
        "userDefined": false
      },
      {
        "text": "francês",
        "alias": "lang-to",
        "meta": "@sys.language",
        "userDefined": true
      }
    ],
    "isTemplate": false,
    "count": 0,
    "updated": 0
  },
  {
    "id": "cf6a186b-b0b7-4578-81d7-fd74baf512a2",
    "data": [
      {
        "text": "e agora para ",
        "userDefined": false
      },
      {
        "text": "italiano",
        "alias": "lang-to",
        "meta": "@sys.language",
        "userDefined": true
      }
    ],
    "isTemplate": false,
    "count": 0,
    "updated": 0
  },
  {
    "id": "2ad86a5d-95a2-4035-b79a-b74343baa36c",
    "data": [
      {
        "text": "e em ",
        "userDefined": false
      },
      {
        "text": "francês",
        "alias": "lang-to",
        "meta": "@sys.language",
        "userDefined": true
      }
    ],
    "isTemplate": false,
    "count": 1,
    "updated": 0
  },
  {
    "id": "2882e4c4-89de-4c17-adca-69c8463fe337",
    "data": [
      {
        "text": "e ",
        "userDefined": false
      },
      {
        "text": "ciao",
        "alias": "text",
        "meta": "@sys.any",
        "userDefined": true
      },
      {
        "text": " em ",
        "userDefined": false
      },
      {
        "text": "francês",
        "alias": "lang-to",
        "meta": "@sys.language",
        "userDefined": true
      }
    ],
    "isTemplate": false,
    "count": 0,
    "updated": 0
  },
  {
    "id": "d16cab65-ab5a-4a7e-a998-9e2688efe382",
    "data": [
      {
        "text": "olá",
        "alias": "text",
        "meta": "@sys.any",
        "userDefined": true
      },
      {
        "text": " em ",
        "userDefined": false
      },
      {
        "text": "espanhol",
        "alias": "lang-to",
        "meta": "@sys.language",
        "userDefined": true
      }
    ],
    "isTemplate": false,
    "count": 0,
    "updated": 0
  },
  {
    "id": "aaaa3137-5247-4797-84c2-2cbc8ef16676",
    "data": [
      {
        "text": "e ",
        "userDefined": false
      },
      {
        "text": "agradável",
        "alias": "text",
        "meta": "@sys.any",
        "userDefined": true
      },
      {
        "text": " em ",
        "userDefined": false
      },
      {
        "text": "espanhol",
        "alias": "lang-to",
        "meta": "@sys.language",
        "userDefined": true
      }
    ],
    "isTemplate": false,
    "count": 0,
    "updated": 0
  }
]