[
  {
    "id": "2bb309d4-8716-415d-ab34-5fc5244aeae4",
    "data": [
      {
        "text": "translation from ",
        "userDefined": false
      },
      {
        "text": "English",
        "alias": "lang-from",
        "meta": "@sys.language",
        "userDefined": true
      },
      {
        "text": " to ",
        "userDefined": false
      },
      {
        "text": "Italian",
        "alias": "lang-to",
        "meta": "@sys.language",
        "userDefined": true
      }
    ],
    "isTemplate": false,
    "count": 0,
    "updated": 0
  },
  {
    "id": "a74db4a0-6a17-4d09-8e22-7f3f1516b7b1",
    "data": [
      {
        "text": "translate text ",
        "userDefined": false
      },
      {
        "text": "hello",
        "alias": "text",
        "meta": "@sys.any",
        "userDefined": true
      }
    ],
    "isTemplate": false,
    "count": 0,
    "updated": 0
  },
  {
    "id": "51602f02-4528-469f-8d65-a84f57b2faac",
    "data": [
      {
        "text": "translate ",
        "userDefined": false
      },
      {
        "text": "hi",
        "alias": "text",
        "meta": "@sys.any",
        "userDefined": true
      },
      {
        "text": " into ",
        "userDefined": false
      },
      {
        "text": "Spanish",
        "alias": "lang-to",
        "meta": "@sys.language",
        "userDefined": true
      }
    ],
    "isTemplate": false,
    "count": 1,
    "updated": 0
  },
  {
    "id": "9b4df737-4b61-4502-8542-93e1e6248f86",
    "data": [
      {
        "text": "translate ",
        "userDefined": false
      },
      {
        "text": "Spanish",
        "alias": "lang-from",
        "meta": "@sys.language",
        "userDefined": true
      },
      {
        "text": " word ",
        "userDefined": false
      },
      {
        "text": "trabajador",
        "alias": "text",
        "meta": "@sys.any",
        "userDefined": true
      },
      {
        "text": " into ",
        "userDefined": false
      },
      {
        "text": "English",
        "alias": "lang-to",
        "meta": "@sys.language",
        "userDefined": true
      }
    ],
    "isTemplate": false,
    "count": 0,
    "updated": 0
  },
  {
    "id": "90c218ce-fd85-4eb2-9a42-d50e3531e908",
    "data": [
      {
        "text": "translate ",
        "userDefined": false
      },
      {
        "text": "hello how are you",
        "alias": "text",
        "meta": "@sys.any",
        "userDefined": true
      },
      {
        "text": " in ",
        "userDefined": false
      },
      {
        "text": "Punjabi",
        "alias": "lang-to",
        "meta": "@sys.language",
        "userDefined": true
      }
    ],
    "isTemplate": false,
    "count": 0,
    "updated": 0
  },
  {
    "id": "93e12be8-bd68-41ac-b3b0-6e9f025cbe40",
    "data": [
      {
        "text": "translate ",
        "userDefined": false
      },
      {
        "text": "in America",
        "alias": "text",
        "meta": "@sys.any",
        "userDefined": true
      }
    ],
    "isTemplate": false,
    "count": 0,
    "updated": 0
  },
  {
    "id": "76f1ad27-1cc7-427f-addc-61364488e63f",
    "data": [
      {
        "text": "what\u0027s the ",
        "userDefined": false
      },
      {
        "text": "German",
        "alias": "lang-to",
        "meta": "@sys.language",
        "userDefined": true
      },
      {
        "text": " word for ",
        "userDefined": false
      },
      {
        "text": "breakfast",
        "alias": "text",
        "meta": "@sys.any",
        "userDefined": true
      }
    ],
    "isTemplate": false,
    "count": 0,
    "updated": 0
  },
  {
    "id": "f70075ac-cbce-4d47-9188-8c4bb97514ed",
    "data": [
      {
        "text": "translation of the word ",
        "userDefined": false
      },
      {
        "text": "bismilla",
        "alias": "text",
        "meta": "@sys.any",
        "userDefined": true
      },
      {
        "text": " into ",
        "userDefined": false
      },
      {
        "text": "English",
        "alias": "lang-to",
        "meta": "@sys.language",
        "userDefined": true
      }
    ],
    "isTemplate": false,
    "count": 0,
    "updated": 0
  },
  {
    "id": "881b4528-a11e-4366-9ae0-fffc6a623038",
    "data": [
      {
        "text": "translate ",
        "userDefined": false
      },
      {
        "text": "many",
        "alias": "text",
        "meta": "@sys.any",
        "userDefined": true
      },
      {
        "text": " from ",
        "userDefined": false
      },
      {
        "text": "English",
        "alias": "lang-from",
        "meta": "@sys.language",
        "userDefined": true
      },
      {
        "text": " to ",
        "userDefined": false
      },
      {
        "text": "French",
        "alias": "lang-to",
        "meta": "@sys.language",
        "userDefined": true
      }
    ],
    "isTemplate": false,
    "count": 1,
    "updated": 0
  },
  {
    "id": "9deddd41-2c14-460e-9d76-36169e93380b",
    "data": [
      {
        "text": "translate into ",
        "userDefined": false
      },
      {
        "text": "French",
        "alias": "lang-to",
        "meta": "@sys.language",
        "userDefined": true
      }
    ],
    "isTemplate": false,
    "count": 0,
    "updated": 0
  },
  {
    "id": "5dfe7488-7a8d-4c8b-946f-5363f8003fc6",
    "data": [
      {
        "text": "translate from ",
        "userDefined": false
      },
      {
        "text": "English",
        "alias": "lang-from",
        "meta": "@sys.language",
        "userDefined": true
      },
      {
        "text": " to ",
        "userDefined": false
      },
      {
        "text": "French",
        "alias": "lang-to",
        "meta": "@sys.language",
        "userDefined": true
      }
    ],
    "isTemplate": false,
    "count": 0,
    "updated": 0
  },
  {
    "id": "c2756cac-0c9f-4364-ad60-c3b6b683a888",
    "data": [
      {
        "text": "translate ",
        "userDefined": false
      },
      {
        "text": "table",
        "alias": "text",
        "meta": "@sys.any",
        "userDefined": true
      },
      {
        "text": " into ",
        "userDefined": false
      },
      {
        "text": "German",
        "alias": "lang-to",
        "meta": "@sys.language",
        "userDefined": true
      }
    ],
    "isTemplate": false,
    "count": 1,
    "updated": 0
  },
  {
    "id": "42358894-fb94-4d27-b68c-6470fba7dcba",
    "data": [
      {
        "text": "translate word ",
        "userDefined": false
      },
      {
        "text": "le renard",
        "alias": "text",
        "meta": "@sys.any",
        "userDefined": true
      },
      {
        "text": " into ",
        "userDefined": false
      },
      {
        "text": "English",
        "alias": "lang-to",
        "meta": "@sys.language",
        "userDefined": false
      }
    ],
    "isTemplate": false,
    "count": 0,
    "updated": 0
  },
  {
    "id": "6b267573-ebeb-44a3-afe5-2024c35f68ae",
    "data": [
      {
        "text": "how to translate ",
        "userDefined": false
      },
      {
        "text": "hello",
        "alias": "text",
        "meta": "@sys.any",
        "userDefined": true
      },
      {
        "text": " into ",
        "userDefined": false
      },
      {
        "text": "Spanish",
        "alias": "lang-to",
        "meta": "@sys.language",
        "userDefined": true
      }
    ],
    "isTemplate": false,
    "count": 0,
    "updated": 0
  },
  {
    "id": "17c96e7f-6b2e-4081-b815-74a1a8b6c36b",
    "data": [
      {
        "text": "please translate in ",
        "userDefined": false
      },
      {
        "text": "English",
        "alias": "lang-to",
        "meta": "@sys.language",
        "userDefined": true
      }
    ],
    "isTemplate": false,
    "count": 0,
    "updated": 0
  },
  {
    "id": "b5d5c5f4-6adc-408e-9f89-dcc591991c40",
    "data": [
      {
        "text": "translate ",
        "userDefined": false
      },
      {
        "text": "hola",
        "alias": "text",
        "meta": "@sys.any",
        "userDefined": true
      },
      {
        "text": " from ",
        "userDefined": false
      },
      {
        "text": "Spanish",
        "alias": "lang-from",
        "meta": "@sys.language",
        "userDefined": true
      }
    ],
    "isTemplate": false,
    "count": 0,
    "updated": 0
  },
  {
    "id": "9c1e93f3-5c6c-4752-95dd-d0088b6e07ee",
    "data": [
      {
        "text": "translate word ",
        "userDefined": false
      },
      {
        "text": "trabajador",
        "alias": "text",
        "meta": "@sys.any",
        "userDefined": true
      },
      {
        "text": " into ",
        "userDefined": false
      },
      {
        "text": "English",
        "alias": "lang-to",
        "meta": "@sys.language",
        "userDefined": true
      }
    ],
    "isTemplate": false,
    "count": 0,
    "updated": 0
  },
  {
    "id": "dfdc7c5a-76cb-462f-a3b0-6cb4ffc9f7a4",
    "data": [
      {
        "text": "read the translation of ",
        "userDefined": false
      },
      {
        "text": "so cool",
        "alias": "text",
        "meta": "@sys.any",
        "userDefined": true
      },
      {
        "text": " from ",
        "userDefined": false
      },
      {
        "text": "Spanish",
        "alias": "lang-from",
        "meta": "@sys.language",
        "userDefined": true
      }
    ],
    "isTemplate": false,
    "count": 0,
    "updated": 0
  },
  {
    "id": "8d50e720-4c53-4999-a6f2-733c3b027dd1",
    "data": [
      {
        "text": "translate into ",
        "userDefined": false
      },
      {
        "text": "English",
        "alias": "lang-to",
        "meta": "@sys.language",
        "userDefined": true
      },
      {
        "text": " ",
        "userDefined": false
      },
      {
        "text": "le renard",
        "alias": "text",
        "meta": "@sys.any",
        "userDefined": true
      }
    ],
    "isTemplate": false,
    "count": 0,
    "updated": 0
  },
  {
    "id": "63be089f-2764-41bb-91f0-2f7422813c2b",
    "data": [
      {
        "text": "translate ",
        "userDefined": false
      },
      {
        "text": "I love you",
        "alias": "text",
        "meta": "@sys.any",
        "userDefined": true
      },
      {
        "text": " from ",
        "userDefined": false
      },
      {
        "text": "English",
        "alias": "lang-from",
        "meta": "@sys.language",
        "userDefined": true
      },
      {
        "text": " into ",
        "userDefined": false
      },
      {
        "text": "Japanese",
        "alias": "lang-to",
        "meta": "@sys.language",
        "userDefined": true
      }
    ],
    "isTemplate": false,
    "count": 0,
    "updated": 0
  },
  {
    "id": "8c279638-0516-423a-80c5-b7110030afc9",
    "data": [
      {
        "text": "translate ",
        "userDefined": false
      },
      {
        "text": "we will go to the circus tomorrow",
        "alias": "text",
        "meta": "@sys.any",
        "userDefined": true
      },
      {
        "text": " into ",
        "userDefined": false
      },
      {
        "text": "Bulgarian",
        "alias": "lang-to",
        "meta": "@sys.language",
        "userDefined": true
      }
    ],
    "isTemplate": false,
    "count": 0,
    "updated": 0
  },
  {
    "id": "d9add44a-7ab8-4155-90d1-c4a9d49fc7d1",
    "data": [
      {
        "text": "translate this words into ",
        "userDefined": false
      },
      {
        "text": "English",
        "alias": "lang-to",
        "meta": "@sys.language",
        "userDefined": true
      },
      {
        "text": " ",
        "userDefined": false
      },
      {
        "text": "le renard",
        "alias": "text",
        "meta": "@sys.any",
        "userDefined": true
      }
    ],
    "isTemplate": false,
    "count": 0,
    "updated": 0
  },
  {
    "id": "d469639a-3945-4cf4-a712-1b9427688e42",
    "data": [
      {
        "text": "read the translation of ",
        "userDefined": false
      },
      {
        "text": "so cool",
        "alias": "text",
        "meta": "@sys.any",
        "userDefined": true
      }
    ],
    "isTemplate": false,
    "count": 0,
    "updated": 0
  },
  {
    "id": "82620f66-1897-46fb-8e5c-fa1da9929f46",
    "data": [
      {
        "text": "translate ",
        "userDefined": false
      },
      {
        "text": "we go to the cinema",
        "alias": "text",
        "meta": "@sys.any",
        "userDefined": true
      },
      {
        "text": " into ",
        "userDefined": false
      },
      {
        "text": "Italian",
        "alias": "lang-to",
        "meta": "@sys.language",
        "userDefined": true
      }
    ],
    "isTemplate": false,
    "count": 0,
    "updated": 0
  },
  {
    "id": "0c14f1c3-b14c-4eff-a45e-7ff7af310d4b",
    "data": [
      {
        "text": "English",
        "alias": "lang-from",
        "meta": "@sys.language",
        "userDefined": true
      },
      {
        "text": " ",
        "userDefined": false
      },
      {
        "text": "Russian",
        "alias": "lang-to",
        "meta": "@sys.language",
        "userDefined": true
      },
      {
        "text": " translation",
        "userDefined": false
      }
    ],
    "isTemplate": false,
    "count": 0,
    "updated": 0
  },
  {
    "id": "bd85b21b-36a9-43f9-bf2f-ae1123c2a934",
    "data": [
      {
        "text": "hi how are you",
        "alias": "text",
        "meta": "@sys.any",
        "userDefined": true
      },
      {
        "text": " into ",
        "userDefined": false
      },
      {
        "text": "Italian",
        "alias": "lang-to",
        "meta": "@sys.language",
        "userDefined": true
      }
    ],
    "isTemplate": false,
    "count": 0,
    "updated": 0
  },
  {
    "id": "7ab4cd81-211b-42eb-97f0-41c03616d984",
    "data": [
      {
        "text": "how do you say ",
        "userDefined": false
      },
      {
        "text": "where\u0027s the nearest bus stop",
        "alias": "text",
        "meta": "@sys.any",
        "userDefined": true
      },
      {
        "text": " in ",
        "userDefined": false
      },
      {
        "text": "French",
        "alias": "lang-to",
        "meta": "@sys.language",
        "userDefined": true
      }
    ],
    "isTemplate": false,
    "count": 0,
    "updated": 0
  },
  {
    "id": "b707af77-c2a9-4a77-b9a4-a0dc118ad37a",
    "data": [
      {
        "text": "translate ",
        "userDefined": false
      },
      {
        "text": "I love you",
        "alias": "text",
        "meta": "@sys.any",
        "userDefined": true
      },
      {
        "text": " from ",
        "userDefined": false
      },
      {
        "text": "English",
        "alias": "lang-from",
        "meta": "@sys.language",
        "userDefined": true
      },
      {
        "text": " into ",
        "userDefined": false
      },
      {
        "text": "Russian",
        "alias": "lang-to",
        "meta": "@sys.language",
        "userDefined": true
      }
    ],
    "isTemplate": false,
    "count": 0,
    "updated": 0
  },
  {
    "id": "694d38b0-4313-48ac-8d2c-a9483a4bab85",
    "data": [
      {
        "text": "translate ",
        "userDefined": false
      },
      {
        "text": "Happy New Year",
        "alias": "text",
        "meta": "@sys.any",
        "userDefined": true
      },
      {
        "text": " into ",
        "userDefined": false
      },
      {
        "text": "Spanish",
        "alias": "lang-to",
        "meta": "@sys.language",
        "userDefined": true
      }
    ],
    "isTemplate": false,
    "count": 0,
    "updated": 0
  },
  {
    "id": "4f202851-5702-4c70-9af3-1ef0152ce668",
    "data": [
      {
        "text": "translate for me",
        "userDefined": false
      }
    ],
    "isTemplate": false,
    "count": 0,
    "updated": 0
  },
  {
    "id": "8c05e158-5b6f-47ad-8375-bdd67b8e0fc5",
    "data": [
      {
        "text": "can you translate ",
        "userDefined": false
      },
      {
        "text": "hello",
        "alias": "text",
        "meta": "@sys.any",
        "userDefined": true
      },
      {
        "text": " in ",
        "userDefined": false
      },
      {
        "text": "German",
        "alias": "lang-to",
        "meta": "@sys.language",
        "userDefined": false
      }
    ],
    "isTemplate": false,
    "count": 0,
    "updated": 0
  },
  {
    "id": "8b6d8b3e-d460-4f76-a50c-78230a090060",
    "data": [
      {
        "text": "translate ",
        "userDefined": false
      },
      {
        "text": "student",
        "alias": "text",
        "meta": "@sys.any",
        "userDefined": true
      },
      {
        "text": " into ",
        "userDefined": false
      },
      {
        "text": "Chinese",
        "alias": "lang-to",
        "meta": "@sys.language",
        "userDefined": true
      }
    ],
    "isTemplate": false,
    "count": 0,
    "updated": 0
  },
  {
    "id": "24602283-f2e1-4351-ab6b-00df8e164876",
    "data": [
      {
        "text": "I need to translate ",
        "userDefined": false
      },
      {
        "text": "Bengali",
        "alias": "lang-from",
        "meta": "@sys.language",
        "userDefined": false
      }
    ],
    "isTemplate": false,
    "count": 0,
    "updated": 0
  },
  {
    "id": "6df68872-b112-43b2-a4a9-7654777f9ae5",
    "data": [
      {
        "text": "can you say something in ",
        "userDefined": false
      },
      {
        "text": "French",
        "alias": "lang-to",
        "meta": "@sys.language",
        "userDefined": true
      }
    ],
    "isTemplate": false,
    "count": 0,
    "updated": 0
  },
  {
    "id": "32ec091a-4dac-45c1-9bd1-9300f66187d5",
    "data": [
      {
        "text": "how do you say ",
        "userDefined": false
      },
      {
        "text": "Santa Claus",
        "alias": "text",
        "meta": "@sys.any",
        "userDefined": true
      },
      {
        "text": " in ",
        "userDefined": false
      },
      {
        "text": "Finnish",
        "alias": "lang-to",
        "meta": "@sys.language",
        "userDefined": true
      }
    ],
    "isTemplate": false,
    "count": 0,
    "updated": 0
  },
  {
    "id": "fa81f36b-65dd-47d5-bdec-ce1c22b6a524",
    "data": [
      {
        "text": "what\u0027s ",
        "userDefined": false
      },
      {
        "text": "terrific",
        "alias": "text",
        "meta": "@sys.any",
        "userDefined": true
      },
      {
        "text": " in ",
        "userDefined": false
      },
      {
        "text": "German",
        "alias": "lang-to",
        "meta": "@sys.language",
        "userDefined": true
      }
    ],
    "isTemplate": false,
    "count": 0,
    "updated": 0
  },
  {
    "id": "c2d47eba-72eb-467f-baf2-c39fdfdc8d35",
    "data": [
      {
        "text": "translate from ",
        "userDefined": false
      },
      {
        "text": "Tigrinya",
        "alias": "lang-from",
        "meta": "@sys.language",
        "userDefined": true
      },
      {
        "text": " into ",
        "userDefined": false
      },
      {
        "text": "Breton",
        "alias": "lang-to",
        "meta": "@sys.language",
        "userDefined": true
      },
      {
        "text": " language",
        "userDefined": false
      }
    ],
    "isTemplate": false,
    "count": 0,
    "updated": 0
  },
  {
    "id": "51602b57-4afd-42c1-b143-be9e3d962cc3",
    "data": [
      {
        "text": "show the translation of ",
        "userDefined": false
      },
      {
        "text": "read out",
        "alias": "text",
        "meta": "@sys.any",
        "userDefined": true
      }
    ],
    "isTemplate": false,
    "count": 0,
    "updated": 0
  },
  {
    "id": "03a9feae-1899-4c6e-99a6-580143a44695",
    "data": [
      {
        "text": "translation of ",
        "userDefined": false
      },
      {
        "text": "cómo te llamas",
        "alias": "text",
        "meta": "@sys.any",
        "userDefined": true
      },
      {
        "text": " from ",
        "userDefined": false
      },
      {
        "text": "Spanish",
        "alias": "lang-from",
        "meta": "@sys.language",
        "userDefined": true
      },
      {
        "text": " into ",
        "userDefined": false
      },
      {
        "text": "English",
        "alias": "lang-to",
        "meta": "@sys.language",
        "userDefined": true
      }
    ],
    "isTemplate": false,
    "count": 0,
    "updated": 0
  },
  {
    "id": "6faf4de7-cc02-436f-8d2c-8894ed6743ff",
    "data": [
      {
        "text": "what\u0027s ",
        "userDefined": false
      },
      {
        "text": "hello what a good day",
        "alias": "text",
        "meta": "@sys.any",
        "userDefined": true
      },
      {
        "text": " in ",
        "userDefined": false
      },
      {
        "text": "German",
        "alias": "lang-to",
        "meta": "@sys.language",
        "userDefined": true
      }
    ],
    "isTemplate": false,
    "count": 0,
    "updated": 0
  },
  {
    "id": "2dfd932d-b36f-4f5d-b76d-62fb3b1aabc2",
    "data": [
      {
        "text": "translate ",
        "userDefined": false
      },
      {
        "text": "pencil",
        "alias": "text",
        "meta": "@sys.any",
        "userDefined": true
      },
      {
        "text": " to ",
        "userDefined": false
      },
      {
        "text": "Tagalog",
        "alias": "lang-to",
        "meta": "@sys.language",
        "userDefined": true
      }
    ],
    "isTemplate": false,
    "count": 0,
    "updated": 0
  },
  {
    "id": "04633742-11ca-4591-8d13-cb909f8ef02e",
    "data": [
      {
        "text": "translate ",
        "userDefined": false
      },
      {
        "text": "can you send me a pic",
        "alias": "text",
        "meta": "@sys.any",
        "userDefined": true
      },
      {
        "text": " in ",
        "userDefined": false
      },
      {
        "text": "Chinese",
        "alias": "lang-to",
        "meta": "@sys.language",
        "userDefined": false
      }
    ],
    "isTemplate": false,
    "count": 0,
    "updated": 0
  },
  {
    "id": "f619131d-866c-40db-93ce-63330d4ae2d6",
    "data": [
      {
        "text": "translate from ",
        "userDefined": false
      },
      {
        "text": "French",
        "alias": "lang-from",
        "meta": "@sys.language",
        "userDefined": true
      },
      {
        "text": " ",
        "userDefined": false
      },
      {
        "text": "j aime les croissans",
        "alias": "text",
        "meta": "@sys.any",
        "userDefined": true
      }
    ],
    "isTemplate": false,
    "count": 0,
    "updated": 0
  },
  {
    "id": "17fd3b89-d0b2-47e5-a8ea-b5b59b68d98b",
    "data": [
      {
        "text": "translate ",
        "userDefined": false
      },
      {
        "text": "hello",
        "alias": "text",
        "meta": "@sys.any",
        "userDefined": true
      },
      {
        "text": " to ",
        "userDefined": false
      },
      {
        "text": "Spanish",
        "alias": "lang-to",
        "meta": "@sys.language",
        "userDefined": true
      },
      {
        "text": " from ",
        "userDefined": false
      },
      {
        "text": "English",
        "alias": "lang-from",
        "meta": "@sys.language",
        "userDefined": true
      }
    ],
    "isTemplate": false,
    "count": 1,
    "updated": 0
  },
  {
    "id": "8a2a80f0-5976-4be4-96f9-a73fe4594f39",
    "data": [
      {
        "text": "translate ",
        "userDefined": false
      },
      {
        "text": "hey",
        "alias": "text",
        "meta": "@sys.any",
        "userDefined": true
      },
      {
        "text": " into ",
        "userDefined": false
      },
      {
        "text": "Somali",
        "alias": "lang-to",
        "meta": "@sys.language",
        "userDefined": false
      }
    ],
    "isTemplate": false,
    "count": 0,
    "updated": 0
  },
  {
    "id": "7befa390-34c3-4ef0-9c2e-04762dbe1a05",
    "data": [
      {
        "text": "tell me the ",
        "userDefined": false
      },
      {
        "text": "Irish",
        "alias": "lang-to",
        "meta": "@sys.language",
        "userDefined": true
      },
      {
        "text": " translation for ",
        "userDefined": false
      },
      {
        "text": "beer",
        "alias": "text",
        "meta": "@sys.any",
        "userDefined": true
      },
      {
        "text": " please",
        "userDefined": false
      }
    ],
    "isTemplate": false,
    "count": 0,
    "updated": 0
  },
  {
    "id": "a3adbd67-4388-4d60-a74f-9577ff766932",
    "data": [
      {
        "text": "translate ",
        "userDefined": false
      },
      {
        "text": "hello",
        "alias": "text",
        "meta": "@sys.any",
        "userDefined": true
      },
      {
        "text": " in ",
        "userDefined": false
      },
      {
        "text": "Filipino",
        "alias": "lang-to",
        "meta": "@sys.language",
        "userDefined": true
      }
    ],
    "isTemplate": false,
    "count": 0,
    "updated": 0
  },
  {
    "id": "56416d9d-fc6d-4ab0-8583-119a87afbbe1",
    "data": [
      {
        "text": "translation into ",
        "userDefined": false
      },
      {
        "text": "Polish",
        "alias": "lang-to",
        "meta": "@sys.language",
        "userDefined": true
      }
    ],
    "isTemplate": false,
    "count": 0,
    "updated": 0
  },
  {
    "id": "4773f7b1-489e-4591-9697-b9bb34578d4a",
    "data": [
      {
        "text": "tell me the translation for ",
        "userDefined": false
      },
      {
        "text": "hello",
        "alias": "text",
        "meta": "@sys.any",
        "userDefined": true
      },
      {
        "text": " in ",
        "userDefined": false
      },
      {
        "text": "Croatian",
        "alias": "lang-to",
        "meta": "@sys.language",
        "userDefined": true
      }
    ],
    "isTemplate": false,
    "count": 0,
    "updated": 0
  },
  {
    "id": "293f3a61-76b8-4e55-9fd4-f820bbf2b4f7",
    "data": [
      {
        "text": "translate ",
        "userDefined": false
      },
      {
        "text": "how are you doing today",
        "alias": "text",
        "meta": "@sys.any",
        "userDefined": true
      },
      {
        "text": " in ",
        "userDefined": false
      },
      {
        "text": "Chinese",
        "alias": "lang-to",
        "meta": "@sys.language",
        "userDefined": true
      }
    ],
    "isTemplate": false,
    "count": 0,
    "updated": 0
  },
  {
    "id": "b7101cd3-e0b0-4625-9717-1f7c4c4d89b2",
    "data": [
      {
        "text": "translate ",
        "userDefined": false
      },
      {
        "text": "ceiling",
        "alias": "text",
        "meta": "@sys.any",
        "userDefined": true
      },
      {
        "text": " to ",
        "userDefined": false
      },
      {
        "text": "Hebrew",
        "alias": "lang-to",
        "meta": "@sys.language",
        "userDefined": true
      }
    ],
    "isTemplate": false,
    "count": 0,
    "updated": 0
  },
  {
    "id": "f72ced4b-9a4e-40b3-86e5-d853036b7990",
    "data": [
      {
        "text": "translation for ",
        "userDefined": false
      },
      {
        "text": "gutter",
        "alias": "text",
        "meta": "@sys.any",
        "userDefined": true
      },
      {
        "text": " in ",
        "userDefined": false
      },
      {
        "text": "Portuguese",
        "alias": "lang-to",
        "meta": "@sys.language",
        "userDefined": true
      }
    ],
    "isTemplate": false,
    "count": 1,
    "updated": 0
  },
  {
    "id": "a446fd63-a631-4734-88db-4b8fec938cd4",
    "data": [
      {
        "text": "the translation of the phrase ",
        "userDefined": false
      },
      {
        "text": "je t\u0027aime bien",
        "alias": "text",
        "meta": "@sys.any",
        "userDefined": true
      },
      {
        "text": " from ",
        "userDefined": false
      },
      {
        "text": "French",
        "alias": "lang-from",
        "meta": "@sys.language",
        "userDefined": true
      }
    ],
    "isTemplate": false,
    "count": 0,
    "updated": 0
  },
  {
    "id": "fe4129af-5c2d-4f6e-873b-4d0ca49f506c",
    "data": [
      {
        "text": "translate something from ",
        "userDefined": false
      },
      {
        "text": "Chinese",
        "alias": "lang-from",
        "meta": "@sys.language",
        "userDefined": true
      }
    ],
    "isTemplate": false,
    "count": 0,
    "updated": 0
  },
  {
    "id": "5e8f65b0-74b9-49b5-a6ae-7ff987cf681f",
    "data": [
      {
        "text": "what is ",
        "userDefined": false
      },
      {
        "text": "new shoes",
        "alias": "text",
        "meta": "@sys.any",
        "userDefined": true
      },
      {
        "text": " in ",
        "userDefined": false
      },
      {
        "text": "French",
        "alias": "lang-to",
        "meta": "@sys.language",
        "userDefined": true
      }
    ],
    "isTemplate": false,
    "count": 0,
    "updated": 0
  },
  {
    "id": "e5d8fff6-0d46-4e24-aede-246496bb138e",
    "data": [
      {
        "text": "translate ",
        "userDefined": false
      },
      {
        "text": "cat",
        "alias": "text",
        "meta": "@sys.any",
        "userDefined": true
      },
      {
        "text": " to ",
        "userDefined": false
      },
      {
        "text": "German",
        "alias": "lang-to",
        "meta": "@sys.language",
        "userDefined": true
      },
      {
        "text": " from ",
        "userDefined": false
      },
      {
        "text": "Croatian",
        "alias": "lang-from",
        "meta": "@sys.language",
        "userDefined": true
      }
    ],
    "isTemplate": false,
    "count": 0,
    "updated": 0
  },
  {
    "id": "2f34b825-7645-47af-a3a5-8516b5e49fa9",
    "data": [
      {
        "text": "how to translate ",
        "userDefined": false
      },
      {
        "text": "how are you",
        "alias": "text",
        "meta": "@sys.any",
        "userDefined": true
      },
      {
        "text": " from ",
        "userDefined": false
      },
      {
        "text": "Russian",
        "alias": "lang-from",
        "meta": "@sys.language",
        "userDefined": true
      },
      {
        "text": " to ",
        "userDefined": false
      },
      {
        "text": "English",
        "alias": "lang-to",
        "meta": "@sys.language",
        "userDefined": true
      }
    ],
    "isTemplate": false,
    "count": 0,
    "updated": 0
  },
  {
    "id": "6ed3d759-948a-486a-a38d-18a437a9061c",
    "data": [
      {
        "text": "the ",
        "userDefined": false
      },
      {
        "text": "Hindi",
        "alias": "lang-to",
        "meta": "@sys.language",
        "userDefined": true
      },
      {
        "text": " translation of ",
        "userDefined": false
      },
      {
        "text": "frivolity",
        "alias": "text",
        "meta": "@sys.any",
        "userDefined": true
      }
    ],
    "isTemplate": false,
    "count": 0,
    "updated": 0
  },
  {
    "id": "b5b1e875-5eb6-4127-8546-93a53affca84",
    "data": [
      {
        "text": "can you translate ",
        "userDefined": false
      },
      {
        "text": "Latin",
        "alias": "lang-from",
        "meta": "@sys.language",
        "userDefined": false
      }
    ],
    "isTemplate": false,
    "count": 0,
    "updated": 0
  },
  {
    "id": "72b3d577-9351-4154-9f27-9c24d7115957",
    "data": [
      {
        "text": "translate ",
        "userDefined": false
      },
      {
        "text": "to come home tonight",
        "alias": "text",
        "meta": "@sys.any",
        "userDefined": true
      },
      {
        "text": " in ",
        "userDefined": false
      },
      {
        "text": "Afrikaans",
        "alias": "lang-to",
        "meta": "@sys.language",
        "userDefined": false
      }
    ],
    "isTemplate": false,
    "count": 0,
    "updated": 0
  },
  {
    "id": "05a15ba2-9f8a-4489-a86d-000976ad3508",
    "data": [
      {
        "text": "translate to ",
        "userDefined": false
      },
      {
        "text": "Spanish",
        "alias": "lang-to",
        "meta": "@sys.language",
        "userDefined": false
      },
      {
        "text": " ",
        "userDefined": false
      },
      {
        "text": "will never be rivals",
        "alias": "text",
        "meta": "@sys.any",
        "userDefined": true
      }
    ],
    "isTemplate": false,
    "count": 0,
    "updated": 0
  },
  {
    "id": "ce30ab97-98b2-487c-96fb-8a0c6b8f0f24",
    "data": [
      {
        "text": "translate ",
        "userDefined": false
      },
      {
        "text": "offspring",
        "alias": "text",
        "meta": "@sys.any",
        "userDefined": true
      },
      {
        "text": " in ",
        "userDefined": false
      },
      {
        "text": "Tagalog",
        "alias": "lang-to",
        "meta": "@sys.language",
        "userDefined": false
      }
    ],
    "isTemplate": false,
    "count": 0,
    "updated": 0
  },
  {
    "id": "f1740581-eb55-4634-9cfa-821567b1559c",
    "data": [
      {
        "text": "translate ",
        "userDefined": false
      },
      {
        "text": "Quatro Sinko face",
        "alias": "text",
        "meta": "@sys.any",
        "userDefined": true
      },
      {
        "text": " to ",
        "userDefined": false
      },
      {
        "text": "English",
        "alias": "lang-to",
        "meta": "@sys.language",
        "userDefined": false
      }
    ],
    "isTemplate": false,
    "count": 0,
    "updated": 0
  },
  {
    "id": "80206f7b-1c05-4f78-b038-2bc1649194dd",
    "data": [
      {
        "text": "translate to ",
        "userDefined": false
      },
      {
        "text": "French",
        "alias": "lang-to",
        "meta": "@sys.language",
        "userDefined": true
      }
    ],
    "isTemplate": false,
    "count": 0,
    "updated": 0
  },
  {
    "id": "7df4738b-1da4-4968-bf68-b16aa86d5dd8",
    "data": [
      {
        "text": "translate ",
        "userDefined": false
      },
      {
        "text": "I hate you",
        "alias": "text",
        "meta": "@sys.any",
        "userDefined": true
      },
      {
        "text": " in ",
        "userDefined": false
      },
      {
        "text": "Malayalam",
        "alias": "lang-to",
        "meta": "@sys.language",
        "userDefined": true
      }
    ],
    "isTemplate": false,
    "count": 0,
    "updated": 0
  },
  {
    "id": "e56bab6b-8584-4941-b659-2bc6b5c3f508",
    "data": [
      {
        "text": "translate ",
        "userDefined": false
      },
      {
        "text": "send me a picture",
        "alias": "text",
        "meta": "@sys.any",
        "userDefined": true
      },
      {
        "text": " in ",
        "userDefined": false
      },
      {
        "text": "Chinese",
        "alias": "lang-to",
        "meta": "@sys.language",
        "userDefined": false
      }
    ],
    "isTemplate": false,
    "count": 0,
    "updated": 0
  },
  {
    "id": "cbe82cb1-60c6-4a1b-ab9a-dc784f6232af",
    "data": [
      {
        "text": "now",
        "meta": "@sys.ignore",
        "userDefined": false
      },
      {
        "text": " I want to translate from ",
        "userDefined": false
      },
      {
        "text": "Italian",
        "alias": "lang-from",
        "meta": "@sys.language",
        "userDefined": false
      }
    ],
    "isTemplate": false,
    "count": 1,
    "updated": 0
  },
  {
    "id": "56dd3e55-ea6d-4767-8571-5b800039ead7",
    "data": [
      {
        "text": "I need the translation for ",
        "userDefined": false
      },
      {
        "text": "amour",
        "alias": "text",
        "meta": "@sys.any",
        "userDefined": true
      },
      {
        "text": " from ",
        "userDefined": false
      },
      {
        "text": "French",
        "alias": "lang-from",
        "meta": "@sys.language",
        "userDefined": true
      }
    ],
    "isTemplate": false,
    "count": 0,
    "updated": 0
  },
  {
    "id": "3fe92322-4d3d-4cbf-b1c5-9cbaa7889b86",
    "data": [
      {
        "text": "translate ",
        "userDefined": false
      },
      {
        "text": "Russian",
        "alias": "lang-to",
        "meta": "@sys.language",
        "userDefined": true
      }
    ],
    "isTemplate": false,
    "count": 0,
    "updated": 0
  },
  {
    "id": "ba893938-a18d-476b-baee-9aff7594a15f",
    "data": [
      {
        "text": "translate ",
        "userDefined": false
      },
      {
        "text": "what is your name",
        "alias": "text",
        "meta": "@sys.any",
        "userDefined": true
      },
      {
        "text": " to ",
        "userDefined": false
      },
      {
        "text": "Tamil",
        "alias": "lang-to",
        "meta": "@sys.language",
        "userDefined": false
      }
    ],
    "isTemplate": false,
    "count": 0,
    "updated": 0
  },
  {
    "id": "bc08a681-bf1f-48cb-a2f0-5c269ba98c9e",
    "data": [
      {
        "text": "translate ",
        "userDefined": false
      },
      {
        "text": "like a boss",
        "alias": "text",
        "meta": "@sys.any",
        "userDefined": true
      },
      {
        "text": " into ",
        "userDefined": false
      },
      {
        "text": "Latin",
        "alias": "lang-to",
        "meta": "@sys.language",
        "userDefined": true
      }
    ],
    "isTemplate": false,
    "count": 0,
    "updated": 0
  },
  {
    "id": "9cf71b54-e9df-4ada-967e-88e7f575ab9b",
    "data": [
      {
        "text": "translate to ",
        "userDefined": false
      },
      {
        "text": "German",
        "alias": "lang-to",
        "meta": "@sys.language",
        "userDefined": false
      },
      {
        "text": " ",
        "userDefined": false
      },
      {
        "text": "terima kasih",
        "alias": "text",
        "meta": "@sys.any",
        "userDefined": true
      }
    ],
    "isTemplate": false,
    "count": 0,
    "updated": 0
  },
  {
    "id": "a063da73-bd88-46ce-8df1-05f62d5807a9",
    "data": [
      {
        "text": "translate ",
        "userDefined": false
      },
      {
        "text": "offspring",
        "alias": "text",
        "meta": "@sys.any",
        "userDefined": true
      },
      {
        "text": " to ",
        "userDefined": false
      },
      {
        "text": "Filipino",
        "alias": "lang-to",
        "meta": "@sys.language",
        "userDefined": false
      }
    ],
    "isTemplate": false,
    "count": 0,
    "updated": 0
  },
  {
    "id": "0e3609fd-3d5f-4dcb-b8b1-532bdd8008ee",
    "data": [
      {
        "text": "translate to ",
        "userDefined": false
      },
      {
        "text": "Greek",
        "alias": "lang-to",
        "meta": "@sys.language",
        "userDefined": true
      },
      {
        "text": " ",
        "userDefined": false
      },
      {
        "text": "cat",
        "alias": "text",
        "meta": "@sys.any",
        "userDefined": true
      }
    ],
    "isTemplate": false,
    "count": 0,
    "updated": 0
  },
  {
    "id": "2ac1b6fe-6fef-42fc-ade3-d7a8d6d03a4c",
    "data": [
      {
        "text": "translate ",
        "userDefined": false
      },
      {
        "text": "now I\u0027m going on",
        "alias": "text",
        "meta": "@sys.any",
        "userDefined": true
      }
    ],
    "isTemplate": false,
    "count": 0,
    "updated": 0
  },
  {
    "id": "f52bb47d-5282-406e-9028-fe0c2a0de7b5",
    "data": [
      {
        "text": "translate ",
        "userDefined": false
      },
      {
        "text": "party",
        "alias": "text",
        "meta": "@sys.any",
        "userDefined": true
      },
      {
        "text": " into ",
        "userDefined": false
      },
      {
        "text": "Spanish",
        "alias": "lang-to",
        "meta": "@sys.language",
        "userDefined": false
      }
    ],
    "isTemplate": false,
    "count": 0,
    "updated": 0
  },
  {
    "id": "2b7dd355-5f81-4882-a578-92596e26cd13",
    "data": [
      {
        "text": "translate ",
        "userDefined": false
      },
      {
        "text": "I like you",
        "alias": "text",
        "meta": "@sys.any",
        "userDefined": true
      },
      {
        "text": " in ",
        "userDefined": false
      },
      {
        "text": "Malay",
        "alias": "lang-to",
        "meta": "@sys.language",
        "userDefined": false
      }
    ],
    "isTemplate": false,
    "count": 0,
    "updated": 0
  },
  {
    "id": "d88de7b3-5884-46cb-8afa-fbfc620feb81",
    "data": [
      {
        "text": "could you translate ",
        "userDefined": false
      },
      {
        "text": "I love my job",
        "alias": "text",
        "meta": "@sys.any",
        "userDefined": true
      },
      {
        "text": " from ",
        "userDefined": false
      },
      {
        "text": "English",
        "alias": "lang-from",
        "meta": "@sys.language",
        "userDefined": true
      },
      {
        "text": " into ",
        "userDefined": false
      },
      {
        "text": "Italian",
        "alias": "lang-to",
        "meta": "@sys.language",
        "userDefined": true
      }
    ],
    "isTemplate": false,
    "count": 0,
    "updated": 0
  },
  {
    "id": "e350e27f-3079-4471-8e2b-bd4b74abd0ac",
    "data": [
      {
        "text": "translate from ",
        "userDefined": false
      },
      {
        "text": "French",
        "alias": "lang-from",
        "meta": "@sys.language",
        "userDefined": false
      },
      {
        "text": " into ",
        "userDefined": false
      },
      {
        "text": "German",
        "alias": "lang-to",
        "meta": "@sys.language",
        "userDefined": false
      }
    ],
    "isTemplate": false,
    "count": 0,
    "updated": 0
  },
  {
    "id": "71e37d1a-dd28-487a-9644-3e6807e89f96",
    "data": [
      {
        "text": "translate text",
        "userDefined": false
      }
    ],
    "isTemplate": false,
    "count": 0,
    "updated": 0
  },
  {
    "id": "67dc41dd-9132-4a2f-af99-2b37dc47b91a",
    "data": [
      {
        "text": "now",
        "meta": "@sys.ignore",
        "userDefined": false
      },
      {
        "text": " translate ",
        "userDefined": false
      },
      {
        "text": "how are you",
        "alias": "text",
        "meta": "@sys.any",
        "userDefined": true
      }
    ],
    "isTemplate": false,
    "count": 0,
    "updated": 0
  },
  {
    "id": "24dd6d10-3e2d-4f1c-a63a-d53f2109f352",
    "data": [
      {
        "text": "translate ",
        "userDefined": false
      },
      {
        "text": "I love you",
        "alias": "text",
        "meta": "@sys.any",
        "userDefined": true
      },
      {
        "text": " into ",
        "userDefined": false
      },
      {
        "text": "French",
        "alias": "lang-to",
        "meta": "@sys.language",
        "userDefined": true
      }
    ],
    "isTemplate": false,
    "count": 0,
    "updated": 0
  },
  {
    "id": "54d09181-99bf-47c2-8a20-46fb15581f6b",
    "data": [
      {
        "text": "translate something",
        "userDefined": false
      }
    ],
    "isTemplate": false,
    "count": 0,
    "updated": 0
  },
  {
    "id": "7ca12f9b-7ccb-4f1d-b655-6964c4c3e3e1",
    "data": [
      {
        "text": "English",
        "alias": "lang-from",
        "meta": "@sys.language",
        "userDefined": true
      },
      {
        "text": "-",
        "userDefined": false
      },
      {
        "text": "Russian",
        "alias": "lang-to",
        "meta": "@sys.language",
        "userDefined": true
      },
      {
        "text": " translation",
        "userDefined": false
      }
    ],
    "isTemplate": false,
    "count": 0,
    "updated": 0
  },
  {
    "id": "ff3062f7-034a-47a7-b98d-a3c6e7efca20",
    "data": [
      {
        "text": "how to say ",
        "userDefined": false
      },
      {
        "text": "hello",
        "alias": "text",
        "meta": "@sys.any",
        "userDefined": true
      },
      {
        "text": " in ",
        "userDefined": false
      },
      {
        "text": "Chinese",
        "alias": "lang-to",
        "meta": "@sys.language",
        "userDefined": true
      }
    ],
    "isTemplate": false,
    "count": 0,
    "updated": 0
  },
  {
    "id": "9b78050b-e6fa-4e62-b8fc-b0eda2d1cfa8",
    "data": [
      {
        "text": "translate a word",
        "userDefined": false
      }
    ],
    "isTemplate": false,
    "count": 0,
    "updated": 0
  },
  {
    "id": "fafad57b-b328-4f81-910d-61245ebe88e9",
    "data": [
      {
        "text": "say ",
        "userDefined": false
      },
      {
        "text": "I\u0027m happy",
        "alias": "text",
        "meta": "@sys.any",
        "userDefined": true
      },
      {
        "text": " in ",
        "userDefined": false
      },
      {
        "text": "Portuguese",
        "alias": "lang-to",
        "meta": "@sys.language",
        "userDefined": true
      }
    ],
    "isTemplate": false,
    "count": 0,
    "updated": 0
  },
  {
    "id": "23740f07-d966-4f0f-8ffe-e2056b9419b9",
    "data": [
      {
        "text": "I\u0027d like to translate a phrase",
        "userDefined": false
      }
    ],
    "isTemplate": false,
    "count": 0,
    "updated": 0
  },
  {
    "id": "b550b3be-8878-4086-ac52-e828a978bd0d",
    "data": [
      {
        "text": "translate ",
        "userDefined": false
      },
      {
        "text": "what\u0027s up",
        "alias": "text",
        "meta": "@sys.any",
        "userDefined": true
      },
      {
        "text": " into ",
        "userDefined": false
      },
      {
        "text": "Russian",
        "alias": "lang-to",
        "meta": "@sys.language",
        "userDefined": true
      }
    ],
    "isTemplate": false,
    "count": 0,
    "updated": 0
  },
  {
    "id": "7501d743-947d-43b3-9aec-acf51874f388",
    "data": [
      {
        "text": "translate into ",
        "userDefined": false
      },
      {
        "text": "Urdu",
        "alias": "lang-to",
        "meta": "@sys.language",
        "userDefined": true
      },
      {
        "text": " language",
        "userDefined": false
      }
    ],
    "isTemplate": false,
    "count": 0,
    "updated": 0
  },
  {
    "id": "263a08e9-d0c0-4dfb-99c2-cb3f90de509c",
    "data": [
      {
        "text": "English",
        "alias": "lang-to",
        "meta": "@sys.language",
        "userDefined": true
      },
      {
        "text": " translation for ",
        "userDefined": false
      },
      {
        "text": "te quiero",
        "alias": "text",
        "meta": "@sys.any",
        "userDefined": true
      }
    ],
    "isTemplate": false,
    "count": 0,
    "updated": 0
  },
  {
    "id": "d1dec72a-e316-476a-84db-81786d85f52b",
    "data": [
      {
        "text": "translation",
        "userDefined": false
      }
    ],
    "isTemplate": false,
    "count": 0,
    "updated": 0
  },
  {
    "id": "92bb10f4-121a-4357-8d07-32dd66cd8902",
    "data": [
      {
        "text": "translate a phrase",
        "userDefined": false
      }
    ],
    "isTemplate": false,
    "count": 0,
    "updated": 0
  },
  {
    "id": "1721ff92-1ccd-4ff0-87b3-8e5965b98c2b",
    "data": [
      {
        "text": "could you translate a word",
        "userDefined": false
      }
    ],
    "isTemplate": false,
    "count": 0,
    "updated": 0
  },
  {
    "id": "3f76006a-ff34-4d56-8955-2158b91caf43",
    "data": [
      {
        "text": "translate",
        "userDefined": false
      }
    ],
    "isTemplate": false,
    "count": 0,
    "updated": 0
  },
  {
    "id": "140acedc-c631-4ef1-901c-b2714f331cee",
    "data": [
      {
        "text": "translate ",
        "userDefined": false
      },
      {
        "text": "bonjour",
        "alias": "text",
        "meta": "@sys.any",
        "userDefined": true
      },
      {
        "text": " from ",
        "userDefined": false
      },
      {
        "text": "French",
        "alias": "lang-from",
        "meta": "@sys.language",
        "userDefined": true
      },
      {
        "text": " into ",
        "userDefined": false
      },
      {
        "text": "English",
        "alias": "lang-to",
        "meta": "@sys.language",
        "userDefined": true
      }
    ],
    "isTemplate": false,
    "count": 0,
    "updated": 0
  },
  {
    "id": "a16c4bbe-26fe-4a73-b1d0-af3739ee0915",
    "data": [
      {
        "text": "I also need a translation of ",
        "userDefined": false
      },
      {
        "text": "tu es beau",
        "alias": "text",
        "meta": "@sys.any",
        "userDefined": true
      },
      {
        "text": " from ",
        "userDefined": false
      },
      {
        "text": "French",
        "alias": "lang-from",
        "meta": "@sys.language",
        "userDefined": true
      }
    ],
    "isTemplate": false,
    "count": 0,
    "updated": 0
  },
  {
    "id": "a03c4acc-54ce-4c58-9e97-c40bab3b8cc6",
    "data": [
      {
        "text": "I need a translation",
        "userDefined": false
      }
    ],
    "isTemplate": false,
    "count": 0,
    "updated": 0
  },
  {
    "id": "10426b40-5b62-4b3d-b5aa-f6d2fd738be2",
    "data": [
      {
        "text": "translate from ",
        "userDefined": false
      },
      {
        "text": "Spanish",
        "alias": "lang-from",
        "meta": "@sys.language",
        "userDefined": true
      }
    ],
    "isTemplate": false,
    "count": 0,
    "updated": 0
  },
  {
    "id": "7b84cfbf-89d3-4e83-aa7e-c46d903426a0",
    "data": [
      {
        "text": "can you translate into ",
        "userDefined": false
      },
      {
        "text": "English",
        "alias": "lang-to",
        "meta": "@sys.language",
        "userDefined": true
      }
    ],
    "isTemplate": false,
    "count": 0,
    "updated": 0
  },
  {
    "id": "f4ef5a00-9910-4c33-b89d-2d81e46b3e78",
    "data": [
      {
        "text": "I like you",
        "alias": "text",
        "meta": "@sys.any",
        "userDefined": true
      },
      {
        "text": " in ",
        "userDefined": false
      },
      {
        "text": "French",
        "alias": "lang-to",
        "meta": "@sys.language",
        "userDefined": true
      }
    ],
    "isTemplate": false,
    "count": 0,
    "updated": 0
  },
  {
    "id": "7bf719ad-2d35-4e07-8bb0-aaaedde2cfb3",
    "data": [
      {
        "text": "translate the phrase ",
        "userDefined": false
      },
      {
        "text": "je t\u0027aime",
        "alias": "text",
        "meta": "@sys.any",
        "userDefined": true
      },
      {
        "text": " into ",
        "userDefined": false
      },
      {
        "text": "Hebrew",
        "alias": "lang-to",
        "meta": "@sys.language",
        "userDefined": true
      }
    ],
    "isTemplate": false,
    "count": 0,
    "updated": 0
  },
  {
    "id": "33234a33-b380-4523-96b5-331d8a78b0e6",
    "data": [
      {
        "text": "what\u0027s the ",
        "userDefined": false
      },
      {
        "text": "German",
        "alias": "lang-from",
        "meta": "@sys.language",
        "userDefined": true
      },
      {
        "text": " word for ",
        "userDefined": false
      },
      {
        "text": "pencil",
        "alias": "text",
        "meta": "@sys.any",
        "userDefined": true
      }
    ],
    "isTemplate": false,
    "count": 0,
    "updated": 0
  },
  {
    "id": "7545d5c7-c7d9-45da-98e9-b766d5f14517",
    "data": [
      {
        "text": "tell me the ",
        "userDefined": false
      },
      {
        "text": "Japanese",
        "alias": "lang-to",
        "meta": "@sys.language",
        "userDefined": true
      },
      {
        "text": " translation for ",
        "userDefined": false
      },
      {
        "text": "how are you",
        "alias": "text",
        "meta": "@sys.any",
        "userDefined": true
      }
    ],
    "isTemplate": false,
    "count": 0,
    "updated": 0
  },
  {
    "id": "6244706b-c040-4064-b958-dfd884e3e836",
    "data": [
      {
        "text": "hola qué tal",
        "alias": "text",
        "meta": "@sys.any",
        "userDefined": true
      },
      {
        "text": " from ",
        "userDefined": false
      },
      {
        "text": "Spanish",
        "alias": "lang-from",
        "meta": "@sys.language",
        "userDefined": true
      },
      {
        "text": " into ",
        "userDefined": false
      },
      {
        "text": "Croatian",
        "alias": "lang-to",
        "meta": "@sys.language",
        "userDefined": true
      }
    ],
    "isTemplate": false,
    "count": 0,
    "updated": 0
  }
]