{
  "id": "ec26d8e5-5d1c-4edb-957c-9d4e8e1d0424",
  "name": "Default Fallback Intent",
  "auto": true,
  "contexts": [],
  "responses": [
    {
      "resetContexts": false,
      "affectedContexts": [],
      "parameters": [],
      "messages": [
        {
          "type": 0,
          "lang": "en",
          "condition": "",
          "speech": [
            "I didn\u0027t get that. Can you say it again?",
            "I missed what you said. What was that?",
            "Sorry, could you say that again?",
            "Sorry, can you say that again?",
            "Can you say that again?",
            "Sorry, I didn\u0027t get that. Can you rephrase?",
            "Sorry, what was that?"
          ]
        }
      ],
      "defaultResponsePlatforms": {},
      "speech": []
    }
  ],
  "priority": 500000,
  "webhookUsed": false,
  "webhookForSlotFilling": false,
  "fallbackIntent": true,
  "events": [],
  "conditionalResponses": [],
  "condition": "",
  "conditionalFollowupEvents": []
}