[
  {
    "id": "0027633e-b7c3-4040-bc28-94ec00fb2392",
    "data": [
      {
        "text": "could",
        "meta": "@sys.ignore",
        "userDefined": false
      },
      {
        "text": " you ",
        "userDefined": false
      },
      {
        "text": "find",
        "meta": "@sys.ignore",
        "userDefined": false
      },
      {
        "text": " ",
        "userDefined": false
      },
      {
        "text": "NY",
        "alias": "location",
        "meta": "@sys.location",
        "userDefined": true
      },
      {
        "text": " too please",
        "userDefined": false
      }
    ],
    "isTemplate": false,
    "count": 0,
    "updated": 0
  },
  {
    "id": "3afbe648-2a99-4b58-9a0c-638482191509",
    "data": [
      {
        "text": "need ",
        "userDefined": false
      },
      {
        "text": "to",
        "meta": "@sys.ignore",
        "userDefined": false
      },
      {
        "text": " find  ",
        "userDefined": false
      },
      {
        "text": "Paris",
        "alias": "location",
        "meta": "@sys.location",
        "userDefined": false
      },
      {
        "text": " as well",
        "userDefined": false
      }
    ],
    "isTemplate": false,
    "count": 0,
    "updated": 0
  },
  {
    "id": "28d0aa73-580d-4b7c-9890-b4f81b525bb0",
    "data": [
      {
        "text": "now ",
        "userDefined": false
      },
      {
        "text": "USA",
        "alias": "location",
        "meta": "@sys.location",
        "userDefined": false
      }
    ],
    "isTemplate": false,
    "count": 0,
    "updated": 0
  },
  {
    "id": "31019e54-b747-43aa-96ff-7f583b92b0b3",
    "data": [
      {
        "text": "find ",
        "userDefined": false
      },
      {
        "text": "London",
        "alias": "location",
        "meta": "@sys.location",
        "userDefined": true
      }
    ],
    "isTemplate": false,
    "count": 0,
    "updated": 0
  },
  {
    "id": "37a38028-fa2f-49ac-a631-ed246d9bf198",
    "data": [
      {
        "text": "show  ",
        "userDefined": false
      },
      {
        "text": "LA",
        "alias": "location",
        "meta": "@sys.location",
        "userDefined": false
      },
      {
        "text": " too",
        "userDefined": false
      }
    ],
    "isTemplate": false,
    "count": 0,
    "updated": 0
  },
  {
    "id": "a8d4f360-8bf0-49f6-91c4-590bf8f128ff",
    "data": [
      {
        "text": "and ",
        "userDefined": false
      },
      {
        "text": "New York",
        "alias": "location",
        "meta": "@sys.location",
        "userDefined": false
      }
    ],
    "isTemplate": false,
    "count": 0,
    "updated": 0
  },
  {
    "id": "a337441a-6b5d-498a-bbb2-6784737e8538",
    "data": [
      {
        "text": "Paris",
        "alias": "location",
        "meta": "@sys.location",
        "userDefined": false
      },
      {
        "text": " too",
        "userDefined": false
      }
    ],
    "isTemplate": false,
    "count": 0,
    "updated": 0
  },
  {
    "id": "4647751b-ac37-4944-8e53-7e7b1bffa747",
    "data": [
      {
        "text": "and show ",
        "userDefined": false
      },
      {
        "text": "Moscow",
        "alias": "location",
        "meta": "@sys.location",
        "userDefined": false
      }
    ],
    "isTemplate": false,
    "count": 0,
    "updated": 0
  },
  {
    "id": "62f268ac-eb05-4f93-a610-36b86a7597be",
    "data": [
      {
        "text": "show also ",
        "userDefined": false
      },
      {
        "text": "Rome",
        "alias": "location",
        "meta": "@sys.location",
        "userDefined": false
      }
    ],
    "isTemplate": false,
    "count": 0,
    "updated": 0
  }
]