[
  {
    "id": "6bd62925-ff61-4408-93a9-a087881cfbd1",
    "data": [
      {
        "text": "can you ",
        "userDefined": false
      },
      {
        "text": "reserve",
        "meta": "@sys.ignore",
        "userDefined": false
      },
      {
        "text": " for me a table at a ",
        "userDefined": false
      },
      {
        "text": "cafe",
        "alias": "venue-type",
        "meta": "@venue-eating-out-type",
        "userDefined": false
      },
      {
        "text": " for ",
        "userDefined": false
      },
      {
        "text": "two",
        "alias": "people",
        "meta": "@sys.number",
        "userDefined": false
      },
      {
        "text": " adults",
        "userDefined": false
      }
    ],
    "isTemplate": false,
    "count": 0,
    "updated": 0
  },
  {
    "id": "2c94d3e7-de21-49a1-b39c-d201f26fb550",
    "data": [
      {
        "text": "reserve",
        "meta": "@sys.ignore",
        "userDefined": false
      },
      {
        "text": " ",
        "userDefined": false
      },
      {
        "text": "pizzeria",
        "alias": "venue-type",
        "meta": "@venue-eating-out-type",
        "userDefined": false
      }
    ],
    "isTemplate": false,
    "count": 0,
    "updated": 0
  },
  {
    "id": "2a97cf81-d0b0-4581-b6ef-a82d4c9fab76",
    "data": [
      {
        "text": "find a table at a ",
        "userDefined": false
      },
      {
        "text": "sushi place",
        "alias": "venue-type",
        "meta": "@venue-eating-out-type",
        "userDefined": true
      },
      {
        "text": " around ",
        "userDefined": false
      },
      {
        "text": "Castro street",
        "alias": "location",
        "meta": "@sys.location",
        "userDefined": true
      },
      {
        "text": " for ",
        "userDefined": false
      },
      {
        "text": "8 pm",
        "alias": "date-time",
        "meta": "@sys.date-time",
        "userDefined": true
      }
    ],
    "isTemplate": false,
    "count": 0,
    "updated": 0
  },
  {
    "id": "00b7f440-fb11-4a45-8f3d-26be6ec62dd5",
    "data": [
      {
        "text": "book",
        "meta": "@sys.ignore",
        "userDefined": true
      },
      {
        "text": " a ",
        "userDefined": false
      },
      {
        "text": "teahouse",
        "alias": "venue-type",
        "meta": "@venue-eating-out-type",
        "userDefined": true
      },
      {
        "text": " for ",
        "userDefined": false
      },
      {
        "text": "5",
        "alias": "people",
        "meta": "@sys.number",
        "userDefined": true
      },
      {
        "text": " people",
        "userDefined": false
      }
    ],
    "isTemplate": false,
    "count": 0,
    "updated": 0
  },
  {
    "id": "626483a4-1f87-439f-9689-2550a20a2a3e",
    "data": [
      {
        "text": "can you make reservations at ",
        "userDefined": false
      },
      {
        "text": "The Cheesecake Factory",
        "alias": "venue-chain",
        "meta": "@venue-eating-out-chain",
        "userDefined": true
      },
      {
        "text": " ",
        "userDefined": false
      },
      {
        "text": "next Friday night",
        "alias": "date-time",
        "meta": "@sys.date-time",
        "userDefined": true
      }
    ],
    "isTemplate": false,
    "count": 1,
    "updated": 0
  },
  {
    "id": "1bb5efb1-d989-4a43-9fb1-57f3a6c22037",
    "data": [
      {
        "text": "book",
        "meta": "@sys.ignore",
        "userDefined": true
      },
      {
        "text": " ",
        "userDefined": false
      },
      {
        "text": "Red Lobster",
        "alias": "venue-title",
        "meta": "@venue-eating-out-title",
        "userDefined": true
      },
      {
        "text": " for ",
        "userDefined": false
      },
      {
        "text": "Saturday",
        "alias": "date-time",
        "meta": "@sys.date-time",
        "userDefined": true
      }
    ],
    "isTemplate": false,
    "count": 0,
    "updated": 0
  },
  {
    "id": "c3d46952-b7b9-4574-89b8-6f134b15c831",
    "data": [
      {
        "text": "reserve",
        "meta": "@sys.ignore",
        "userDefined": true
      },
      {
        "text": " a table at ",
        "userDefined": false
      },
      {
        "text": "cafe",
        "alias": "venue-type",
        "meta": "@venue-eating-out-type",
        "userDefined": true
      },
      {
        "text": " with ",
        "userDefined": false
      },
      {
        "text": "free WiFi",
        "alias": "venue-facility",
        "meta": "@venue-facility",
        "userDefined": true
      }
    ],
    "isTemplate": false,
    "count": 0,
    "updated": 0
  },
  {
    "id": "fb2cad0c-de7d-4fe5-b98a-828e87afe22d",
    "data": [
      {
        "text": "book",
        "meta": "@sys.ignore",
        "userDefined": true
      },
      {
        "text": " a ",
        "userDefined": false
      },
      {
        "text": "bar",
        "alias": "venue-type",
        "meta": "@venue-eating-out-type",
        "userDefined": true
      },
      {
        "text": " for ",
        "userDefined": false
      },
      {
        "text": "Friday night",
        "alias": "date-time",
        "meta": "@sys.date-time",
        "userDefined": true
      }
    ],
    "isTemplate": false,
    "count": 0,
    "updated": 0
  },
  {
    "id": "5620d92e-ea82-42ec-bbd6-b8c54889256e",
    "data": [
      {
        "text": "could you ",
        "userDefined": false
      },
      {
        "text": "book",
        "meta": "@sys.ignore",
        "userDefined": false
      },
      {
        "text": " ",
        "userDefined": false
      },
      {
        "text": "steakhouse",
        "alias": "venue-type",
        "meta": "@venue-eating-out-type",
        "userDefined": true
      },
      {
        "text": " in ",
        "userDefined": false
      },
      {
        "text": "Manhattan",
        "alias": "location",
        "meta": "@sys.location",
        "userDefined": false
      }
    ],
    "isTemplate": false,
    "count": 0,
    "updated": 0
  },
  {
    "id": "8f82bb41-8e41-4dca-928a-52fcff0c898a",
    "data": [
      {
        "text": "book",
        "meta": "@sys.ignore",
        "userDefined": true
      },
      {
        "text": " a ",
        "userDefined": false
      },
      {
        "text": "table",
        "meta": "@sys.ignore",
        "userDefined": true
      },
      {
        "text": " at ",
        "userDefined": false
      },
      {
        "text": "coffeeshop",
        "alias": "venue-type",
        "meta": "@venue-eating-out-type",
        "userDefined": true
      },
      {
        "text": " for ",
        "userDefined": false
      },
      {
        "text": "6 pm",
        "alias": "date-time",
        "meta": "@sys.date-time",
        "userDefined": true
      }
    ],
    "isTemplate": false,
    "count": 1,
    "updated": 0
  },
  {
    "id": "33a970f7-b4cb-4707-ab1a-ceb9889052f2",
    "data": [
      {
        "text": "can you ",
        "userDefined": false
      },
      {
        "text": "reserve",
        "meta": "@sys.ignore",
        "userDefined": true
      },
      {
        "text": " a table at a ",
        "userDefined": false
      },
      {
        "text": "teahouse",
        "alias": "venue-type",
        "meta": "@venue-eating-out-type",
        "userDefined": true
      },
      {
        "text": " for me",
        "userDefined": false
      }
    ],
    "isTemplate": false,
    "count": 0,
    "updated": 0
  },
  {
    "id": "151aa03b-6cab-48a5-a233-ff5c24e05cb6",
    "data": [
      {
        "text": "can you ",
        "userDefined": false
      },
      {
        "text": "reserve",
        "meta": "@sys.ignore",
        "userDefined": true
      },
      {
        "text": " a table for me",
        "userDefined": false
      }
    ],
    "isTemplate": false,
    "count": 0,
    "updated": 0
  },
  {
    "id": "e08e6267-908b-409e-92d9-c343054ffe58",
    "data": [
      {
        "text": "book",
        "meta": "@sys.ignore",
        "userDefined": true
      },
      {
        "text": " ",
        "userDefined": false
      },
      {
        "text": "Le Bernardin",
        "alias": "venue-title",
        "meta": "@venue-eating-out-title",
        "userDefined": true
      },
      {
        "text": " ",
        "userDefined": false
      },
      {
        "text": "restaurant",
        "alias": "venue-type",
        "meta": "@venue-eating-out-type",
        "userDefined": true
      },
      {
        "text": " for ",
        "userDefined": false
      },
      {
        "text": "tonight",
        "alias": "date-time",
        "meta": "@sys.date-time",
        "userDefined": true
      }
    ],
    "isTemplate": false,
    "count": 0,
    "updated": 0
  },
  {
    "id": "b1370e6b-f633-4d66-8505-033bf71425c2",
    "data": [
      {
        "text": "book",
        "meta": "@sys.ignore",
        "userDefined": true
      },
      {
        "text": " ",
        "userDefined": false
      },
      {
        "text": "Pizza Hut",
        "alias": "venue-chain",
        "meta": "@venue-eating-out-chain",
        "userDefined": true
      }
    ],
    "isTemplate": false,
    "count": 0,
    "updated": 0
  },
  {
    "id": "a5b3a53a-0c33-4cb9-9f49-68ed1da2793c",
    "data": [
      {
        "text": "I would like to ",
        "userDefined": false
      },
      {
        "text": "book",
        "meta": "@sys.ignore",
        "userDefined": false
      },
      {
        "text": " ",
        "userDefined": false
      },
      {
        "text": "Senza",
        "alias": "venue-title",
        "meta": "@venue-eating-out-title",
        "userDefined": false
      },
      {
        "text": " ",
        "userDefined": false
      },
      {
        "text": "restaurant",
        "alias": "venue-type",
        "meta": "@venue-eating-out-type",
        "userDefined": false
      },
      {
        "text": " ",
        "userDefined": false
      },
      {
        "text": "on",
        "meta": "@sys.ignore",
        "userDefined": false
      },
      {
        "text": " ",
        "userDefined": false
      },
      {
        "text": "Broadway st",
        "alias": "location",
        "meta": "@sys.location",
        "userDefined": false
      }
    ],
    "isTemplate": false,
    "count": 0,
    "updated": 0
  },
  {
    "id": "200c0e63-8519-48b7-b9f4-b45e908b3afa",
    "data": [
      {
        "text": "book",
        "meta": "@sys.ignore",
        "userDefined": true
      },
      {
        "text": " a ",
        "userDefined": false
      },
      {
        "text": "restaurant",
        "alias": "venue-type",
        "meta": "@venue-eating-out-type",
        "userDefined": true
      },
      {
        "text": " ",
        "userDefined": false
      },
      {
        "text": "nearby",
        "alias": "sort",
        "meta": "@map-sort",
        "userDefined": true
      }
    ],
    "isTemplate": false,
    "count": 0,
    "updated": 0
  },
  {
    "id": "f7f34e7c-4759-4516-ad85-a384000f37df",
    "data": [
      {
        "text": "book",
        "meta": "@sys.ignore",
        "userDefined": false
      },
      {
        "text": " ",
        "userDefined": false
      },
      {
        "text": "Aspen Grille",
        "alias": "venue-title",
        "meta": "@venue-eating-out-title",
        "userDefined": false
      },
      {
        "text": " for ",
        "userDefined": false
      },
      {
        "text": "three",
        "alias": "people",
        "meta": "@sys.number",
        "userDefined": false
      },
      {
        "text": " persons",
        "userDefined": false
      }
    ],
    "isTemplate": false,
    "count": 0,
    "updated": 0
  },
  {
    "id": "9945ac39-372e-4053-843e-e6359b5cb980",
    "data": [
      {
        "text": "book",
        "meta": "@sys.ignore",
        "userDefined": true
      },
      {
        "text": " an ",
        "userDefined": false
      },
      {
        "text": "Italian",
        "alias": "cuisine",
        "meta": "@cuisine",
        "userDefined": true
      },
      {
        "text": " ",
        "userDefined": false
      },
      {
        "text": "restaurant",
        "alias": "venue-type",
        "meta": "@venue-eating-out-type",
        "userDefined": true
      },
      {
        "text": " near ",
        "userDefined": false
      },
      {
        "text": "Soho",
        "alias": "location",
        "meta": "@sys.location",
        "userDefined": true
      },
      {
        "text": " for ",
        "userDefined": false
      },
      {
        "text": "5",
        "alias": "people",
        "meta": "@sys.number",
        "userDefined": true
      },
      {
        "text": " people for ",
        "userDefined": false
      },
      {
        "text": "Friday night",
        "alias": "date-time",
        "meta": "@sys.date-time",
        "userDefined": true
      }
    ],
    "isTemplate": false,
    "count": 0,
    "updated": 0
  },
  {
    "id": "ee5ea149-0c5e-48e2-a2d5-791c6785913c",
    "data": [
      {
        "text": "book",
        "meta": "@sys.ignore",
        "userDefined": true
      },
      {
        "text": " a ",
        "userDefined": false
      },
      {
        "text": "cafe",
        "alias": "venue-type",
        "meta": "@venue-eating-out-type",
        "userDefined": true
      },
      {
        "text": " ",
        "userDefined": false
      },
      {
        "text": "closest",
        "alias": "sort",
        "meta": "@map-sort",
        "userDefined": true
      },
      {
        "text": " ",
        "userDefined": false
      },
      {
        "text": "to",
        "meta": "@sys.ignore",
        "userDefined": true
      },
      {
        "text": " my location ",
        "userDefined": false
      },
      {
        "text": "rated",
        "meta": "@sys.ignore",
        "userDefined": true
      },
      {
        "text": " with ",
        "userDefined": false
      },
      {
        "text": "5 stars",
        "alias": "rating",
        "meta": "@rating",
        "userDefined": true
      }
    ],
    "isTemplate": false,
    "count": 0,
    "updated": 0
  },
  {
    "id": "0fca4c2e-cf14-4b5e-bedb-4986d58a2c1b",
    "data": [
      {
        "text": "book a table for ",
        "userDefined": false
      },
      {
        "text": "4",
        "alias": "people",
        "meta": "@sys.number",
        "userDefined": false
      }
    ],
    "isTemplate": false,
    "count": 0,
    "updated": 0
  },
  {
    "id": "27d57cc3-f135-4daa-a4b0-e4f1489cbafe",
    "data": [
      {
        "text": "make a reservation at a romantic ",
        "userDefined": false
      },
      {
        "text": "Italian",
        "alias": "cuisine",
        "meta": "@cuisine",
        "userDefined": true
      },
      {
        "text": " ",
        "userDefined": false
      },
      {
        "text": "restaurant",
        "alias": "venue-type",
        "meta": "@venue-eating-out-type",
        "userDefined": true
      },
      {
        "text": " ",
        "userDefined": false
      },
      {
        "text": "tonight at 7 PM",
        "alias": "date-time",
        "meta": "@sys.date-time",
        "userDefined": true
      }
    ],
    "isTemplate": false,
    "count": 0,
    "updated": 0
  },
  {
    "id": "135d7225-8088-4cd9-aace-9536032e835a",
    "data": [
      {
        "text": "book a table for ",
        "userDefined": false
      },
      {
        "text": "two",
        "alias": "people",
        "meta": "@sys.number",
        "userDefined": true
      },
      {
        "text": " people at ",
        "userDefined": false
      },
      {
        "text": "Delmonico\u0027s",
        "alias": "venue-title",
        "meta": "@venue-eating-out-title",
        "userDefined": true
      },
      {
        "text": " for ",
        "userDefined": false
      },
      {
        "text": "7 pm",
        "alias": "date-time",
        "meta": "@sys.date-time",
        "userDefined": true
      },
      {
        "text": " we\u0027ll need a ",
        "userDefined": false
      },
      {
        "text": "parking lot",
        "alias": "venue-facility",
        "meta": "@venue-facility",
        "userDefined": true
      },
      {
        "text": " too",
        "userDefined": false
      }
    ],
    "isTemplate": false,
    "count": 0,
    "updated": 0
  },
  {
    "id": "878cffb8-4733-4b84-aff6-7fb09c524633",
    "data": [
      {
        "text": "can you make a reservation at ",
        "userDefined": false
      },
      {
        "text": "The Cheesecake Factory",
        "alias": "venue-chain",
        "meta": "@venue-eating-out-chain",
        "userDefined": true
      },
      {
        "text": " ",
        "userDefined": false
      },
      {
        "text": "tonight",
        "alias": "date-time",
        "meta": "@sys.date-time",
        "userDefined": true
      }
    ],
    "isTemplate": false,
    "count": 0,
    "updated": 0
  },
  {
    "id": "eebb97df-3284-47c6-ae41-115a4f621f6a",
    "data": [
      {
        "text": "reserve",
        "meta": "@sys.ignore",
        "userDefined": false
      },
      {
        "text": " a table in ",
        "userDefined": false
      },
      {
        "text": "outback steak house",
        "alias": "venue-title",
        "meta": "@venue-eating-out-title",
        "userDefined": false
      },
      {
        "text": " ",
        "userDefined": false
      },
      {
        "text": "restaurant",
        "alias": "venue-type",
        "meta": "@venue-eating-out-type",
        "userDefined": false
      }
    ],
    "isTemplate": false,
    "count": 0,
    "updated": 0
  },
  {
    "id": "284612ce-ff8d-4e53-b5ac-ba2703c30e8d",
    "data": [
      {
        "text": "book",
        "meta": "@sys.ignore",
        "userDefined": true
      },
      {
        "text": " ",
        "userDefined": false
      },
      {
        "text": "Indian",
        "alias": "cuisine",
        "meta": "@cuisine",
        "userDefined": true
      },
      {
        "text": " ",
        "userDefined": false
      },
      {
        "text": "cafe",
        "alias": "venue-type",
        "meta": "@venue-eating-out-type",
        "userDefined": true
      }
    ],
    "isTemplate": false,
    "count": 0,
    "updated": 0
  },
  {
    "id": "524430f1-6f81-48d2-9588-05934b366d48",
    "data": [
      {
        "text": "book",
        "meta": "@sys.ignore",
        "userDefined": true
      },
      {
        "text": " a table in ",
        "userDefined": false
      },
      {
        "text": "Eleven Madison park",
        "alias": "venue-title",
        "meta": "@venue-eating-out-title",
        "userDefined": true
      }
    ],
    "isTemplate": false,
    "count": 0,
    "updated": 0
  },
  {
    "id": "276afcd2-d03a-436a-a0ac-5c4474cc1b42",
    "data": [
      {
        "text": "book",
        "meta": "@sys.ignore",
        "userDefined": true
      },
      {
        "text": " a ",
        "userDefined": false
      },
      {
        "text": "steakhouse",
        "alias": "venue-type",
        "meta": "@venue-eating-out-type",
        "userDefined": true
      },
      {
        "text": " for ",
        "userDefined": false
      },
      {
        "text": "Friday night",
        "alias": "date-time",
        "meta": "@sys.date-time",
        "userDefined": true
      },
      {
        "text": " for ",
        "userDefined": false
      },
      {
        "text": "5",
        "alias": "people",
        "meta": "@sys.number",
        "userDefined": true
      },
      {
        "text": " people",
        "userDefined": false
      }
    ],
    "isTemplate": false,
    "count": 0,
    "updated": 0
  },
  {
    "id": "266ff226-3eba-40e2-8fd0-96c4894dfd96",
    "data": [
      {
        "text": "can I make a dining reservation",
        "userDefined": false
      }
    ],
    "isTemplate": false,
    "count": 0,
    "updated": 0
  },
  {
    "id": "ad4d042b-4be0-4aca-9388-54c183ae8fc6",
    "data": [
      {
        "text": "book",
        "meta": "@sys.ignore",
        "userDefined": true
      },
      {
        "text": " ",
        "userDefined": false
      },
      {
        "text": "Red Lobster",
        "alias": "venue-title",
        "meta": "@venue-eating-out-title",
        "userDefined": true
      },
      {
        "text": " for ",
        "userDefined": false
      },
      {
        "text": "3",
        "alias": "people",
        "meta": "@sys.number",
        "userDefined": true
      },
      {
        "text": " persons",
        "userDefined": false
      }
    ],
    "isTemplate": false,
    "count": 0,
    "updated": 0
  },
  {
    "id": "98d48f47-0fa4-4bc2-97c9-294c1f123b01",
    "data": [
      {
        "text": "I\u0027d like to ",
        "userDefined": false
      },
      {
        "text": "book",
        "meta": "@sys.ignore",
        "userDefined": true
      },
      {
        "text": " ",
        "userDefined": false
      },
      {
        "text": "Senza",
        "alias": "venue-title",
        "meta": "@venue-eating-out-title",
        "userDefined": true
      },
      {
        "text": " ",
        "userDefined": false
      },
      {
        "text": "restaurant",
        "alias": "venue-type",
        "meta": "@venue-eating-out-type",
        "userDefined": true
      },
      {
        "text": " ",
        "userDefined": false
      },
      {
        "text": "on",
        "meta": "@sys.ignore",
        "userDefined": true
      },
      {
        "text": " ",
        "userDefined": false
      },
      {
        "text": "Broadway st",
        "alias": "location",
        "meta": "@sys.location",
        "userDefined": true
      }
    ],
    "isTemplate": false,
    "count": 0,
    "updated": 0
  },
  {
    "id": "47912a08-48cf-4b4e-928d-b1b0388a2e93",
    "data": [
      {
        "text": "book",
        "meta": "@sys.ignore",
        "userDefined": true
      },
      {
        "text": " ",
        "userDefined": false
      },
      {
        "text": "steakhouse",
        "alias": "venue-type",
        "meta": "@venue-eating-out-type",
        "userDefined": true
      },
      {
        "text": " with ",
        "userDefined": false
      },
      {
        "text": "highest rating",
        "alias": "rating",
        "meta": "@rating",
        "userDefined": true
      }
    ],
    "isTemplate": false,
    "count": 0,
    "updated": 0
  },
  {
    "id": "08387ee7-6993-44ad-909f-96ab26ce77b5",
    "data": [
      {
        "text": "book",
        "meta": "@sys.ignore",
        "userDefined": true
      },
      {
        "text": " ",
        "userDefined": false
      },
      {
        "text": "Italian",
        "alias": "cuisine",
        "meta": "@cuisine",
        "userDefined": true
      },
      {
        "text": " ",
        "userDefined": false
      },
      {
        "text": "restaurant",
        "alias": "venue-type",
        "meta": "@venue-eating-out-type",
        "userDefined": true
      },
      {
        "text": " on ",
        "userDefined": false
      },
      {
        "text": "900 seventh avenue",
        "alias": "location",
        "meta": "@sys.location",
        "userDefined": true
      }
    ],
    "isTemplate": false,
    "count": 0,
    "updated": 0
  },
  {
    "id": "5573f31b-d7d9-4bcc-ba51-3b322781369e",
    "data": [
      {
        "text": "I need to ",
        "userDefined": false
      },
      {
        "text": "reserve",
        "meta": "@sys.ignore",
        "userDefined": true
      },
      {
        "text": " a table for ",
        "userDefined": false
      },
      {
        "text": "this Friday",
        "alias": "date-time",
        "meta": "@sys.date-time",
        "userDefined": true
      }
    ],
    "isTemplate": false,
    "count": 0,
    "updated": 0
  },
  {
    "id": "d2174006-4128-411f-a066-d130026a509c",
    "data": [
      {
        "text": "book",
        "meta": "@sys.ignore",
        "userDefined": true
      },
      {
        "text": " ",
        "userDefined": false
      },
      {
        "text": "Le Bernardin",
        "alias": "venue-title",
        "meta": "@venue-eating-out-title",
        "userDefined": true
      },
      {
        "text": " ",
        "userDefined": false
      },
      {
        "text": "restaurant",
        "alias": "venue-type",
        "meta": "@venue-eating-out-type",
        "userDefined": true
      },
      {
        "text": " on ",
        "userDefined": false
      },
      {
        "text": "155 w 51st",
        "alias": "location",
        "meta": "@sys.location",
        "userDefined": true
      },
      {
        "text": " for ",
        "userDefined": false
      },
      {
        "text": "Thursday",
        "alias": "date-time",
        "meta": "@sys.date-time",
        "userDefined": true
      }
    ],
    "isTemplate": false,
    "count": 0,
    "updated": 0
  },
  {
    "id": "43b5d950-a92b-403b-a2ac-3d37428d0f99",
    "data": [
      {
        "text": "can you ",
        "userDefined": false
      },
      {
        "text": "book",
        "meta": "@sys.ignore",
        "userDefined": true
      },
      {
        "text": " me a table",
        "userDefined": false
      }
    ],
    "isTemplate": false,
    "count": 0,
    "updated": 0
  },
  {
    "id": "dc11a98a-9a44-48ed-95fa-df34da1b7a71",
    "data": [
      {
        "text": "reserve",
        "meta": "@sys.ignore",
        "userDefined": false
      },
      {
        "text": " a table for me",
        "userDefined": false
      }
    ],
    "isTemplate": false,
    "count": 0,
    "updated": 0
  },
  {
    "id": "b44edd8a-73cb-4276-b903-b20ec7e3f749",
    "data": [
      {
        "text": "book",
        "meta": "@sys.ignore",
        "userDefined": true
      },
      {
        "text": " a ",
        "userDefined": false
      },
      {
        "text": "cafe",
        "alias": "venue-type",
        "meta": "@venue-eating-out-type",
        "userDefined": true
      },
      {
        "text": " in ",
        "userDefined": false
      },
      {
        "text": "New York",
        "alias": "location",
        "meta": "@sys.location",
        "userDefined": true
      }
    ],
    "isTemplate": false,
    "count": 0,
    "updated": 0
  },
  {
    "id": "cecb4d71-2335-4fe0-a836-45203c9c17f4",
    "data": [
      {
        "text": "make a reservation in ",
        "userDefined": false
      },
      {
        "text": "French Laundry",
        "alias": "venue-title",
        "meta": "@venue-eating-out-title",
        "userDefined": false
      }
    ],
    "isTemplate": false,
    "count": 0,
    "updated": 0
  },
  {
    "id": "e59b2349-3c31-4595-a469-4e15b284e1db",
    "data": [
      {
        "text": "book",
        "meta": "@sys.ignore",
        "userDefined": true
      },
      {
        "text": " ",
        "userDefined": false
      },
      {
        "text": "Italian",
        "alias": "cuisine",
        "meta": "@cuisine",
        "userDefined": true
      },
      {
        "text": " ",
        "userDefined": false
      },
      {
        "text": "sushi bar",
        "alias": "venue-type",
        "meta": "@venue-eating-out-type",
        "userDefined": true
      }
    ],
    "isTemplate": false,
    "count": 0,
    "updated": 0
  },
  {
    "id": "50d6669a-44ee-4594-a5c2-9a727cb705d6",
    "data": [
      {
        "text": "can you ",
        "userDefined": false
      },
      {
        "text": "book",
        "meta": "@sys.ignore",
        "userDefined": true
      },
      {
        "text": " me a ",
        "userDefined": false
      },
      {
        "text": "pizzeria",
        "alias": "venue-type",
        "meta": "@venue-eating-out-type",
        "userDefined": true
      },
      {
        "text": " with ",
        "userDefined": false
      },
      {
        "text": "parking",
        "alias": "venue-facility",
        "meta": "@venue-facility",
        "userDefined": true
      }
    ],
    "isTemplate": false,
    "count": 0,
    "updated": 0
  },
  {
    "id": "918664bb-95bd-494f-a5ac-a57ec2718fbf",
    "data": [
      {
        "text": "book",
        "meta": "@sys.ignore",
        "userDefined": true
      },
      {
        "text": " ",
        "userDefined": false
      },
      {
        "text": "cafe",
        "alias": "venue-type",
        "meta": "@venue-eating-out-type",
        "userDefined": true
      },
      {
        "text": " for ",
        "userDefined": false
      },
      {
        "text": "3",
        "alias": "people",
        "meta": "@sys.number",
        "userDefined": true
      },
      {
        "text": " persons",
        "userDefined": false
      }
    ],
    "isTemplate": false,
    "count": 0,
    "updated": 0
  },
  {
    "id": "6467ff7d-6f2b-4e96-acd3-2f6243358a59",
    "data": [
      {
        "text": "book",
        "meta": "@sys.ignore",
        "userDefined": true
      },
      {
        "text": " ",
        "userDefined": false
      },
      {
        "text": "Red Lobster",
        "alias": "venue-title",
        "meta": "@venue-eating-out-title",
        "userDefined": true
      }
    ],
    "isTemplate": false,
    "count": 1,
    "updated": 0
  },
  {
    "id": "c4e46847-fd64-4884-a878-f1bbe0f89bf0",
    "data": [
      {
        "text": "book",
        "meta": "@sys.ignore",
        "userDefined": true
      },
      {
        "text": " ",
        "userDefined": false
      },
      {
        "text": "Red Lobster",
        "alias": "venue-title",
        "meta": "@venue-eating-out-title",
        "userDefined": true
      },
      {
        "text": " for ",
        "userDefined": false
      },
      {
        "text": "7 pm",
        "alias": "date-time",
        "meta": "@sys.date-time",
        "userDefined": true
      }
    ],
    "isTemplate": false,
    "count": 0,
    "updated": 0
  },
  {
    "id": "9f393503-3074-49b8-bcf4-b141a38a2559",
    "data": [
      {
        "text": "can I ",
        "userDefined": false
      },
      {
        "text": "book",
        "meta": "@sys.ignore",
        "userDefined": true
      },
      {
        "text": " for ",
        "userDefined": false
      },
      {
        "text": "dinner",
        "meta": "@sys.ignore",
        "userDefined": true
      },
      {
        "text": " at ",
        "userDefined": false
      },
      {
        "text": "9 pm",
        "alias": "date-time",
        "meta": "@sys.date-time",
        "userDefined": true
      },
      {
        "text": " for ",
        "userDefined": false
      },
      {
        "text": "2",
        "alias": "people",
        "meta": "@sys.number",
        "userDefined": true
      },
      {
        "text": " people",
        "userDefined": false
      }
    ],
    "isTemplate": false,
    "count": 0,
    "updated": 0
  },
  {
    "id": "916c338f-03ed-471e-a6e3-35f168d59ae5",
    "data": [
      {
        "text": "book table of ",
        "userDefined": false
      },
      {
        "text": "2",
        "alias": "people",
        "meta": "@sys.number",
        "userDefined": true
      },
      {
        "text": " ",
        "userDefined": false
      },
      {
        "text": "tomorrow evening 1930",
        "alias": "date-time",
        "meta": "@sys.date-time",
        "userDefined": true
      }
    ],
    "isTemplate": false,
    "count": 0,
    "updated": 0
  },
  {
    "id": "83ac96da-41b7-4a18-933a-62ac4428cd54",
    "data": [
      {
        "text": "can you make a reservation at ",
        "userDefined": false
      },
      {
        "text": "Nobu",
        "alias": "venue-title",
        "meta": "@venue-eating-out-title",
        "userDefined": true
      },
      {
        "text": " in ",
        "userDefined": false
      },
      {
        "text": "Las Vegas",
        "alias": "location",
        "meta": "@sys.location",
        "userDefined": true
      },
      {
        "text": " for ",
        "userDefined": false
      },
      {
        "text": "9 PM",
        "alias": "date-time",
        "meta": "@sys.date-time",
        "userDefined": true
      },
      {
        "text": " for ",
        "userDefined": false
      },
      {
        "text": "2",
        "alias": "people",
        "meta": "@sys.number",
        "userDefined": true
      },
      {
        "text": " people",
        "userDefined": false
      }
    ],
    "isTemplate": false,
    "count": 0,
    "updated": 0
  },
  {
    "id": "39f06ece-a40b-4a77-9abd-d098e3e3e5ad",
    "data": [
      {
        "text": "book",
        "meta": "@sys.ignore",
        "userDefined": true
      },
      {
        "text": " ",
        "userDefined": false
      },
      {
        "text": "Muse",
        "alias": "venue-chain",
        "meta": "@venue-eating-out-chain",
        "userDefined": true
      },
      {
        "text": " for the ",
        "userDefined": false
      },
      {
        "text": "4th of June for 6 p m",
        "alias": "date-time",
        "meta": "@sys.date-time",
        "userDefined": true
      }
    ],
    "isTemplate": false,
    "count": 0,
    "updated": 0
  },
  {
    "id": "4454e01c-289a-4995-97c0-2c72908109ff",
    "data": [
      {
        "text": "book",
        "meta": "@sys.ignore",
        "userDefined": false
      },
      {
        "text": " ",
        "userDefined": false
      },
      {
        "text": "Aspen Grille",
        "alias": "venue-title",
        "meta": "@venue-eating-out-title",
        "userDefined": false
      },
      {
        "text": " for ",
        "userDefined": false
      },
      {
        "text": "May 10 at 9 p m",
        "alias": "date-time",
        "meta": "@sys.date-time",
        "userDefined": true
      }
    ],
    "isTemplate": false,
    "count": 0,
    "updated": 0
  },
  {
    "id": "b58415d7-ad5b-435e-9b64-eeb4eadf9db9",
    "data": [
      {
        "text": "book",
        "meta": "@sys.ignore",
        "userDefined": true
      },
      {
        "text": " a ",
        "userDefined": false
      },
      {
        "text": "bar",
        "alias": "venue-type",
        "meta": "@venue-eating-out-type",
        "userDefined": true
      },
      {
        "text": " for ",
        "userDefined": false
      },
      {
        "text": "6 pm",
        "alias": "date-time",
        "meta": "@sys.date-time",
        "userDefined": true
      },
      {
        "text": " for ",
        "userDefined": false
      },
      {
        "text": "5",
        "alias": "people",
        "meta": "@sys.number",
        "userDefined": true
      },
      {
        "text": " people",
        "userDefined": false
      }
    ],
    "isTemplate": false,
    "count": 0,
    "updated": 0
  },
  {
    "id": "abbf6a47-06dc-47a2-8190-5e5f026502cf",
    "data": [
      {
        "text": "book me a table at ",
        "userDefined": false
      },
      {
        "text": "Barcelona",
        "alias": "location",
        "meta": "@sys.location",
        "userDefined": false
      }
    ],
    "isTemplate": false,
    "count": 0,
    "updated": 0
  },
  {
    "id": "b577b389-4512-493c-a6b2-585be42003a3",
    "data": [
      {
        "text": "can you make a ",
        "userDefined": false
      },
      {
        "text": "reserve",
        "meta": "@sys.ignore",
        "userDefined": true
      },
      {
        "text": " at ",
        "userDefined": false
      },
      {
        "text": "Four Seasons",
        "alias": "venue-title",
        "meta": "@venue-eating-out-title",
        "userDefined": true
      },
      {
        "text": " ",
        "userDefined": false
      },
      {
        "text": "Washington DC",
        "alias": "location",
        "meta": "@sys.location",
        "userDefined": true
      }
    ],
    "isTemplate": false,
    "count": 0,
    "updated": 0
  },
  {
    "id": "734b7d28-fe3b-440d-a0dd-14d74ab85f63",
    "data": [
      {
        "text": "book",
        "meta": "@sys.ignore",
        "userDefined": false
      },
      {
        "text": " ",
        "userDefined": false
      },
      {
        "text": "French Laundry",
        "alias": "venue-title",
        "meta": "@venue-eating-out-title",
        "userDefined": false
      },
      {
        "text": " for ",
        "userDefined": false
      },
      {
        "text": "seven",
        "alias": "people",
        "meta": "@sys.number",
        "userDefined": false
      },
      {
        "text": " people",
        "userDefined": false
      }
    ],
    "isTemplate": false,
    "count": 0,
    "updated": 0
  },
  {
    "id": "0cb52339-ce67-44f5-a8bf-7925934b245a",
    "data": [
      {
        "text": "find a table at a ",
        "userDefined": false
      },
      {
        "text": "sushi place",
        "alias": "venue-type",
        "meta": "@venue-eating-out-type",
        "userDefined": true
      },
      {
        "text": " around ",
        "userDefined": false
      },
      {
        "text": "Castro Street",
        "alias": "location",
        "meta": "@sys.location",
        "userDefined": true
      },
      {
        "text": " for ",
        "userDefined": false
      },
      {
        "text": "8 PM tomorrow",
        "alias": "date-time",
        "meta": "@sys.date-time",
        "userDefined": true
      }
    ],
    "isTemplate": false,
    "count": 0,
    "updated": 0
  },
  {
    "id": "6d7473d8-3b1d-4fc3-ae3e-3228fe4f0cbf",
    "data": [
      {
        "text": "book",
        "meta": "@sys.ignore",
        "userDefined": true
      },
      {
        "text": " ",
        "userDefined": false
      },
      {
        "text": "Aspen Grille",
        "alias": "venue-title",
        "meta": "@venue-eating-out-title",
        "userDefined": true
      },
      {
        "text": " for ",
        "userDefined": false
      },
      {
        "text": "five",
        "alias": "people",
        "meta": "@sys.number",
        "userDefined": true
      },
      {
        "text": " persons",
        "userDefined": false
      }
    ],
    "isTemplate": false,
    "count": 0,
    "updated": 0
  },
  {
    "id": "76e1bb9c-cfa9-4b1e-9765-4b19baa3c44d",
    "data": [
      {
        "text": "book",
        "meta": "@sys.ignore",
        "userDefined": true
      },
      {
        "text": " a ",
        "userDefined": false
      },
      {
        "text": "cafe",
        "alias": "venue-type",
        "meta": "@venue-eating-out-type",
        "userDefined": true
      }
    ],
    "isTemplate": false,
    "count": 0,
    "updated": 0
  },
  {
    "id": "a55feab7-c5f7-420a-ba73-f5eb586d2b7d",
    "data": [
      {
        "text": "book",
        "meta": "@sys.ignore",
        "userDefined": true
      },
      {
        "text": " ",
        "userDefined": false
      },
      {
        "text": "Osteria Mozza",
        "alias": "venue-title",
        "meta": "@venue-eating-out-title",
        "userDefined": true
      },
      {
        "text": " in ",
        "userDefined": false
      },
      {
        "text": "Los Angeles",
        "alias": "location",
        "meta": "@sys.location",
        "userDefined": true
      },
      {
        "text": " please",
        "userDefined": false
      }
    ],
    "isTemplate": false,
    "count": 0,
    "updated": 0
  },
  {
    "id": "9fcc25f9-149c-433a-acd4-ed1ce7620a56",
    "data": [
      {
        "text": "book a table for ",
        "userDefined": false
      },
      {
        "text": "two",
        "alias": "people",
        "meta": "@sys.number",
        "userDefined": true
      },
      {
        "text": " people at ",
        "userDefined": false
      },
      {
        "text": "Delmonico\u0027s",
        "alias": "venue-title",
        "meta": "@venue-eating-out-title",
        "userDefined": true
      },
      {
        "text": " for ",
        "userDefined": false
      },
      {
        "text": "7 PM",
        "alias": "date-time",
        "meta": "@sys.date-time",
        "userDefined": true
      }
    ],
    "isTemplate": false,
    "count": 1,
    "updated": 0
  },
  {
    "id": "90ded7e8-716b-4932-b384-89a00317baaa",
    "data": [
      {
        "text": "reserve",
        "meta": "@sys.ignore",
        "userDefined": false
      },
      {
        "text": " in ",
        "userDefined": false
      },
      {
        "text": "Bar Jules",
        "alias": "venue-title",
        "meta": "@venue-eating-out-title",
        "userDefined": false
      }
    ],
    "isTemplate": false,
    "count": 0,
    "updated": 0
  },
  {
    "id": "528c33ab-8f5b-4e1d-83df-6cc621c3d4a5",
    "data": [
      {
        "text": "how can I make a dining reservation",
        "userDefined": false
      }
    ],
    "isTemplate": false,
    "count": 0,
    "updated": 0
  },
  {
    "id": "ee2d37ee-5019-4c15-8475-1172904611bb",
    "data": [
      {
        "text": "can you book a table at ",
        "userDefined": false
      },
      {
        "text": "Pizza",
        "alias": "venue-type",
        "meta": "@venue-eating-out-type",
        "userDefined": true
      }
    ],
    "isTemplate": false,
    "count": 0,
    "updated": 0
  }
]