[
  {
    "id": "67f225f5-c549-424a-8694-55723380be0d",
    "data": [
      {
        "text": "and by ",
        "userDefined": false
      },
      {
        "text": "3",
        "alias": "change-value",
        "meta": "@sys.number",
        "userDefined": true
      },
      {
        "text": " points",
        "userDefined": false
      }
    ],
    "isTemplate": false,
    "count": 0,
    "updated": 0
  },
  {
    "id": "c231f7bb-e9a8-4d25-bed4-bf24545f2e3e",
    "data": [
      {
        "text": "by ",
        "userDefined": false
      },
      {
        "text": "2",
        "alias": "change-value",
        "meta": "@sys.number",
        "userDefined": true
      },
      {
        "text": " points now",
        "userDefined": false
      }
    ],
    "isTemplate": false,
    "count": 0,
    "updated": 0
  },
  {
    "id": "dfaf3d23-40ee-4997-994b-36b7cc196d9a",
    "data": [
      {
        "text": "to ",
        "userDefined": false
      },
      {
        "text": "20",
        "alias": "final-value",
        "meta": "@sys.number",
        "userDefined": false
      },
      {
        "text": " points",
        "userDefined": false
      }
    ],
    "isTemplate": false,
    "count": 0,
    "updated": 0
  },
  {
    "id": "8a49177a-fdcc-4911-b9bd-2d0a6cd9a0c4",
    "data": [
      {
        "text": "by ",
        "userDefined": false
      },
      {
        "text": "10",
        "alias": "change-value",
        "meta": "@sys.number",
        "userDefined": true
      },
      {
        "text": " points",
        "userDefined": false
      }
    ],
    "isTemplate": false,
    "count": 0,
    "updated": 0
  },
  {
    "id": "836709d4-fa05-4b11-b612-fcb966eef6ec",
    "data": [
      {
        "text": "and to ",
        "userDefined": false
      },
      {
        "text": "24",
        "alias": "final-value",
        "meta": "@sys.number",
        "userDefined": true
      }
    ],
    "isTemplate": false,
    "count": 0,
    "updated": 0
  },
  {
    "id": "e6c14fd5-ddf8-406f-9438-53a31c245b6e",
    "data": [
      {
        "text": "to ",
        "userDefined": false
      },
      {
        "text": "30",
        "alias": "final-value",
        "meta": "@sys.number",
        "userDefined": true
      },
      {
        "text": " ",
        "userDefined": false
      },
      {
        "text": "now",
        "meta": "@sys.ignore",
        "userDefined": false
      }
    ],
    "isTemplate": false,
    "count": 0,
    "updated": 0
  },
  {
    "id": "0dad4446-9fc7-4990-b4bc-115e9b4bdd7b",
    "data": [
      {
        "text": "to ",
        "userDefined": false
      },
      {
        "text": "25",
        "alias": "final-value",
        "meta": "@sys.number",
        "userDefined": false
      },
      {
        "text": " then",
        "userDefined": false
      }
    ],
    "isTemplate": false,
    "count": 0,
    "updated": 0
  }
]