{
  "id": "d453b8e1-ea72-46cf-939d-71793607d570",
  "name": "bill.amount",
  "auto": true,
  "contexts": [],
  "responses": [
    {
      "resetContexts": false,
      "action": "bill.amount",
      "affectedContexts": [],
      "parameters": [
        {
          "id": "b16724ee-b836-4af6-92b6-4e5ccece4b4f",
          "required": false,
          "dataType": "@sys.date-period",
          "name": "date-period",
          "value": "$date-period",
          "promptMessages": [],
          "noMatchPromptMessages": [],
          "noInputPromptMessages": [],
          "outputDialogContexts": [],
          "isList": false
        }
      ],
      "messages": [
        {
          "type": 0,
          "lang": "en",
          "condition": "",
          "speech": [
            "This is the payment amount for $date-period.original:",
            "Here\u0027s the payment amount for that date:"
          ]
        }
      ],
      "defaultResponsePlatforms": {},
      "speech": []
    }
  ],
  "priority": 500000,
  "webhookUsed": false,
  "webhookForSlotFilling": false,
  "fallbackIntent": false,
  "events": [],
  "conditionalResponses": [],
  "condition": "",
  "conditionalFollowupEvents": []
}