[
  {
    "id": "a06f7d4a-b692-4add-bcdb-1d6ae3abe42b",
    "data": [
      {
        "text": "did I use ",
        "userDefined": false
      },
      {
        "text": "a lot",
        "meta": "@sys.ignore",
        "userDefined": false
      },
      {
        "text": " of data ",
        "userDefined": false
      },
      {
        "text": "tonight",
        "alias": "date-time",
        "meta": "@sys.date-time",
        "userDefined": false
      }
    ],
    "isTemplate": false,
    "count": 0,
    "updated": 0
  },
  {
    "id": "df9e4bc0-a767-4c7f-83ac-2ed0c43c4dd9",
    "data": [
      {
        "text": "Am I running out of data for ",
        "userDefined": false
      },
      {
        "text": "this month",
        "alias": "date-time",
        "meta": "@sys.date-time",
        "userDefined": false
      }
    ],
    "isTemplate": false,
    "count": 0,
    "updated": 0
  },
  {
    "id": "9ceda0be-a6cc-4e9c-af32-92db4a938039",
    "data": [
      {
        "text": "did I spend ",
        "userDefined": false
      },
      {
        "text": "a lot",
        "meta": "@sys.ignore",
        "userDefined": false
      },
      {
        "text": " of data ",
        "userDefined": false
      },
      {
        "text": "this week",
        "alias": "date-time",
        "meta": "@sys.date-time",
        "userDefined": false
      }
    ],
    "isTemplate": false,
    "count": 0,
    "updated": 0
  },
  {
    "id": "96a3d01a-f383-4c73-a5a6-d5716dc27417",
    "data": [
      {
        "text": "how many gigabytes did I use ",
        "userDefined": false
      },
      {
        "text": "last month",
        "alias": "date-time",
        "meta": "@sys.date-time",
        "userDefined": true
      }
    ],
    "isTemplate": false,
    "count": 0,
    "updated": 0
  },
  {
    "id": "675fe8ed-c840-41fa-99b7-448b88037857",
    "data": [
      {
        "text": "How ",
        "userDefined": false
      },
      {
        "text": "much",
        "meta": "@sys.ignore",
        "userDefined": false
      },
      {
        "text": " data was used ",
        "userDefined": false
      },
      {
        "text": "this month",
        "alias": "date-time",
        "meta": "@sys.date-time",
        "userDefined": false
      }
    ],
    "isTemplate": false,
    "count": 0,
    "updated": 0
  },
  {
    "id": "0ae595d6-0915-4f8a-a9f9-4d3c2deb22ba",
    "data": [
      {
        "text": "how many gb did I use ",
        "userDefined": false
      },
      {
        "text": "last week",
        "alias": "date-time",
        "meta": "@sys.date-time",
        "userDefined": true
      }
    ],
    "isTemplate": false,
    "count": 0,
    "updated": 0
  },
  {
    "id": "669a832c-3095-4e33-8c30-c8d5e31c99f1",
    "data": [
      {
        "text": "How ",
        "userDefined": false
      },
      {
        "text": "much",
        "meta": "@sys.ignore",
        "userDefined": false
      },
      {
        "text": " data did I use ",
        "userDefined": false
      },
      {
        "text": "yesterday",
        "alias": "date-time",
        "meta": "@sys.date-time",
        "userDefined": false
      }
    ],
    "isTemplate": false,
    "count": 0,
    "updated": 0
  }
]