{
  "id": "1968af69-3f25-4a32-adf2-129d96cf2056",
  "name": "alarm.remove",
  "auto": true,
  "contexts": [],
  "responses": [
    {
      "resetContexts": false,
      "action": "alarm.remove",
      "affectedContexts": [
        {
          "name": "alarm-remove",
          "parameters": {},
          "lifespan": 5
        }
      ],
      "parameters": [
        {
          "id": "004e343e-1892-45b2-a4c8-58c8c7695434",
          "required": false,
          "dataType": "@sys.any",
          "name": "alarm-name",
          "value": "$alarm-name",
          "promptMessages": [],
          "noMatchPromptMessages": [],
          "noInputPromptMessages": [],
          "outputDialogContexts": [],
          "isList": false
        },
        {
          "id": "b528e950-2a1f-48dc-aaa8-7f7122c3670f",
          "required": false,
          "dataType": "@sys.time",
          "name": "time",
          "value": "$time",
          "promptMessages": [],
          "noMatchPromptMessages": [],
          "noInputPromptMessages": [],
          "outputDialogContexts": [],
          "isList": false
        },
        {
          "id": "444e032b-0252-447e-88b1-b436f26f61e0",
          "required": false,
          "dataType": "@sys.time-period",
          "name": "time-period",
          "value": "$time-period",
          "promptMessages": [],
          "noMatchPromptMessages": [],
          "noInputPromptMessages": [],
          "outputDialogContexts": [],
          "isList": false
        },
        {
          "id": "55f22c6f-1cbc-4cd0-afe0-9182a168e432",
          "required": false,
          "dataType": "@sys.date",
          "name": "date",
          "value": "$date",
          "promptMessages": [],
          "noMatchPromptMessages": [],
          "noInputPromptMessages": [],
          "outputDialogContexts": [],
          "isList": false
        },
        {
          "id": "65c8b1a9-7665-47c0-a103-7e05c9d97953",
          "required": false,
          "dataType": "@sys.date-period",
          "name": "date-period",
          "value": "$date-period",
          "promptMessages": [],
          "noMatchPromptMessages": [],
          "noInputPromptMessages": [],
          "outputDialogContexts": [],
          "isList": false
        },
        {
          "id": "c2d63b44-0ffc-43df-bab7-448bb2fbb478",
          "required": false,
          "dataType": "@all",
          "name": "all",
          "value": "$all",
          "promptMessages": [],
          "noMatchPromptMessages": [],
          "noInputPromptMessages": [],
          "outputDialogContexts": [],
          "isList": false
        },
        {
          "id": "70ff4617-16b3-4edb-ae67-fc688a57e836",
          "required": false,
          "dataType": "@recurrence",
          "name": "recurrence",
          "value": "$recurrence",
          "promptMessages": [],
          "noMatchPromptMessages": [],
          "noInputPromptMessages": [],
          "outputDialogContexts": [],
          "isList": false
        }
      ],
      "messages": [
        {
          "type": 0,
          "lang": "en",
          "condition": "",
          "speech": []
        }
      ],
      "defaultResponsePlatforms": {},
      "speech": []
    }
  ],
  "priority": 500000,
  "webhookUsed": false,
  "webhookForSlotFilling": false,
  "fallbackIntent": false,
  "events": [],
  "conditionalResponses": [],
  "condition": "",
  "conditionalFollowupEvents": []
}