[
  {
    "value": "Adobe AIR",
    "synonyms": [
      "Adobe AIR"
    ]
  },
  {
    "value": "Adobe Flash Player",
    "synonyms": [
      "Adobe Flash Player"
    ]
  },
  {
    "value": "Adobe Flash Player 11",
    "synonyms": [
      "Adobe Flash Player 11"
    ]
  },
  {
    "value": "Adobe Reader",
    "synonyms": [
      "Adobe Reader"
    ]
  },
  {
    "value": "Advanced Task Killer",
    "synonyms": [
      "Advanced Task Killer"
    ]
  },
  {
    "value": "Angry Birds",
    "synonyms": [
      "Angry Birds"
    ]
  },
  {
    "value": "Angry Birds Rio",
    "synonyms": [
      "Angry Birds Rio"
    ]
  },
  {
    "value": "Angry Birds Seasons",
    "synonyms": [
      "Angry Birds Seasons"
    ]
  },
  {
    "value": "Angry Birds Space",
    "synonyms": [
      "Angry Birds Space"
    ]
  },
  {
    "value": "Ant Smasher",
    "synonyms": [
      "Ant Smasher"
    ]
  },
  {
    "value": "Barcode Scanner",
    "synonyms": [
      "Barcode Scanner"
    ]
  },
  {
    "value": "Catch Notes",
    "synonyms": [
      "Catch Notes"
    ]
  },
  {
    "value": "Drag Racing",
    "synonyms": [
      "Drag Racing"
    ]
  },
  {
    "value": "Facebook",
    "synonyms": [
      "Facebook",
      "fb"
    ]
  },
  {
    "value": "Facebook Messenger",
    "synonyms": [
      "Facebook Messenger"
    ]
  },
  {
    "value": "Flashlight",
    "synonyms": [
      "Flashlight"
    ]
  },
  {
    "value": "Free Antivirus Security",
    "synonyms": [
      "Free Antivirus Security"
    ]
  },
  {
    "value": "Fruit Ninja",
    "synonyms": [
      "Fruit Ninja"
    ]
  },
  {
    "value": "GO Launcher EX",
    "synonyms": [
      "GO Launcher EX"
    ]
  },
  {
    "value": "GasBuddy",
    "synonyms": [
      "GasBuddy"
    ]
  },
  {
    "value": "Gmail",
    "synonyms": [
      "Gmail"
    ]
  },
  {
    "value": "Google Assistant",
    "synonyms": [
      "Google Assistant"
    ]
  },
  {
    "value": "Instagram",
    "synonyms": [
      "Instagram"
    ]
  },
  {
    "value": "KakaoTalk",
    "synonyms": [
      "KakaoTalk"
    ]
  },
  {
    "value": "Maps",
    "synonyms": [
      "Maps"
    ]
  },
  {
    "value": "Netflix",
    "synonyms": [
      "Netflix"
    ]
  },
  {
    "value": "Opera Mini",
    "synonyms": [
      "Opera Mini"
    ]
  },
  {
    "value": "Pandora",
    "synonyms": [
      "Pandora"
    ]
  },
  {
    "value": "PicsArt",
    "synonyms": [
      "PicsArt"
    ]
  },
  {
    "value": "Pool Master Pro",
    "synonyms": [
      "Pool Master Pro"
    ]
  },
  {
    "value": "Shazam",
    "synonyms": [
      "Shazam"
    ]
  },
  {
    "value": "Shoot Bubble Deluxe",
    "synonyms": [
      "Shoot Bubble Deluxe"
    ]
  },
  {
    "value": "Skype",
    "synonyms": [
      "Skype"
    ]
  },
  {
    "value": "Slack",
    "synonyms": [
      "Slack"
    ]
  },
  {
    "value": "Spotify",
    "synonyms": [
      "Spotify"
    ]
  },
  {
    "value": "Subway Surfers",
    "synonyms": [
      "Subway Surfers"
    ]
  },
  {
    "value": "Talking Tom Cat",
    "synonyms": [
      "Talking Tom Cat"
    ]
  },
  {
    "value": "Talking Tom Cat 2",
    "synonyms": [
      "Talking Tom Cat 2"
    ]
  },
  {
    "value": "Tango",
    "synonyms": [
      "Tango"
    ]
  },
  {
    "value": "Temple Run",
    "synonyms": [
      "Temple Run"
    ]
  },
  {
    "value": "Temple Run 2",
    "synonyms": [
      "Temple Run 2"
    ]
  },
  {
    "value": "Twitter",
    "synonyms": [
      "Twitter"
    ]
  },
  {
    "value": "Viber",
    "synonyms": [
      "Viber"
    ]
  },
  {
    "value": "Vine",
    "synonyms": [
      "Vine"
    ]
  },
  {
    "value": "WhatsApp",
    "synonyms": [
      "WhatsApp",
      "WhatsApp Messenger"
    ]
  },
  {
    "value": "ZEDGE",
    "synonyms": [
      "ZEDGE"
    ]
  },
  {
    "value": "accu weather",
    "synonyms": [
      "accu weather"
    ]
  },
  {
    "value": "beautiful widgets pro",
    "synonyms": [
      "beautiful widgets pro"
    ]
  },
  {
    "value": "bitmoji",
    "synonyms": [
      "bitmoji"
    ]
  },
  {
    "value": "browser",
    "synonyms": [
      "browser"
    ]
  },
  {
    "value": "camera",
    "synonyms": [
      "camera"
    ]
  },
  {
    "value": "clash of clans",
    "synonyms": [
      "clash of clans"
    ]
  },
  {
    "value": "cortana",
    "synonyms": [
      "cortana"
    ]
  },
  {
    "value": "cut the rope",
    "synonyms": [
      "cut the rope"
    ]
  },
  {
    "value": "dropbox",
    "synonyms": [
      "dropbox"
    ]
  },
  {
    "value": "gallery",
    "synonyms": [
      "gallery"
    ]
  },
  {
    "value": "google allo",
    "synonyms": [
      "allo",
      "google allo"
    ]
  },
  {
    "value": "google calendar",
    "synonyms": [
      "google calendar"
    ]
  },
  {
    "value": "google chrome",
    "synonyms": [
      "chrome",
      "google chrome"
    ]
  },
  {
    "value": "google keep",
    "synonyms": [
      "google keep"
    ]
  },
  {
    "value": "kik",
    "synonyms": [
      "kik",
      "kik messenger"
    ]
  },
  {
    "value": "line",
    "synonyms": [
      "line"
    ]
  },
  {
    "value": "music",
    "synonyms": [
      "music"
    ]
  },
  {
    "value": "music player",
    "synonyms": [
      "music player"
    ]
  },
  {
    "value": "my photos",
    "synonyms": [
      "my photos"
    ]
  },
  {
    "value": "my pictures",
    "synonyms": [
      "my pictures"
    ]
  },
  {
    "value": "paper camera",
    "synonyms": [
      "paper camera"
    ]
  },
  {
    "value": "plants vs zombies",
    "synonyms": [
      "plants vs zombies"
    ]
  },
  {
    "value": "poweramp",
    "synonyms": [
      "poweramp"
    ]
  },
  {
    "value": "ringtonium",
    "synonyms": [
      "ringtonium"
    ]
  },
  {
    "value": "safari",
    "synonyms": [
      "safari"
    ]
  },
  {
    "value": "sherpa",
    "synonyms": [
      "sherpa"
    ]
  },
  {
    "value": "skeevy",
    "synonyms": [
      "skeevy"
    ]
  },
  {
    "value": "snapchat",
    "synonyms": [
      "snapchat"
    ]
  },
  {
    "value": "soccer",
    "synonyms": [
      "soccer"
    ]
  },
  {
    "value": "speaktoit assistant",
    "synonyms": [
      "speaktoit assistant"
    ]
  },
  {
    "value": "task manager",
    "synonyms": [
      "task manager"
    ]
  },
  {
    "value": "tunein radio pro",
    "synonyms": [
      "tunein radio pro"
    ]
  },
  {
    "value": "vk",
    "synonyms": [
      "vk"
    ]
  },
  {
    "value": "youtube",
    "synonyms": [
      "youtube"
    ]
  }
]