[
  {
    "value": "back seat light",
    "synonyms": [
      "back seat lights",
      "lights for back seat"
    ]
  },
  {
    "value": "back-up light",
    "synonyms": [
      "back up light",
      "back-up light",
      "backup light"
    ]
  },
  {
    "value": "brake light",
    "synonyms": [
      "brake light"
    ]
  },
  {
    "value": "current user\u0027s light",
    "synonyms": [
      "my light"
    ]
  },
  {
    "value": "dashboard light",
    "synonyms": [
      "dash board light",
      "dash board lights",
      "dashboard light",
      "dashboard lights"
    ]
  },
  {
    "value": "driver\u0027s light",
    "synonyms": [
      "driver lights",
      "driver\u0027s lights"
    ]
  },
  {
    "value": "emergency light",
    "synonyms": [
      "emergency light"
    ]
  },
  {
    "value": "fog light",
    "synonyms": [
      "fog light",
      "fog lights"
    ]
  },
  {
    "value": "head light",
    "synonyms": [
      "head lamp",
      "head light",
      "headlamp",
      "headlight"
    ]
  },
  {
    "value": "high-beam head light",
    "synonyms": [
      "high beam",
      "high beam lights",
      "high beams",
      "high-beam headlight",
      "high-beam light"
    ]
  },
  {
    "value": "interior light",
    "synonyms": [
      "interior light"
    ]
  },
  {
    "value": "low-beam head light",
    "synonyms": [
      "low beam",
      "low beam lights",
      "low beams",
      "low-beam",
      "low-beam headlight",
      "low-beam light"
    ]
  },
  {
    "value": "parking light",
    "synonyms": [
      "parking light"
    ]
  },
  {
    "value": "passenger\u0027s light",
    "synonyms": [
      "passenger\u0027s light",
      "passengers light"
    ]
  },
  {
    "value": "passengers",
    "synonyms": [
      "passengers"
    ]
  },
  {
    "value": "rear seat light",
    "synonyms": [
      "light for rear seat",
      "lights for rear seats",
      "rear seat light",
      "reat seat lights"
    ]
  },
  {
    "value": "reverse light",
    "synonyms": [
      "reverse light",
      "reverse lights"
    ]
  },
  {
    "value": "warning light",
    "synonyms": [
      "warning light"
    ]
  }
]