{
  "id": "b36c8784-4acd-425b-b3dd-13b7dab93600",
  "name": "car-light",
  "isOverridable": true,
  "isEnum": false,
  "isRegexp": false,
  "automatedExpansion": false,
  "allowFuzzyExtraction": false
}