{
  "id": "1d81e89a-1343-4c45-a382-bc15122a21f6",
  "name": "condition",
  "isOverridable": true,
  "isEnum": false,
  "isRegexp": false,
  "automatedExpansion": false,
  "allowFuzzyExtraction": false
}