{
  "id": "96620180-d518-444d-88e2-81e4193ea173",
  "name": "playlist",
  "isOverridable": true,
  "isEnum": false,
  "isRegexp": false,
  "automatedExpansion": true,
  "allowFuzzyExtraction": false
}