{
  "id": "cd482d77-4ffe-4ffe-a7f8-6343144bd432",
  "name": "rotation",
  "isOverridable": true,
  "isEnum": false,
  "isRegexp": false,
  "automatedExpansion": false,
  "allowFuzzyExtraction": false
}