{
  "id": "1a58062a-4695-41df-8f92-a27a88d0cee6",
  "name": "venue-shopping-type",
  "isOverridable": true,
  "isEnum": false,
  "isRegexp": false,
  "automatedExpansion": false,
  "allowFuzzyExtraction": false
}