{
  "id": "ceff22e0-929e-4b95-96cb-e95b4a432c1f",
  "name": "venue-shopping-title",
  "isOverridable": true,
  "isEnum": false,
  "isRegexp": false,
  "automatedExpansion": true,
  "allowFuzzyExtraction": false
}