{
  "id": "8a901b4a-595e-47f7-be84-d54d79f1d1f8",
  "name": "venue-arts-entertainment-type",
  "isOverridable": true,
  "isEnum": false,
  "isRegexp": false,
  "automatedExpansion": false,
  "allowFuzzyExtraction": false
}