[
  {
    "value": "A B Beauty Salon",
    "synonyms": [
      "A B Beauty Salon"
    ]
  },
  {
    "value": "A I Beauty Salon",
    "synonyms": [
      "A I Beauty Salon"
    ]
  },
  {
    "value": "Aate Beauty Salon",
    "synonyms": [
      "Aate Beauty Salon"
    ]
  },
  {
    "value": "African Beauty Supply \u0026 Salon",
    "synonyms": [
      "African Beauty Supply \u0026 Salon"
    ]
  },
  {
    "value": "Atherton Cox Hair and Beauty Salon",
    "synonyms": [
      "Atherton Cox Hair and Beauty Salon"
    ]
  },
  {
    "value": "Beach Beauty Salon",
    "synonyms": [
      "Beach Beauty Salon"
    ]
  },
  {
    "value": "Beauty Salon",
    "synonyms": [
      "Beauty Salon"
    ]
  },
  {
    "value": "Beauty Salon Chica Sexy",
    "synonyms": [
      "Beauty Salon Chica Sexy"
    ]
  },
  {
    "value": "Belle Hair Beauty Salon",
    "synonyms": [
      "Belle Hair Beauty Salon"
    ]
  },
  {
    "value": "Bloom Beauty Salon",
    "synonyms": [
      "Bloom Beauty Salon"
    ]
  },
  {
    "value": "CHI beauty salon",
    "synonyms": [
      "CHI beauty salon"
    ]
  },
  {
    "value": "Cherry Blossom Beauty Salon",
    "synonyms": [
      "Cherry Blossom Beauty Salon"
    ]
  },
  {
    "value": "China Beauty Salon",
    "synonyms": [
      "China Beauty Salon"
    ]
  },
  {
    "value": "City Beauty Salon",
    "synonyms": [
      "City Beauty Salon"
    ]
  },
  {
    "value": "Clara Beauty Salon",
    "synonyms": [
      "Clara Beauty Salon"
    ]
  },
  {
    "value": "Confidence Beauty Salon \u0026 SPA",
    "synonyms": [
      "Confidence Beauty Salon \u0026 SPA"
    ]
  },
  {
    "value": "Cosmos Beauty Salon \u0026 Supply",
    "synonyms": [
      "Cosmos Beauty Salon \u0026 Supply"
    ]
  },
  {
    "value": "Dazzle Beauty Salon",
    "synonyms": [
      "Dazzle Beauty Salon"
    ]
  },
  {
    "value": "Decada Beauty Salon Inc",
    "synonyms": [
      "Decada Beauty Salon Inc"
    ]
  },
  {
    "value": "Ebony Styles Beauty Salon",
    "synonyms": [
      "Ebony Styles Beauty Salon"
    ]
  },
  {
    "value": "Encore Beauty Salon",
    "synonyms": [
      "Encore Beauty Salon"
    ]
  },
  {
    "value": "Evelina Beauty Salon",
    "synonyms": [
      "Evelina Beauty Salon"
    ]
  },
  {
    "value": "Franklin Beauty Salon",
    "synonyms": [
      "Franklin Beauty Salon"
    ]
  },
  {
    "value": "Freddy\u0027s Beauty Salon",
    "synonyms": [
      "Freddy\u0027s Beauty Salon"
    ]
  },
  {
    "value": "Frenchy\u0027s Beauty Parlor",
    "synonyms": [
      "Frenchy\u0027s Beauty Parlor"
    ]
  },
  {
    "value": "Grace Beauty Salon",
    "synonyms": [
      "Grace Beauty Salon"
    ]
  },
  {
    "value": "Grace and Mercy Beauty Salon",
    "synonyms": [
      "Grace and Mercy Beauty Salon"
    ]
  },
  {
    "value": "Hebe Hair \u0026 Beauty Salon Covent Garden London",
    "synonyms": [
      "Hebe Hair \u0026 Beauty Salon Covent Garden London"
    ]
  },
  {
    "value": "ID Hair and Beauty Salon",
    "synonyms": [
      "ID Hair and Beauty Salon"
    ]
  },
  {
    "value": "Imagen Beauty Salon",
    "synonyms": [
      "Imagen Beauty Salon"
    ]
  },
  {
    "value": "Irma\u0027s Beauty Salon",
    "synonyms": [
      "Irma\u0027s Beauty Salon"
    ]
  },
  {
    "value": "Japan Center Beauty Clinic",
    "synonyms": [
      "Japan Center Beauty Clinic"
    ]
  },
  {
    "value": "Jun\u0027s Beauty Salon",
    "synonyms": [
      "Jun\u0027s Beauty Salon"
    ]
  },
  {
    "value": "Just Because Beauty Salon",
    "synonyms": [
      "Just Because Beauty Salon"
    ]
  },
  {
    "value": "Katy Beauty Salon",
    "synonyms": [
      "Katy Beauty Salon"
    ]
  },
  {
    "value": "Kendra Beauty Salon",
    "synonyms": [
      "Kendra Beauty Salon"
    ]
  },
  {
    "value": "Kim Sun Young Beauty Salon",
    "synonyms": [
      "Kim Sun Young Beauty Salon"
    ]
  },
  {
    "value": "Lisa\u0027s Beauty Salon",
    "synonyms": [
      "Lisa\u0027s Beauty Salon"
    ]
  },
  {
    "value": "Little Wave",
    "synonyms": [
      "Little Wave"
    ]
  },
  {
    "value": "Looks Threading Beauty Salon",
    "synonyms": [
      "Looks Threading Beauty Salon"
    ]
  },
  {
    "value": "Lorena\u0027s Beauty Salon",
    "synonyms": [
      "Lorena\u0027s Beauty Salon"
    ]
  },
  {
    "value": "Lotte Beauty Salon",
    "synonyms": [
      "Lotte Beauty Salon"
    ]
  },
  {
    "value": "M J Beauty Salon \u0026 Spa",
    "synonyms": [
      "M J Beauty Salon \u0026 Spa"
    ]
  },
  {
    "value": "MM Bubbles Beauty Salon Earl\u0027s Court London",
    "synonyms": [
      "MM Bubbles Beauty Salon Earl\u0027s Court London"
    ]
  },
  {
    "value": "Madusalon",
    "synonyms": [
      "Madusalon"
    ]
  },
  {
    "value": "Margarita\u0027s Beauty Salon",
    "synonyms": [
      "Margarita\u0027s Beauty Salon"
    ]
  },
  {
    "value": "Mary\u0027s Beauty Salon",
    "synonyms": [
      "Mary\u0027s Beauty Salon"
    ]
  },
  {
    "value": "Marysia Beauty Salon",
    "synonyms": [
      "Marysia Beauty Salon"
    ]
  },
  {
    "value": "Maya\u0027s Beauty Salon",
    "synonyms": [
      "Maya\u0027s Beauty Salon"
    ]
  },
  {
    "value": "Michi Beauty Salon",
    "synonyms": [
      "Michi Beauty Salon"
    ]
  },
  {
    "value": "Miwa-Alex Salon",
    "synonyms": [
      "Miwa-Alex Salon"
    ]
  },
  {
    "value": "Mon Beauty Salon",
    "synonyms": [
      "Mon Beauty Salon"
    ]
  },
  {
    "value": "New York Beauty Salon",
    "synonyms": [
      "New York Beauty Salon"
    ]
  },
  {
    "value": "Olympia Beauty Salon",
    "synonyms": [
      "Olympia Beauty Salon"
    ]
  },
  {
    "value": "Orchid Beauty Salon",
    "synonyms": [
      "Orchid Beauty Salon"
    ]
  },
  {
    "value": "P \u0026 R Beauty Salon",
    "synonyms": [
      "P \u0026 R Beauty Salon"
    ]
  },
  {
    "value": "Pretty Parlor",
    "synonyms": [
      "Pretty Parlor"
    ]
  },
  {
    "value": "Rafael Hair \u0026 Beauty Studio",
    "synonyms": [
      "Rafael Hair \u0026 Beauty Studio"
    ]
  },
  {
    "value": "Reaction Beauty Salon",
    "synonyms": [
      "Reaction Beauty Salon"
    ]
  },
  {
    "value": "Rozina\u0027s Beauty Salon",
    "synonyms": [
      "Rozina\u0027s Beauty Salon"
    ]
  },
  {
    "value": "Salon House",
    "synonyms": [
      "Salon House"
    ]
  },
  {
    "value": "Sassi Beauty Salon",
    "synonyms": [
      "Sassi Beauty Salon"
    ]
  },
  {
    "value": "Sloane Square Beauty Salon",
    "synonyms": [
      "Sloane Square Beauty Salon"
    ]
  },
  {
    "value": "Sole Beauty",
    "synonyms": [
      "Sole Beauty"
    ]
  },
  {
    "value": "Sole Beauty London",
    "synonyms": [
      "Sole Beauty London"
    ]
  },
  {
    "value": "Sole Beauty Victoria",
    "synonyms": [
      "Sole Beauty Victoria"
    ]
  },
  {
    "value": "Soleil Beauty Salon",
    "synonyms": [
      "Soleil Beauty Salon"
    ]
  },
  {
    "value": "Spa Chic Beauty Salon",
    "synonyms": [
      "Spa Chic Beauty Salon"
    ]
  },
  {
    "value": "The Salon Hair and Beauty",
    "synonyms": [
      "The Salon Hair and Beauty"
    ]
  },
  {
    "value": "Top To Toe Beauty Salon",
    "synonyms": [
      "Top To Toe Beauty Salon"
    ]
  },
  {
    "value": "Top1One Hair and Beauty Salon",
    "synonyms": [
      "Top1One Hair and Beauty Salon"
    ]
  },
  {
    "value": "Tranquility Nail and Beauty Salon",
    "synonyms": [
      "Tranquility Nail and Beauty Salon"
    ]
  },
  {
    "value": "Trini\u0027s Beauty Salon",
    "synonyms": [
      "Trini\u0027s Beauty Salon"
    ]
  },
  {
    "value": "Vladimir\u0027s Beauty Salon",
    "synonyms": [
      "Vladimir\u0027s Beauty Salon"
    ]
  },
  {
    "value": "Wonderland Beauty Parlor",
    "synonyms": [
      "Wonderland Beauty Parlor"
    ]
  }
]