{
  "id": "cf7ef775-0fb4-4ae8-b0ab-1a22d31be5ea",
  "name": "venue-medical-title",
  "isOverridable": true,
  "isEnum": false,
  "isRegexp": false,
  "automatedExpansion": true,
  "allowFuzzyExtraction": false
}