{
  "id": "90f70c65-c6a5-49dc-a3d0-e74ad36c687d",
  "name": "venue-sport-type",
  "isOverridable": true,
  "isEnum": false,
  "isRegexp": false,
  "automatedExpansion": false,
  "allowFuzzyExtraction": false
}