[
  {
    "id": "70df7edd-71fa-40da-8145-fe371a740cef",
    "data": [
      {
        "text": "call me ",
        "userDefined": false
      },
      {
        "text": "Tom",
        "alias": "given-name",
        "meta": "@sys.given-name",
        "userDefined": true
      },
      {
        "text": " please",
        "userDefined": false
      }
    ],
    "isTemplate": false,
    "count": 0,
    "updated": 0
  },
  {
    "id": "de20afe6-9de7-41b2-b3ff-d1c2f152680d",
    "data": [
      {
        "text": "save my ",
        "userDefined": false
      },
      {
        "text": "middle name",
        "alias": "type",
        "meta": "@name-type",
        "userDefined": true
      },
      {
        "text": " as ",
        "userDefined": false
      },
      {
        "text": "Samantha",
        "alias": "given-name",
        "meta": "@sys.given-name",
        "userDefined": true
      }
    ],
    "isTemplate": false,
    "count": 0,
    "updated": 0
  },
  {
    "id": "883652be-e940-4e70-b31f-93b7082c6a7b",
    "data": [
      {
        "text": "my name is ",
        "userDefined": false
      },
      {
        "text": "Anna",
        "alias": "given-name",
        "meta": "@sys.given-name",
        "userDefined": true
      }
    ],
    "isTemplate": false,
    "count": 0,
    "updated": 0
  },
  {
    "id": "649af157-9b02-4e4d-b4ac-56ef043a0731",
    "data": [
      {
        "text": "Paul",
        "alias": "given-name",
        "meta": "@sys.given-name",
        "userDefined": true
      },
      {
        "text": " is my ",
        "userDefined": false
      },
      {
        "text": "middle name",
        "alias": "type",
        "meta": "@name-type",
        "userDefined": true
      }
    ],
    "isTemplate": false,
    "count": 0,
    "updated": 0
  },
  {
    "id": "eb505909-cacc-4627-8468-4fa80e6227f4",
    "data": [
      {
        "text": "my ",
        "userDefined": false
      },
      {
        "text": "nickname",
        "alias": "type",
        "meta": "@name-type",
        "userDefined": true
      },
      {
        "text": " is ",
        "userDefined": false
      },
      {
        "text": "Woo Woo",
        "alias": "nick-name",
        "meta": "@nick-name",
        "userDefined": true
      }
    ],
    "isTemplate": false,
    "count": 0,
    "updated": 0
  },
  {
    "id": "30df8a99-7aa9-4706-8b15-ae7f993b4fa5",
    "data": [
      {
        "text": "save my ",
        "userDefined": false
      },
      {
        "text": "last name",
        "alias": "type",
        "meta": "@name-type",
        "userDefined": true
      }
    ],
    "isTemplate": false,
    "count": 0,
    "updated": 0
  },
  {
    "id": "308538e6-9d05-454c-8698-150bbe95033b",
    "data": [
      {
        "text": "I\u0027d like to be addressed as ",
        "userDefined": false
      },
      {
        "text": "Captain",
        "alias": "nick-name",
        "meta": "@nick-name",
        "userDefined": true
      },
      {
        "text": " from now on",
        "userDefined": false
      }
    ],
    "isTemplate": false,
    "count": 0,
    "updated": 0
  },
  {
    "id": "a0dcac74-1c3b-44bb-beeb-5b08177b7c6c",
    "data": [
      {
        "text": "save my name as ",
        "userDefined": false
      },
      {
        "text": "Tom",
        "alias": "given-name",
        "meta": "@sys.given-name",
        "userDefined": false
      }
    ],
    "isTemplate": false,
    "count": 0,
    "updated": 0
  },
  {
    "id": "15e3e6f8-0a0f-4072-8eb9-ff4685890b6a",
    "data": [
      {
        "text": "you should learn my ",
        "userDefined": false
      },
      {
        "text": "nickname",
        "alias": "type",
        "meta": "@name-type",
        "userDefined": true
      }
    ],
    "isTemplate": false,
    "count": 0,
    "updated": 0
  },
  {
    "id": "270c98b5-0baa-4384-a3fd-3a19336a9269",
    "data": [
      {
        "text": "I\u0027d like to be addressed as ",
        "userDefined": false
      },
      {
        "text": "Sam",
        "alias": "given-name",
        "meta": "@sys.given-name",
        "userDefined": true
      }
    ],
    "isTemplate": false,
    "count": 0,
    "updated": 0
  },
  {
    "id": "6f2801c8-afa3-4929-95be-607b30f51296",
    "data": [
      {
        "text": "call me Mr ",
        "userDefined": false
      },
      {
        "text": "Davis",
        "alias": "last-name",
        "meta": "@sys.last-name",
        "userDefined": true
      }
    ],
    "isTemplate": false,
    "count": 0,
    "updated": 0
  },
  {
    "id": "320711bb-1af7-4c7c-a207-88e60e7ca3cc",
    "data": [
      {
        "text": "Squirrel",
        "alias": "nick-name",
        "meta": "@nick-name",
        "userDefined": true
      },
      {
        "text": " is my ",
        "userDefined": false
      },
      {
        "text": "nickname",
        "alias": "type",
        "meta": "@name-type",
        "userDefined": true
      }
    ],
    "isTemplate": false,
    "count": 0,
    "updated": 0
  },
  {
    "id": "57d03fe9-f8e0-4723-8152-e4b3c55e9322",
    "data": [
      {
        "text": "how about you call me ",
        "userDefined": false
      },
      {
        "text": "Jessica",
        "alias": "given-name",
        "meta": "@sys.given-name",
        "userDefined": true
      }
    ],
    "isTemplate": false,
    "count": 0,
    "updated": 0
  },
  {
    "id": "ce4b26a3-c58f-42b5-affe-877aa1d0e135",
    "data": [
      {
        "text": "can you remember my ",
        "userDefined": false
      },
      {
        "text": "middle name",
        "alias": "type",
        "meta": "@name-type",
        "userDefined": true
      }
    ],
    "isTemplate": false,
    "count": 0,
    "updated": 0
  },
  {
    "id": "7d2d4e1a-490f-4b2d-96b3-dd17781cb40b",
    "data": [
      {
        "text": "I\u0027m ",
        "userDefined": false
      },
      {
        "text": "Courtney",
        "alias": "given-name",
        "meta": "@sys.given-name",
        "userDefined": true
      }
    ],
    "isTemplate": false,
    "count": 0,
    "updated": 0
  },
  {
    "id": "d5b1c074-0415-45e2-93a5-f5255cad43bf",
    "data": [
      {
        "text": "call me ",
        "userDefined": false
      },
      {
        "text": "John",
        "alias": "given-name",
        "meta": "@sys.given-name",
        "userDefined": true
      }
    ],
    "isTemplate": false,
    "count": 0,
    "updated": 0
  },
  {
    "id": "cd264d69-4a83-418a-a641-de4993000ea7",
    "data": [
      {
        "text": "remember my name",
        "userDefined": false
      }
    ],
    "isTemplate": false,
    "count": 0,
    "updated": 0
  },
  {
    "id": "ef60f5c7-c893-44db-a2c2-80d3fb1a1f78",
    "data": [
      {
        "text": "my ",
        "userDefined": false
      },
      {
        "text": "last name",
        "alias": "type",
        "meta": "@name-type",
        "userDefined": true
      },
      {
        "text": " is ",
        "userDefined": false
      },
      {
        "text": "Brown",
        "alias": "last-name",
        "meta": "@sys.last-name",
        "userDefined": true
      }
    ],
    "isTemplate": false,
    "count": 0,
    "updated": 0
  },
  {
    "id": "5239b890-84d6-4a50-b2c8-c67981aae158",
    "data": [
      {
        "text": "save my ",
        "userDefined": false
      },
      {
        "text": "name",
        "meta": "@sys.ignore",
        "userDefined": false
      }
    ],
    "isTemplate": false,
    "count": 0,
    "updated": 0
  },
  {
    "id": "f424fb7c-0a86-4b67-90ec-e023587bcd34",
    "data": [
      {
        "text": "remember that my name is ",
        "userDefined": false
      },
      {
        "text": "Nick",
        "alias": "given-name",
        "meta": "@sys.given-name",
        "userDefined": true
      }
    ],
    "isTemplate": false,
    "count": 0,
    "updated": 0
  },
  {
    "id": "2c6e8ec4-291d-42ef-9363-beac6bd5c19a",
    "data": [
      {
        "text": "I\u0027m Mrs ",
        "userDefined": false
      },
      {
        "text": "Green",
        "alias": "last-name",
        "meta": "@sys.last-name",
        "userDefined": true
      }
    ],
    "isTemplate": false,
    "count": 0,
    "updated": 0
  },
  {
    "id": "e8fe2b92-b39b-49b4-a35f-f885572da00b",
    "data": [
      {
        "text": "I want you to refer to me as ",
        "userDefined": false
      },
      {
        "text": "Cristina",
        "alias": "given-name",
        "meta": "@sys.given-name",
        "userDefined": true
      }
    ],
    "isTemplate": false,
    "count": 0,
    "updated": 0
  },
  {
    "id": "eddb5131-8371-46f6-9eef-25218701f32e",
    "data": [
      {
        "text": "remember that my ",
        "userDefined": false
      },
      {
        "text": "nickname",
        "alias": "type",
        "meta": "@name-type",
        "userDefined": true
      },
      {
        "text": " is ",
        "userDefined": false
      },
      {
        "text": "Boss",
        "alias": "nick-name",
        "meta": "@nick-name",
        "userDefined": true
      }
    ],
    "isTemplate": false,
    "count": 1,
    "updated": 0
  },
  {
    "id": "0d1cc341-9ac1-41cf-b1b0-b5479abb038d",
    "data": [
      {
        "text": "you should learn my name",
        "userDefined": false
      }
    ],
    "isTemplate": false,
    "count": 1,
    "updated": 0
  },
  {
    "id": "3792dfbc-db7e-405c-af29-0bc33207359f",
    "data": [
      {
        "text": "my ",
        "userDefined": false
      },
      {
        "text": "middle name",
        "alias": "type",
        "meta": "@name-type",
        "userDefined": true
      },
      {
        "text": " is ",
        "userDefined": false
      },
      {
        "text": "Clara",
        "alias": "given-name",
        "meta": "@sys.given-name",
        "userDefined": true
      }
    ],
    "isTemplate": false,
    "count": 1,
    "updated": 0
  }
]