[
  {
    "id": "c6eb3feb-1e51-4a4e-b696-c22113ec33f4",
    "data": [
      {
        "text": "what is my ",
        "userDefined": false
      },
      {
        "text": "nickname",
        "alias": "type",
        "meta": "@name-type",
        "userDefined": true
      }
    ],
    "isTemplate": false,
    "count": 1,
    "updated": 0
  },
  {
    "id": "2e72b5f8-cb00-4ad5-9d63-9e3039464fe3",
    "data": [
      {
        "text": "my ",
        "userDefined": false
      },
      {
        "text": "last name",
        "alias": "type",
        "meta": "@name-type",
        "userDefined": true
      }
    ],
    "isTemplate": false,
    "count": 0,
    "updated": 0
  },
  {
    "id": "bd41b6ca-0e72-4d48-be4a-edc4e327b33e",
    "data": [
      {
        "text": "how did I teach you to address me",
        "userDefined": false
      }
    ],
    "isTemplate": false,
    "count": 0,
    "updated": 0
  },
  {
    "id": "96988331-7f0c-43e5-a746-8f19f3585b55",
    "data": [
      {
        "text": "do I have a name",
        "userDefined": false
      }
    ],
    "isTemplate": false,
    "count": 0,
    "updated": 0
  },
  {
    "id": "d9f010c6-9465-4ddc-9a81-c192ba0bf4fc",
    "data": [
      {
        "text": "my ",
        "userDefined": false
      },
      {
        "text": "name",
        "meta": "@sys.ignore",
        "userDefined": false
      }
    ],
    "isTemplate": false,
    "count": 0,
    "updated": 0
  },
  {
    "id": "c1848eb5-9f64-4387-ac8d-a22791f8a57e",
    "data": [
      {
        "text": "do I have a ",
        "userDefined": false
      },
      {
        "text": "middle name",
        "alias": "type",
        "meta": "@name-type",
        "userDefined": true
      }
    ],
    "isTemplate": false,
    "count": 0,
    "updated": 0
  },
  {
    "id": "7b5fb074-8731-4bcc-a17d-6ac603560c1b",
    "data": [
      {
        "text": "can you say my ",
        "userDefined": false
      },
      {
        "text": "first name",
        "alias": "type",
        "meta": "@name-type",
        "userDefined": true
      }
    ],
    "isTemplate": false,
    "count": 0,
    "updated": 0
  },
  {
    "id": "28fca06f-8838-4d4e-9b8e-8c71cec83a74",
    "data": [
      {
        "text": "I",
        "meta": "@sys.ignore",
        "userDefined": false
      },
      {
        "text": " forgot my ",
        "userDefined": false
      },
      {
        "text": "nickname",
        "alias": "type",
        "meta": "@name-type",
        "userDefined": false
      }
    ],
    "isTemplate": false,
    "count": 0,
    "updated": 0
  },
  {
    "id": "f3990c43-af30-4764-b4be-003a7015fbde",
    "data": [
      {
        "text": "what is my ",
        "userDefined": false
      },
      {
        "text": "name",
        "meta": "@sys.ignore",
        "userDefined": false
      }
    ],
    "isTemplate": false,
    "count": 0,
    "updated": 0
  },
  {
    "id": "a883b603-6637-401c-8a63-4371fa68f14a",
    "data": [
      {
        "text": "tell me my ",
        "userDefined": false
      },
      {
        "text": "surname",
        "alias": "type",
        "meta": "@name-type",
        "userDefined": true
      }
    ],
    "isTemplate": false,
    "count": 0,
    "updated": 0
  },
  {
    "id": "9cfdd326-1c94-492e-a145-8f64525cd9e1",
    "data": [
      {
        "text": "do you remember my ",
        "userDefined": false
      },
      {
        "text": "middle name",
        "alias": "type",
        "meta": "@name-type",
        "userDefined": true
      }
    ],
    "isTemplate": false,
    "count": 0,
    "updated": 0
  },
  {
    "id": "9451ea8d-aa0b-4f3d-ac69-2ec2c8da92cf",
    "data": [
      {
        "text": "how ",
        "userDefined": false
      },
      {
        "text": "do",
        "meta": "@sys.ignore",
        "userDefined": false
      },
      {
        "text": " you ",
        "userDefined": false
      },
      {
        "text": "address",
        "meta": "@sys.ignore",
        "userDefined": false
      },
      {
        "text": " me",
        "userDefined": false
      }
    ],
    "isTemplate": false,
    "count": 0,
    "updated": 0
  },
  {
    "id": "40391d5d-0046-4158-a2e3-1a8ee23d7eff",
    "data": [
      {
        "text": "tell me my ",
        "userDefined": false
      },
      {
        "text": "last name",
        "alias": "type",
        "meta": "@name-type",
        "userDefined": true
      }
    ],
    "isTemplate": false,
    "count": 0,
    "updated": 0
  },
  {
    "id": "d45a4c27-13a0-4c76-bfe3-e9265e603ec5",
    "data": [
      {
        "text": "can you ",
        "userDefined": false
      },
      {
        "text": "say",
        "meta": "@sys.ignore",
        "userDefined": false
      },
      {
        "text": " my ",
        "userDefined": false
      },
      {
        "text": "name",
        "meta": "@sys.ignore",
        "userDefined": false
      }
    ],
    "isTemplate": false,
    "count": 0,
    "updated": 0
  },
  {
    "id": "c16dd5be-cd01-418a-9923-7ee69b990fba",
    "data": [
      {
        "text": "what are you supposed ",
        "userDefined": false
      },
      {
        "text": "to",
        "meta": "@sys.ignore",
        "userDefined": false
      },
      {
        "text": " call me",
        "userDefined": false
      }
    ],
    "isTemplate": false,
    "count": 0,
    "updated": 0
  },
  {
    "id": "e73fdfff-2a3b-44e7-837a-789f40e4d0fb",
    "data": [
      {
        "text": "do",
        "meta": "@sys.ignore",
        "userDefined": false
      },
      {
        "text": " you remember my ",
        "userDefined": false
      },
      {
        "text": "surname",
        "alias": "type",
        "meta": "@name-type",
        "userDefined": true
      }
    ],
    "isTemplate": false,
    "count": 0,
    "updated": 0
  }
]