[
  {
    "id": "0bb9a12a-3e7f-4064-a44f-dddb6e0c02ea",
    "data": [
      {
        "text": "I have an awful ",
        "userDefined": false
      },
      {
        "text": "nickname",
        "alias": "type",
        "meta": "@name-type",
        "userDefined": true
      }
    ],
    "isTemplate": false,
    "count": 0,
    "updated": 0
  },
  {
    "id": "96a1d565-a5c9-4ef1-9109-7c99bea62304",
    "data": [
      {
        "text": "what a horrible ",
        "userDefined": false
      },
      {
        "text": "last name",
        "alias": "type",
        "meta": "@name-type",
        "userDefined": true
      },
      {
        "text": " I have",
        "userDefined": false
      }
    ],
    "isTemplate": false,
    "count": 0,
    "updated": 0
  },
  {
    "id": "ddc384a4-5ea4-4c1a-ba6a-27e3493b9e8f",
    "data": [
      {
        "text": "I",
        "meta": "@sys.ignore",
        "userDefined": false
      },
      {
        "text": " don\u0027t ",
        "userDefined": false
      },
      {
        "text": "like",
        "meta": "@sys.ignore",
        "userDefined": false
      },
      {
        "text": " my ",
        "userDefined": false
      },
      {
        "text": "name",
        "meta": "@sys.ignore",
        "userDefined": false
      }
    ],
    "isTemplate": false,
    "count": 0,
    "updated": 0
  },
  {
    "id": "67064569-1088-4b39-a0b1-15fec9be68f4",
    "data": [
      {
        "text": "I don\u0027t like my ",
        "userDefined": false
      },
      {
        "text": "surname",
        "alias": "type",
        "meta": "@name-type",
        "userDefined": true
      }
    ],
    "isTemplate": false,
    "count": 0,
    "updated": 0
  },
  {
    "id": "6098a864-0e61-4fdb-aefc-1983dbd322ce",
    "data": [
      {
        "text": "my ",
        "userDefined": false
      },
      {
        "text": "middle name",
        "alias": "type",
        "meta": "@name-type",
        "userDefined": true
      },
      {
        "text": " is bad",
        "userDefined": false
      }
    ],
    "isTemplate": false,
    "count": 0,
    "updated": 0
  },
  {
    "id": "84228aba-d26a-4aa1-8ab6-f78b0a1d81dd",
    "data": [
      {
        "text": "my ",
        "userDefined": false
      },
      {
        "text": "name",
        "meta": "@sys.ignore",
        "userDefined": false
      },
      {
        "text": " is bad",
        "userDefined": false
      }
    ],
    "isTemplate": false,
    "count": 0,
    "updated": 0
  },
  {
    "id": "831aceff-7d24-4fcf-ad9b-d31c7b05706a",
    "data": [
      {
        "text": "what a horrible ",
        "userDefined": false
      },
      {
        "text": "name",
        "meta": "@sys.ignore",
        "userDefined": false
      },
      {
        "text": " ",
        "userDefined": false
      },
      {
        "text": "I",
        "meta": "@sys.ignore",
        "userDefined": false
      },
      {
        "text": " have",
        "userDefined": false
      }
    ],
    "isTemplate": false,
    "count": 0,
    "updated": 0
  },
  {
    "id": "5f0b4cbc-96ef-4441-b6d8-00fe528a0cdf",
    "data": [
      {
        "text": "I",
        "meta": "@sys.ignore",
        "userDefined": false
      },
      {
        "text": " have an awful ",
        "userDefined": false
      },
      {
        "text": "name",
        "meta": "@sys.ignore",
        "userDefined": false
      }
    ],
    "isTemplate": false,
    "count": 0,
    "updated": 0
  }
]