[
  {
    "id": "e7c39700-46f7-4078-8e98-2d22e850a5c1",
    "data": [
      {
        "text": "which items are prohibited",
        "userDefined": false
      }
    ],
    "isTemplate": false,
    "count": 0,
    "updated": 0
  },
  {
    "id": "8437a150-4146-4603-87f7-0330f535e285",
    "data": [
      {
        "text": "prohibited articles",
        "userDefined": false
      }
    ],
    "isTemplate": false,
    "count": 0,
    "updated": 0
  },
  {
    "id": "f7bd857e-ca81-4c60-96e2-4e710e369160",
    "data": [
      {
        "text": "can I take ",
        "userDefined": false
      },
      {
        "text": "lithium batteries",
        "alias": "restricted-items",
        "meta": "@restricted-items",
        "userDefined": false
      },
      {
        "text": " on board",
        "userDefined": false
      }
    ],
    "isTemplate": false,
    "count": 0,
    "updated": 0
  },
  {
    "id": "d3e96738-100c-4e62-aad1-673f282427ad",
    "data": [
      {
        "text": "list of restricted items",
        "userDefined": false
      }
    ],
    "isTemplate": false,
    "count": 0,
    "updated": 0
  },
  {
    "id": "2fdd5ea9-743a-47be-bf9a-19da27cfc879",
    "data": [
      {
        "text": "are there any restricted items I should know of",
        "userDefined": false
      }
    ],
    "isTemplate": false,
    "count": 0,
    "updated": 0
  },
  {
    "id": "a3e2f2af-92d4-4ae3-800e-2dfa6b1093ed",
    "data": [
      {
        "text": "can my son take a ",
        "userDefined": false
      },
      {
        "text": "toy gun",
        "alias": "restricted-items",
        "meta": "@restricted-items",
        "userDefined": false
      },
      {
        "text": " on board",
        "userDefined": false
      }
    ],
    "isTemplate": false,
    "count": 0,
    "updated": 0
  },
  {
    "id": "e35e4a6a-acaf-4e24-9f28-f18165df7023",
    "data": [
      {
        "text": "is a ",
        "userDefined": false
      },
      {
        "text": "gun",
        "alias": "restricted-items",
        "meta": "@restricted-items",
        "userDefined": false
      },
      {
        "text": " in your list of restricted iltems",
        "userDefined": false
      }
    ],
    "isTemplate": false,
    "count": 0,
    "updated": 0
  },
  {
    "id": "0748d3ab-20cd-487f-a49b-686f727278c5",
    "data": [
      {
        "text": "are ",
        "userDefined": false
      },
      {
        "text": "aerosols",
        "alias": "restricted-items",
        "meta": "@restricted-items",
        "userDefined": false
      },
      {
        "text": " allowed on board",
        "userDefined": false
      }
    ],
    "isTemplate": false,
    "count": 0,
    "updated": 0
  }
]