[
  {
    "id": "178beac0-a3f1-4766-bd2a-cce6b1f1d433",
    "data": [
      {
        "text": "can I take my ",
        "userDefined": false
      },
      {
        "text": "overcoat",
        "alias": "cabin-item",
        "meta": "@cabin-items",
        "userDefined": false
      },
      {
        "text": " on board",
        "userDefined": false
      }
    ],
    "isTemplate": false,
    "count": 0,
    "updated": 0
  },
  {
    "id": "4f4600d3-27bb-4612-afdc-7042e30a99bf",
    "data": [
      {
        "text": "cabin items",
        "userDefined": false
      }
    ],
    "isTemplate": false,
    "count": 0,
    "updated": 0
  },
  {
    "id": "f900a3b6-a060-4888-b513-d290b42ee86f",
    "data": [
      {
        "text": "are ",
        "userDefined": false
      },
      {
        "text": "crutches",
        "alias": "cabin-item",
        "meta": "@cabin-items",
        "userDefined": false
      },
      {
        "text": " allowed on board",
        "userDefined": false
      }
    ],
    "isTemplate": false,
    "count": 0,
    "updated": 0
  },
  {
    "id": "35b5c9aa-64d9-418a-ac46-8e83b3dbc3f9",
    "data": [
      {
        "text": "can I take an ",
        "userDefined": false
      },
      {
        "text": "umbrella",
        "alias": "cabin-item",
        "meta": "@cabin-items",
        "userDefined": false
      }
    ],
    "isTemplate": false,
    "count": 0,
    "updated": 0
  },
  {
    "id": "9abe38d8-cd0d-4b65-84bc-f60e9bc309e6",
    "data": [
      {
        "text": "is it allowed to take a ",
        "userDefined": false
      },
      {
        "text": "walking stick",
        "alias": "cabin-item",
        "meta": "@cabin-items",
        "userDefined": false
      },
      {
        "text": " on board",
        "userDefined": false
      }
    ],
    "isTemplate": false,
    "count": 0,
    "updated": 0
  },
  {
    "id": "58c97ed7-caed-48a5-bf60-2650caf44006",
    "data": [
      {
        "text": "If I buy something in ",
        "userDefined": false
      },
      {
        "text": "duty free",
        "alias": "cabin-item",
        "meta": "@cabin-items",
        "userDefined": false
      },
      {
        "text": " how do I take it on board if ",
        "userDefined": false
      },
      {
        "text": "1",
        "meta": "@sys.ignore",
        "userDefined": false
      },
      {
        "text": " can take only ",
        "userDefined": false
      },
      {
        "text": "1",
        "meta": "@sys.ignore",
        "userDefined": false
      },
      {
        "text": " cabin bag",
        "userDefined": false
      }
    ],
    "isTemplate": false,
    "count": 0,
    "updated": 0
  }
]