{
  "id": "ce83be11-8788-42da-a370-5b095cfeee80",
  "name": "flight - context:flight - comment:return-date",
  "auto": true,
  "contexts": [
    "flight"
  ],
  "responses": [
    {
      "resetContexts": false,
      "action": "#flight.intent_action",
      "affectedContexts": [],
      "parameters": [
        {
          "id": "e1207eaa-eb85-4336-a4b7-6dc44dd48ad3",
          "required": false,
          "dataType": "@sys.date-time",
          "name": "return",
          "value": "$return",
          "promptMessages": [],
          "noMatchPromptMessages": [],
          "noInputPromptMessages": [],
          "outputDialogContexts": [],
          "isList": false
        }
      ],
      "messages": [
        {
          "type": 0,
          "lang": "en",
          "condition": "",
          "speech": []
        }
      ],
      "defaultResponsePlatforms": {},
      "speech": []
    }
  ],
  "priority": 500000,
  "webhookUsed": false,
  "webhookForSlotFilling": false,
  "fallbackIntent": false,
  "events": [],
  "conditionalResponses": [],
  "condition": "",
  "conditionalFollowupEvents": []
}