{
  "id": "3fe2bc70-8662-407d-bd30-709f2c4e2aa0",
  "name": "flight.check - context:check-flight - comment:airline",
  "auto": true,
  "contexts": [
    "check-flight"
  ],
  "responses": [
    {
      "resetContexts": false,
      "action": "flight.check",
      "affectedContexts": [],
      "parameters": [
        {
          "id": "278e476b-3171-4bb2-be50-8fdcf1a45ec6",
          "required": false,
          "dataType": "@airline",
          "name": "airline",
          "value": "$airline",
          "promptMessages": [],
          "noMatchPromptMessages": [],
          "noInputPromptMessages": [],
          "outputDialogContexts": [],
          "isList": false
        }
      ],
      "messages": [
        {
          "type": 0,
          "lang": "en",
          "condition": "",
          "speech": []
        }
      ],
      "defaultResponsePlatforms": {},
      "speech": []
    }
  ],
  "priority": 500000,
  "webhookUsed": false,
  "webhookForSlotFilling": false,
  "fallbackIntent": false,
  "events": [],
  "conditionalResponses": [],
  "condition": "",
  "conditionalFollowupEvents": []
}