[
  {
    "id": "86b8995b-45f4-4a26-a5a4-5cf9610f6b9f",
    "data": [
      {
        "text": "BA 139",
        "alias": "flight-number",
        "meta": "@sys.flight-number",
        "userDefined": false
      },
      {
        "text": " too",
        "userDefined": false
      }
    ],
    "isTemplate": false,
    "count": 0,
    "updated": 0
  },
  {
    "id": "39422e96-b5bf-406d-8ca0-dbec75cdf96a",
    "data": [
      {
        "text": "how about ",
        "userDefined": false
      },
      {
        "text": "BA 039",
        "alias": "flight-number",
        "meta": "@sys.flight-number",
        "userDefined": false
      }
    ],
    "isTemplate": false,
    "count": 0,
    "updated": 0
  },
  {
    "id": "a94706bb-38b4-45b1-a077-0e9eae63f544",
    "data": [
      {
        "text": "SU 39",
        "alias": "flight-number",
        "meta": "@sys.flight-number",
        "userDefined": false
      }
    ],
    "isTemplate": false,
    "count": 0,
    "updated": 0
  },
  {
    "id": "c042ad7b-f761-493c-bad5-a2664d63b739",
    "data": [
      {
        "text": "what about ",
        "userDefined": false
      },
      {
        "text": "BA 039",
        "alias": "flight-number",
        "meta": "@sys.flight-number",
        "userDefined": false
      }
    ],
    "isTemplate": false,
    "count": 0,
    "updated": 0
  },
  {
    "id": "72327372-a9fb-4a91-9d5b-9366aeaa1b40",
    "data": [
      {
        "text": "find me ",
        "userDefined": false
      },
      {
        "text": "HA039",
        "alias": "flight-number",
        "meta": "@sys.flight-number",
        "userDefined": false
      },
      {
        "text": " number as ",
        "userDefined": false
      },
      {
        "text": "well",
        "meta": "@sys.ignore",
        "userDefined": false
      }
    ],
    "isTemplate": false,
    "count": 0,
    "updated": 0
  },
  {
    "id": "cb861f05-c40b-42b4-b4c4-544fd4231c80",
    "data": [
      {
        "text": "BA 139",
        "alias": "flight-number",
        "meta": "@sys.flight-number",
        "userDefined": true
      },
      {
        "text": " as ",
        "userDefined": false
      },
      {
        "text": "well",
        "meta": "@sys.ignore",
        "userDefined": false
      }
    ],
    "isTemplate": false,
    "count": 0,
    "updated": 0
  },
  {
    "id": "5cf164e2-a527-4509-8829-96925072cd69",
    "data": [
      {
        "text": "now ",
        "userDefined": false
      },
      {
        "text": "BA 139",
        "alias": "flight-number",
        "meta": "@sys.flight-number",
        "userDefined": false
      }
    ],
    "isTemplate": false,
    "count": 0,
    "updated": 0
  },
  {
    "id": "2324abe6-ae4d-447e-953d-a8d28956a2bb",
    "data": [
      {
        "text": "now search for ",
        "userDefined": false
      },
      {
        "text": "LH433",
        "alias": "flight-number",
        "meta": "@sys.flight-number",
        "userDefined": false
      }
    ],
    "isTemplate": false,
    "count": 0,
    "updated": 0
  },
  {
    "id": "8b33eb9e-6081-4500-a48f-a4817ac647a1",
    "data": [
      {
        "text": "AA 120",
        "alias": "flight-number",
        "meta": "@sys.flight-number",
        "userDefined": false
      },
      {
        "text": " ",
        "userDefined": false
      },
      {
        "text": "now",
        "meta": "@sys.ignore",
        "userDefined": false
      }
    ],
    "isTemplate": false,
    "count": 0,
    "updated": 0
  },
  {
    "id": "dbc60c31-3ce1-4268-a106-721ffb221212",
    "data": [
      {
        "text": "now number ",
        "userDefined": false
      },
      {
        "text": "SU433",
        "alias": "flight-number",
        "meta": "@sys.flight-number",
        "userDefined": false
      }
    ],
    "isTemplate": false,
    "count": 0,
    "updated": 0
  }
]