[
  {
    "id": "157df6b8-371e-45d4-a8dd-6bab0a416805",
    "data": [
      {
        "text": "I",
        "meta": "@sys.ignore",
        "userDefined": true
      },
      {
        "text": "\u0027",
        "userDefined": false
      },
      {
        "text": "m",
        "meta": "@sys.ignore",
        "userDefined": true
      },
      {
        "text": " going by ",
        "userDefined": false
      },
      {
        "text": "Aero VIP",
        "alias": "airline",
        "meta": "@airline",
        "userDefined": true
      }
    ],
    "isTemplate": false,
    "count": 0,
    "updated": 0
  },
  {
    "id": "8a894701-07c9-4e7b-9dd3-438b4cda1006",
    "data": [
      {
        "text": "Air France",
        "alias": "airline",
        "meta": "@airline",
        "userDefined": false
      },
      {
        "text": " this ",
        "userDefined": false
      },
      {
        "text": "time",
        "meta": "@sys.ignore",
        "userDefined": false
      }
    ],
    "isTemplate": false,
    "count": 0,
    "updated": 0
  },
  {
    "id": "cb9529d8-3eef-48d7-bce3-13a8890a30a1",
    "data": [
      {
        "text": "I ",
        "userDefined": false
      },
      {
        "text": "am",
        "meta": "@sys.ignore",
        "userDefined": false
      },
      {
        "text": " ",
        "userDefined": false
      },
      {
        "text": "flying",
        "meta": "@sys.ignore",
        "userDefined": false
      },
      {
        "text": " with ",
        "userDefined": false
      },
      {
        "text": "Qatar Airways",
        "alias": "airline",
        "meta": "@airline",
        "userDefined": true
      },
      {
        "text": " this ",
        "userDefined": false
      },
      {
        "text": "time",
        "meta": "@sys.ignore",
        "userDefined": false
      }
    ],
    "isTemplate": false,
    "count": 0,
    "updated": 0
  },
  {
    "id": "8abd235d-dfe8-42b1-8272-9cde25dbf840",
    "data": [
      {
        "text": "flying",
        "meta": "@sys.ignore",
        "userDefined": false
      },
      {
        "text": " with ",
        "userDefined": false
      },
      {
        "text": "Aeroflot",
        "alias": "airline",
        "meta": "@airline",
        "userDefined": false
      }
    ],
    "isTemplate": false,
    "count": 0,
    "updated": 0
  },
  {
    "id": "1a9549f5-5a06-446d-b401-c4e2849a139a",
    "data": [
      {
        "text": "Emirates airlines",
        "alias": "airline",
        "meta": "@airline",
        "userDefined": false
      }
    ],
    "isTemplate": false,
    "count": 0,
    "updated": 0
  },
  {
    "id": "59858a1b-86e8-4149-9e55-b4690843deb7",
    "data": [
      {
        "text": "Aeroflot",
        "alias": "airline",
        "meta": "@airline",
        "userDefined": false
      }
    ],
    "isTemplate": false,
    "count": 0,
    "updated": 0
  },
  {
    "id": "bef90fe1-2047-4a90-8968-cc52079563dc",
    "data": [
      {
        "text": "traveling on ",
        "userDefined": false
      },
      {
        "text": "African airlines",
        "alias": "airline",
        "meta": "@airline",
        "userDefined": true
      }
    ],
    "isTemplate": false,
    "count": 0,
    "updated": 0
  },
  {
    "id": "a6b9c640-8106-45c2-aabb-a63a91cfc696",
    "data": [
      {
        "text": "going ",
        "userDefined": false
      },
      {
        "text": "to",
        "meta": "@sys.ignore",
        "userDefined": false
      },
      {
        "text": " ",
        "userDefined": false
      },
      {
        "text": "fly",
        "meta": "@sys.ignore",
        "userDefined": false
      },
      {
        "text": " with ",
        "userDefined": false
      },
      {
        "text": "Aeroflot",
        "alias": "airline",
        "meta": "@airline",
        "userDefined": false
      }
    ],
    "isTemplate": false,
    "count": 0,
    "updated": 0
  },
  {
    "id": "e3a6112f-c484-47ca-9858-95bc03c7b20b",
    "data": [
      {
        "text": "I\u0027m traveling on ",
        "userDefined": false
      },
      {
        "text": "Air Berlin",
        "alias": "airline",
        "meta": "@airline",
        "userDefined": false
      }
    ],
    "isTemplate": false,
    "count": 1,
    "updated": 0
  },
  {
    "id": "d708e964-a4ce-474e-9065-ae6fd92de533",
    "data": [
      {
        "text": "I",
        "meta": "@sys.ignore",
        "userDefined": true
      },
      {
        "text": "\u0027",
        "userDefined": false
      },
      {
        "text": "m",
        "meta": "@sys.ignore",
        "userDefined": true
      },
      {
        "text": " flying with ",
        "userDefined": false
      },
      {
        "text": "Air Berlin",
        "alias": "airline",
        "meta": "@airline",
        "userDefined": true
      }
    ],
    "isTemplate": false,
    "count": 0,
    "updated": 0
  },
  {
    "id": "ecb0c31c-4d74-46d4-83a7-352976f9dd80",
    "data": [
      {
        "text": "I",
        "meta": "@sys.ignore",
        "userDefined": true
      },
      {
        "text": " ",
        "userDefined": false
      },
      {
        "text": "will",
        "meta": "@sys.ignore",
        "userDefined": true
      },
      {
        "text": " fly with ",
        "userDefined": false
      },
      {
        "text": "Aeroflot",
        "alias": "airline",
        "meta": "@airline",
        "userDefined": true
      }
    ],
    "isTemplate": false,
    "count": 0,
    "updated": 0
  }
]