[
  {
    "id": "b4997777-1e6d-44de-bd54-82282e3021fb",
    "data": [
      {
        "text": "and now ",
        "userDefined": false
      },
      {
        "text": "JAL",
        "alias": "airline",
        "meta": "@airline",
        "userDefined": false
      }
    ],
    "isTemplate": false,
    "count": 0,
    "updated": 0
  },
  {
    "id": "b2c07e97-b10a-4c9a-8fe8-e63efbb1ebdb",
    "data": [
      {
        "text": "JAL",
        "alias": "airline",
        "meta": "@airline",
        "userDefined": false
      }
    ],
    "isTemplate": false,
    "count": 0,
    "updated": 0
  },
  {
    "id": "09196d45-6695-46e5-9b7a-6b0b97a23dbe",
    "data": [
      {
        "text": "check ",
        "userDefined": false
      },
      {
        "text": "Alliance Air",
        "alias": "airline",
        "meta": "@airline",
        "userDefined": false
      }
    ],
    "isTemplate": false,
    "count": 0,
    "updated": 0
  },
  {
    "id": "d6c4e957-eee1-485a-a59a-1248f9cb18fc",
    "data": [
      {
        "text": "the same for ",
        "userDefined": false
      },
      {
        "text": "US Airways",
        "alias": "airline",
        "meta": "@airline",
        "userDefined": false
      }
    ],
    "isTemplate": false,
    "count": 0,
    "updated": 0
  },
  {
    "id": "8c64c9be-ba08-45b3-8a9a-9c0181fd1d01",
    "data": [
      {
        "text": "now check ",
        "userDefined": false
      },
      {
        "text": "EVA Air",
        "alias": "airline",
        "meta": "@airline",
        "userDefined": false
      }
    ],
    "isTemplate": false,
    "count": 0,
    "updated": 0
  },
  {
    "id": "2d7cb2b7-28c5-4754-acf2-f4fdf53f10c3",
    "data": [
      {
        "text": "Alliance Air",
        "alias": "airline",
        "meta": "@airline",
        "userDefined": true
      },
      {
        "text": " airlines",
        "userDefined": false
      }
    ],
    "isTemplate": false,
    "count": 0,
    "updated": 0
  },
  {
    "id": "a8523ed0-4584-4450-9e93-9424362f3e82",
    "data": [
      {
        "text": "what about ",
        "userDefined": false
      },
      {
        "text": "Qatar Airways",
        "alias": "airline",
        "meta": "@airline",
        "userDefined": false
      }
    ],
    "isTemplate": false,
    "count": 0,
    "updated": 0
  },
  {
    "id": "fdeb9995-872c-459b-9b67-5598d53448ad",
    "data": [
      {
        "text": "airline is ",
        "userDefined": false
      },
      {
        "text": "Montenegro Airlines",
        "alias": "airline",
        "meta": "@airline",
        "userDefined": false
      }
    ],
    "isTemplate": false,
    "count": 0,
    "updated": 0
  },
  {
    "id": "3f2be49d-e2a2-4534-8b33-27f07656189a",
    "data": [
      {
        "text": "how about ",
        "userDefined": false
      },
      {
        "text": "US Airways",
        "alias": "airline",
        "meta": "@airline",
        "userDefined": false
      }
    ],
    "isTemplate": false,
    "count": 0,
    "updated": 0
  },
  {
    "id": "4819bf20-001a-4930-a81f-a898dbd5579f",
    "data": [
      {
        "text": "now  ",
        "userDefined": false
      },
      {
        "text": "Singapore Airlines",
        "alias": "airline",
        "meta": "@airline",
        "userDefined": false
      }
    ],
    "isTemplate": false,
    "count": 0,
    "updated": 0
  }
]