{
  "id": "1c36dd18-b92c-41f3-a5d8-ad66d0166d50",
  "name": "flight.search",
  "auto": true,
  "contexts": [],
  "responses": [
    {
      "resetContexts": false,
      "action": "flight.search",
      "affectedContexts": [
        {
          "name": "flight",
          "parameters": {},
          "lifespan": 5
        },
        {
          "name": "flightsearch-followup",
          "parameters": {},
          "lifespan": 2
        }
      ],
      "parameters": [
        {
          "id": "b091b630-0162-4d23-a4ca-115b653c16fe",
          "required": false,
          "dataType": "@sys.location",
          "name": "from",
          "value": "$from",
          "promptMessages": [],
          "noMatchPromptMessages": [],
          "noInputPromptMessages": [],
          "outputDialogContexts": [],
          "isList": false
        },
        {
          "id": "aa0b9fdf-3a4a-4fcb-8061-7d5335031bf2",
          "required": false,
          "dataType": "@sys.location",
          "name": "to",
          "value": "$to",
          "promptMessages": [],
          "noMatchPromptMessages": [],
          "noInputPromptMessages": [],
          "outputDialogContexts": [],
          "isList": false
        },
        {
          "id": "349499b9-257d-44ef-b586-c540b1bcb67a",
          "required": false,
          "dataType": "@sys.date-time",
          "name": "departure",
          "value": "$departure",
          "promptMessages": [],
          "noMatchPromptMessages": [],
          "noInputPromptMessages": [],
          "outputDialogContexts": [],
          "isList": false
        },
        {
          "id": "2eb8da76-2a4f-4f20-9707-e3980877ddf8",
          "required": false,
          "dataType": "@sys.date-time",
          "name": "return",
          "value": "$return",
          "promptMessages": [],
          "noMatchPromptMessages": [],
          "noInputPromptMessages": [],
          "outputDialogContexts": [],
          "isList": false
        },
        {
          "id": "f9a0a3fa-1143-43e6-a1bf-ceef3102bc2f",
          "required": false,
          "dataType": "@ticket-type",
          "name": "ticket-type",
          "value": "$ticket-type",
          "promptMessages": [],
          "noMatchPromptMessages": [],
          "noInputPromptMessages": [],
          "outputDialogContexts": [],
          "isList": false
        },
        {
          "id": "a94184e9-0a47-44f0-b8ba-27273c3c0616",
          "required": false,
          "dataType": "@sys.number",
          "name": "adult",
          "value": "$adult",
          "promptMessages": [],
          "noMatchPromptMessages": [],
          "noInputPromptMessages": [],
          "outputDialogContexts": [],
          "isList": false
        },
        {
          "id": "efe53521-3300-4c21-beb1-8379ea45a079",
          "required": false,
          "dataType": "@sys.number",
          "name": "child",
          "value": "$child",
          "promptMessages": [],
          "noMatchPromptMessages": [],
          "noInputPromptMessages": [],
          "outputDialogContexts": [],
          "isList": false
        },
        {
          "id": "f529c0bb-88d9-4171-afc1-3f25ff21e643",
          "required": false,
          "dataType": "@class",
          "name": "class",
          "value": "$class",
          "promptMessages": [],
          "noMatchPromptMessages": [],
          "noInputPromptMessages": [],
          "outputDialogContexts": [],
          "isList": false
        },
        {
          "id": "53bbfab6-0dda-41e2-9f1b-349a348f4c4a",
          "required": false,
          "dataType": "@nonstop",
          "name": "nonstop",
          "value": "$nonstop",
          "promptMessages": [],
          "noMatchPromptMessages": [],
          "noInputPromptMessages": [],
          "outputDialogContexts": [],
          "isList": false
        },
        {
          "id": "21ea751f-4631-4b2b-bc6d-a94284fc3c39",
          "required": false,
          "dataType": "@refundable",
          "name": "refundable",
          "value": "$refundable",
          "promptMessages": [],
          "noMatchPromptMessages": [],
          "noInputPromptMessages": [],
          "outputDialogContexts": [],
          "isList": false
        },
        {
          "id": "815f793c-e6c5-4428-bec7-13ce2c8eabef",
          "required": false,
          "dataType": "@airline",
          "name": "airline",
          "value": "$airline",
          "promptMessages": [],
          "noMatchPromptMessages": [],
          "noInputPromptMessages": [],
          "outputDialogContexts": [],
          "isList": false
        },
        {
          "id": "32058637-3e0f-433a-879e-10021e58780c",
          "required": false,
          "dataType": "@map-sort",
          "name": "sort",
          "value": "$sort",
          "promptMessages": [],
          "noMatchPromptMessages": [],
          "noInputPromptMessages": [],
          "outputDialogContexts": [],
          "isList": false
        },
        {
          "id": "9f336640-ec48-4c61-9fe6-db8f57e4d3ac",
          "required": false,
          "dataType": "@sys.unit-currency",
          "name": "price",
          "value": "$price",
          "promptMessages": [],
          "noMatchPromptMessages": [],
          "noInputPromptMessages": [],
          "outputDialogContexts": [],
          "isList": false
        }
      ],
      "messages": [
        {
          "type": 0,
          "lang": "en",
          "condition": "",
          "speech": "Here are the flights that match your search criteria:"
        }
      ],
      "defaultResponsePlatforms": {},
      "speech": []
    }
  ],
  "priority": 500000,
  "webhookUsed": false,
  "webhookForSlotFilling": false,
  "fallbackIntent": false,
  "events": [],
  "conditionalResponses": [],
  "condition": "",
  "conditionalFollowupEvents": []
}