{
  "id": "678b241b-7263-437c-a082-c8e31cb07a5c",
  "parentId": "255ecdd1-8f19-4fa9-96ed-66b30557e9e3",
  "rootParentId": "255ecdd1-8f19-4fa9-96ed-66b30557e9e3",
  "name": "flight.book - next",
  "auto": true,
  "contexts": [
    "flightbook-followup"
  ],
  "responses": [
    {
      "resetContexts": false,
      "action": "flight.book.next",
      "affectedContexts": [
        {
          "name": "flightbook-followup",
          "parameters": {},
          "lifespan": 5
        }
      ],
      "parameters": [],
      "messages": [
        {
          "type": 0,
          "lang": "en",
          "condition": "",
          "speech": []
        }
      ],
      "defaultResponsePlatforms": {},
      "speech": []
    }
  ],
  "priority": 500000,
  "webhookUsed": false,
  "webhookForSlotFilling": false,
  "fallbackIntent": false,
  "events": [],
  "conditionalResponses": [],
  "condition": "",
  "conditionalFollowupEvents": []
}