[
  {
    "id": "3305b919-7ba4-400c-a628-d05b1244869d",
    "data": [
      {
        "text": "deposits",
        "alias": "category",
        "meta": "@category",
        "userDefined": true
      },
      {
        "text": " history",
        "userDefined": false
      }
    ],
    "isTemplate": false,
    "count": 1,
    "updated": 0
  },
  {
    "id": "5e7008da-bddf-4f46-8fa0-01a9c5e6e6d6",
    "data": [
      {
        "text": "see my ",
        "userDefined": false
      },
      {
        "text": "latest",
        "meta": "@sys.ignore",
        "userDefined": false
      },
      {
        "text": " ",
        "userDefined": false
      },
      {
        "text": "deposit",
        "alias": "category",
        "meta": "@category",
        "userDefined": true
      }
    ],
    "isTemplate": false,
    "count": 0,
    "updated": 0
  },
  {
    "id": "bda8a2f4-f406-440b-b4d3-4e76d389a8db",
    "data": [
      {
        "text": "I want to see my ",
        "userDefined": false
      },
      {
        "text": "deposits",
        "alias": "category",
        "meta": "@category",
        "userDefined": true
      }
    ],
    "isTemplate": false,
    "count": 0,
    "updated": 0
  },
  {
    "id": "cfdb162f-de14-4d41-8e54-0fea30b0d217",
    "data": [
      {
        "text": "check",
        "meta": "@sys.ignore",
        "userDefined": false
      },
      {
        "text": " earnings",
        "userDefined": false
      }
    ],
    "isTemplate": false,
    "count": 0,
    "updated": 0
  },
  {
    "id": "c1dab409-18b5-4fb1-aa05-eeea3bcef981",
    "data": [
      {
        "text": "earnings",
        "userDefined": false
      }
    ],
    "isTemplate": false,
    "count": 0,
    "updated": 0
  },
  {
    "id": "0b658b4a-b344-4e08-b12c-0ed3562a7ea1",
    "data": [
      {
        "text": "can you say how much money I got ",
        "userDefined": false
      },
      {
        "text": "last month",
        "alias": "date-time",
        "meta": "@sys.date-time",
        "userDefined": false
      },
      {
        "text": " on my ",
        "userDefined": false
      },
      {
        "text": "checking account",
        "alias": "account",
        "meta": "@account",
        "userDefined": false
      }
    ],
    "isTemplate": false,
    "count": 0,
    "updated": 0
  },
  {
    "id": "3d74627f-20f4-4b9b-92ec-5c8c2e633e5b",
    "data": [
      {
        "text": "how much money did I earn in ",
        "userDefined": false
      },
      {
        "text": "December",
        "alias": "date-time",
        "meta": "@sys.date-time",
        "userDefined": true
      }
    ],
    "isTemplate": false,
    "count": 0,
    "updated": 0
  },
  {
    "id": "cc4097ba-b343-4731-8ac5-db977d5f6ed7",
    "data": [
      {
        "text": "how much money did I earn on ",
        "userDefined": false
      },
      {
        "text": "January 2",
        "alias": "date-time",
        "meta": "@sys.date-time",
        "userDefined": false
      }
    ],
    "isTemplate": false,
    "count": 0,
    "updated": 0
  },
  {
    "id": "e6409059-b84c-4553-aa47-d3f6931e1a05",
    "data": [
      {
        "text": "check",
        "meta": "@sys.ignore",
        "userDefined": false
      },
      {
        "text": " my earnings on my card",
        "userDefined": false
      }
    ],
    "isTemplate": false,
    "count": 0,
    "updated": 0
  },
  {
    "id": "974686b5-e59d-47ad-bb11-ad89d88e2766",
    "data": [
      {
        "text": "check earnings are on my ",
        "userDefined": false
      },
      {
        "text": "checking",
        "alias": "account",
        "meta": "@account",
        "userDefined": false
      },
      {
        "text": " account",
        "userDefined": false
      }
    ],
    "isTemplate": false,
    "count": 0,
    "updated": 0
  },
  {
    "id": "956021b5-137f-4e0d-864f-74236f037d17",
    "data": [
      {
        "text": "get info about my earnings on my card in ",
        "userDefined": false
      },
      {
        "text": "December",
        "alias": "date-time",
        "meta": "@sys.date-time",
        "userDefined": true
      }
    ],
    "isTemplate": false,
    "count": 0,
    "updated": 0
  }
]