[
  {
    "id": "a26722f0-6678-4559-965f-ddcc0c48d7ac",
    "data": [
      {
        "text": "Check",
        "meta": "@sys.ignore",
        "userDefined": false
      },
      {
        "text": " ",
        "userDefined": false
      },
      {
        "text": "January 1",
        "alias": "date",
        "meta": "@sys.date",
        "userDefined": false
      },
      {
        "text": ".",
        "userDefined": false
      }
    ],
    "isTemplate": false,
    "count": 0,
    "updated": 0
  },
  {
    "id": "2798a22d-f853-4f2e-a175-abbdfcc90bb2",
    "data": [
      {
        "text": "and ",
        "userDefined": false
      },
      {
        "text": "January 2",
        "alias": "date",
        "meta": "@sys.date",
        "userDefined": false
      }
    ],
    "isTemplate": false,
    "count": 0,
    "updated": 0
  },
  {
    "id": "8f142343-09ac-4e96-bf15-a7df2144c646",
    "data": [
      {
        "text": "check",
        "meta": "@sys.ignore",
        "userDefined": false
      },
      {
        "text": " ",
        "userDefined": false
      },
      {
        "text": "January 1",
        "alias": "date",
        "meta": "@sys.date",
        "userDefined": false
      },
      {
        "text": " too",
        "userDefined": false
      }
    ],
    "isTemplate": false,
    "count": 0,
    "updated": 0
  },
  {
    "id": "733c4034-583e-44bb-85dc-47ddb8103541",
    "data": [
      {
        "text": "what about ",
        "userDefined": false
      },
      {
        "text": "December 30",
        "alias": "date",
        "meta": "@sys.date",
        "userDefined": false
      }
    ],
    "isTemplate": false,
    "count": 0,
    "updated": 0
  }
]