[
  {
    "id": "fdef0d17-947c-4f7c-bba9-1861e36e892c",
    "data": [
      {
        "text": "when was my last transfer",
        "userDefined": false
      }
    ],
    "isTemplate": false,
    "count": 1,
    "updated": 0
  },
  {
    "id": "a3a79a17-24c4-4121-8edb-ad9f3e849d28",
    "data": [
      {
        "text": "date of my last ",
        "userDefined": false
      },
      {
        "text": "deposit",
        "alias": "type",
        "meta": "@transfer-type",
        "userDefined": true
      }
    ],
    "isTemplate": false,
    "count": 0,
    "updated": 0
  },
  {
    "id": "ae2fbec4-92b4-40b7-bcaa-fcc6a3d4355c",
    "data": [
      {
        "text": "check the last ",
        "userDefined": false
      },
      {
        "text": "EFT",
        "alias": "type",
        "meta": "@transfer-type",
        "userDefined": true
      }
    ],
    "isTemplate": false,
    "count": 0,
    "updated": 0
  },
  {
    "id": "78a31aa0-7698-40e6-bbd0-6cb30b97ed9b",
    "data": [
      {
        "text": "can you show the date of my last ",
        "userDefined": false
      },
      {
        "text": "credit",
        "alias": "type",
        "meta": "@transfer-type",
        "userDefined": true
      }
    ],
    "isTemplate": false,
    "count": 0,
    "updated": 0
  },
  {
    "id": "6e64f06e-3c50-460c-8366-df36d325510a",
    "data": [
      {
        "text": "when was the last ",
        "userDefined": false
      },
      {
        "text": "credit",
        "alias": "type",
        "meta": "@transfer-type",
        "userDefined": true
      }
    ],
    "isTemplate": false,
    "count": 0,
    "updated": 0
  },
  {
    "id": "fcff4471-d0e0-49d2-9ba3-1dffec0a61cc",
    "data": [
      {
        "text": "When was my last ",
        "userDefined": false
      },
      {
        "text": "deposit",
        "alias": "type",
        "meta": "@transfer-type",
        "userDefined": true
      },
      {
        "text": "?",
        "userDefined": false
      }
    ],
    "isTemplate": false,
    "count": 0,
    "updated": 0
  }
]