[
  {
    "value": "100 fm",
    "synonyms": [
      "100 fm"
    ]
  },
  {
    "value": "101.1 fm",
    "synonyms": [
      "101.1 fm"
    ]
  },
  {
    "value": "102.2 FM",
    "synonyms": [
      "102.2 FM"
    ]
  },
  {
    "value": "102.5 The Bridge",
    "synonyms": [
      "102.5 The Bridge"
    ]
  },
  {
    "value": "1029 fm",
    "synonyms": [
      "1029 fm"
    ]
  },
  {
    "value": "103 The Eye",
    "synonyms": [
      "103 The Eye"
    ]
  },
  {
    "value": "105 FM",
    "synonyms": [
      "105 FM"
    ]
  },
  {
    "value": "105.3 Seaside FM",
    "synonyms": [
      "105.3 Seaside FM"
    ]
  },
  {
    "value": "106.1 Real Radio XS",
    "synonyms": [
      "106.1 Real Radio XS"
    ]
  },
  {
    "value": "106.6 fm",
    "synonyms": [
      "106.6 fm"
    ]
  },
  {
    "value": "106.9FM WHCR",
    "synonyms": [
      "106.9FM WHCR"
    ]
  },
  {
    "value": "107.1",
    "synonyms": [
      "107.1"
    ]
  },
  {
    "value": "107.1 Rugby FM",
    "synonyms": [
      "107.1 Rugby FM"
    ]
  },
  {
    "value": "107.2",
    "synonyms": [
      "107.2"
    ]
  },
  {
    "value": "107.8 Arrow FM",
    "synonyms": [
      "107.8 Arrow FM"
    ]
  },
  {
    "value": "10radioWiveliscombe",
    "synonyms": [
      "10radioWiveliscombe"
    ]
  },
  {
    "value": "1FM",
    "synonyms": [
      "1FM"
    ]
  },
  {
    "value": "2BRBurnley99.8 FM",
    "synonyms": [
      "2BRBurnley99.8 FM"
    ]
  },
  {
    "value": "3FM",
    "synonyms": [
      "3FM"
    ]
  },
  {
    "value": "3TFM",
    "synonyms": [
      "3TFM"
    ]
  },
  {
    "value": "4 Extra",
    "synonyms": [
      "4 Extra"
    ]
  },
  {
    "value": "5 Live Sports Extra",
    "synonyms": [
      "5 Live Sports Extra"
    ]
  },
  {
    "value": "6 Music",
    "synonyms": [
      "6 Music"
    ]
  },
  {
    "value": "7 Waves Radio 92.1",
    "synonyms": [
      "7 Waves Radio 92.1"
    ]
  },
  {
    "value": "800 am",
    "synonyms": [
      "800 am"
    ]
  },
  {
    "value": "9022-6242 Québec inc.",
    "synonyms": [
      "9022-6242 Québec inc."
    ]
  },
  {
    "value": "911 FM",
    "synonyms": [
      "911 FM"
    ]
  },
  {
    "value": "93.1 KCBS Jack FM",
    "synonyms": [
      "93.1 KCBS Jack FM"
    ]
  },
  {
    "value": "93.5 KDAY",
    "synonyms": [
      "93.5 KDAY"
    ]
  },
  {
    "value": "96.3 Radio AireLeeds",
    "synonyms": [
      "96.3 Radio AireLeeds"
    ]
  },
  {
    "value": "96.9 Viking FM 96.9",
    "synonyms": [
      "96.9 Viking FM 96.9"
    ]
  },
  {
    "value": "97.2 Stray FM",
    "synonyms": [
      "97.2 Stray FM"
    ]
  },
  {
    "value": "99 FM",
    "synonyms": [
      "99 FM"
    ]
  },
  {
    "value": "99.9 Radio Norwich",
    "synonyms": [
      "99.9 Radio Norwich"
    ]
  },
  {
    "value": "AHBS Community Radio",
    "synonyms": [
      "AHBS Community Radio"
    ]
  },
  {
    "value": "AIR 107.2",
    "synonyms": [
      "AIR 107.2"
    ]
  },
  {
    "value": "ALL FM",
    "synonyms": [
      "ALL FM"
    ]
  },
  {
    "value": "ATRfm",
    "synonyms": [
      "ATRfm"
    ]
  },
  {
    "value": "Abbey FM",
    "synonyms": [
      "Abbey FM"
    ]
  },
  {
    "value": "Absolute 80s",
    "synonyms": [
      "Absolute 80s"
    ]
  },
  {
    "value": "Absolute Classic Rock",
    "synonyms": [
      "Absolute Classic Rock"
    ]
  },
  {
    "value": "Absolute Radio",
    "synonyms": [
      "Absolute Radio"
    ]
  },
  {
    "value": "Absolute Radio 00s",
    "synonyms": [
      "Absolute Radio 00s"
    ]
  },
  {
    "value": "Absolute Radio 60s",
    "synonyms": [
      "Absolute Radio 60s"
    ]
  },
  {
    "value": "Absolute Radio 70s",
    "synonyms": [
      "Absolute Radio 70s"
    ]
  },
  {
    "value": "Absolute Radio 90s",
    "synonyms": [
      "Absolute Radio 90s"
    ]
  },
  {
    "value": "Access FM",
    "synonyms": [
      "Access FM"
    ]
  },
  {
    "value": "Airport Information Radio",
    "synonyms": [
      "Airport Information Radio"
    ]
  },
  {
    "value": "Airshow FM",
    "synonyms": [
      "Airshow FM"
    ]
  },
  {
    "value": "Aldergrove and Antrim",
    "synonyms": [
      "Aldergrove and Antrim"
    ]
  },
  {
    "value": "Alive RadioDumfries",
    "synonyms": [
      "Alive RadioDumfries"
    ]
  },
  {
    "value": "Amazing Radio",
    "synonyms": [
      "Amazing Radio"
    ]
  },
  {
    "value": "Amber Sound FM",
    "synonyms": [
      "Amber Sound FM"
    ]
  },
  {
    "value": "Ambur RadioWalsall",
    "synonyms": [
      "Ambur RadioWalsall"
    ]
  },
  {
    "value": "Antenna Uno",
    "synonyms": [
      "Antenna Uno"
    ]
  },
  {
    "value": "Argyll FM",
    "synonyms": [
      "Argyll FM"
    ]
  },
  {
    "value": "Ashbourne RadioAshbourne",
    "synonyms": [
      "Ashbourne RadioAshbourne"
    ]
  },
  {
    "value": "Asian Sound",
    "synonyms": [
      "Asian Sound"
    ]
  },
  {
    "value": "Asian Star Radio",
    "synonyms": [
      "Asian Star Radio"
    ]
  },
  {
    "value": "Awaaz Radio",
    "synonyms": [
      "Awaaz Radio"
    ]
  },
  {
    "value": "BBC Radio",
    "synonyms": [
      "BBC Radio"
    ]
  },
  {
    "value": "BBC Radio 1",
    "synonyms": [
      "BBC Radio 1"
    ]
  },
  {
    "value": "BBC Radio 2",
    "synonyms": [
      "BBC Radio 2"
    ]
  },
  {
    "value": "BBC Radio 3",
    "synonyms": [
      "BBC Radio 3"
    ]
  },
  {
    "value": "BBC Radio 4",
    "synonyms": [
      "BBC Radio 4"
    ]
  },
  {
    "value": "BBC Radio 5 Live",
    "synonyms": [
      "BBC Radio 5 Live"
    ]
  },
  {
    "value": "BBC Radio Ulster",
    "synonyms": [
      "BBC Radio Ulster"
    ]
  },
  {
    "value": "Ballermann Radio",
    "synonyms": [
      "Ballermann Radio"
    ]
  },
  {
    "value": "Bell Media Radio",
    "synonyms": [
      "Bell Media Radio"
    ]
  },
  {
    "value": "Box UK Radio",
    "synonyms": [
      "Box UK Radio"
    ]
  },
  {
    "value": "CBC Radio 2",
    "synonyms": [
      "CBC Radio 2"
    ]
  },
  {
    "value": "CBC Radio 3",
    "synonyms": [
      "CBC Radio 3"
    ]
  },
  {
    "value": "CBC Radio One",
    "synonyms": [
      "CBC Radio One"
    ]
  },
  {
    "value": "CFBR-FM",
    "synonyms": [
      "CFBR-FM"
    ]
  },
  {
    "value": "CFM",
    "synonyms": [
      "CFM"
    ]
  },
  {
    "value": "CJAY-FM",
    "synonyms": [
      "CJAY-FM"
    ]
  },
  {
    "value": "CJFM-FM",
    "synonyms": [
      "CJFM-FM"
    ]
  },
  {
    "value": "CKFM-FM",
    "synonyms": [
      "CKFM-FM"
    ]
  },
  {
    "value": "CKOI",
    "synonyms": [
      "CKOI"
    ]
  },
  {
    "value": "CKQB-FM",
    "synonyms": [
      "CKQB-FM"
    ]
  },
  {
    "value": "CKZZ-FM",
    "synonyms": [
      "CKZZ-FM"
    ]
  },
  {
    "value": "COAST FM",
    "synonyms": [
      "COAST FM"
    ]
  },
  {
    "value": "Capital FM",
    "synonyms": [
      "Capital FM"
    ]
  },
  {
    "value": "Channel 103",
    "synonyms": [
      "Channel 103"
    ]
  },
  {
    "value": "Channel 103 FM",
    "synonyms": [
      "Channel 103 FM"
    ]
  },
  {
    "value": "Christian Pirate Radio",
    "synonyms": [
      "Christian Pirate Radio"
    ]
  },
  {
    "value": "Classic FM",
    "synonyms": [
      "Classic FM"
    ]
  },
  {
    "value": "Club Social du Nord-Est",
    "synonyms": [
      "Club Social du Nord-Est"
    ]
  },
  {
    "value": "Diffusion communautaire des Îles",
    "synonyms": [
      "Diffusion communautaire des Îles"
    ]
  },
  {
    "value": "Dimensione Suono Due",
    "synonyms": [
      "Dimensione Suono Due"
    ]
  },
  {
    "value": "Dimensione Suono Roma",
    "synonyms": [
      "Dimensione Suono Roma"
    ]
  },
  {
    "value": "Easy Hits Florida Plus",
    "synonyms": [
      "Easy Hits Florida Plus"
    ]
  },
  {
    "value": "Ecoradio",
    "synonyms": [
      "Ecoradio"
    ]
  },
  {
    "value": "Espace musique",
    "synonyms": [
      "Espace musique"
    ]
  },
  {
    "value": "Fabrique de la Paroisse L\u0027Assomption",
    "synonyms": [
      "Fabrique de la Paroisse L\u0027Assomption"
    ]
  },
  {
    "value": "First Step Radio Live",
    "synonyms": [
      "First Step Radio Live"
    ]
  },
  {
    "value": "Folly Radio",
    "synonyms": [
      "Folly Radio"
    ]
  },
  {
    "value": "Glow Radio",
    "synonyms": [
      "Glow Radio"
    ]
  },
  {
    "value": "Groupe Radio Simard",
    "synonyms": [
      "Groupe Radio Simard"
    ]
  },
  {
    "value": "Heart",
    "synonyms": [
      "Heart"
    ]
  },
  {
    "value": "Ici Musique",
    "synonyms": [
      "Ici Musique"
    ]
  },
  {
    "value": "Ici Radio-Canada Première",
    "synonyms": [
      "Ici Radio-Canada Première"
    ]
  },
  {
    "value": "Indie 103.1",
    "synonyms": [
      "Indie 103.1"
    ]
  },
  {
    "value": "Island FM",
    "synonyms": [
      "Island FM"
    ]
  },
  {
    "value": "KABC-AM",
    "synonyms": [
      "KABC-AM"
    ]
  },
  {
    "value": "KAMP-FM",
    "synonyms": [
      "KAMP-FM"
    ]
  },
  {
    "value": "KBL😡FM",
    "synonyms": [
      "KBL😡FM"
    ]
  },
  {
    "value": "KCBS-AM",
    "synonyms": [
      "KCBS-AM"
    ]
  },
  {
    "value": "KCMG-FM",
    "synonyms": [
      "KCMG-FM"
    ]
  },
  {
    "value": "KFI-AM",
    "synonyms": [
      "KFI-AM"
    ]
  },
  {
    "value": "KFI-FM",
    "synonyms": [
      "KFI-FM"
    ]
  },
  {
    "value": "KGO-AM",
    "synonyms": [
      "KGO-AM"
    ]
  },
  {
    "value": "KHKS-FM",
    "synonyms": [
      "KHKS-FM"
    ]
  },
  {
    "value": "KIEV-AM",
    "synonyms": [
      "KIEV-AM"
    ]
  },
  {
    "value": "KIIS-FM",
    "synonyms": [
      "KIIS-FM"
    ]
  },
  {
    "value": "KISS",
    "synonyms": [
      "KISS"
    ]
  },
  {
    "value": "KKBT-FM",
    "synonyms": [
      "KKBT-FM"
    ]
  },
  {
    "value": "KLOS-FM",
    "synonyms": [
      "KLOS-FM"
    ]
  },
  {
    "value": "KMEO-FM",
    "synonyms": [
      "KMEO-FM"
    ]
  },
  {
    "value": "KN😡AM",
    "synonyms": [
      "KN😡AM"
    ]
  },
  {
    "value": "KQRS-FM",
    "synonyms": [
      "KQRS-FM"
    ]
  },
  {
    "value": "KROQ 106.7",
    "synonyms": [
      "KROQ 106.7"
    ]
  },
  {
    "value": "KSCS-FM",
    "synonyms": [
      "KSCS-FM"
    ]
  },
  {
    "value": "KXLU 88.9 FM",
    "synonyms": [
      "KXLU 88.9 FM"
    ]
  },
  {
    "value": "KXXR-FM",
    "synonyms": [
      "KXXR-FM"
    ]
  },
  {
    "value": "KYSR-FM",
    "synonyms": [
      "KYSR-FM"
    ]
  },
  {
    "value": "KYW-AM",
    "synonyms": [
      "KYW-AM"
    ]
  },
  {
    "value": "KZNZ-FM",
    "synonyms": [
      "KZNZ-FM"
    ]
  },
  {
    "value": "KissFM Romania",
    "synonyms": [
      "KissFM Romania"
    ]
  },
  {
    "value": "Klos 95.5 Fm",
    "synonyms": [
      "Klos 95.5 Fm"
    ]
  },
  {
    "value": "La Radio communautaire du Saguenay",
    "synonyms": [
      "La Radio communautaire du Saguenay"
    ]
  },
  {
    "value": "LifeGate Radio",
    "synonyms": [
      "LifeGate Radio"
    ]
  },
  {
    "value": "Live365",
    "synonyms": [
      "Live365"
    ]
  },
  {
    "value": "MEDIAmazing",
    "synonyms": [
      "MEDIAmazing"
    ]
  },
  {
    "value": "Magic 60s Florida",
    "synonyms": [
      "Magic 60s Florida"
    ]
  },
  {
    "value": "Magic 70s FLorida",
    "synonyms": [
      "Magic 70s FLorida"
    ]
  },
  {
    "value": "Magic 80s Florida",
    "synonyms": [
      "Magic 80s Florida"
    ]
  },
  {
    "value": "Manx Radio",
    "synonyms": [
      "Manx Radio"
    ]
  },
  {
    "value": "Mega 92.3",
    "synonyms": [
      "Mega 92.3"
    ]
  },
  {
    "value": "Moray Firth Radio",
    "synonyms": [
      "Moray Firth Radio"
    ]
  },
  {
    "value": "NRJ",
    "synonyms": [
      "NRJ"
    ]
  },
  {
    "value": "NRJ Radio",
    "synonyms": [
      "NRJ Radio"
    ]
  },
  {
    "value": "Nuova Spazio Radio",
    "synonyms": [
      "Nuova Spazio Radio"
    ]
  },
  {
    "value": "Onda Cero",
    "synonyms": [
      "Onda Cero"
    ]
  },
  {
    "value": "PLR-Live",
    "synonyms": [
      "PLR-Live"
    ]
  },
  {
    "value": "Paroisse Saint-André",
    "synonyms": [
      "Paroisse Saint-André"
    ]
  },
  {
    "value": "Première Chaîne",
    "synonyms": [
      "Première Chaîne"
    ]
  },
  {
    "value": "R101",
    "synonyms": [
      "R101"
    ]
  },
  {
    "value": "RAM power",
    "synonyms": [
      "RAM power"
    ]
  },
  {
    "value": "RMN Radio",
    "synonyms": [
      "RMN Radio"
    ]
  },
  {
    "value": "RNC Media",
    "synonyms": [
      "RNC Media"
    ]
  },
  {
    "value": "RTL 102.5",
    "synonyms": [
      "RTL 102.5"
    ]
  },
  {
    "value": "Radio 105 Network",
    "synonyms": [
      "Radio 105 Network"
    ]
  },
  {
    "value": "Radio 1Xtra",
    "synonyms": [
      "Radio 1Xtra"
    ]
  },
  {
    "value": "Radio 24",
    "synonyms": [
      "Radio 24"
    ]
  },
  {
    "value": "Radio Acton",
    "synonyms": [
      "Radio Acton"
    ]
  },
  {
    "value": "Radio Bellechasse",
    "synonyms": [
      "Radio Bellechasse"
    ]
  },
  {
    "value": "Radio Blanc-Sablon",
    "synonyms": [
      "Radio Blanc-Sablon"
    ]
  },
  {
    "value": "Radio Borders",
    "synonyms": [
      "Radio Borders"
    ]
  },
  {
    "value": "Radio Boréale",
    "synonyms": [
      "Radio Boréale"
    ]
  },
  {
    "value": "Radio CHNC",
    "synonyms": [
      "Radio CHNC"
    ]
  },
  {
    "value": "Radio Capital",
    "synonyms": [
      "Radio Capital"
    ]
  },
  {
    "value": "Radio Centro Suono",
    "synonyms": [
      "Radio Centro Suono"
    ]
  },
  {
    "value": "Radio Centro Suono Sport",
    "synonyms": [
      "Radio Centro Suono Sport"
    ]
  },
  {
    "value": "Radio Città Aperta",
    "synonyms": [
      "Radio Città Aperta"
    ]
  },
  {
    "value": "Radio Città Futura",
    "synonyms": [
      "Radio Città Futura"
    ]
  },
  {
    "value": "Radio Classica",
    "synonyms": [
      "Radio Classica"
    ]
  },
  {
    "value": "Radio Cuore",
    "synonyms": [
      "Radio Cuore"
    ]
  },
  {
    "value": "Radio DeeJay",
    "synonyms": [
      "Radio DeeJay"
    ]
  },
  {
    "value": "Radio Dimensione Musica",
    "synonyms": [
      "Radio Dimensione Musica"
    ]
  },
  {
    "value": "Radio Dimensione Suono",
    "synonyms": [
      "Radio Dimensione Suono"
    ]
  },
  {
    "value": "Radio Dégelis",
    "synonyms": [
      "Radio Dégelis"
    ]
  },
  {
    "value": "Radio Evangelo",
    "synonyms": [
      "Radio Evangelo"
    ]
  },
  {
    "value": "Radio Gamma Stereo Uno",
    "synonyms": [
      "Radio Gamma Stereo Uno"
    ]
  },
  {
    "value": "Radio Gaspésie",
    "synonyms": [
      "Radio Gaspésie"
    ]
  },
  {
    "value": "Radio Globo",
    "synonyms": [
      "Radio Globo"
    ]
  },
  {
    "value": "Radio Incontro",
    "synonyms": [
      "Radio Incontro"
    ]
  },
  {
    "value": "Radio Italia Anni 60",
    "synonyms": [
      "Radio Italia Anni 60"
    ]
  },
  {
    "value": "Radio Italia Solo Musica Italiana",
    "synonyms": [
      "Radio Italia Solo Musica Italiana"
    ]
  },
  {
    "value": "Radio Jukebox",
    "synonyms": [
      "Radio Jukebox"
    ]
  },
  {
    "value": "Radio Kiss Kiss",
    "synonyms": [
      "Radio Kiss Kiss"
    ]
  },
  {
    "value": "Radio Korea AM 1540",
    "synonyms": [
      "Radio Korea AM 1540"
    ]
  },
  {
    "value": "Radio LatteMiele",
    "synonyms": [
      "Radio LatteMiele"
    ]
  },
  {
    "value": "Radio MF Charlevoix",
    "synonyms": [
      "Radio MF Charlevoix"
    ]
  },
  {
    "value": "Radio Mambo",
    "synonyms": [
      "Radio Mambo"
    ]
  },
  {
    "value": "Radio Maria",
    "synonyms": [
      "Radio Maria"
    ]
  },
  {
    "value": "Radio Mater",
    "synonyms": [
      "Radio Mater"
    ]
  },
  {
    "value": "Radio Meridiano 12",
    "synonyms": [
      "Radio Meridiano 12"
    ]
  },
  {
    "value": "Radio Monte Carlo",
    "synonyms": [
      "Radio Monte Carlo"
    ]
  },
  {
    "value": "Radio Now",
    "synonyms": [
      "Radio Now"
    ]
  },
  {
    "value": "Radio Ntetemuk",
    "synonyms": [
      "Radio Ntetemuk"
    ]
  },
  {
    "value": "Radio Onda Rossa-ROR",
    "synonyms": [
      "Radio Onda Rossa-ROR"
    ]
  },
  {
    "value": "Radio Plus BMD",
    "synonyms": [
      "Radio Plus BMD"
    ]
  },
  {
    "value": "Radio Punto Zero",
    "synonyms": [
      "Radio Punto Zero"
    ]
  },
  {
    "value": "Radio Radicale",
    "synonyms": [
      "Radio Radicale"
    ]
  },
  {
    "value": "Radio Radio",
    "synonyms": [
      "Radio Radio"
    ]
  },
  {
    "value": "Radio Rock",
    "synonyms": [
      "Radio Rock"
    ]
  },
  {
    "value": "Radio Roma",
    "synonyms": [
      "Radio Roma"
    ]
  },
  {
    "value": "Radio Sei",
    "synonyms": [
      "Radio Sei"
    ]
  },
  {
    "value": "Radio Sei - La Talk Radio",
    "synonyms": [
      "Radio Sei - La Talk Radio"
    ]
  },
  {
    "value": "Radio Spazio Aperto",
    "synonyms": [
      "Radio Spazio Aperto"
    ]
  },
  {
    "value": "Radio Stranamore",
    "synonyms": [
      "Radio Stranamore"
    ]
  },
  {
    "value": "Radio Subasio",
    "synonyms": [
      "Radio Subasio"
    ]
  },
  {
    "value": "Radio Subasio Più",
    "synonyms": [
      "Radio Subasio Più"
    ]
  },
  {
    "value": "Radio Suby",
    "synonyms": [
      "Radio Suby"
    ]
  },
  {
    "value": "Radio Vaticana 105 Live",
    "synonyms": [
      "Radio Vaticana 105 Live"
    ]
  },
  {
    "value": "Radio Vaticana Africa-Asia",
    "synonyms": [
      "Radio Vaticana Africa-Asia"
    ]
  },
  {
    "value": "Radio Vaticana Europa-America",
    "synonyms": [
      "Radio Vaticana Europa-America"
    ]
  },
  {
    "value": "Radio Voce della Speranza",
    "synonyms": [
      "Radio Voce della Speranza"
    ]
  },
  {
    "value": "Radio du Golfe",
    "synonyms": [
      "Radio du Golfe"
    ]
  },
  {
    "value": "Radio inBlu",
    "synonyms": [
      "Radio inBlu"
    ]
  },
  {
    "value": "Radio-Galilée",
    "synonyms": [
      "Radio-Galilée"
    ]
  },
  {
    "value": "Rai FD5 Auditorium",
    "synonyms": [
      "Rai FD5 Auditorium"
    ]
  },
  {
    "value": "Rai GR Parlamento",
    "synonyms": [
      "Rai GR Parlamento"
    ]
  },
  {
    "value": "Rai Isoradio",
    "synonyms": [
      "Rai Isoradio"
    ]
  },
  {
    "value": "Rai Radio 1 Lazio",
    "synonyms": [
      "Rai Radio 1 Lazio"
    ]
  },
  {
    "value": "Rai Radio 2",
    "synonyms": [
      "Rai Radio 2"
    ]
  },
  {
    "value": "Rai Radio 3",
    "synonyms": [
      "Rai Radio 3"
    ]
  },
  {
    "value": "Real Dance Radio",
    "synonyms": [
      "Real Dance Radio"
    ]
  },
  {
    "value": "Rete Sport",
    "synonyms": [
      "Rete Sport"
    ]
  },
  {
    "value": "Rouge FM",
    "synonyms": [
      "Rouge FM"
    ]
  },
  {
    "value": "Rythme FM",
    "synonyms": [
      "Rythme FM"
    ]
  },
  {
    "value": "Rébec Inc.",
    "synonyms": [
      "Rébec Inc."
    ]
  },
  {
    "value": "Réseau des Appalaches",
    "synonyms": [
      "Réseau des Appalaches"
    ]
  },
  {
    "value": "Simply Radio",
    "synonyms": [
      "Simply Radio"
    ]
  },
  {
    "value": "Smooth",
    "synonyms": [
      "Smooth"
    ]
  },
  {
    "value": "Sonème inc.",
    "synonyms": [
      "Sonème inc."
    ]
  },
  {
    "value": "Star 98.7",
    "synonyms": [
      "Star 98.7"
    ]
  },
  {
    "value": "TRS The Radio Station",
    "synonyms": [
      "TRS The Radio Station"
    ]
  },
  {
    "value": "TSN Radio",
    "synonyms": [
      "TSN Radio"
    ]
  },
  {
    "value": "TalkSPORT",
    "synonyms": [
      "TalkSPORT"
    ]
  },
  {
    "value": "Taqramiut Nipingat",
    "synonyms": [
      "Taqramiut Nipingat"
    ]
  },
  {
    "value": "Tay FM",
    "synonyms": [
      "Tay FM"
    ]
  },
  {
    "value": "Teleradiostereo",
    "synonyms": [
      "Teleradiostereo"
    ]
  },
  {
    "value": "Teleradiostereo 2",
    "synonyms": [
      "Teleradiostereo 2"
    ]
  },
  {
    "value": "The Beat LA",
    "synonyms": [
      "The Beat LA"
    ]
  },
  {
    "value": "The Sound 100.3",
    "synonyms": [
      "The Sound 100.3"
    ]
  },
  {
    "value": "Viking FM",
    "synonyms": [
      "Viking FM"
    ]
  },
  {
    "value": "Virgin Radio Italia",
    "synonyms": [
      "Virgin Radio Italia"
    ]
  },
  {
    "value": "Voxson Vintage Radio",
    "synonyms": [
      "Voxson Vintage Radio"
    ]
  },
  {
    "value": "WABC-AM",
    "synonyms": [
      "WABC-AM"
    ]
  },
  {
    "value": "WBAP-AM",
    "synonyms": [
      "WBAP-AM"
    ]
  },
  {
    "value": "WBBM-AM",
    "synonyms": [
      "WBBM-AM"
    ]
  },
  {
    "value": "WBBM-FM",
    "synonyms": [
      "WBBM-FM"
    ]
  },
  {
    "value": "WBLS-FM",
    "synonyms": [
      "WBLS-FM"
    ]
  },
  {
    "value": "WBMP-FM",
    "synonyms": [
      "WBMP-FM"
    ]
  },
  {
    "value": "WCBS-AM",
    "synonyms": [
      "WCBS-AM"
    ]
  },
  {
    "value": "WDRQ-FM",
    "synonyms": [
      "WDRQ-FM"
    ]
  },
  {
    "value": "WHTZ-FM",
    "synonyms": [
      "WHTZ-FM"
    ]
  },
  {
    "value": "WIHT-FM",
    "synonyms": [
      "WIHT-FM"
    ]
  },
  {
    "value": "WINS-AM",
    "synonyms": [
      "WINS-AM"
    ]
  },
  {
    "value": "WIOQ-FM",
    "synonyms": [
      "WIOQ-FM"
    ]
  },
  {
    "value": "WJR-AM",
    "synonyms": [
      "WJR-AM"
    ]
  },
  {
    "value": "WJZW-FM",
    "synonyms": [
      "WJZW-FM"
    ]
  },
  {
    "value": "WKH😡FM",
    "synonyms": [
      "WKH😡FM"
    ]
  },
  {
    "value": "WKSC-FM",
    "synonyms": [
      "WKSC-FM"
    ]
  },
  {
    "value": "WLS-AM",
    "synonyms": [
      "WLS-AM"
    ]
  },
  {
    "value": "WMAL-AM",
    "synonyms": [
      "WMAL-AM"
    ]
  },
  {
    "value": "WMVP-Live",
    "synonyms": [
      "WMVP-Live"
    ]
  },
  {
    "value": "WPLJ-FM",
    "synonyms": [
      "WPLJ-FM"
    ]
  },
  {
    "value": "WPOW-FM",
    "synonyms": [
      "WPOW-FM"
    ]
  },
  {
    "value": "WRQ😡FM",
    "synonyms": [
      "WRQ😡FM"
    ]
  },
  {
    "value": "WSB-AM",
    "synonyms": [
      "WSB-AM"
    ]
  },
  {
    "value": "WSTR-FM",
    "synonyms": [
      "WSTR-FM"
    ]
  },
  {
    "value": "WTOP-FM",
    "synonyms": [
      "WTOP-FM"
    ]
  },
  {
    "value": "WXCD Live",
    "synonyms": [
      "WXCD Live"
    ]
  },
  {
    "value": "WXKS-FM",
    "synonyms": [
      "WXKS-FM"
    ]
  },
  {
    "value": "WYAY-FM",
    "synonyms": [
      "WYAY-FM"
    ]
  },
  {
    "value": "Wessex FM",
    "synonyms": [
      "Wessex FM"
    ]
  },
  {
    "value": "West Sound",
    "synonyms": [
      "West Sound"
    ]
  },
  {
    "value": "Yorkshire Coast Radio",
    "synonyms": [
      "Yorkshire Coast Radio"
    ]
  },
  {
    "value": "love radio",
    "synonyms": [
      "love radio"
    ]
  },
  {
    "value": "stuttgart",
    "synonyms": [
      "stuttgart"
    ]
  }
]