{
  "id": "0a87fb50-4fa4-492e-aaac-6e82b918ca0a",
  "name": "radio.search",
  "auto": true,
  "contexts": [],
  "responses": [
    {
      "resetContexts": false,
      "action": "radio.search",
      "affectedContexts": [
        {
          "name": "search-radio",
          "parameters": {},
          "lifespan": 5
        }
      ],
      "parameters": [
        {
          "id": "4d50d0a1-6cc6-4cfe-90ac-cfa25a5df8a1",
          "required": false,
          "dataType": "@sys.music-artist",
          "name": "artist",
          "value": "$artist",
          "promptMessages": [],
          "noMatchPromptMessages": [],
          "noInputPromptMessages": [],
          "outputDialogContexts": [],
          "isList": false
        },
        {
          "id": "06a7245a-e6dc-41bb-9ea2-e3bb7bed2829",
          "required": false,
          "dataType": "@song",
          "name": "song",
          "value": "$song",
          "promptMessages": [],
          "noMatchPromptMessages": [],
          "noInputPromptMessages": [],
          "outputDialogContexts": [],
          "isList": false
        },
        {
          "id": "8e630016-4a03-42a5-9b46-a39b9c12464b",
          "required": false,
          "dataType": "@remix",
          "name": "remix",
          "value": "$remix",
          "promptMessages": [],
          "noMatchPromptMessages": [],
          "noInputPromptMessages": [],
          "outputDialogContexts": [],
          "isList": false
        },
        {
          "id": "a00772d1-e086-4dfd-9153-2a2f1b34c276",
          "required": false,
          "dataType": "@sys.music-genre",
          "name": "genre",
          "value": "$genre",
          "promptMessages": [],
          "noMatchPromptMessages": [],
          "noInputPromptMessages": [],
          "outputDialogContexts": [],
          "isList": false
        },
        {
          "id": "132197c4-cacb-4c4f-8df3-a066c126a3f5",
          "required": false,
          "dataType": "@radio-station",
          "name": "station",
          "value": "$station",
          "promptMessages": [],
          "noMatchPromptMessages": [],
          "noInputPromptMessages": [],
          "outputDialogContexts": [],
          "isList": false
        },
        {
          "id": "fa559f1f-4701-40d7-8be7-2c1ec7227172",
          "required": false,
          "dataType": "@radio-program",
          "name": "program",
          "value": "$program",
          "promptMessages": [],
          "noMatchPromptMessages": [],
          "noInputPromptMessages": [],
          "outputDialogContexts": [],
          "isList": false
        },
        {
          "id": "fb47c083-c425-4b88-8b03-b6a4f1e688ef",
          "required": false,
          "dataType": "@sys.language",
          "name": "language",
          "value": "$language",
          "promptMessages": [],
          "noMatchPromptMessages": [],
          "noInputPromptMessages": [],
          "outputDialogContexts": [],
          "isList": false
        }
      ],
      "messages": [
        {
          "type": 0,
          "lang": "en",
          "condition": "",
          "speech": []
        }
      ],
      "defaultResponsePlatforms": {},
      "speech": []
    }
  ],
  "priority": 500000,
  "webhookUsed": false,
  "webhookForSlotFilling": false,
  "fallbackIntent": false,
  "events": [],
  "conditionalResponses": [],
  "condition": "",
  "conditionalFollowupEvents": []
}