[
  {
    "id": "86d4141f-c427-415f-9c25-2063c774a2e1",
    "data": [
      {
        "text": "what ",
        "userDefined": false
      },
      {
        "text": "about",
        "meta": "@sys.ignore",
        "userDefined": false
      },
      {
        "text": " ",
        "userDefined": false
      },
      {
        "text": "4",
        "alias": "amount",
        "meta": "@sys.number",
        "userDefined": false
      },
      {
        "text": " ",
        "userDefined": false
      },
      {
        "text": "km",
        "alias": "unit-from",
        "meta": "@unit",
        "userDefined": false
      }
    ],
    "isTemplate": false,
    "count": 0,
    "updated": 0
  },
  {
    "id": "fcbef3ac-af37-4735-9fcd-76b6ef06bcaa",
    "data": [
      {
        "text": "and to ",
        "userDefined": false
      },
      {
        "text": "lbs",
        "alias": "unit-to",
        "meta": "@unit",
        "userDefined": false
      }
    ],
    "isTemplate": false,
    "count": 0,
    "updated": 0
  },
  {
    "id": "ab569f53-4731-40a1-ba9b-c2cb86b51e45",
    "data": [
      {
        "text": "and ",
        "userDefined": false
      },
      {
        "text": "meters",
        "alias": "unit-from",
        "meta": "@unit",
        "userDefined": false
      }
    ],
    "isTemplate": false,
    "count": 0,
    "updated": 0
  },
  {
    "id": "2bd76838-5cf3-4bf8-9dd7-44c7fe103249",
    "data": [
      {
        "text": "in",
        "meta": "@sys.ignore",
        "userDefined": false
      },
      {
        "text": " ",
        "userDefined": false
      },
      {
        "text": "meters",
        "alias": "unit-to",
        "meta": "@unit",
        "userDefined": false
      },
      {
        "text": " please",
        "userDefined": false
      }
    ],
    "isTemplate": false,
    "count": 0,
    "updated": 0
  },
  {
    "id": "0b0c7681-2997-4ea1-a9d6-017173fbcb0a",
    "data": [
      {
        "text": "now into ",
        "userDefined": false
      },
      {
        "text": "kilometers",
        "alias": "unit-to",
        "meta": "@unit",
        "userDefined": true
      }
    ],
    "isTemplate": false,
    "count": 0,
    "updated": 0
  },
  {
    "id": "c43dcc90-3951-4c26-82c7-6ea00a163630",
    "data": [
      {
        "text": "and ",
        "userDefined": false
      },
      {
        "text": "in",
        "meta": "@sys.ignore",
        "userDefined": false
      },
      {
        "text": " ",
        "userDefined": false
      },
      {
        "text": "grams",
        "alias": "unit-to",
        "meta": "@unit",
        "userDefined": false
      }
    ],
    "isTemplate": false,
    "count": 0,
    "updated": 0
  },
  {
    "id": "6ae2d9df-ea4c-4237-b2fb-b25cb70f8ef5",
    "data": [
      {
        "text": "and ",
        "userDefined": false
      },
      {
        "text": "90",
        "alias": "amount",
        "meta": "@sys.number",
        "userDefined": false
      },
      {
        "text": " ",
        "userDefined": false
      },
      {
        "text": "meters",
        "alias": "unit-from",
        "meta": "@unit",
        "userDefined": false
      },
      {
        "text": " then",
        "userDefined": false
      }
    ],
    "isTemplate": false,
    "count": 0,
    "updated": 0
  },
  {
    "id": "21155ba7-3ff1-4744-898d-d2f9b3004bf2",
    "data": [
      {
        "text": "now into ",
        "userDefined": false
      },
      {
        "text": "feet",
        "alias": "unit-to",
        "meta": "@unit",
        "userDefined": true
      }
    ],
    "isTemplate": false,
    "count": 0,
    "updated": 0
  },
  {
    "id": "c3391b63-d00c-4827-a08a-d585ff1a2d57",
    "data": [
      {
        "text": "and ",
        "userDefined": false
      },
      {
        "text": "4",
        "alias": "amount",
        "meta": "@sys.number",
        "userDefined": true
      },
      {
        "text": " ",
        "userDefined": false
      },
      {
        "text": "tbsp",
        "alias": "unit-to",
        "meta": "@unit",
        "userDefined": true
      }
    ],
    "isTemplate": false,
    "count": 1,
    "updated": 0
  },
  {
    "id": "252792ab-9a32-42ef-a239-9ca82b250b62",
    "data": [
      {
        "text": "what about ",
        "userDefined": false
      },
      {
        "text": "metres",
        "alias": "unit-to",
        "meta": "@unit",
        "userDefined": true
      }
    ],
    "isTemplate": false,
    "count": 0,
    "updated": 0
  }
]