{
  "id": "85764ac2-e8c6-4617-98ac-65ca14bb3b65",
  "parentId": "83404b15-2a6d-47b8-b79e-a5640b369b32",
  "rootParentId": "83404b15-2a6d-47b8-b79e-a5640b369b32",
  "name": "venues.education.search - new venue",
  "auto": true,
  "contexts": [
    "venueseducationsearch-followup"
  ],
  "responses": [
    {
      "resetContexts": false,
      "action": "venues.education.search",
      "affectedContexts": [],
      "parameters": [
        {
          "id": "21d3a8e0-9380-457f-996c-0f1c35d1aa79",
          "required": false,
          "dataType": "@venue-education-type",
          "name": "venue-type",
          "value": "$venue-type",
          "promptMessages": [],
          "noMatchPromptMessages": [],
          "noInputPromptMessages": [],
          "outputDialogContexts": [],
          "isList": false
        },
        {
          "id": "a997a4de-1794-4086-956a-88bbb62f5594",
          "required": false,
          "dataType": "",
          "name": "venue-title",
          "value": "#venueseducationsearch-followup.venue-title",
          "promptMessages": [],
          "noMatchPromptMessages": [],
          "noInputPromptMessages": [],
          "outputDialogContexts": [],
          "isList": false
        },
        {
          "id": "a1f600b9-8cf3-47a8-9348-91da4d6aae26",
          "required": false,
          "dataType": "",
          "name": "venue-facility",
          "value": "#venueseducationsearch-followup.venue-facility",
          "promptMessages": [],
          "noMatchPromptMessages": [],
          "noInputPromptMessages": [],
          "outputDialogContexts": [],
          "isList": true
        },
        {
          "id": "370301d8-4c64-452d-a8b6-0f55c0d64201",
          "required": false,
          "dataType": "",
          "name": "sort",
          "value": "#venueseducationsearch-followup.sort",
          "promptMessages": [],
          "noMatchPromptMessages": [],
          "noInputPromptMessages": [],
          "outputDialogContexts": [],
          "isList": true
        },
        {
          "id": "59336f1e-078a-4af1-b702-348aed2a3778",
          "required": false,
          "dataType": "",
          "name": "location",
          "value": "#venueseducationsearch-followup.location",
          "promptMessages": [],
          "noMatchPromptMessages": [],
          "noInputPromptMessages": [],
          "outputDialogContexts": [],
          "isList": false
        },
        {
          "id": "776f3a71-d05f-4c36-8fd8-7b8cc95183c8",
          "required": false,
          "dataType": "",
          "name": "stars",
          "value": "#venueseducationsearch-followup.stars",
          "promptMessages": [],
          "noMatchPromptMessages": [],
          "noInputPromptMessages": [],
          "outputDialogContexts": [],
          "isList": false
        }
      ],
      "messages": [
        {
          "type": 0,
          "lang": "en",
          "condition": "",
          "speech": []
        }
      ],
      "defaultResponsePlatforms": {},
      "speech": []
    }
  ],
  "priority": 500000,
  "webhookUsed": false,
  "webhookForSlotFilling": false,
  "fallbackIntent": false,
  "events": [],
  "conditionalResponses": [],
  "condition": "",
  "conditionalFollowupEvents": []
}