{
  "id": "8bd5dcee-54c0-421d-80a2-6265aaf2d5f6",
  "name": "venues.outdoors.search",
  "auto": true,
  "contexts": [],
  "responses": [
    {
      "resetContexts": false,
      "action": "venues.outdoors.search",
      "affectedContexts": [
        {
          "name": "venuesoutdoorssearch-followup",
          "parameters": {},
          "lifespan": 2
        },
        {
          "name": "venues",
          "parameters": {},
          "lifespan": 5
        }
      ],
      "parameters": [
        {
          "id": "8ad2c250-ca84-4a94-8f19-64b5b2440187",
          "required": false,
          "dataType": "@venue-outdoor-type",
          "name": "venue-type",
          "value": "$venue-type",
          "promptMessages": [],
          "noMatchPromptMessages": [],
          "noInputPromptMessages": [],
          "outputDialogContexts": [],
          "isList": false
        },
        {
          "id": "c2d50d2a-9cfc-475f-a9ec-d30b7f7b573c",
          "required": false,
          "dataType": "@venue-outdoor-title",
          "name": "venue-title",
          "value": "$venue-title",
          "promptMessages": [],
          "noMatchPromptMessages": [],
          "noInputPromptMessages": [],
          "outputDialogContexts": [],
          "isList": false
        },
        {
          "id": "50012112-35d5-47a4-804d-b877eb81e7b6",
          "required": false,
          "dataType": "@venue-facility",
          "name": "venue-facility",
          "value": "$venue-facility",
          "promptMessages": [],
          "noMatchPromptMessages": [],
          "noInputPromptMessages": [],
          "outputDialogContexts": [],
          "isList": true
        },
        {
          "id": "98e8c77e-c41c-4c24-8aea-6b94a64b1d56",
          "required": false,
          "dataType": "@sys.location",
          "name": "location",
          "value": "$location",
          "promptMessages": [],
          "noMatchPromptMessages": [],
          "noInputPromptMessages": [],
          "outputDialogContexts": [],
          "isList": false
        },
        {
          "id": "964e1d77-16bc-4946-8b4d-c5c06be7ca5c",
          "required": false,
          "dataType": "@open",
          "name": "open",
          "value": "$open",
          "promptMessages": [],
          "noMatchPromptMessages": [],
          "noInputPromptMessages": [],
          "outputDialogContexts": [],
          "isList": false
        },
        {
          "id": "64f64043-7e95-4351-8449-6a0102550001",
          "required": false,
          "dataType": "@map-sort",
          "name": "sort",
          "value": "$sort",
          "promptMessages": [],
          "noMatchPromptMessages": [],
          "noInputPromptMessages": [],
          "outputDialogContexts": [],
          "isList": true
        },
        {
          "id": "72921410-42c2-4d36-8614-4c77898a5796",
          "required": false,
          "dataType": "@sys.number",
          "name": "stars",
          "value": "$stars",
          "promptMessages": [],
          "noMatchPromptMessages": [],
          "noInputPromptMessages": [],
          "outputDialogContexts": [],
          "isList": false
        },
        {
          "id": "4834a389-89fe-4c84-885c-513f277fbb80",
          "required": false,
          "dataType": "@rating",
          "name": "rating",
          "value": "$rating",
          "promptMessages": [],
          "noMatchPromptMessages": [],
          "noInputPromptMessages": [],
          "outputDialogContexts": [],
          "isList": false
        }
      ],
      "messages": [
        {
          "type": 0,
          "lang": "en",
          "condition": "",
          "speech": []
        }
      ],
      "defaultResponsePlatforms": {},
      "speech": []
    }
  ],
  "priority": 500000,
  "webhookUsed": false,
  "webhookForSlotFilling": false,
  "fallbackIntent": false,
  "events": [],
  "conditionalResponses": [],
  "condition": "",
  "conditionalFollowupEvents": []
}