[
  {
    "id": "3dce920b-2e20-4e60-9572-f9f41de8cffa",
    "data": [
      {
        "text": "nearest",
        "alias": "sort",
        "meta": "@map-sort",
        "userDefined": false
      },
      {
        "text": " ",
        "userDefined": false
      },
      {
        "text": "private school",
        "alias": "venue-type",
        "meta": "@venue-education-type",
        "userDefined": false
      },
      {
        "text": " in ",
        "userDefined": false
      },
      {
        "text": "LA",
        "alias": "location",
        "meta": "@sys.location",
        "userDefined": false
      }
    ],
    "isTemplate": false,
    "count": 0,
    "updated": 0
  },
  {
    "id": "594bd215-967b-4a02-b5ea-04a1025d0f1e",
    "data": [
      {
        "text": "find ",
        "userDefined": false
      },
      {
        "text": "university of Oxford",
        "alias": "venue-title",
        "meta": "@venue-education-title",
        "userDefined": false
      }
    ],
    "isTemplate": false,
    "count": 0,
    "updated": 0
  },
  {
    "id": "d14ac6b5-d0fa-4455-b3bd-5d0a1fbe315d",
    "data": [
      {
        "text": "find ",
        "userDefined": false
      },
      {
        "text": "Sandy Elementary school",
        "alias": "venue-title",
        "meta": "@venue-education-title",
        "userDefined": true
      }
    ],
    "isTemplate": false,
    "count": 1,
    "updated": 0
  },
  {
    "id": "d09aa9b7-db51-47a7-a607-5324fdb6d0f0",
    "data": [
      {
        "text": "search ",
        "userDefined": false
      },
      {
        "text": "best",
        "alias": "sort",
        "meta": "@map-sort",
        "userDefined": false
      },
      {
        "text": " ",
        "userDefined": false
      },
      {
        "text": "high schools",
        "alias": "venue-type",
        "meta": "@venue-education-type",
        "userDefined": false
      },
      {
        "text": " in ",
        "userDefined": false
      },
      {
        "text": "California",
        "alias": "location",
        "meta": "@sys.location",
        "userDefined": false
      }
    ],
    "isTemplate": false,
    "count": 0,
    "updated": 0
  },
  {
    "id": "2e8bf5fb-1bd0-4bea-a565-b8271b7febdc",
    "data": [
      {
        "text": "show me ",
        "userDefined": false
      },
      {
        "text": "best",
        "alias": "sort",
        "meta": "@map-sort",
        "userDefined": false
      },
      {
        "text": " ",
        "userDefined": false
      },
      {
        "text": "private school",
        "alias": "venue-type",
        "meta": "@venue-education-type",
        "userDefined": false
      }
    ],
    "isTemplate": false,
    "count": 0,
    "updated": 0
  },
  {
    "id": "15f28968-b57e-492f-bc80-8df5c80b07b4",
    "data": [
      {
        "text": "Spanish courses",
        "alias": "venue-type",
        "meta": "@venue-education-type",
        "userDefined": true
      },
      {
        "text": " ",
        "userDefined": false
      },
      {
        "text": "near me",
        "alias": "sort",
        "meta": "@map-sort",
        "userDefined": false
      }
    ],
    "isTemplate": false,
    "count": 0,
    "updated": 0
  },
  {
    "id": "60a317ab-8066-42c7-841e-fe9b7533eedb",
    "data": [
      {
        "text": "find ",
        "userDefined": false
      },
      {
        "text": "private school",
        "alias": "venue-type",
        "meta": "@venue-education-type",
        "userDefined": false
      }
    ],
    "isTemplate": false,
    "count": 0,
    "updated": 0
  },
  {
    "id": "5c8ebfee-3b82-42bc-9a9e-17279ddb53f0",
    "data": [
      {
        "text": "university",
        "alias": "venue-type",
        "meta": "@venue-education-type",
        "userDefined": false
      }
    ],
    "isTemplate": false,
    "count": 0,
    "updated": 0
  },
  {
    "id": "344951a9-c14b-441a-a900-2265974cdb5e",
    "data": [
      {
        "text": "private school",
        "alias": "venue-type",
        "meta": "@venue-education-type",
        "userDefined": false
      },
      {
        "text": " with ",
        "userDefined": false
      },
      {
        "text": "5",
        "alias": "stars",
        "meta": "@sys.number",
        "userDefined": false
      },
      {
        "text": " stars",
        "userDefined": false
      }
    ],
    "isTemplate": false,
    "count": 0,
    "updated": 0
  },
  {
    "id": "74fd3d24-c127-4d5d-9b2e-cdcac3cf8723",
    "data": [
      {
        "text": "I want to go to ",
        "userDefined": false
      },
      {
        "text": "school",
        "alias": "venue-type",
        "meta": "@venue-education-type",
        "userDefined": true
      }
    ],
    "isTemplate": false,
    "count": 0,
    "updated": 0
  },
  {
    "id": "b8215daf-a6a1-44f0-9ae7-519dfc89ae6a",
    "data": [
      {
        "text": "colleges",
        "alias": "venue-type",
        "meta": "@venue-education-type",
        "userDefined": true
      },
      {
        "text": " nearby",
        "userDefined": false
      }
    ],
    "isTemplate": false,
    "count": 0,
    "updated": 0
  },
  {
    "id": "20f77807-023c-4c2a-94e4-89af62910541",
    "data": [
      {
        "text": "college",
        "alias": "venue-type",
        "meta": "@venue-education-type",
        "userDefined": true
      }
    ],
    "isTemplate": false,
    "count": 0,
    "updated": 0
  },
  {
    "id": "30971427-f30c-41be-b8fa-d6956d01280a",
    "data": [
      {
        "text": "show me the ",
        "userDefined": false
      },
      {
        "text": "best",
        "alias": "sort",
        "meta": "@map-sort",
        "userDefined": false
      },
      {
        "text": " ",
        "userDefined": false
      },
      {
        "text": "colleges",
        "alias": "venue-type",
        "meta": "@venue-education-type",
        "userDefined": false
      },
      {
        "text": " in ",
        "userDefined": false
      },
      {
        "text": "India",
        "alias": "location",
        "meta": "@sys.location",
        "userDefined": false
      }
    ],
    "isTemplate": false,
    "count": 0,
    "updated": 0
  },
  {
    "id": "55975041-de65-417b-a195-93fdbf690b4a",
    "data": [
      {
        "text": "nearest",
        "alias": "sort",
        "meta": "@map-sort",
        "userDefined": false
      },
      {
        "text": " ",
        "userDefined": false
      },
      {
        "text": "best",
        "alias": "sort",
        "meta": "@map-sort",
        "userDefined": true
      },
      {
        "text": " ",
        "userDefined": false
      },
      {
        "text": "primary school",
        "alias": "venue-type",
        "meta": "@venue-education-type",
        "userDefined": false
      }
    ],
    "isTemplate": false,
    "count": 0,
    "updated": 0
  },
  {
    "id": "8c5cc22f-3e78-4f30-9b3b-e33c930e4da3",
    "data": [
      {
        "text": "find ",
        "userDefined": false
      },
      {
        "text": "best",
        "alias": "sort",
        "meta": "@map-sort",
        "userDefined": false
      },
      {
        "text": " ",
        "userDefined": false
      },
      {
        "text": "schools",
        "alias": "venue-type",
        "meta": "@venue-education-type",
        "userDefined": false
      }
    ],
    "isTemplate": false,
    "count": 0,
    "updated": 0
  },
  {
    "id": "34d2fe35-3e7c-4861-b3e7-fd2820f6b36a",
    "data": [
      {
        "text": "find ",
        "userDefined": false
      },
      {
        "text": "university",
        "alias": "venue-type",
        "meta": "@venue-education-type",
        "userDefined": false
      },
      {
        "text": " with ",
        "userDefined": false
      },
      {
        "text": "parking",
        "alias": "venue-facility",
        "meta": "@venue-facility",
        "userDefined": false
      }
    ],
    "isTemplate": false,
    "count": 0,
    "updated": 0
  },
  {
    "id": "2df5d3f7-ad97-47ee-8b23-47bc35d6df7b",
    "data": [
      {
        "text": "schools",
        "alias": "venue-type",
        "meta": "@venue-education-type",
        "userDefined": false
      },
      {
        "text": " in ",
        "userDefined": false
      },
      {
        "text": "London",
        "alias": "location",
        "meta": "@sys.location",
        "userDefined": false
      }
    ],
    "isTemplate": false,
    "count": 0,
    "updated": 0
  },
  {
    "id": "33a550dd-74c9-47de-a563-ea6094d57f2e",
    "data": [
      {
        "text": "university",
        "alias": "venue-type",
        "meta": "@venue-education-type",
        "userDefined": false
      },
      {
        "text": " with ",
        "userDefined": false
      },
      {
        "text": "parking",
        "alias": "venue-facility",
        "meta": "@venue-facility",
        "userDefined": true
      }
    ],
    "isTemplate": false,
    "count": 0,
    "updated": 0
  },
  {
    "id": "2f578b08-3242-42f2-9264-d42a420ce495",
    "data": [
      {
        "text": "find ",
        "userDefined": false
      },
      {
        "text": "private school",
        "alias": "venue-type",
        "meta": "@venue-education-type",
        "userDefined": false
      },
      {
        "text": " with ",
        "userDefined": false
      },
      {
        "text": "5",
        "alias": "stars",
        "meta": "@sys.number",
        "userDefined": false
      },
      {
        "text": " stars",
        "userDefined": false
      }
    ],
    "isTemplate": false,
    "count": 0,
    "updated": 0
  },
  {
    "id": "834f4532-d073-45f0-8b02-5d256d594a3d",
    "data": [
      {
        "text": "what ",
        "userDefined": false
      },
      {
        "text": "colleges",
        "alias": "venue-type",
        "meta": "@venue-education-type",
        "userDefined": false
      },
      {
        "text": " ",
        "userDefined": false
      },
      {
        "text": "nearby",
        "alias": "sort",
        "meta": "@map-sort",
        "userDefined": false
      },
      {
        "text": " are the ",
        "userDefined": false
      },
      {
        "text": "best",
        "alias": "sort",
        "meta": "@map-sort",
        "userDefined": false
      }
    ],
    "isTemplate": false,
    "count": 0,
    "updated": 0
  },
  {
    "id": "936f863c-e1ce-401a-900a-6004c511889d",
    "data": [
      {
        "text": "school",
        "alias": "venue-type",
        "meta": "@venue-education-type",
        "userDefined": true
      }
    ],
    "isTemplate": false,
    "count": 0,
    "updated": 0
  },
  {
    "id": "3ce9a9ea-9fac-4739-8322-22002efa4d93",
    "data": [
      {
        "text": "where is ",
        "userDefined": false
      },
      {
        "text": "Moscow State University",
        "alias": "venue-title",
        "meta": "@venue-education-title",
        "userDefined": true
      }
    ],
    "isTemplate": false,
    "count": 0,
    "updated": 0
  },
  {
    "id": "3583761a-2326-44ad-bfe5-3e678ebf5063",
    "data": [
      {
        "text": "university of Oxford",
        "alias": "venue-title",
        "meta": "@venue-education-title",
        "userDefined": false
      }
    ],
    "isTemplate": false,
    "count": 0,
    "updated": 0
  },
  {
    "id": "3ea8f81d-33c9-4321-aa8e-b2f96ed9d7ef",
    "data": [
      {
        "text": "search for ",
        "userDefined": false
      },
      {
        "text": "schools",
        "alias": "venue-type",
        "meta": "@venue-education-type",
        "userDefined": false
      },
      {
        "text": " in ",
        "userDefined": false
      },
      {
        "text": "London",
        "alias": "location",
        "meta": "@sys.location",
        "userDefined": false
      }
    ],
    "isTemplate": false,
    "count": 0,
    "updated": 0
  }
]