{
  "id": "8338b24f-44b1-4397-b882-799652a71a10",
  "name": "venues.automotive.search",
  "auto": true,
  "contexts": [],
  "responses": [
    {
      "resetContexts": false,
      "action": "venues.automotive.search",
      "affectedContexts": [
        {
          "name": "venuesautomotivesearch-followup",
          "parameters": {},
          "lifespan": 2
        },
        {
          "name": "venues",
          "parameters": {},
          "lifespan": 5
        }
      ],
      "parameters": [
        {
          "id": "5f4941f0-0c85-4035-8a75-ded69a66eea2",
          "required": false,
          "dataType": "@sys.location",
          "name": "location",
          "value": "$location",
          "promptMessages": [],
          "noMatchPromptMessages": [],
          "noInputPromptMessages": [],
          "outputDialogContexts": [],
          "isList": false
        },
        {
          "id": "9b4be24d-d21a-41e6-8be1-40ca80e74b5a",
          "required": false,
          "dataType": "@venue-automotive-type",
          "name": "venue-type",
          "value": "$venue-type",
          "promptMessages": [],
          "noMatchPromptMessages": [],
          "noInputPromptMessages": [],
          "outputDialogContexts": [],
          "isList": false
        },
        {
          "id": "4a4e749c-740f-4e3e-b2cc-6e2b1310d8bc",
          "required": false,
          "dataType": "@venue-automotive-title",
          "name": "venue-title",
          "value": "$venue-title",
          "promptMessages": [],
          "noMatchPromptMessages": [],
          "noInputPromptMessages": [],
          "outputDialogContexts": [],
          "isList": false
        },
        {
          "id": "99e35311-86fe-43db-8e0d-4d293b73071f",
          "required": false,
          "dataType": "@venue-automotive-chain",
          "name": "venue-chain",
          "value": "$venue-chain",
          "promptMessages": [],
          "noMatchPromptMessages": [],
          "noInputPromptMessages": [],
          "outputDialogContexts": [],
          "isList": false
        },
        {
          "id": "25a9fc6b-39f4-4b74-8a8e-4cde5b81df2f",
          "required": false,
          "dataType": "@map-sort",
          "name": "sort",
          "value": "$sort",
          "promptMessages": [],
          "noMatchPromptMessages": [],
          "noInputPromptMessages": [],
          "outputDialogContexts": [],
          "isList": true
        },
        {
          "id": "0925bece-5fa8-4136-927f-0c6e596e6669",
          "required": false,
          "dataType": "@venue-facility",
          "name": "venue-facility",
          "value": "$venue-facility",
          "promptMessages": [],
          "noMatchPromptMessages": [],
          "noInputPromptMessages": [],
          "outputDialogContexts": [],
          "isList": true
        },
        {
          "id": "afc812e5-5c42-466c-8b4c-510c299739e1",
          "required": false,
          "dataType": "@open",
          "name": "open",
          "value": "$open",
          "promptMessages": [],
          "noMatchPromptMessages": [],
          "noInputPromptMessages": [],
          "outputDialogContexts": [],
          "isList": false
        },
        {
          "id": "3a52fe52-82d2-4d91-9373-68ef2149d9f4",
          "required": false,
          "dataType": "@sys.number",
          "name": "stars",
          "value": "$stars",
          "promptMessages": [],
          "noMatchPromptMessages": [],
          "noInputPromptMessages": [],
          "outputDialogContexts": [],
          "isList": false
        },
        {
          "id": "044244d4-84ea-4f3f-a0b9-05d7f4176be6",
          "required": false,
          "dataType": "@rating",
          "name": "rating",
          "value": "$rating",
          "promptMessages": [],
          "noMatchPromptMessages": [],
          "noInputPromptMessages": [],
          "outputDialogContexts": [],
          "isList": false
        }
      ],
      "messages": [
        {
          "type": 0,
          "lang": "en",
          "condition": "",
          "speech": []
        }
      ],
      "defaultResponsePlatforms": {},
      "speech": []
    }
  ],
  "priority": 500000,
  "webhookUsed": false,
  "webhookForSlotFilling": false,
  "fallbackIntent": false,
  "events": [],
  "conditionalResponses": [],
  "condition": "",
  "conditionalFollowupEvents": []
}