{
  "id": "b65af0fa-81e5-4623-91ad-a5a9020708b2",
  "parentId": "28634453-552b-443a-81dc-e1e1b283f6e9",
  "rootParentId": "28634453-552b-443a-81dc-e1e1b283f6e9",
  "name": "venues.services.search - new venue",
  "auto": true,
  "contexts": [
    "venuesservicessearch-followup"
  ],
  "responses": [
    {
      "resetContexts": false,
      "action": "venues.services.search",
      "affectedContexts": [],
      "parameters": [
        {
          "id": "5401c231-bba0-4b8e-95c3-caf4e6092521",
          "required": false,
          "dataType": "@venue-local-service-type",
          "name": "venue-type",
          "value": "$venue-type",
          "promptMessages": [],
          "noMatchPromptMessages": [],
          "noInputPromptMessages": [],
          "outputDialogContexts": [],
          "isList": false
        },
        {
          "id": "f15a6165-5e70-4d69-871b-a8a3fef6184f",
          "required": false,
          "dataType": "",
          "name": "venue-title",
          "value": "#venuesservicessearch-followup.venue-title",
          "promptMessages": [],
          "noMatchPromptMessages": [],
          "noInputPromptMessages": [],
          "outputDialogContexts": [],
          "isList": false
        },
        {
          "id": "d5e91ee2-9f4c-4668-a1f0-fee8c9c0eb99",
          "required": false,
          "dataType": "",
          "name": "location",
          "value": "#venuesservicessearch-followup.location",
          "promptMessages": [],
          "noMatchPromptMessages": [],
          "noInputPromptMessages": [],
          "outputDialogContexts": [],
          "isList": false
        },
        {
          "id": "73966a24-fc7a-4548-925f-be2caa1de5ea",
          "required": false,
          "dataType": "",
          "name": "sort",
          "value": "#venuesservicessearch-followup.sort",
          "promptMessages": [],
          "noMatchPromptMessages": [],
          "noInputPromptMessages": [],
          "outputDialogContexts": [],
          "isList": true
        },
        {
          "id": "1e870c7c-b02f-4ce4-985c-6be41cd8149f",
          "required": false,
          "dataType": "",
          "name": "open",
          "value": "#venuesservicessearch-followup.open",
          "promptMessages": [],
          "noMatchPromptMessages": [],
          "noInputPromptMessages": [],
          "outputDialogContexts": [],
          "isList": false
        },
        {
          "id": "d71d8e5c-df13-4879-96ca-ea8e3f59c6b8",
          "required": false,
          "dataType": "",
          "name": "venue-facility",
          "value": "#venuesservicessearch-followup.venue-facility",
          "promptMessages": [],
          "noMatchPromptMessages": [],
          "noInputPromptMessages": [],
          "outputDialogContexts": [],
          "isList": true
        }
      ],
      "messages": [
        {
          "type": 0,
          "lang": "en",
          "condition": "",
          "speech": []
        }
      ],
      "defaultResponsePlatforms": {},
      "speech": []
    }
  ],
  "priority": 500000,
  "webhookUsed": false,
  "webhookForSlotFilling": false,
  "fallbackIntent": false,
  "events": [],
  "conditionalResponses": [],
  "condition": "",
  "conditionalFollowupEvents": []
}