[
  {
    "id": "1d193735-4c73-43e4-8e36-b286d56fbe2c",
    "data": [
      {
        "text": "do you have any education",
        "userDefined": false
      }
    ],
    "isTemplate": false,
    "count": 0,
    "updated": 0
  },
  {
    "id": "12e37064-c0f6-4734-8897-acc44087de4a",
    "data": [
      {
        "text": "do you have kids",
        "userDefined": false
      }
    ],
    "isTemplate": false,
    "count": 0,
    "updated": 0
  },
  {
    "id": "923f7f07-46b2-43e8-bb04-a9b6f1b58843",
    "data": [
      {
        "text": "let\u0027s talk about politics",
        "userDefined": false
      }
    ],
    "isTemplate": false,
    "count": 0,
    "updated": 0
  },
  {
    "id": "a456eef2-e668-43f5-9ba5-e521634376f3",
    "data": [
      {
        "text": "let\u0027s talk about weather",
        "userDefined": false
      }
    ],
    "isTemplate": false,
    "count": 0,
    "updated": 0
  },
  {
    "id": "147b8299-a8ae-44a3-a531-1b9ce6823db1",
    "data": [
      {
        "text": "could you show me your house",
        "userDefined": false
      }
    ],
    "isTemplate": false,
    "count": 0,
    "updated": 0
  },
  {
    "id": "dd5fe9a1-a181-49a2-81d1-8209e5fea708",
    "data": [
      {
        "text": "what is your biggest fear",
        "userDefined": false
      }
    ],
    "isTemplate": false,
    "count": 0,
    "updated": 0
  },
  {
    "id": "203b66eb-3eb0-42c7-805e-cc89b1e90278",
    "data": [
      {
        "text": "what is your biggest dream",
        "userDefined": false
      }
    ],
    "isTemplate": false,
    "count": 0,
    "updated": 0
  },
  {
    "id": "8a4e755f-dec2-4d01-9830-015a2bc806d1",
    "data": [
      {
        "text": "can you show your passport",
        "userDefined": false
      }
    ],
    "isTemplate": false,
    "count": 0,
    "updated": 0
  },
  {
    "id": "7931903c-0748-44e9-b12e-8df487761c0f",
    "data": [
      {
        "text": "may I see your photo",
        "userDefined": false
      }
    ],
    "isTemplate": false,
    "count": 0,
    "updated": 0
  },
  {
    "id": "a427fef6-9491-4317-9fe1-5491dd119e5d",
    "data": [
      {
        "text": "do you have free time",
        "userDefined": false
      }
    ],
    "isTemplate": false,
    "count": 0,
    "updated": 0
  }
]