[
  {
    "id": "992f3ca4-971b-4589-9b83-985e35ac8723",
    "data": [
      {
        "text": "tell me some stuff about you",
        "userDefined": false
      }
    ],
    "isTemplate": false,
    "count": 0,
    "updated": 0
  },
  {
    "id": "0c863bec-d032-4a51-a531-161bd16e7de6",
    "data": [
      {
        "text": "tell me about you",
        "userDefined": false
      }
    ],
    "isTemplate": false,
    "count": 1,
    "updated": 0
  },
  {
    "id": "4466e9a9-2c90-463c-8c0d-65c3937885e2",
    "data": [
      {
        "text": "say about you",
        "userDefined": false
      }
    ],
    "isTemplate": false,
    "count": 0,
    "updated": 0
  },
  {
    "id": "e95cc16b-96c1-4c3e-aa9d-700e107beb02",
    "data": [
      {
        "text": "tell me about your personality",
        "userDefined": false
      }
    ],
    "isTemplate": false,
    "count": 0,
    "updated": 0
  },
  {
    "id": "2cea74ea-f111-43d7-8f08-c83218f0c321",
    "data": [
      {
        "text": "talk about ",
        "userDefined": false
      },
      {
        "text": "yourself",
        "meta": "@sys.ignore",
        "userDefined": true
      }
    ],
    "isTemplate": false,
    "count": 0,
    "updated": 0
  },
  {
    "id": "bd6669c2-8873-4bce-a3a5-855c2c73004c",
    "data": [
      {
        "text": "talk some stuff about ",
        "userDefined": false
      },
      {
        "text": "yourself",
        "meta": "@sys.ignore",
        "userDefined": true
      }
    ],
    "isTemplate": false,
    "count": 0,
    "updated": 0
  },
  {
    "id": "891e389d-d664-4add-b9fe-737749a00641",
    "data": [
      {
        "text": "what are you",
        "userDefined": false
      }
    ],
    "isTemplate": false,
    "count": 0,
    "updated": 0
  },
  {
    "id": "8934b085-4720-459d-a16e-8e1253c26ea4",
    "data": [
      {
        "text": "define yourself",
        "userDefined": false
      }
    ],
    "isTemplate": false,
    "count": 1,
    "updated": 0
  },
  {
    "id": "1f61faf3-78b5-4fad-a833-124b2b70e314",
    "data": [
      {
        "text": "I want to know you better",
        "userDefined": false
      }
    ],
    "isTemplate": false,
    "count": 0,
    "updated": 0
  },
  {
    "id": "3bc82723-42d6-4211-9ac7-cc26f20ac6e0",
    "data": [
      {
        "text": "tell me about yourself",
        "userDefined": false
      }
    ],
    "isTemplate": false,
    "count": 1,
    "updated": 0
  },
  {
    "id": "52bd5096-f9a0-4016-ba28-4ff5f97e919b",
    "data": [
      {
        "text": "what is your personality",
        "userDefined": false
      }
    ],
    "isTemplate": false,
    "count": 0,
    "updated": 0
  },
  {
    "id": "31dc1214-3621-4e1d-8bc2-66b113b96020",
    "data": [
      {
        "text": "who are you",
        "userDefined": false
      }
    ],
    "isTemplate": false,
    "count": 1,
    "updated": 0
  },
  {
    "id": "76bce460-54a3-4a84-aa65-178f1cbf506a",
    "data": [
      {
        "text": "about yourself",
        "userDefined": false
      }
    ],
    "isTemplate": false,
    "count": 0,
    "updated": 0
  },
  {
    "id": "3a75c84f-116e-45ac-9d00-1b6383fd20a9",
    "data": [
      {
        "text": "why ",
        "userDefined": false
      },
      {
        "text": "are",
        "meta": "@sys.ignore",
        "userDefined": true
      },
      {
        "text": " you ",
        "userDefined": false
      },
      {
        "text": "here",
        "meta": "@sys.ignore",
        "userDefined": true
      }
    ],
    "isTemplate": false,
    "count": 0,
    "updated": 0
  },
  {
    "id": "c24f2644-aedc-46ee-aa83-56caf8bf076b",
    "data": [
      {
        "text": "all",
        "meta": "@sys.ignore",
        "userDefined": true
      },
      {
        "text": " ",
        "userDefined": false
      },
      {
        "text": "about",
        "meta": "@sys.ignore",
        "userDefined": true
      },
      {
        "text": " you",
        "userDefined": false
      }
    ],
    "isTemplate": false,
    "count": 0,
    "updated": 0
  },
  {
    "id": "c97bcbab-510d-49f1-b079-4dd9843b2f8b",
    "data": [
      {
        "text": "introduce yourself",
        "userDefined": false
      }
    ],
    "isTemplate": false,
    "count": 0,
    "updated": 0
  },
  {
    "id": "975c3015-be08-47f0-8d3c-f85e4a936f86",
    "data": [
      {
        "text": "describe yourself",
        "userDefined": false
      }
    ],
    "isTemplate": false,
    "count": 0,
    "updated": 0
  },
  {
    "id": "2b58650b-8158-4af1-81db-5e16d97a8c71",
    "data": [
      {
        "text": "I want to know more about you",
        "userDefined": false
      }
    ],
    "isTemplate": false,
    "count": 0,
    "updated": 0
  }
]