[
  {
    "id": "e2f8bdd1-ac6d-4081-884c-43ac9fbf1c80",
    "data": [
      {
        "text": "talk to me",
        "userDefined": false
      }
    ],
    "isTemplate": false,
    "count": 1,
    "updated": 0
  },
  {
    "id": "62a9eee3-fca2-4199-8843-354788b32f98",
    "data": [
      {
        "text": "do you want to chat with me",
        "userDefined": false
      }
    ],
    "isTemplate": false,
    "count": 0,
    "updated": 0
  },
  {
    "id": "80a917eb-7d13-48d5-83ad-3f71385e0aff",
    "data": [
      {
        "text": "can you talk with me",
        "userDefined": false
      }
    ],
    "isTemplate": false,
    "count": 0,
    "updated": 0
  },
  {
    "id": "0da3fd7e-7856-4b44-a9db-198e18ab6d7d",
    "data": [
      {
        "text": "will",
        "meta": "@sys.ignore",
        "userDefined": false
      },
      {
        "text": " you talk to me",
        "userDefined": false
      }
    ],
    "isTemplate": false,
    "count": 0,
    "updated": 0
  },
  {
    "id": "c39046f9-b042-4d36-a417-b1b42948ef0a",
    "data": [
      {
        "text": "can you chat with me",
        "userDefined": false
      }
    ],
    "isTemplate": false,
    "count": 0,
    "updated": 0
  },
  {
    "id": "7ebb036c-ff4c-4e7e-b418-77af9b32502a",
    "data": [
      {
        "text": "can you talk to me",
        "userDefined": false
      }
    ],
    "isTemplate": false,
    "count": 0,
    "updated": 0
  },
  {
    "id": "d52a8b11-9d2a-4fd6-a351-61ec0f2baca3",
    "data": [
      {
        "text": "are",
        "meta": "@sys.ignore",
        "userDefined": false
      },
      {
        "text": " you talking to me",
        "userDefined": false
      }
    ],
    "isTemplate": false,
    "count": 0,
    "updated": 0
  },
  {
    "id": "ed8f3c11-9ddb-4df8-b674-a9c95731a1fc",
    "data": [
      {
        "text": "are",
        "meta": "@sys.ignore",
        "userDefined": false
      },
      {
        "text": " you going to talk to me",
        "userDefined": false
      }
    ],
    "isTemplate": false,
    "count": 0,
    "updated": 0
  },
  {
    "id": "44b97ae7-ae1f-4795-8aca-97b0091ffe30",
    "data": [
      {
        "text": "why ",
        "userDefined": false
      },
      {
        "text": "don\u0027t",
        "meta": "@sys.ignore",
        "userDefined": false
      },
      {
        "text": " you talk to me",
        "userDefined": false
      }
    ],
    "isTemplate": false,
    "count": 1,
    "updated": 0
  },
  {
    "id": "5a76dd38-05c4-4d51-a430-16be77956bd3",
    "data": [
      {
        "text": "just chat with me",
        "userDefined": false
      }
    ],
    "isTemplate": false,
    "count": 0,
    "updated": 0
  },
  {
    "id": "27180621-4eaf-4757-9a65-a78ab65dcced",
    "data": [
      {
        "text": "talk",
        "meta": "@sys.ignore",
        "userDefined": false
      }
    ],
    "isTemplate": false,
    "count": 1,
    "updated": 0
  },
  {
    "id": "fcd2e19c-01ca-4c1f-bf23-3f07db91e657",
    "data": [
      {
        "text": "talk with me",
        "userDefined": false
      }
    ],
    "isTemplate": false,
    "count": 1,
    "updated": 0
  },
  {
    "id": "f8081678-7c40-41c7-8274-2d9fa75adaef",
    "data": [
      {
        "text": "speak to me",
        "userDefined": false
      }
    ],
    "isTemplate": false,
    "count": 0,
    "updated": 0
  },
  {
    "id": "e86246ee-82fd-4b38-aa3f-7930c57a55d2",
    "data": [
      {
        "text": "you can talk to me",
        "userDefined": false
      }
    ],
    "isTemplate": false,
    "count": 0,
    "updated": 0
  },
  {
    "id": "bb379b02-f51d-479f-a827-fc25bde10cd3",
    "data": [
      {
        "text": "speak with me",
        "userDefined": false
      }
    ],
    "isTemplate": false,
    "count": 0,
    "updated": 0
  },
  {
    "id": "e58a8697-3073-4982-b004-440825d675d5",
    "data": [
      {
        "text": "why aren\u0027t you talking to me",
        "userDefined": false
      }
    ],
    "isTemplate": false,
    "count": 0,
    "updated": 0
  },
  {
    "id": "04a3291e-97a3-44b6-b8e1-b02564ed0f8b",
    "data": [
      {
        "text": "can you speak with me",
        "userDefined": false
      }
    ],
    "isTemplate": false,
    "count": 0,
    "updated": 0
  },
  {
    "id": "2030404c-f549-4933-972e-ce80ae465767",
    "data": [
      {
        "text": "say",
        "meta": "@sys.ignore",
        "userDefined": false
      }
    ],
    "isTemplate": false,
    "count": 0,
    "updated": 0
  },
  {
    "id": "eab7daee-9a27-48b4-b1fa-24b9bca1b48f",
    "data": [
      {
        "text": "chat with me",
        "userDefined": false
      }
    ],
    "isTemplate": false,
    "count": 1,
    "updated": 0
  }
]