[
  {
    "id": "6c02aa1d-bb7a-4b48-b0a8-3a35e1d223f3",
    "data": [
      {
        "text": "you make me laugh a lot",
        "userDefined": false
      }
    ],
    "isTemplate": false,
    "count": 0,
    "updated": 0
  },
  {
    "id": "02fd4292-787e-433e-b179-c831dd1e4ad6",
    "data": [
      {
        "text": "you ",
        "userDefined": false
      },
      {
        "text": "are",
        "meta": "@sys.ignore",
        "userDefined": false
      },
      {
        "text": " funny",
        "userDefined": false
      }
    ],
    "isTemplate": false,
    "count": 0,
    "updated": 0
  },
  {
    "id": "f9cfe67c-54f0-4d18-a403-4cce0ec85439",
    "data": [
      {
        "text": "you ",
        "userDefined": false
      },
      {
        "text": "are",
        "meta": "@sys.ignore",
        "userDefined": false
      },
      {
        "text": " so funny",
        "userDefined": false
      }
    ],
    "isTemplate": false,
    "count": 0,
    "updated": 0
  },
  {
    "id": "5ec7bc77-85f4-443e-82c2-07edfc67bdc3",
    "data": [
      {
        "text": "you\u0027re so funny",
        "userDefined": false
      }
    ],
    "isTemplate": false,
    "count": 1,
    "updated": 0
  },
  {
    "id": "33f6b070-7de6-41fd-8d80-7f458b4d2cf6",
    "data": [
      {
        "text": "how funny you ",
        "userDefined": false
      },
      {
        "text": "are",
        "meta": "@sys.ignore",
        "userDefined": false
      }
    ],
    "isTemplate": false,
    "count": 0,
    "updated": 0
  },
  {
    "id": "eae2bb04-0bb9-4f4b-8971-ae38f353059b",
    "data": [
      {
        "text": "you\u0027re a very funny bot",
        "userDefined": false
      }
    ],
    "isTemplate": false,
    "count": 0,
    "updated": 0
  },
  {
    "id": "3c73540a-63b3-47ac-8a28-2df500f6c0b6",
    "data": [
      {
        "text": "you\u0027re incredibly funny",
        "userDefined": false
      }
    ],
    "isTemplate": false,
    "count": 1,
    "updated": 0
  },
  {
    "id": "97a183dd-63d9-48e2-88a9-37d53b451045",
    "data": [
      {
        "text": "you\u0027re really funny",
        "userDefined": false
      }
    ],
    "isTemplate": false,
    "count": 0,
    "updated": 0
  },
  {
    "id": "e0852a89-8ca9-433c-85f8-73cf81043392",
    "data": [
      {
        "text": "you ",
        "userDefined": false
      },
      {
        "text": "are",
        "meta": "@sys.ignore",
        "userDefined": false
      },
      {
        "text": " hilarious",
        "userDefined": false
      }
    ],
    "isTemplate": false,
    "count": 0,
    "updated": 0
  },
  {
    "id": "ba7c651d-43f4-4dab-a815-7e0a9799f7dc",
    "data": [
      {
        "text": "you ",
        "userDefined": false
      },
      {
        "text": "are",
        "meta": "@sys.ignore",
        "userDefined": false
      },
      {
        "text": " very funny",
        "userDefined": false
      }
    ],
    "isTemplate": false,
    "count": 0,
    "updated": 0
  },
  {
    "id": "6d41fc17-f6b4-462c-a9e8-3ba17887e268",
    "data": [
      {
        "text": "that was funny",
        "userDefined": false
      }
    ],
    "isTemplate": false,
    "count": 0,
    "updated": 0
  },
  {
    "id": "baa1999b-1681-4226-9621-25f84577384a",
    "data": [
      {
        "text": "you\u0027",
        "userDefined": false
      },
      {
        "text": "re the funniest bot",
        "meta": "@sys.ignore",
        "userDefined": false
      },
      {
        "text": " I\u0027ve talked to",
        "userDefined": false
      }
    ],
    "isTemplate": false,
    "count": 0,
    "updated": 0
  },
  {
    "id": "7135be64-0092-409f-8277-790ba210b67c",
    "data": [
      {
        "text": "you make ",
        "userDefined": false
      },
      {
        "text": "me",
        "meta": "@sys.ignore",
        "userDefined": false
      },
      {
        "text": " laugh",
        "userDefined": false
      }
    ],
    "isTemplate": false,
    "count": 0,
    "updated": 0
  },
  {
    "id": "27597f53-b4f6-4ae5-951f-740b0c09e470",
    "data": [
      {
        "text": "you\u0027re the funniest",
        "userDefined": false
      }
    ],
    "isTemplate": false,
    "count": 3,
    "updated": 0
  },
  {
    "id": "cdc08910-141a-4cb6-8da1-6850a3cd4e68",
    "data": [
      {
        "text": "you are really funny",
        "userDefined": false
      }
    ],
    "isTemplate": false,
    "count": 0,
    "updated": 0
  }
]