[
  {
    "id": "3d4bb091-3e46-446d-8223-9cfecc7e687f",
    "data": [
      {
        "text": "you\u0027re very hungry",
        "userDefined": false
      }
    ],
    "isTemplate": false,
    "count": 1,
    "updated": 0
  },
  {
    "id": "21741090-e096-4d92-b397-0d4a711f3185",
    "data": [
      {
        "text": "you ",
        "userDefined": false
      },
      {
        "text": "are",
        "meta": "@sys.ignore",
        "userDefined": false
      },
      {
        "text": " hungry",
        "userDefined": false
      }
    ],
    "isTemplate": false,
    "count": 0,
    "updated": 0
  },
  {
    "id": "db9b3526-fe25-4c4f-bdfe-9c82b94fb6c5",
    "data": [
      {
        "text": "do you want to ",
        "userDefined": false
      },
      {
        "text": "eat",
        "meta": "@sys.ignore",
        "userDefined": false
      }
    ],
    "isTemplate": false,
    "count": 0,
    "updated": 0
  },
  {
    "id": "f055cb13-66fb-4746-9c79-af1136d12709",
    "data": [
      {
        "text": "you\u0027re so hungry",
        "userDefined": false
      }
    ],
    "isTemplate": false,
    "count": 0,
    "updated": 0
  },
  {
    "id": "d61ac6df-4f9b-49f5-881d-4ab3d510683e",
    "data": [
      {
        "text": "would you like to ",
        "userDefined": false
      },
      {
        "text": "eat",
        "meta": "@sys.ignore",
        "userDefined": false
      },
      {
        "text": " something",
        "userDefined": false
      }
    ],
    "isTemplate": false,
    "count": 0,
    "updated": 0
  },
  {
    "id": "805e73d3-b979-4cdd-bbcb-28bfcbdf9c2f",
    "data": [
      {
        "text": "are",
        "meta": "@sys.ignore",
        "userDefined": false
      },
      {
        "text": " you hungry",
        "userDefined": false
      }
    ],
    "isTemplate": false,
    "count": 0,
    "updated": 0
  },
  {
    "id": "4a3607b5-8560-433f-a79a-1e7dae55d79b",
    "data": [
      {
        "text": "you might be hungry",
        "userDefined": false
      }
    ],
    "isTemplate": false,
    "count": 0,
    "updated": 0
  },
  {
    "id": "94a35fe1-021c-472f-a006-0e8d9582e1ba",
    "data": [
      {
        "text": "you\u0027re really hungry",
        "userDefined": false
      }
    ],
    "isTemplate": false,
    "count": 0,
    "updated": 0
  }
]