[
  {
    "id": "71281354-3f99-4e4d-bcb4-0132b3e61fec",
    "data": [
      {
        "text": "be smarter",
        "userDefined": false
      }
    ],
    "isTemplate": false,
    "count": 0,
    "updated": 0
  },
  {
    "id": "e324e794-57c7-459d-9373-f1228236a8f5",
    "data": [
      {
        "text": "get",
        "meta": "@sys.ignore",
        "userDefined": true
      },
      {
        "text": " qualified",
        "userDefined": false
      }
    ],
    "isTemplate": false,
    "count": 0,
    "updated": 0
  },
  {
    "id": "85d3ac30-8c41-494f-9a9b-24c589523b76",
    "data": [
      {
        "text": "you should ",
        "userDefined": false
      },
      {
        "text": "study",
        "meta": "@sys.ignore",
        "userDefined": true
      },
      {
        "text": " better",
        "userDefined": false
      }
    ],
    "isTemplate": false,
    "count": 0,
    "updated": 0
  },
  {
    "id": "8e050027-1e23-493d-b240-d524e99cb8ac",
    "data": [
      {
        "text": "be more clever",
        "userDefined": false
      }
    ],
    "isTemplate": false,
    "count": 0,
    "updated": 0
  },
  {
    "id": "e29c9ad8-dc52-4dcc-aa63-e0a978a46198",
    "data": [
      {
        "text": "study",
        "userDefined": false
      }
    ],
    "isTemplate": false,
    "count": 0,
    "updated": 0
  },
  {
    "id": "e2140ce9-980b-4fdb-bdd6-009277b26324",
    "data": [
      {
        "text": "be ",
        "userDefined": false
      },
      {
        "text": "smart",
        "meta": "@sys.ignore",
        "userDefined": true
      }
    ],
    "isTemplate": false,
    "count": 0,
    "updated": 0
  },
  {
    "id": "ff01ed41-a784-4847-aca7-af9c7c88100e",
    "data": [
      {
        "text": "can you get smarter",
        "userDefined": false
      }
    ],
    "isTemplate": false,
    "count": 0,
    "updated": 0
  },
  {
    "id": "5aad63ca-1940-4765-b096-9fe8389b2da3",
    "data": [
      {
        "text": "be clever",
        "userDefined": false
      }
    ],
    "isTemplate": false,
    "count": 0,
    "updated": 0
  },
  {
    "id": "c37a37d7-a8b0-4f79-9e89-bb242120c060",
    "data": [
      {
        "text": "you ",
        "userDefined": false
      },
      {
        "text": "must",
        "meta": "@sys.ignore",
        "userDefined": true
      },
      {
        "text": " learn",
        "userDefined": false
      }
    ],
    "isTemplate": false,
    "count": 0,
    "updated": 0
  }
]