[
  {
    "id": "e1b1d48c-ca94-428f-a3bb-f6abd03ad77d",
    "data": [
      {
        "text": "where\u0027s your house",
        "userDefined": false
      }
    ],
    "isTemplate": false,
    "count": 0,
    "updated": 0
  },
  {
    "id": "9c251197-3c7f-4a30-bcf2-8b4a6ff03f2c",
    "data": [
      {
        "text": "in which city do you live",
        "userDefined": false
      }
    ],
    "isTemplate": false,
    "count": 0,
    "updated": 0
  },
  {
    "id": "e1dab89c-3ad2-4b93-9bc4-299e93801dd1",
    "data": [
      {
        "text": "where you live",
        "userDefined": false
      }
    ],
    "isTemplate": false,
    "count": 0,
    "updated": 0
  },
  {
    "id": "38c28a73-6bf2-4bc0-abf4-ef7cc3473eb2",
    "data": [
      {
        "text": "what\u0027s your home",
        "userDefined": false
      }
    ],
    "isTemplate": false,
    "count": 0,
    "updated": 0
  },
  {
    "id": "9d4f4faf-b6eb-4239-a402-64ef9c79f0f4",
    "data": [
      {
        "text": "tell me about your city",
        "userDefined": false
      }
    ],
    "isTemplate": false,
    "count": 0,
    "updated": 0
  },
  {
    "id": "ca78ff78-2479-4d44-b73c-e53d6c277265",
    "data": [
      {
        "text": "where do you live",
        "userDefined": false
      }
    ],
    "isTemplate": false,
    "count": 0,
    "updated": 0
  },
  {
    "id": "fd4c49c3-facf-4dc0-bc4b-ad6a3b380b1d",
    "data": [
      {
        "text": "where\u0027s your hometown",
        "userDefined": false
      }
    ],
    "isTemplate": false,
    "count": 0,
    "updated": 0
  },
  {
    "id": "e38e35f7-07ec-4bd6-8fbd-c4fdbb0d4cd8",
    "data": [
      {
        "text": "your town",
        "userDefined": false
      }
    ],
    "isTemplate": false,
    "count": 0,
    "updated": 0
  },
  {
    "id": "3e404345-cbfa-4047-ab77-2fa48ac9ddab",
    "data": [
      {
        "text": "where\u0027s your home",
        "userDefined": false
      }
    ],
    "isTemplate": false,
    "count": 0,
    "updated": 0
  },
  {
    "id": "887a6016-a444-45d7-b8b0-f23935dd2fa3",
    "data": [
      {
        "text": "where is your home",
        "userDefined": false
      }
    ],
    "isTemplate": false,
    "count": 0,
    "updated": 0
  },
  {
    "id": "b7fa940a-bb85-4c3b-920e-f77870b78790",
    "data": [
      {
        "text": "your",
        "meta": "@sys.ignore",
        "userDefined": false
      },
      {
        "text": " residence",
        "userDefined": false
      }
    ],
    "isTemplate": false,
    "count": 0,
    "updated": 0
  },
  {
    "id": "bb8f115d-f902-4bce-8b61-683a3f677fed",
    "data": [
      {
        "text": "where is your ",
        "userDefined": false
      },
      {
        "text": "hometown",
        "meta": "@sys.ignore",
        "userDefined": false
      }
    ],
    "isTemplate": false,
    "count": 0,
    "updated": 0
  },
  {
    "id": "404d5d33-9973-448c-820a-9d7d55bba34c",
    "data": [
      {
        "text": "your ",
        "userDefined": false
      },
      {
        "text": "hometown",
        "meta": "@sys.ignore",
        "userDefined": false
      }
    ],
    "isTemplate": false,
    "count": 0,
    "updated": 0
  },
  {
    "id": "f678f055-d4ad-40a4-8a6a-a0a7b17aa74c",
    "data": [
      {
        "text": "what\u0027s your city",
        "userDefined": false
      }
    ],
    "isTemplate": false,
    "count": 0,
    "updated": 0
  },
  {
    "id": "59772164-9fed-4fa9-bdb8-c44d72a5ed28",
    "data": [
      {
        "text": "what is your town",
        "userDefined": false
      }
    ],
    "isTemplate": false,
    "count": 0,
    "updated": 0
  },
  {
    "id": "9ebdca82-4a4d-404f-9b05-3f2372636cfd",
    "data": [
      {
        "text": "your city",
        "userDefined": false
      }
    ],
    "isTemplate": false,
    "count": 0,
    "updated": 0
  },
  {
    "id": "2420526f-bd49-4cb6-8c0e-557a45141bb9",
    "data": [
      {
        "text": "where is your residence",
        "userDefined": false
      }
    ],
    "isTemplate": false,
    "count": 0,
    "updated": 0
  },
  {
    "id": "75072f19-3883-4d8b-b099-987c70b44050",
    "data": [
      {
        "text": "what is your ",
        "userDefined": false
      },
      {
        "text": "hometown",
        "meta": "@sys.ignore",
        "userDefined": false
      }
    ],
    "isTemplate": false,
    "count": 0,
    "updated": 0
  },
  {
    "id": "7718cf92-87de-44d1-b5e5-77d21d33dd10",
    "data": [
      {
        "text": "your ",
        "userDefined": false
      },
      {
        "text": "home",
        "meta": "@sys.ignore",
        "userDefined": false
      }
    ],
    "isTemplate": false,
    "count": 0,
    "updated": 0
  },
  {
    "id": "a5ccbf73-4830-4fc4-b94c-0f760b3d43c8",
    "data": [
      {
        "text": "what is your residence",
        "userDefined": false
      }
    ],
    "isTemplate": false,
    "count": 0,
    "updated": 0
  },
  {
    "id": "d783dc07-8c6b-401b-9c70-c8fc587eb915",
    "data": [
      {
        "text": "is ",
        "userDefined": false
      },
      {
        "text": "it",
        "meta": "@sys.ignore",
        "userDefined": false
      },
      {
        "text": " your ",
        "userDefined": false
      },
      {
        "text": "hometown",
        "meta": "@sys.ignore",
        "userDefined": false
      }
    ],
    "isTemplate": false,
    "count": 0,
    "updated": 0
  },
  {
    "id": "b697014a-27bd-416f-93f2-d18637b92ceb",
    "data": [
      {
        "text": "your ",
        "userDefined": false
      },
      {
        "text": "house",
        "meta": "@sys.ignore",
        "userDefined": false
      }
    ],
    "isTemplate": false,
    "count": 0,
    "updated": 0
  },
  {
    "id": "1a1c89bf-e340-4298-b97b-4db2316c6416",
    "data": [
      {
        "text": "what is your city",
        "userDefined": false
      }
    ],
    "isTemplate": false,
    "count": 0,
    "updated": 0
  }
]