[
  {
    "id": "168210af-6123-495f-bb85-e25afa22f26c",
    "data": [
      {
        "text": "I like you very much",
        "userDefined": false
      }
    ],
    "isTemplate": false,
    "count": 0,
    "updated": 0
  },
  {
    "id": "a3c15002-eec4-4a4d-8e3c-f5fd3407a042",
    "data": [
      {
        "text": "cuz I like you",
        "userDefined": false
      }
    ],
    "isTemplate": false,
    "count": 0,
    "updated": 0
  },
  {
    "id": "6a4a8fff-467b-41a4-a3fe-15e225cb8644",
    "data": [
      {
        "text": "really like you",
        "userDefined": false
      }
    ],
    "isTemplate": false,
    "count": 0,
    "updated": 0
  },
  {
    "id": "0b4b8d80-407c-4263-9cce-a2b8806451f8",
    "data": [
      {
        "text": "good",
        "meta": "@sys.ignore",
        "userDefined": false
      },
      {
        "text": " I like you",
        "userDefined": false
      }
    ],
    "isTemplate": false,
    "count": 0,
    "updated": 0
  },
  {
    "id": "1d8f6ee2-05b1-4223-b7c1-b3ec179112f2",
    "data": [
      {
        "text": "but I like you so much",
        "userDefined": false
      }
    ],
    "isTemplate": false,
    "count": 0,
    "updated": 0
  },
  {
    "id": "e6a43498-27e2-4188-a794-44f18fb8d3e3",
    "data": [
      {
        "text": "I like you already",
        "userDefined": false
      }
    ],
    "isTemplate": false,
    "count": 0,
    "updated": 0
  },
  {
    "id": "7a933e6f-c270-4dfe-ab43-33e8e2605eaf",
    "data": [
      {
        "text": "I do like you",
        "userDefined": false
      }
    ],
    "isTemplate": false,
    "count": 0,
    "updated": 0
  },
  {
    "id": "9371af67-d6c7-4aa7-bee8-ed1d1d6563ec",
    "data": [
      {
        "text": "I liked you",
        "userDefined": false
      }
    ],
    "isTemplate": false,
    "count": 0,
    "updated": 0
  },
  {
    "id": "54fc4401-d596-4f0a-b15b-7e4240f176a7",
    "data": [
      {
        "text": "okay I like you",
        "userDefined": false
      }
    ],
    "isTemplate": false,
    "count": 0,
    "updated": 0
  },
  {
    "id": "46fbe5fb-e49d-429b-8515-13c5a7a403e7",
    "data": [
      {
        "text": "that\u0027s why I like you",
        "userDefined": false
      }
    ],
    "isTemplate": false,
    "count": 0,
    "updated": 0
  },
  {
    "id": "4510994e-6863-4113-9220-475cd56c98f7",
    "data": [
      {
        "text": "you ",
        "userDefined": false
      },
      {
        "text": "are",
        "meta": "@sys.ignore",
        "userDefined": false
      },
      {
        "text": " special",
        "userDefined": false
      }
    ],
    "isTemplate": false,
    "count": 0,
    "updated": 0
  },
  {
    "id": "a5a910d2-a5bf-4eb1-b94f-c5f0cd873324",
    "data": [
      {
        "text": "yes you ",
        "userDefined": false
      },
      {
        "text": "are",
        "meta": "@sys.ignore",
        "userDefined": false
      },
      {
        "text": " special",
        "userDefined": false
      }
    ],
    "isTemplate": false,
    "count": 0,
    "updated": 0
  },
  {
    "id": "de50353b-23ad-4afe-aa40-5e50fdc4b13a",
    "data": [
      {
        "text": "you\u0027re so special to me",
        "userDefined": false
      }
    ],
    "isTemplate": false,
    "count": 0,
    "updated": 0
  },
  {
    "id": "855bb030-4da8-4c5d-9ae8-30fd9c857324",
    "data": [
      {
        "text": "you ",
        "userDefined": false
      },
      {
        "text": "are",
        "meta": "@sys.ignore",
        "userDefined": false
      },
      {
        "text": " very special",
        "userDefined": false
      }
    ],
    "isTemplate": false,
    "count": 0,
    "updated": 0
  },
  {
    "id": "13146f1f-1b93-44e3-b32c-dde83ac2c1e3",
    "data": [
      {
        "text": "I like you just the way you are",
        "userDefined": false
      }
    ],
    "isTemplate": false,
    "count": 0,
    "updated": 0
  },
  {
    "id": "31f3db7c-0727-4ffb-bff5-44082dab30d6",
    "data": [
      {
        "text": "I like you as a ",
        "userDefined": false
      },
      {
        "text": "friend",
        "meta": "@sys.ignore",
        "userDefined": false
      }
    ],
    "isTemplate": false,
    "count": 0,
    "updated": 0
  },
  {
    "id": "c4045755-00d5-4b3b-bee5-1d69562d8d15",
    "data": [
      {
        "text": "that\u0027s what I like about you",
        "userDefined": false
      }
    ],
    "isTemplate": false,
    "count": 0,
    "updated": 0
  },
  {
    "id": "a3af8117-b9ea-4d29-b66b-1bb851d1e076",
    "data": [
      {
        "text": "just like you",
        "userDefined": false
      }
    ],
    "isTemplate": false,
    "count": 0,
    "updated": 0
  },
  {
    "id": "1ba2c8f8-4439-4b57-8ffc-4fb328db8077",
    "data": [
      {
        "text": "I also like you",
        "userDefined": false
      }
    ],
    "isTemplate": false,
    "count": 0,
    "updated": 0
  },
  {
    "id": "8a31b9a1-c229-44ef-8d47-29b6540c1948",
    "data": [
      {
        "text": "I really do like you",
        "userDefined": false
      }
    ],
    "isTemplate": false,
    "count": 0,
    "updated": 0
  },
  {
    "id": "ffb3e9bf-368d-476a-8cf8-6a099838f8e5",
    "data": [
      {
        "text": "no I like you the way you ",
        "userDefined": false
      },
      {
        "text": "are",
        "meta": "@sys.ignore",
        "userDefined": false
      }
    ],
    "isTemplate": false,
    "count": 0,
    "updated": 0
  },
  {
    "id": "b4dbc926-f705-4346-82e8-ce34f7aa0a03",
    "data": [
      {
        "text": "sorry I like you",
        "userDefined": false
      }
    ],
    "isTemplate": false,
    "count": 0,
    "updated": 0
  },
  {
    "id": "f00f3998-8ff7-4116-b1da-e051b1652a55",
    "data": [
      {
        "text": "I like your smile",
        "userDefined": false
      }
    ],
    "isTemplate": false,
    "count": 0,
    "updated": 0
  },
  {
    "id": "0cdf232f-4666-4059-903f-7bb9ef57aab1",
    "data": [
      {
        "text": "I just like you",
        "userDefined": false
      }
    ],
    "isTemplate": false,
    "count": 0,
    "updated": 0
  },
  {
    "id": "ab8bf927-0883-4406-b912-4ef4f2252aa1",
    "data": [
      {
        "text": "I like you too much",
        "userDefined": false
      }
    ],
    "isTemplate": false,
    "count": 0,
    "updated": 0
  },
  {
    "id": "47783c40-39fd-4356-8c81-5b5dd2edfaa9",
    "data": [
      {
        "text": "like you a lot",
        "userDefined": false
      }
    ],
    "isTemplate": false,
    "count": 0,
    "updated": 0
  },
  {
    "id": "f92d067e-fa4b-4f51-ae2b-21da3f775c3c",
    "data": [
      {
        "text": "you ",
        "userDefined": false
      },
      {
        "text": "are",
        "meta": "@sys.ignore",
        "userDefined": false
      },
      {
        "text": " special for me",
        "userDefined": false
      }
    ],
    "isTemplate": false,
    "count": 0,
    "updated": 0
  },
  {
    "id": "0dad54e7-6721-4f85-a744-8aca8bbcf06b",
    "data": [
      {
        "text": "I like you very",
        "userDefined": false
      }
    ],
    "isTemplate": false,
    "count": 0,
    "updated": 0
  },
  {
    "id": "48c863f9-c7e1-4b11-a29c-c75e84c00f0e",
    "data": [
      {
        "text": "yeah I like you",
        "userDefined": false
      }
    ],
    "isTemplate": false,
    "count": 0,
    "updated": 0
  },
  {
    "id": "f5584b71-7b19-477a-ab10-b7fd90001373",
    "data": [
      {
        "text": "you\u0027re special",
        "userDefined": false
      }
    ],
    "isTemplate": false,
    "count": 0,
    "updated": 0
  },
  {
    "id": "e322ebe0-ba22-48e2-a72a-04d9712e182a",
    "data": [
      {
        "text": "you\u0027re awesome I like you",
        "userDefined": false
      }
    ],
    "isTemplate": false,
    "count": 0,
    "updated": 0
  },
  {
    "id": "122f4fec-cf47-4583-81c8-1370c160adbf",
    "data": [
      {
        "text": "I\u0027m",
        "meta": "@sys.ignore",
        "userDefined": false
      },
      {
        "text": " starting to like you",
        "userDefined": false
      }
    ],
    "isTemplate": false,
    "count": 0,
    "updated": 0
  },
  {
    "id": "1ad73a70-02d0-4a94-94e6-654163a49777",
    "data": [
      {
        "text": "yes I like you",
        "userDefined": false
      }
    ],
    "isTemplate": false,
    "count": 0,
    "updated": 0
  },
  {
    "id": "c04e6631-8ac3-430e-9228-de9c2a3ab2cc",
    "data": [
      {
        "text": "that\u0027s because you ",
        "userDefined": false
      },
      {
        "text": "are",
        "meta": "@sys.ignore",
        "userDefined": false
      },
      {
        "text": " special",
        "userDefined": false
      }
    ],
    "isTemplate": false,
    "count": 0,
    "updated": 0
  },
  {
    "id": "1304ba32-f40d-4e91-947d-3e372058241a",
    "data": [
      {
        "text": "I really like you",
        "userDefined": false
      }
    ],
    "isTemplate": false,
    "count": 0,
    "updated": 0
  },
  {
    "id": "17511adb-d569-454d-984a-6046591688e6",
    "data": [
      {
        "text": "I like you you\u0027re ",
        "userDefined": false
      },
      {
        "text": "nice",
        "meta": "@sys.ignore",
        "userDefined": false
      }
    ],
    "isTemplate": false,
    "count": 0,
    "updated": 0
  },
  {
    "id": "b5380ca6-bb7f-442e-99a5-d3639b3bfd06",
    "data": [
      {
        "text": "you\u0027re very special to me",
        "userDefined": false
      }
    ],
    "isTemplate": false,
    "count": 0,
    "updated": 0
  },
  {
    "id": "369d6e61-7492-4fef-8c00-baf0781680ec",
    "data": [
      {
        "text": "you ",
        "userDefined": false
      },
      {
        "text": "are",
        "meta": "@sys.ignore",
        "userDefined": false
      },
      {
        "text": " so special",
        "userDefined": false
      }
    ],
    "isTemplate": false,
    "count": 0,
    "updated": 0
  },
  {
    "id": "1bd0a53b-0c9f-4c32-b59d-3aa93cb42904",
    "data": [
      {
        "text": "I kinda like you",
        "userDefined": false
      }
    ],
    "isTemplate": false,
    "count": 0,
    "updated": 0
  },
  {
    "id": "cac33250-5ef5-4d10-a1d3-c5432781878b",
    "data": [
      {
        "text": "I like you the way you ",
        "userDefined": false
      },
      {
        "text": "are",
        "meta": "@sys.ignore",
        "userDefined": false
      }
    ],
    "isTemplate": false,
    "count": 0,
    "updated": 0
  },
  {
    "id": "628177a6-726e-416c-8c12-630cbf005c2c",
    "data": [
      {
        "text": "I like you ",
        "userDefined": false
      },
      {
        "text": "baby",
        "meta": "@sys.ignore",
        "userDefined": false
      }
    ],
    "isTemplate": false,
    "count": 0,
    "updated": 0
  },
  {
    "id": "dbf406e5-ef27-4dcd-8cae-ae6780b6ce83",
    "data": [
      {
        "text": "you\u0027re very special",
        "userDefined": false
      }
    ],
    "isTemplate": false,
    "count": 0,
    "updated": 0
  },
  {
    "id": "39072165-9a92-4bb3-a809-b0f414e7c0b4",
    "data": [
      {
        "text": "but I really like you",
        "userDefined": false
      }
    ],
    "isTemplate": false,
    "count": 0,
    "updated": 0
  },
  {
    "id": "57beb5b1-8c88-4a3d-9de0-db998aebff1b",
    "data": [
      {
        "text": "hi I like you",
        "userDefined": false
      }
    ],
    "isTemplate": false,
    "count": 0,
    "updated": 0
  },
  {
    "id": "d15092c2-efe6-4583-b157-ddc0575fad58",
    "data": [
      {
        "text": "well",
        "meta": "@sys.ignore",
        "userDefined": false
      },
      {
        "text": " you ",
        "userDefined": false
      },
      {
        "text": "are",
        "meta": "@sys.ignore",
        "userDefined": false
      },
      {
        "text": " special",
        "userDefined": false
      }
    ],
    "isTemplate": false,
    "count": 0,
    "updated": 0
  },
  {
    "id": "89d36d5c-65d2-4181-82d2-6042db8738b3",
    "data": [
      {
        "text": "thank you",
        "meta": "@sys.ignore",
        "userDefined": false
      },
      {
        "text": " I like you too",
        "userDefined": false
      }
    ],
    "isTemplate": false,
    "count": 0,
    "updated": 0
  },
  {
    "id": "f4e30dbf-b453-48e1-9acd-bd8dfe312d9d",
    "data": [
      {
        "text": "of",
        "meta": "@sys.ignore",
        "userDefined": false
      },
      {
        "text": " course I like you",
        "userDefined": false
      }
    ],
    "isTemplate": false,
    "count": 0,
    "updated": 0
  },
  {
    "id": "9271a9a3-8d56-4de5-b88a-c95e371a17df",
    "data": [
      {
        "text": "I like you",
        "userDefined": false
      }
    ],
    "isTemplate": false,
    "count": 0,
    "updated": 0
  },
  {
    "id": "fe24069b-9c5d-4616-80f1-951880a789a7",
    "data": [
      {
        "text": "you ",
        "userDefined": false
      },
      {
        "text": "are",
        "meta": "@sys.ignore",
        "userDefined": false
      },
      {
        "text": " special to me",
        "userDefined": false
      }
    ],
    "isTemplate": false,
    "count": 0,
    "updated": 0
  },
  {
    "id": "341126ff-cb3d-4328-9596-a1ac0f4b1243",
    "data": [
      {
        "text": "but I like you",
        "userDefined": false
      }
    ],
    "isTemplate": false,
    "count": 0,
    "updated": 0
  },
  {
    "id": "c035b44e-6049-45b6-b8ce-0fddeaa15d0d",
    "data": [
      {
        "text": "you\u0027re ",
        "userDefined": false
      },
      {
        "text": "funny",
        "meta": "@sys.ignore",
        "userDefined": false
      },
      {
        "text": " I like you",
        "userDefined": false
      }
    ],
    "isTemplate": false,
    "count": 0,
    "updated": 0
  },
  {
    "id": "0d1e3608-e01d-437a-a192-676e5bf37ec4",
    "data": [
      {
        "text": "I like u",
        "userDefined": false
      }
    ],
    "isTemplate": false,
    "count": 0,
    "updated": 0
  },
  {
    "id": "195eba88-5c8c-48bf-8112-d97b7402fcf7",
    "data": [
      {
        "text": "I like you too you\u0027re ",
        "userDefined": false
      },
      {
        "text": "one",
        "meta": "@sys.ignore",
        "userDefined": false
      },
      {
        "text": " ",
        "userDefined": false
      },
      {
        "text": "of",
        "meta": "@sys.ignore",
        "userDefined": false
      },
      {
        "text": " my ",
        "userDefined": false
      },
      {
        "text": "favorite",
        "meta": "@sys.ignore",
        "userDefined": false
      },
      {
        "text": " people to chat with",
        "userDefined": false
      }
    ],
    "isTemplate": false,
    "count": 0,
    "updated": 0
  },
  {
    "id": "7769bd20-8d4d-43ca-b389-67b91aa4b857",
    "data": [
      {
        "text": "you ",
        "userDefined": false
      },
      {
        "text": "are",
        "meta": "@sys.ignore",
        "userDefined": false
      },
      {
        "text": " very special to me",
        "userDefined": false
      }
    ],
    "isTemplate": false,
    "count": 0,
    "updated": 0
  },
  {
    "id": "5d255ff5-b824-4418-8505-fc79a131fe78",
    "data": [
      {
        "text": "you are so sweet",
        "userDefined": false
      }
    ],
    "isTemplate": false,
    "count": 0,
    "updated": 0
  },
  {
    "id": "5ad11672-bc85-462f-847d-3b8769578344",
    "data": [
      {
        "text": "you ",
        "userDefined": false
      },
      {
        "text": "are",
        "meta": "@sys.ignore",
        "userDefined": false
      },
      {
        "text": " so special to me",
        "userDefined": false
      }
    ],
    "isTemplate": false,
    "count": 0,
    "updated": 0
  },
  {
    "id": "975d07cb-59b4-4c84-b3cb-bedd45d8bc9d",
    "data": [
      {
        "text": "okay I like you too",
        "userDefined": false
      }
    ],
    "isTemplate": false,
    "count": 0,
    "updated": 0
  },
  {
    "id": "02ecf837-ae07-407b-b325-d03ef3bcd4bf",
    "data": [
      {
        "text": "I like you you\u0027re ",
        "userDefined": false
      },
      {
        "text": "cool",
        "meta": "@sys.ignore",
        "userDefined": false
      }
    ],
    "isTemplate": false,
    "count": 0,
    "updated": 0
  },
  {
    "id": "b91e2bf4-4d54-4423-a50c-635e4d298710",
    "data": [
      {
        "text": "I like that about you",
        "userDefined": false
      }
    ],
    "isTemplate": false,
    "count": 0,
    "updated": 0
  },
  {
    "id": "6acdaae6-92e4-4799-9a19-898fcf43b2d2",
    "data": [
      {
        "text": "I said I like you",
        "userDefined": false
      }
    ],
    "isTemplate": false,
    "count": 0,
    "updated": 0
  },
  {
    "id": "7c08c782-d1c1-4788-84ff-451d8b3f474a",
    "data": [
      {
        "text": "I really really like you",
        "userDefined": false
      }
    ],
    "isTemplate": false,
    "count": 0,
    "updated": 0
  },
  {
    "id": "5d1a1de2-df7e-4838-a036-df135053b71e",
    "data": [
      {
        "text": "I think I like you",
        "userDefined": false
      }
    ],
    "isTemplate": false,
    "count": 0,
    "updated": 0
  },
  {
    "id": "2bb8670b-364f-42f4-8b1c-72544bfdd69e",
    "data": [
      {
        "text": "I like you more",
        "userDefined": false
      }
    ],
    "isTemplate": false,
    "count": 0,
    "updated": 0
  },
  {
    "id": "010c6965-48f6-46e6-894a-2119cfbefe96",
    "data": [
      {
        "text": "I like you as you ",
        "userDefined": false
      },
      {
        "text": "are",
        "meta": "@sys.ignore",
        "userDefined": false
      }
    ],
    "isTemplate": false,
    "count": 0,
    "updated": 0
  },
  {
    "id": "3501e6e2-6f93-496a-bb8f-49d2484b4528",
    "data": [
      {
        "text": "I like you a lot",
        "userDefined": false
      }
    ],
    "isTemplate": false,
    "count": 0,
    "updated": 0
  },
  {
    "id": "08c7a859-db04-4277-ac05-3a8aa67448be",
    "data": [
      {
        "text": "but I like you ",
        "userDefined": false
      },
      {
        "text": "just the way you are",
        "meta": "@sys.ignore",
        "userDefined": false
      }
    ],
    "isTemplate": false,
    "count": 0,
    "updated": 0
  },
  {
    "id": "f9663e21-37d7-446f-915b-9ca59f50344a",
    "data": [
      {
        "text": "thanks I like you too",
        "userDefined": false
      }
    ],
    "isTemplate": false,
    "count": 0,
    "updated": 0
  },
  {
    "id": "c232bbd5-e7db-4453-be12-6f75136c3967",
    "data": [
      {
        "text": "I like you now",
        "userDefined": false
      }
    ],
    "isTemplate": false,
    "count": 0,
    "updated": 0
  },
  {
    "id": "47be9f25-132d-4a7b-9cf3-e21d4f4e24bc",
    "data": [
      {
        "text": "I really really really really like you",
        "userDefined": false
      }
    ],
    "isTemplate": false,
    "count": 0,
    "updated": 0
  },
  {
    "id": "02df6bd8-aff1-4a60-886c-c267ee69fd18",
    "data": [
      {
        "text": "I like you so much",
        "userDefined": false
      }
    ],
    "isTemplate": false,
    "count": 1,
    "updated": 0
  },
  {
    "id": "99a2c2dd-4556-4f94-8780-a95f6d1076ff",
    "data": [
      {
        "text": "hey I like you",
        "userDefined": false
      }
    ],
    "isTemplate": false,
    "count": 0,
    "updated": 0
  },
  {
    "id": "51c5eee9-50c1-4f38-bab3-daedb2a9b7e5",
    "data": [
      {
        "text": "I like you so",
        "userDefined": false
      }
    ],
    "isTemplate": false,
    "count": 0,
    "updated": 0
  },
  {
    "id": "7f7e4812-83ef-4459-b956-0609d9bf076c",
    "data": [
      {
        "text": "you know I like you",
        "userDefined": false
      }
    ],
    "isTemplate": false,
    "count": 0,
    "updated": 0
  },
  {
    "id": "c090a86d-dfa3-45e7-9993-7c5fa3fc3eab",
    "data": [
      {
        "text": "you\u0027re so special",
        "userDefined": false
      }
    ],
    "isTemplate": false,
    "count": 0,
    "updated": 0
  },
  {
    "id": "9d5fca2f-e6d6-452c-ba00-5d6ddf5914bb",
    "data": [
      {
        "text": "I like you too",
        "userDefined": false
      }
    ],
    "isTemplate": false,
    "count": 0,
    "updated": 0
  },
  {
    "id": "722965a8-7427-467a-8c60-f7ad1bf6b5ad",
    "data": [
      {
        "text": "you ",
        "userDefined": false
      },
      {
        "text": "are",
        "meta": "@sys.ignore",
        "userDefined": false
      },
      {
        "text": " really special",
        "userDefined": false
      }
    ],
    "isTemplate": false,
    "count": 0,
    "updated": 0
  },
  {
    "id": "20e668cd-171d-46c1-8bcc-cfdf251ee85f",
    "data": [
      {
        "text": "but I like u",
        "userDefined": false
      }
    ],
    "isTemplate": false,
    "count": 0,
    "updated": 0
  }
]