[
  {
    "id": "70435226-300a-4d1a-8de2-3d8a187fd2cb",
    "data": [
      {
        "text": "you\u0027re incredibly annoying",
        "userDefined": false
      }
    ],
    "isTemplate": false,
    "count": 0,
    "updated": 0
  },
  {
    "id": "12c0071e-ef61-4b00-91d6-fc1d4424bbc5",
    "data": [
      {
        "text": "you are such annoying",
        "userDefined": false
      }
    ],
    "isTemplate": false,
    "count": 0,
    "updated": 0
  },
  {
    "id": "dafd3fb3-86a9-40cb-8abf-c309bab9a80f",
    "data": [
      {
        "text": "you are very annoying",
        "userDefined": false
      }
    ],
    "isTemplate": false,
    "count": 0,
    "updated": 0
  },
  {
    "id": "af21ef87-d010-4c43-b6ea-7dc46aae2fe8",
    "data": [
      {
        "text": "how annoying you ",
        "userDefined": false
      },
      {
        "text": "are",
        "meta": "@sys.ignore",
        "userDefined": false
      }
    ],
    "isTemplate": false,
    "count": 0,
    "updated": 0
  },
  {
    "id": "487a6951-b621-44fb-9994-6a7f4a862f3c",
    "data": [
      {
        "text": "you are irritating",
        "userDefined": false
      }
    ],
    "isTemplate": false,
    "count": 0,
    "updated": 0
  },
  {
    "id": "6e7465b0-4a39-4385-a3da-21d210bbef03",
    "data": [
      {
        "text": "you are annoying me",
        "userDefined": false
      }
    ],
    "isTemplate": false,
    "count": 0,
    "updated": 0
  },
  {
    "id": "e7c762d7-57eb-44d2-9d6f-2e234b7f98c7",
    "data": [
      {
        "text": "you\u0027re too annoying",
        "userDefined": false
      }
    ],
    "isTemplate": false,
    "count": 0,
    "updated": 0
  },
  {
    "id": "415fbc5d-d8ea-4625-80b7-5be498f90543",
    "data": [
      {
        "text": "you ",
        "userDefined": false
      },
      {
        "text": "are",
        "meta": "@sys.ignore",
        "userDefined": false
      },
      {
        "text": " annoying",
        "userDefined": false
      }
    ],
    "isTemplate": false,
    "count": 0,
    "updated": 0
  },
  {
    "id": "47925946-3cf5-4657-8f10-7f0526f3540a",
    "data": [
      {
        "text": "you annoy me",
        "userDefined": false
      }
    ],
    "isTemplate": false,
    "count": 0,
    "updated": 0
  },
  {
    "id": "b7a32f61-5b69-4952-b13f-31eab3708e43",
    "data": [
      {
        "text": "I find you annoying",
        "userDefined": false
      }
    ],
    "isTemplate": false,
    "count": 0,
    "updated": 0
  },
  {
    "id": "941211db-39b6-42e5-9561-e695b981faa4",
    "data": [
      {
        "text": "you are annoying me so much",
        "userDefined": false
      }
    ],
    "isTemplate": false,
    "count": 0,
    "updated": 0
  },
  {
    "id": "58be3c40-6aef-4d3c-b7a4-6ab5356a0d49",
    "data": [
      {
        "text": "you\u0027re so annoying",
        "userDefined": false
      }
    ],
    "isTemplate": false,
    "count": 0,
    "updated": 0
  }
]