[
  {
    "id": "4e416a54-b4e2-4d26-91db-c7bf2ab0a3b6",
    "data": [
      {
        "text": "miss",
        "meta": "@sys.ignore",
        "userDefined": false
      },
      {
        "text": " you",
        "userDefined": false
      }
    ],
    "isTemplate": false,
    "count": 0,
    "updated": 0
  },
  {
    "id": "3e0ecea7-7487-402f-80fe-94c4c8ab02f2",
    "data": [
      {
        "text": "I ",
        "userDefined": false
      },
      {
        "text": "miss",
        "meta": "@sys.ignore",
        "userDefined": false
      },
      {
        "text": " you much",
        "userDefined": false
      }
    ],
    "isTemplate": false,
    "count": 0,
    "updated": 0
  },
  {
    "id": "02409d75-a288-4ea3-abe2-fe5d0aa673cb",
    "data": [
      {
        "text": "I\u0027ve ",
        "userDefined": false
      },
      {
        "text": "missed",
        "meta": "@sys.ignore",
        "userDefined": false
      },
      {
        "text": " you",
        "userDefined": false
      }
    ],
    "isTemplate": false,
    "count": 0,
    "updated": 0
  },
  {
    "id": "9984763d-18ea-49e8-b473-fb6af467f462",
    "data": [
      {
        "text": "already ",
        "userDefined": false
      },
      {
        "text": "miss",
        "meta": "@sys.ignore",
        "userDefined": false
      },
      {
        "text": " you",
        "userDefined": false
      }
    ],
    "isTemplate": false,
    "count": 0,
    "updated": 0
  },
  {
    "id": "b7687a1f-8d4e-4773-9c13-d83e77e44ef9",
    "data": [
      {
        "text": "I ",
        "userDefined": false
      },
      {
        "text": "miss",
        "meta": "@sys.ignore",
        "userDefined": false
      },
      {
        "text": " you",
        "userDefined": false
      }
    ],
    "isTemplate": false,
    "count": 0,
    "updated": 0
  },
  {
    "id": "8537e23c-5ab0-45a7-be5b-0edae4b517f3",
    "data": [
      {
        "text": "I ",
        "userDefined": false
      },
      {
        "text": "missed",
        "meta": "@sys.ignore",
        "userDefined": false
      },
      {
        "text": " you",
        "userDefined": false
      }
    ],
    "isTemplate": false,
    "count": 0,
    "updated": 0
  },
  {
    "id": "221499df-156d-486e-8e7a-30bc63ec39b5",
    "data": [
      {
        "text": "missing you",
        "userDefined": false
      }
    ],
    "isTemplate": false,
    "count": 0,
    "updated": 0
  }
]