[
  {
    "id": "a77dbe7b-e0d2-4835-9ef1-f2e30f1708ab",
    "data": [
      {
        "text": "tell me some stuff about you",
        "userDefined": false
      }
    ],
    "isTemplate": false,
    "count": 0,
    "updated": 0
  },
  {
    "id": "b0de9072-d9a2-40e9-8146-65a70b8fb788",
    "data": [
      {
        "text": "tell me about you",
        "userDefined": false
      }
    ],
    "isTemplate": false,
    "count": 1,
    "updated": 0
  },
  {
    "id": "be0db6ad-82ca-4f8a-ac07-63f7abafe08a",
    "data": [
      {
        "text": "say about you",
        "userDefined": false
      }
    ],
    "isTemplate": false,
    "count": 0,
    "updated": 0
  },
  {
    "id": "ab5507d5-b238-4285-b3db-af5dca60ee50",
    "data": [
      {
        "text": "tell me about your personality",
        "userDefined": false
      }
    ],
    "isTemplate": false,
    "count": 0,
    "updated": 0
  },
  {
    "id": "ecdbc007-fb6d-46bd-91f1-5cbe80970eb3",
    "data": [
      {
        "text": "talk about ",
        "userDefined": false
      },
      {
        "text": "yourself",
        "meta": "@sys.ignore",
        "userDefined": true
      }
    ],
    "isTemplate": false,
    "count": 0,
    "updated": 0
  },
  {
    "id": "adcd9929-2050-4f4a-aa8f-f095d295c3be",
    "data": [
      {
        "text": "talk some stuff about ",
        "userDefined": false
      },
      {
        "text": "yourself",
        "meta": "@sys.ignore",
        "userDefined": true
      }
    ],
    "isTemplate": false,
    "count": 0,
    "updated": 0
  },
  {
    "id": "c8e5d6be-064e-4bb7-ba41-ec042950d520",
    "data": [
      {
        "text": "what are you",
        "userDefined": false
      }
    ],
    "isTemplate": false,
    "count": 0,
    "updated": 0
  },
  {
    "id": "c4d6151c-ed3c-496b-b823-f4bd93a853ea",
    "data": [
      {
        "text": "define yourself",
        "userDefined": false
      }
    ],
    "isTemplate": false,
    "count": 1,
    "updated": 0
  },
  {
    "id": "e5038b03-9f0b-4800-8f85-9f9c650b20fa",
    "data": [
      {
        "text": "I want to know you better",
        "userDefined": false
      }
    ],
    "isTemplate": false,
    "count": 0,
    "updated": 0
  },
  {
    "id": "1130804e-dbc6-47f9-8a81-84ca119a8a2a",
    "data": [
      {
        "text": "tell me about yourself",
        "userDefined": false
      }
    ],
    "isTemplate": false,
    "count": 1,
    "updated": 0
  },
  {
    "id": "a0307da9-62ca-4e41-af0e-6d280e1cfe81",
    "data": [
      {
        "text": "what is your personality",
        "userDefined": false
      }
    ],
    "isTemplate": false,
    "count": 0,
    "updated": 0
  },
  {
    "id": "06d2f08e-aae2-4407-a265-fda0387146f1",
    "data": [
      {
        "text": "who are you",
        "userDefined": false
      }
    ],
    "isTemplate": false,
    "count": 1,
    "updated": 0
  },
  {
    "id": "89b74176-bb27-474a-a83c-328162e46851",
    "data": [
      {
        "text": "about yourself",
        "userDefined": false
      }
    ],
    "isTemplate": false,
    "count": 0,
    "updated": 0
  },
  {
    "id": "fd13c93d-36b2-44e5-b119-9fd616d68dca",
    "data": [
      {
        "text": "why ",
        "userDefined": false
      },
      {
        "text": "are",
        "meta": "@sys.ignore",
        "userDefined": true
      },
      {
        "text": " you ",
        "userDefined": false
      },
      {
        "text": "here",
        "meta": "@sys.ignore",
        "userDefined": true
      }
    ],
    "isTemplate": false,
    "count": 0,
    "updated": 0
  },
  {
    "id": "6af7701a-571b-40da-b3db-ac17d130bf8b",
    "data": [
      {
        "text": "all",
        "meta": "@sys.ignore",
        "userDefined": true
      },
      {
        "text": " ",
        "userDefined": false
      },
      {
        "text": "about",
        "meta": "@sys.ignore",
        "userDefined": true
      },
      {
        "text": " you",
        "userDefined": false
      }
    ],
    "isTemplate": false,
    "count": 0,
    "updated": 0
  },
  {
    "id": "8c230215-70bc-479b-8568-ca87276f472c",
    "data": [
      {
        "text": "introduce yourself",
        "userDefined": false
      }
    ],
    "isTemplate": false,
    "count": 0,
    "updated": 0
  },
  {
    "id": "81b20ced-3337-4910-9347-29829161db96",
    "data": [
      {
        "text": "describe yourself",
        "userDefined": false
      }
    ],
    "isTemplate": false,
    "count": 0,
    "updated": 0
  },
  {
    "id": "9d1c7db7-b9de-4904-9ecd-3e73ab480e87",
    "data": [
      {
        "text": "I want to know more about you",
        "userDefined": false
      }
    ],
    "isTemplate": false,
    "count": 0,
    "updated": 0
  }
]