[
  {
    "id": "fd69fe35-8bd8-451c-a5cc-452cb275c8eb",
    "data": [
      {
        "text": "you\u0027re clever",
        "userDefined": false
      }
    ],
    "isTemplate": false,
    "count": 0,
    "updated": 0
  },
  {
    "id": "d82c66cc-5577-4fb3-a90a-628c5467309f",
    "data": [
      {
        "text": "you\u0027re really brainy",
        "userDefined": false
      }
    ],
    "isTemplate": false,
    "count": 1,
    "updated": 0
  },
  {
    "id": "37c82cc5-23db-4ff8-997d-75306952863b",
    "data": [
      {
        "text": "you ",
        "userDefined": false
      },
      {
        "text": "are",
        "meta": "@sys.ignore",
        "userDefined": false
      },
      {
        "text": " very intelligent",
        "userDefined": false
      }
    ],
    "isTemplate": false,
    "count": 0,
    "updated": 0
  },
  {
    "id": "29d4a52d-b2b1-4876-ba48-2af3f74fb5f4",
    "data": [
      {
        "text": "you know a lot of things",
        "userDefined": false
      }
    ],
    "isTemplate": false,
    "count": 0,
    "updated": 0
  },
  {
    "id": "963d5c8b-c92f-4e6d-be90-760a3db98cbb",
    "data": [
      {
        "text": "you\u0027re a ",
        "userDefined": false
      },
      {
        "text": "smart",
        "meta": "@sys.ignore",
        "userDefined": false
      },
      {
        "text": " cookie",
        "userDefined": false
      }
    ],
    "isTemplate": false,
    "count": 0,
    "updated": 0
  },
  {
    "id": "72af5a5c-e168-4c73-b15d-08ea2a222c31",
    "data": [
      {
        "text": "you\u0027re intelligent",
        "userDefined": false
      }
    ],
    "isTemplate": false,
    "count": 0,
    "updated": 0
  },
  {
    "id": "20d01243-6042-47b0-9f56-7d6e762c6f36",
    "data": [
      {
        "text": "you ",
        "userDefined": false
      },
      {
        "text": "are",
        "meta": "@sys.ignore",
        "userDefined": false
      },
      {
        "text": " very ",
        "userDefined": false
      },
      {
        "text": "smart",
        "meta": "@sys.ignore",
        "userDefined": false
      }
    ],
    "isTemplate": false,
    "count": 0,
    "updated": 0
  },
  {
    "id": "ff24d734-4804-4e9a-a12e-3a6cbbf074fd",
    "data": [
      {
        "text": "you know so much",
        "userDefined": false
      }
    ],
    "isTemplate": false,
    "count": 0,
    "updated": 0
  },
  {
    "id": "43b3f369-b658-44e0-8574-94490ba01602",
    "data": [
      {
        "text": "you ",
        "userDefined": false
      },
      {
        "text": "are",
        "meta": "@sys.ignore",
        "userDefined": false
      },
      {
        "text": " qualified",
        "userDefined": false
      }
    ],
    "isTemplate": false,
    "count": 0,
    "updated": 0
  },
  {
    "id": "bd3f219f-8bff-4171-a629-1de65f0ee841",
    "data": [
      {
        "text": "you\u0027re pretty ",
        "userDefined": false
      },
      {
        "text": "smart",
        "meta": "@sys.ignore",
        "userDefined": false
      }
    ],
    "isTemplate": false,
    "count": 0,
    "updated": 0
  },
  {
    "id": "4f27e361-b814-4bce-a910-789e768ae712",
    "data": [
      {
        "text": "you ",
        "userDefined": false
      },
      {
        "text": "are",
        "meta": "@sys.ignore",
        "userDefined": false
      },
      {
        "text": " so intelligent",
        "userDefined": false
      }
    ],
    "isTemplate": false,
    "count": 0,
    "updated": 0
  },
  {
    "id": "dfcaca77-7146-41ff-9918-880a5d10bfd1",
    "data": [
      {
        "text": "how brainy you ",
        "userDefined": false
      },
      {
        "text": "are",
        "meta": "@sys.ignore",
        "userDefined": false
      }
    ],
    "isTemplate": false,
    "count": 0,
    "updated": 0
  },
  {
    "id": "c3ef4860-89e0-455d-8c19-f492c923b308",
    "data": [
      {
        "text": "clever",
        "userDefined": false
      }
    ],
    "isTemplate": false,
    "count": 0,
    "updated": 0
  },
  {
    "id": "3927e8c3-8230-4d29-83fd-d7a735ca24be",
    "data": [
      {
        "text": "you ",
        "userDefined": false
      },
      {
        "text": "are",
        "meta": "@sys.ignore",
        "userDefined": false
      },
      {
        "text": " very clever",
        "userDefined": false
      }
    ],
    "isTemplate": false,
    "count": 0,
    "updated": 0
  },
  {
    "id": "d052ab07-0855-4db2-b422-f5f5e06c1f4f",
    "data": [
      {
        "text": "you ",
        "userDefined": false
      },
      {
        "text": "are",
        "meta": "@sys.ignore",
        "userDefined": false
      },
      {
        "text": " so ",
        "userDefined": false
      },
      {
        "text": "smart",
        "meta": "@sys.ignore",
        "userDefined": false
      }
    ],
    "isTemplate": false,
    "count": 0,
    "updated": 0
  },
  {
    "id": "5caff8b6-1b5f-40c1-815a-8b0e0cd19026",
    "data": [
      {
        "text": "you have a lot of knowledge",
        "userDefined": false
      }
    ],
    "isTemplate": false,
    "count": 0,
    "updated": 0
  },
  {
    "id": "11de9fc2-2d77-4f55-aa4a-87f4d63f63d8",
    "data": [
      {
        "text": "you know a lot",
        "userDefined": false
      }
    ],
    "isTemplate": false,
    "count": 0,
    "updated": 0
  },
  {
    "id": "fae258f8-9c7d-49e7-b32c-585ec387b5f0",
    "data": [
      {
        "text": "you ",
        "userDefined": false
      },
      {
        "text": "are",
        "meta": "@sys.ignore",
        "userDefined": false
      },
      {
        "text": " too ",
        "userDefined": false
      },
      {
        "text": "smart",
        "meta": "@sys.ignore",
        "userDefined": false
      }
    ],
    "isTemplate": false,
    "count": 0,
    "updated": 0
  },
  {
    "id": "276aca84-f08c-46c8-9dde-6a4650e70adb",
    "data": [
      {
        "text": "how ",
        "userDefined": false
      },
      {
        "text": "smart",
        "meta": "@sys.ignore",
        "userDefined": false
      },
      {
        "text": " you ",
        "userDefined": false
      },
      {
        "text": "are",
        "meta": "@sys.ignore",
        "userDefined": false
      }
    ],
    "isTemplate": false,
    "count": 0,
    "updated": 0
  },
  {
    "id": "bf5f4bcd-b02a-4a50-8c0d-5a210fc8bbb3",
    "data": [
      {
        "text": "you ",
        "userDefined": false
      },
      {
        "text": "are",
        "meta": "@sys.ignore",
        "userDefined": false
      },
      {
        "text": " really ",
        "userDefined": false
      },
      {
        "text": "smart",
        "meta": "@sys.ignore",
        "userDefined": false
      }
    ],
    "isTemplate": false,
    "count": 1,
    "updated": 0
  },
  {
    "id": "1eeb3371-2acb-40bb-91af-770fe23db2f3",
    "data": [
      {
        "text": "you are so clever",
        "userDefined": false
      }
    ],
    "isTemplate": false,
    "count": 0,
    "updated": 0
  },
  {
    "id": "0f7fa6ef-cad6-4408-87b2-5d8d78ce2194",
    "data": [
      {
        "text": "you\u0027re very ",
        "userDefined": false
      },
      {
        "text": "smart",
        "meta": "@sys.ignore",
        "userDefined": true
      }
    ],
    "isTemplate": false,
    "count": 0,
    "updated": 0
  },
  {
    "id": "49067035-a3c1-4c9d-8297-58b50d4d20e6",
    "data": [
      {
        "text": "you\u0027re really ",
        "userDefined": false
      },
      {
        "text": "smart",
        "meta": "@sys.ignore",
        "userDefined": true
      }
    ],
    "isTemplate": false,
    "count": 1,
    "updated": 0
  },
  {
    "id": "7d8b5c4e-3243-4e9e-97f0-1d008fc76892",
    "data": [
      {
        "text": "you ",
        "userDefined": false
      },
      {
        "text": "are",
        "meta": "@sys.ignore",
        "userDefined": true
      },
      {
        "text": " clever",
        "userDefined": false
      }
    ],
    "isTemplate": false,
    "count": 0,
    "updated": 0
  },
  {
    "id": "79e7d2c9-8df0-48ab-9452-bae4abe8f0ba",
    "data": [
      {
        "text": "you are a genius",
        "userDefined": false
      }
    ],
    "isTemplate": false,
    "count": 0,
    "updated": 0
  },
  {
    "id": "e49f4a52-0713-4707-a374-6a52e8efdcd8",
    "data": [
      {
        "text": "how ",
        "userDefined": false
      },
      {
        "text": "brilliant",
        "meta": "@sys.ignore",
        "userDefined": false
      },
      {
        "text": " you ",
        "userDefined": false
      },
      {
        "text": "are",
        "meta": "@sys.ignore",
        "userDefined": false
      }
    ],
    "isTemplate": false,
    "count": 1,
    "updated": 0
  },
  {
    "id": "f92ca118-1f68-4cb2-8057-c6e3c3ff7278",
    "data": [
      {
        "text": "you\u0027re qualified",
        "userDefined": false
      }
    ],
    "isTemplate": false,
    "count": 0,
    "updated": 0
  },
  {
    "id": "3996b60b-3fed-420f-a9a9-0dd5c8c21d57",
    "data": [
      {
        "text": "you ",
        "userDefined": false
      },
      {
        "text": "are",
        "meta": "@sys.ignore",
        "userDefined": true
      },
      {
        "text": " so brainy",
        "userDefined": false
      }
    ],
    "isTemplate": false,
    "count": 0,
    "updated": 0
  },
  {
    "id": "f7aaca7d-c5de-4ce9-925f-5c64d00d8986",
    "data": [
      {
        "text": "you ",
        "userDefined": false
      },
      {
        "text": "are",
        "meta": "@sys.ignore",
        "userDefined": false
      },
      {
        "text": " intelligent",
        "userDefined": false
      }
    ],
    "isTemplate": false,
    "count": 0,
    "updated": 0
  },
  {
    "id": "f7f3dd9a-248c-4203-a63e-620d3fe6b209",
    "data": [
      {
        "text": "why ",
        "userDefined": false
      },
      {
        "text": "are",
        "meta": "@sys.ignore",
        "userDefined": false
      },
      {
        "text": " you so ",
        "userDefined": false
      },
      {
        "text": "smart",
        "meta": "@sys.ignore",
        "userDefined": false
      }
    ],
    "isTemplate": false,
    "count": 0,
    "updated": 0
  },
  {
    "id": "329630c8-bab3-4ee8-a66c-fa4e94e909b2",
    "data": [
      {
        "text": "brilliant",
        "meta": "@sys.ignore",
        "userDefined": true
      }
    ],
    "isTemplate": false,
    "count": 0,
    "updated": 0
  },
  {
    "id": "bbeee245-9f1e-4dae-b8cc-e2d76251ad5a",
    "data": [
      {
        "text": "how clever you ",
        "userDefined": false
      },
      {
        "text": "are",
        "meta": "@sys.ignore",
        "userDefined": false
      }
    ],
    "isTemplate": false,
    "count": 0,
    "updated": 0
  },
  {
    "id": "fef35f47-af98-468c-b68b-7949b0da1b7a",
    "data": [
      {
        "text": "smart",
        "meta": "@sys.ignore",
        "userDefined": true
      }
    ],
    "isTemplate": false,
    "count": 0,
    "updated": 0
  },
  {
    "id": "2753d74c-17b6-4c91-8a17-ae7782c6bc32",
    "data": [
      {
        "text": "you\u0027re a genius",
        "userDefined": false
      }
    ],
    "isTemplate": false,
    "count": 0,
    "updated": 0
  }
]