[
  {
    "id": "d3543368-77ef-4b09-8553-2b2c9f69699f",
    "data": [
      {
        "text": "do you have a hobby",
        "userDefined": false
      }
    ],
    "isTemplate": false,
    "count": 0,
    "updated": 0
  },
  {
    "id": "4b2e600b-421e-4efe-875c-3969d75f5870",
    "data": [
      {
        "text": "what about your hobby",
        "userDefined": false
      }
    ],
    "isTemplate": false,
    "count": 0,
    "updated": 0
  },
  {
    "id": "ac90256d-a0bd-4556-8137-e2aa66c051df",
    "data": [
      {
        "text": "what\u0027s your hobby",
        "userDefined": false
      }
    ],
    "isTemplate": false,
    "count": 0,
    "updated": 0
  },
  {
    "id": "0dab8eb3-0aad-4d86-8059-6b337e91a31a",
    "data": [
      {
        "text": "what do you do for fun",
        "userDefined": false
      }
    ],
    "isTemplate": false,
    "count": 0,
    "updated": 0
  },
  {
    "id": "84e27ddf-451b-4394-bc07-3b3b7d8b97ff",
    "data": [
      {
        "text": "your hobby",
        "userDefined": false
      }
    ],
    "isTemplate": false,
    "count": 0,
    "updated": 0
  },
  {
    "id": "5c7a9ef0-c239-4ef4-942d-95790cc9023a",
    "data": [
      {
        "text": "what ",
        "userDefined": false
      },
      {
        "text": "are",
        "meta": "@sys.ignore",
        "userDefined": true
      },
      {
        "text": " your hobbies",
        "userDefined": false
      }
    ],
    "isTemplate": false,
    "count": 0,
    "updated": 0
  },
  {
    "id": "d246c474-e2b2-4d61-a9a3-6cc0306a09a1",
    "data": [
      {
        "text": "tell ",
        "userDefined": false
      },
      {
        "text": "me",
        "meta": "@sys.ignore",
        "userDefined": true
      },
      {
        "text": " about your hobby",
        "userDefined": false
      }
    ],
    "isTemplate": false,
    "count": 0,
    "updated": 0
  }
]