[
  {
    "id": "75e271f2-b0a1-48e3-893c-15728b42a4c2",
    "data": [
      {
        "text": "miss",
        "meta": "@sys.ignore",
        "userDefined": false
      },
      {
        "text": " you",
        "userDefined": false
      }
    ],
    "isTemplate": false,
    "count": 0,
    "updated": 0
  },
  {
    "id": "e4e04f10-0c62-41f5-ad91-ffd28af88e03",
    "data": [
      {
        "text": "I ",
        "userDefined": false
      },
      {
        "text": "miss",
        "meta": "@sys.ignore",
        "userDefined": false
      },
      {
        "text": " you much",
        "userDefined": false
      }
    ],
    "isTemplate": false,
    "count": 0,
    "updated": 0
  },
  {
    "id": "2ebcab07-d6a7-4c04-aa96-4d5517ae3150",
    "data": [
      {
        "text": "I\u0027ve ",
        "userDefined": false
      },
      {
        "text": "missed",
        "meta": "@sys.ignore",
        "userDefined": false
      },
      {
        "text": " you",
        "userDefined": false
      }
    ],
    "isTemplate": false,
    "count": 0,
    "updated": 0
  },
  {
    "id": "c0b52a2a-f22d-4b7d-83d3-7639f5751a39",
    "data": [
      {
        "text": "already ",
        "userDefined": false
      },
      {
        "text": "miss",
        "meta": "@sys.ignore",
        "userDefined": false
      },
      {
        "text": " you",
        "userDefined": false
      }
    ],
    "isTemplate": false,
    "count": 0,
    "updated": 0
  },
  {
    "id": "b8348bb4-81cf-44ae-ab8b-69af605a2acc",
    "data": [
      {
        "text": "I ",
        "userDefined": false
      },
      {
        "text": "miss",
        "meta": "@sys.ignore",
        "userDefined": false
      },
      {
        "text": " you",
        "userDefined": false
      }
    ],
    "isTemplate": false,
    "count": 0,
    "updated": 0
  },
  {
    "id": "058113e8-55bf-4d48-9520-9cd2e0a3acb8",
    "data": [
      {
        "text": "I ",
        "userDefined": false
      },
      {
        "text": "missed",
        "meta": "@sys.ignore",
        "userDefined": false
      },
      {
        "text": " you",
        "userDefined": false
      }
    ],
    "isTemplate": false,
    "count": 0,
    "updated": 0
  },
  {
    "id": "01e7cfd9-d102-4d0b-bfdb-4fba6d5241e3",
    "data": [
      {
        "text": "missing you",
        "userDefined": false
      }
    ],
    "isTemplate": false,
    "count": 0,
    "updated": 0
  }
]