[
  {
    "id": "bfe9ef92-d4a3-4b89-b4e5-adfc042e9646",
    "data": [
      {
        "text": "you annoy me",
        "userDefined": false
      }
    ],
    "isTemplate": false,
    "count": 0,
    "updated": 0
  },
  {
    "id": "f8a2f6c5-6a2d-4ebf-9f68-e24632546046",
    "data": [
      {
        "text": "you\u0027re incredibly annoying",
        "userDefined": false
      }
    ],
    "isTemplate": false,
    "count": 0,
    "updated": 0
  },
  {
    "id": "a3199aff-9446-46e3-810f-201d6a57965f",
    "data": [
      {
        "text": "you ",
        "userDefined": false
      },
      {
        "text": "are",
        "meta": "@sys.ignore",
        "userDefined": false
      },
      {
        "text": " annoying",
        "userDefined": false
      }
    ],
    "isTemplate": false,
    "count": 0,
    "updated": 0
  },
  {
    "id": "d953a530-f19c-44b5-bcad-3414306c2a36",
    "data": [
      {
        "text": "how annoying you ",
        "userDefined": false
      },
      {
        "text": "are",
        "meta": "@sys.ignore",
        "userDefined": false
      }
    ],
    "isTemplate": false,
    "count": 0,
    "updated": 0
  },
  {
    "id": "b2bee1e7-9899-4b2f-94cf-6b1ef08246c6",
    "data": [
      {
        "text": "you are annoying me",
        "userDefined": false
      }
    ],
    "isTemplate": false,
    "count": 0,
    "updated": 0
  },
  {
    "id": "f7bf574f-b744-41c9-9199-d2c6afba153e",
    "data": [
      {
        "text": "you\u0027re too annoying",
        "userDefined": false
      }
    ],
    "isTemplate": false,
    "count": 0,
    "updated": 0
  },
  {
    "id": "ab982fd0-1797-45ec-86f7-7ec5bb61fc43",
    "data": [
      {
        "text": "you are irritating",
        "userDefined": false
      }
    ],
    "isTemplate": false,
    "count": 0,
    "updated": 0
  },
  {
    "id": "1de71a85-9fdd-47f1-9238-5f3261d5d3b7",
    "data": [
      {
        "text": "you are very annoying",
        "userDefined": false
      }
    ],
    "isTemplate": false,
    "count": 0,
    "updated": 0
  },
  {
    "id": "249328eb-c3a2-4724-a71b-19407b60b871",
    "data": [
      {
        "text": "you are such annoying",
        "userDefined": false
      }
    ],
    "isTemplate": false,
    "count": 0,
    "updated": 0
  },
  {
    "id": "35bdc907-1f26-41f6-ae7c-4eaa1ba9927e",
    "data": [
      {
        "text": "you are annoying me so much",
        "userDefined": false
      }
    ],
    "isTemplate": false,
    "count": 0,
    "updated": 0
  },
  {
    "id": "2b3820a6-bdc4-4d02-9037-b5350338cf2e",
    "data": [
      {
        "text": "you\u0027re so annoying",
        "userDefined": false
      }
    ],
    "isTemplate": false,
    "count": 0,
    "updated": 0
  },
  {
    "id": "60a8fea7-ea7d-449a-a18a-eade5b0761ab",
    "data": [
      {
        "text": "I find you annoying",
        "userDefined": false
      }
    ],
    "isTemplate": false,
    "count": 0,
    "updated": 0
  }
]