[
  {
    "id": "8d756b9b-5373-47ad-aec5-c4877d9e46ac",
    "data": [
      {
        "text": "how about tomorrow",
        "userDefined": false
      }
    ],
    "isTemplate": false,
    "count": 0,
    "updated": 0
  },
  {
    "id": "5172cd6d-5269-4609-ad5d-27b96b602d96",
    "data": [
      {
        "text": "now from the beginning",
        "userDefined": false
      }
    ],
    "isTemplate": false,
    "count": 0,
    "updated": 0
  },
  {
    "id": "29df84f1-890d-4eea-b0bb-bdbaf8c0b5ca",
    "data": [
      {
        "text": "don\u0027t read news",
        "userDefined": false
      }
    ],
    "isTemplate": false,
    "count": 0,
    "updated": 0
  },
  {
    "id": "393bbe0d-67cc-4a3b-b3c7-a586f4e62302",
    "data": [
      {
        "text": "read this article",
        "userDefined": false
      }
    ],
    "isTemplate": false,
    "count": 0,
    "updated": 0
  },
  {
    "id": "280c4d43-597c-4d81-97bb-f16a919a74ec",
    "data": [
      {
        "text": "provide me the recent fashion show reviews",
        "userDefined": false
      }
    ],
    "isTemplate": false,
    "count": 0,
    "updated": 0
  },
  {
    "id": "b7fbd574-16af-4eb3-9701-f06dc6ec9580",
    "data": [
      {
        "text": "bring me up the tours to Spain",
        "userDefined": false
      }
    ],
    "isTemplate": false,
    "count": 0,
    "updated": 0
  },
  {
    "id": "3256e5a3-4882-4c5f-955e-9cd831beb110",
    "data": [
      {
        "text": "don\u0027t read yesterday headlines",
        "userDefined": false
      }
    ],
    "isTemplate": false,
    "count": 0,
    "updated": 0
  }
]