{
  "id": "84bedea4-8031-4623-9793-111763506d31",
  "name": "map-sort",
  "isOverridable": true,
  "isEnum": false,
  "isRegexp": false,
  "automatedExpansion": false,
  "allowFuzzyExtraction": false
}