{
  "id": "bd2382b2-7454-42c2-ba55-da21752fc618",
  "name": "venue-shopping-chain",
  "isOverridable": true,
  "isEnum": false,
  "isRegexp": false,
  "automatedExpansion": true,
  "allowFuzzyExtraction": false
}