{
  "id": "55c8f87a-040d-4926-9cfe-a9791a71f171",
  "name": "venue-beauty-title",
  "isOverridable": true,
  "isEnum": false,
  "isRegexp": false,
  "automatedExpansion": true,
  "allowFuzzyExtraction": false
}