{
  "id": "1f765580-ee5c-4d0b-8733-5f0e9b759dc6",
  "name": "venue-sport-title",
  "isOverridable": true,
  "isEnum": false,
  "isRegexp": false,
  "automatedExpansion": true,
  "allowFuzzyExtraction": false
}