{
  "id": "e78645af-07ca-416e-a637-cce32d1e82e4",
  "name": "venue-medical-chain",
  "isOverridable": true,
  "isEnum": false,
  "isRegexp": false,
  "automatedExpansion": true,
  "allowFuzzyExtraction": false
}