{
  "id": "d18893f1-0e41-47a4-a72a-63eb921eb686",
  "name": "venue-education-title",
  "isOverridable": true,
  "isEnum": false,
  "isRegexp": false,
  "automatedExpansion": true,
  "allowFuzzyExtraction": false
}