{
  "id": "4845b667-a0fd-4870-8202-6c861cd8d5e4",
  "name": "venue-local-service-type",
  "isOverridable": true,
  "isEnum": false,
  "isRegexp": false,
  "automatedExpansion": false,
  "allowFuzzyExtraction": false
}