{
  "id": "f38c6af4-4177-4ad9-94ef-d833b816d815",
  "name": "venue-automotive-type",
  "isOverridable": true,
  "isEnum": false,
  "isRegexp": false,
  "automatedExpansion": false,
  "allowFuzzyExtraction": false
}