[
  {
    "value": "college",
    "synonyms": [
      "college",
      "colleges"
    ]
  },
  {
    "value": "driving school",
    "synonyms": [
      "driving school",
      "driving schools"
    ]
  },
  {
    "value": "educational service",
    "synonyms": [
      "educational service",
      "educational services"
    ]
  },
  {
    "value": "elementary school",
    "synonyms": [
      "elementary school",
      "elementary schools",
      "primary school",
      "primary schools"
    ]
  },
  {
    "value": "high school",
    "synonyms": [
      "high school",
      "high schools"
    ]
  },
  {
    "value": "language school",
    "synonyms": [
      "language school",
      "language schools"
    ]
  },
  {
    "value": "middle school",
    "synonyms": [
      "middle school",
      "middle schools"
    ]
  },
  {
    "value": "private school",
    "synonyms": [
      "private school",
      "private schools"
    ]
  },
  {
    "value": "religious school",
    "synonyms": [
      "religious school",
      "religious schools"
    ]
  },
  {
    "value": "school",
    "synonyms": [
      "school",
      "schools"
    ]
  },
  {
    "value": "secondary school",
    "synonyms": [
      "secondary school",
      "secondary schools"
    ]
  },
  {
    "value": "spanish courses",
    "synonyms": [
      "spanish course",
      "spanish courses"
    ]
  },
  {
    "value": "technical school",
    "synonyms": [
      "technical school",
      "technical schools"
    ]
  },
  {
    "value": "university",
    "synonyms": [
      "universities",
      "university"
    ]
  }
]