{
  "id": "d474edf1-a14d-4605-b8a5-3df4c65347c5",
  "name": "Default Fallback Intent",
  "auto": true,
  "contexts": [],
  "responses": [
    {
      "resetContexts": false,
      "action": "input.unknown",
      "affectedContexts": [],
      "parameters": [],
      "messages": [
        {
          "type": 0,
          "lang": "en",
          "condition": "",
          "speech": [
            "I didn\u0027t get that. Can you say it again?",
            "I missed what you said. Say it again?",
            "Sorry, could you say that again?",
            "Sorry, can you say that again?",
            "Can you say that again?",
            "Sorry, I didn\u0027t get that.",
            "Sorry, what was that?",
            "One more time?",
            "What was that?",
            "Say that again?",
            "I didn\u0027t get that.",
            "I missed that."
          ]
        }
      ],
      "defaultResponsePlatforms": {},
      "speech": []
    }
  ],
  "priority": 500000,
  "webhookUsed": false,
  "webhookForSlotFilling": false,
  "fallbackIntent": true,
  "events": [],
  "conditionalResponses": [],
  "condition": "",
  "conditionalFollowupEvents": []
}