{
  "id": "4baf8417-1ff5-4977-8a05-08633187b3f9",
  "name": "name.agent.save",
  "auto": true,
  "contexts": [],
  "responses": [
    {
      "resetContexts": false,
      "action": "name.agent.save",
      "affectedContexts": [],
      "parameters": [
        {
          "id": "7b5496f8-4f1d-4703-86e8-93b3846b794a",
          "required": false,
          "dataType": "@sys.given-name",
          "name": "given-name",
          "value": "$given-name",
          "promptMessages": [],
          "noMatchPromptMessages": [],
          "noInputPromptMessages": [],
          "outputDialogContexts": [],
          "isList": false
        },
        {
          "id": "8bb9f2e3-8995-4518-bea4-fcd05dfec9e7",
          "required": false,
          "dataType": "@sys.last-name",
          "name": "last-name",
          "value": "$last-name",
          "promptMessages": [],
          "noMatchPromptMessages": [],
          "noInputPromptMessages": [],
          "outputDialogContexts": [],
          "isList": false
        },
        {
          "id": "f86fdbf5-c1d6-4a7a-9265-18b08a59b355",
          "required": false,
          "dataType": "@nick-name",
          "name": "nick-name",
          "value": "$nick-name",
          "promptMessages": [],
          "noMatchPromptMessages": [],
          "noInputPromptMessages": [],
          "outputDialogContexts": [],
          "isList": false
        },
        {
          "id": "0ba1d37c-3b6d-44b9-a436-aa3eed0c7889",
          "required": false,
          "dataType": "@name-type",
          "name": "type",
          "value": "$type",
          "promptMessages": [],
          "noMatchPromptMessages": [],
          "noInputPromptMessages": [],
          "outputDialogContexts": [],
          "isList": false
        }
      ],
      "messages": [
        {
          "type": 0,
          "lang": "en",
          "condition": "",
          "speech": []
        }
      ],
      "defaultResponsePlatforms": {},
      "speech": []
    }
  ],
  "priority": 500000,
  "webhookUsed": false,
  "webhookForSlotFilling": false,
  "fallbackIntent": false,
  "events": [],
  "conditionalResponses": [],
  "condition": "",
  "conditionalFollowupEvents": []
}