[
  {
    "id": "d9d9948a-fe22-4dbc-b7b5-0ebfdc0d0b79",
    "data": [
      {
        "text": "is your ",
        "userDefined": false
      },
      {
        "text": "last name",
        "alias": "type",
        "meta": "@name-type",
        "userDefined": true
      },
      {
        "text": " ",
        "userDefined": false
      },
      {
        "text": "Smith",
        "alias": "last-name",
        "meta": "@sys.last-name",
        "userDefined": true
      },
      {
        "text": " or not",
        "userDefined": false
      }
    ],
    "isTemplate": false,
    "count": 0,
    "updated": 0
  },
  {
    "id": "2e935fd8-b074-42ec-a61a-f29d71926a4c",
    "data": [
      {
        "text": "is your name still ",
        "userDefined": false
      },
      {
        "text": "Alex",
        "alias": "given-name",
        "meta": "@sys.given-name",
        "userDefined": true
      }
    ],
    "isTemplate": false,
    "count": 0,
    "updated": 0
  },
  {
    "id": "602cd67a-f144-4b29-94f4-e63a40e8314a",
    "data": [
      {
        "text": "your ",
        "userDefined": false
      },
      {
        "text": "middle name",
        "alias": "type",
        "meta": "@name-type",
        "userDefined": true
      },
      {
        "text": " is ",
        "userDefined": false
      },
      {
        "text": "Jane",
        "alias": "given-name",
        "meta": "@sys.given-name",
        "userDefined": true
      },
      {
        "text": " right",
        "userDefined": false
      }
    ],
    "isTemplate": false,
    "count": 0,
    "updated": 0
  },
  {
    "id": "94195854-a7ce-45c2-bc15-92950ca43a3d",
    "data": [
      {
        "text": "are you ",
        "userDefined": false
      },
      {
        "text": "Sam",
        "alias": "given-name",
        "meta": "@sys.given-name",
        "userDefined": true
      }
    ],
    "isTemplate": false,
    "count": 0,
    "updated": 0
  },
  {
    "id": "3db13e26-aebe-4a47-9d5b-083fcf95e657",
    "data": [
      {
        "text": "is your  ",
        "userDefined": false
      },
      {
        "text": "nickname",
        "alias": "type",
        "meta": "@name-type",
        "userDefined": true
      },
      {
        "text": " ",
        "userDefined": false
      },
      {
        "text": "Woo Woo",
        "alias": "nick-name",
        "meta": "@nick-name",
        "userDefined": true
      }
    ],
    "isTemplate": false,
    "count": 0,
    "updated": 0
  },
  {
    "id": "f233287f-12c9-45e5-a347-435b9cd0ad00",
    "data": [
      {
        "text": "are you Mr ",
        "userDefined": false
      },
      {
        "text": "Evans",
        "alias": "last-name",
        "meta": "@sys.last-name",
        "userDefined": true
      }
    ],
    "isTemplate": false,
    "count": 0,
    "updated": 0
  },
  {
    "id": "07a7a1f7-a065-41d4-87cd-7709ed2db113",
    "data": [
      {
        "text": "your ",
        "userDefined": false
      },
      {
        "text": "nickname",
        "alias": "type",
        "meta": "@name-type",
        "userDefined": true
      },
      {
        "text": " is ",
        "userDefined": false
      },
      {
        "text": "Squirrel",
        "alias": "nick-name",
        "meta": "@nick-name",
        "userDefined": true
      },
      {
        "text": " right",
        "userDefined": false
      }
    ],
    "isTemplate": false,
    "count": 0,
    "updated": 0
  },
  {
    "id": "dde6f157-5ffa-4c3f-bfaa-d0eb7425594d",
    "data": [
      {
        "text": "is your name ",
        "userDefined": false
      },
      {
        "text": "Nick",
        "alias": "given-name",
        "meta": "@sys.given-name",
        "userDefined": true
      }
    ],
    "isTemplate": false,
    "count": 0,
    "updated": 0
  },
  {
    "id": "9a806956-e613-42ff-a99b-99fe033a0ed7",
    "data": [
      {
        "text": "your name is ",
        "userDefined": false
      },
      {
        "text": "John",
        "alias": "given-name",
        "meta": "@sys.given-name",
        "userDefined": true
      },
      {
        "text": " right",
        "userDefined": false
      }
    ],
    "isTemplate": false,
    "count": 0,
    "updated": 0
  },
  {
    "id": "db6dd36e-4d1f-41f3-a471-aa5333e92e4b",
    "data": [
      {
        "text": "is your ",
        "userDefined": false
      },
      {
        "text": "middle name",
        "alias": "type",
        "meta": "@name-type",
        "userDefined": true
      },
      {
        "text": " ",
        "userDefined": false
      },
      {
        "text": "Jane",
        "alias": "given-name",
        "meta": "@sys.given-name",
        "userDefined": true
      }
    ],
    "isTemplate": false,
    "count": 0,
    "updated": 0
  },
  {
    "id": "73f651da-2d98-4eff-b156-06ea620ef0b6",
    "data": [
      {
        "text": "is ",
        "userDefined": false
      },
      {
        "text": "Green",
        "alias": "last-name",
        "meta": "@sys.last-name",
        "userDefined": true
      },
      {
        "text": " your ",
        "userDefined": false
      },
      {
        "text": "last name",
        "alias": "type",
        "meta": "@name-type",
        "userDefined": true
      }
    ],
    "isTemplate": false,
    "count": 0,
    "updated": 0
  },
  {
    "id": "be28ca80-cfda-4254-9deb-0a013587dd45",
    "data": [
      {
        "text": "is your ",
        "userDefined": false
      },
      {
        "text": "nickname",
        "alias": "type",
        "meta": "@name-type",
        "userDefined": true
      },
      {
        "text": " ",
        "userDefined": false
      },
      {
        "text": "Ice",
        "alias": "nick-name",
        "meta": "@nick-name",
        "userDefined": true
      },
      {
        "text": " or not",
        "userDefined": false
      }
    ],
    "isTemplate": false,
    "count": 0,
    "updated": 0
  }
]