{
  "id": "e2a80df6-e3b1-490d-9a9a-89b2fabe07c7",
  "name": "name.agent.get",
  "auto": true,
  "contexts": [],
  "responses": [
    {
      "resetContexts": false,
      "action": "name.agent.get",
      "affectedContexts": [],
      "parameters": [
        {
          "id": "208bf065-7160-44ff-8b44-dc691b399c48",
          "required": false,
          "dataType": "@name-type",
          "name": "type",
          "value": "$type",
          "promptMessages": [],
          "noMatchPromptMessages": [],
          "noInputPromptMessages": [],
          "outputDialogContexts": [],
          "isList": false
        }
      ],
      "messages": [
        {
          "type": 0,
          "lang": "en",
          "condition": "",
          "speech": []
        }
      ],
      "defaultResponsePlatforms": {},
      "speech": []
    }
  ],
  "priority": 500000,
  "webhookUsed": false,
  "webhookForSlotFilling": false,
  "fallbackIntent": false,
  "events": [],
  "conditionalResponses": [],
  "condition": "",
  "conditionalFollowupEvents": []
}