[
  {
    "value": "Abi Titmuss",
    "synonyms": [
      "Abi Titmuss"
    ]
  },
  {
    "value": "Adabel Guerrero",
    "synonyms": [
      "Adabel Guerrero"
    ]
  },
  {
    "value": "Adriana Lima",
    "synonyms": [
      "Adriana Lima"
    ]
  },
  {
    "value": "Aisleyne Horgan-Wallace",
    "synonyms": [
      "Aisleyne Horgan-Wallace"
    ]
  },
  {
    "value": "Alessandra Ambrosio",
    "synonyms": [
      "Alessandra Ambrosio"
    ]
  },
  {
    "value": "Alley Baggett",
    "synonyms": [
      "Alley Baggett"
    ]
  },
  {
    "value": "Alyssa Nicole Pallett",
    "synonyms": [
      "Alyssa Nicole Pallett"
    ]
  },
  {
    "value": "Amanda Booth",
    "synonyms": [
      "Amanda Booth"
    ]
  },
  {
    "value": "Amii Grove",
    "synonyms": [
      "Amii Grove"
    ]
  },
  {
    "value": "Amy Diamond",
    "synonyms": [
      "Amy Diamond"
    ]
  },
  {
    "value": "Ana Beatriz Barros",
    "synonyms": [
      "Ana Beatriz Barros"
    ]
  },
  {
    "value": "Angela Taylor",
    "synonyms": [
      "Angela Taylor"
    ]
  },
  {
    "value": "Ann Simonton",
    "synonyms": [
      "Ann Simonton"
    ]
  },
  {
    "value": "Anna Nicole Smith",
    "synonyms": [
      "Anna Nicole Smith"
    ]
  },
  {
    "value": "Aria Giovanni",
    "synonyms": [
      "Aria Giovanni"
    ]
  },
  {
    "value": "Arianny Celeste",
    "synonyms": [
      "Arianny Celeste"
    ]
  },
  {
    "value": "Ashley Dupre",
    "synonyms": [
      "Ashley Dupre"
    ]
  },
  {
    "value": "Ashley Graham",
    "synonyms": [
      "Ashley Graham"
    ]
  },
  {
    "value": "Ashley Hobbs",
    "synonyms": [
      "Ashley Hobbs"
    ]
  },
  {
    "value": "Ashley Montana",
    "synonyms": [
      "Ashley Montana"
    ]
  },
  {
    "value": "Audrey Aleen Allen",
    "synonyms": [
      "Audrey Aleen Allen"
    ]
  },
  {
    "value": "Azealia Banks",
    "synonyms": [
      "Azealia Banks"
    ]
  },
  {
    "value": "Babette March",
    "synonyms": [
      "Babette March"
    ]
  },
  {
    "value": "Bar Refaeli",
    "synonyms": [
      "Bar Refaeli"
    ]
  },
  {
    "value": "Behati Prinsloo",
    "synonyms": [
      "Behati Prinsloo"
    ]
  },
  {
    "value": "Bianca Balti",
    "synonyms": [
      "Bianca Balti"
    ]
  },
  {
    "value": "Bianca Gascoigne",
    "synonyms": [
      "Bianca Gascoigne"
    ]
  },
  {
    "value": "Bobbi Billard",
    "synonyms": [
      "Bobbi Billard"
    ]
  },
  {
    "value": "Breann McGregor",
    "synonyms": [
      "Breann McGregor"
    ]
  },
  {
    "value": "Bree Olson",
    "synonyms": [
      "Bree Olson"
    ]
  },
  {
    "value": "Bridget Marquardt",
    "synonyms": [
      "Bridget Marquardt"
    ]
  },
  {
    "value": "Brittany Brousseau",
    "synonyms": [
      "Brittany Brousseau"
    ]
  },
  {
    "value": "Brittney Palmer",
    "synonyms": [
      "Brittney Palmer"
    ]
  },
  {
    "value": "Brooklyn Decker",
    "synonyms": [
      "Brooklyn Decker"
    ]
  },
  {
    "value": "Camille Rowe",
    "synonyms": [
      "Camille Rowe"
    ]
  },
  {
    "value": "Candice Boucher",
    "synonyms": [
      "Candice Boucher"
    ]
  },
  {
    "value": "Candice Swanepoel",
    "synonyms": [
      "Candice Swanepoel"
    ]
  },
  {
    "value": "Carla Brown",
    "synonyms": [
      "Carla Brown"
    ]
  },
  {
    "value": "Carol Alt",
    "synonyms": [
      "Carol Alt"
    ]
  },
  {
    "value": "Carolyn Murphy",
    "synonyms": [
      "Carolyn Murphy"
    ]
  },
  {
    "value": "Chandra North",
    "synonyms": [
      "Chandra North"
    ]
  },
  {
    "value": "Chanel Iman",
    "synonyms": [
      "Chanel Iman"
    ]
  },
  {
    "value": "Chanelle Hayes",
    "synonyms": [
      "Chanelle Hayes"
    ]
  },
  {
    "value": "Chantelle Houghton",
    "synonyms": [
      "Chantelle Houghton"
    ]
  },
  {
    "value": "Charmaine Sinclair",
    "synonyms": [
      "Charmaine Sinclair"
    ]
  },
  {
    "value": "Chelsea White",
    "synonyms": [
      "Chelsea White"
    ]
  },
  {
    "value": "Cherry Dee",
    "synonyms": [
      "Cherry Dee"
    ]
  },
  {
    "value": "Cheryl Tiegs",
    "synonyms": [
      "Cheryl Tiegs"
    ]
  },
  {
    "value": "Chrissy Teigen",
    "synonyms": [
      "Chrissy Teigen"
    ]
  },
  {
    "value": "Christie Brinkley",
    "synonyms": [
      "Christie Brinkley"
    ]
  },
  {
    "value": "Christy Turlington",
    "synonyms": [
      "Christy Turlington"
    ]
  },
  {
    "value": "Ciara Price",
    "synonyms": [
      "Ciara Price"
    ]
  },
  {
    "value": "Cindy Crawford",
    "synonyms": [
      "Cindy Crawford"
    ]
  },
  {
    "value": "Cindy Margolis",
    "synonyms": [
      "Cindy Margolis"
    ]
  },
  {
    "value": "Crista Flanagan",
    "synonyms": [
      "Crista Flanagan"
    ]
  },
  {
    "value": "Crystal Harris",
    "synonyms": [
      "Crystal Harris"
    ]
  },
  {
    "value": "Daisy Lowe",
    "synonyms": [
      "Daisy Lowe"
    ]
  },
  {
    "value": "Dani Mathers",
    "synonyms": [
      "Dani Mathers"
    ]
  },
  {
    "value": "Dani Thompson",
    "synonyms": [
      "Dani Thompson"
    ]
  },
  {
    "value": "Daniela Pestova",
    "synonyms": [
      "Daniela Pestova"
    ]
  },
  {
    "value": "Daniela Peštová",
    "synonyms": [
      "Daniela Peštová"
    ]
  },
  {
    "value": "Danielle Lloyd",
    "synonyms": [
      "Danielle Lloyd"
    ]
  },
  {
    "value": "Danielle Sharp",
    "synonyms": [
      "Danielle Sharp"
    ]
  },
  {
    "value": "Dayle Haddon",
    "synonyms": [
      "Dayle Haddon"
    ]
  },
  {
    "value": "Doutzen Kroes",
    "synonyms": [
      "Doutzen Kroes"
    ]
  },
  {
    "value": "Elizabeth Jagger",
    "synonyms": [
      "Elizabeth Jagger"
    ]
  },
  {
    "value": "Elizabeth Ostrander",
    "synonyms": [
      "Elizabeth Ostrander"
    ]
  },
  {
    "value": "Elle Macpherson",
    "synonyms": [
      "Elle Macpherson"
    ]
  },
  {
    "value": "Elsa Benítez",
    "synonyms": [
      "Elsa Benítez"
    ]
  },
  {
    "value": "Elsa Benítez",
    "synonyms": [
      "Elsa Benítez"
    ]
  },
  {
    "value": "Elsa Hosk",
    "synonyms": [
      "Elsa Hosk"
    ]
  },
  {
    "value": "Emily Horne",
    "synonyms": [
      "Emily Horne"
    ]
  },
  {
    "value": "Emily Ratajkowski",
    "synonyms": [
      "Emily Ratajkowski"
    ]
  },
  {
    "value": "Erica Campbell",
    "synonyms": [
      "Erica Campbell"
    ]
  },
  {
    "value": "Erin Heatherton",
    "synonyms": [
      "Erin Heatherton"
    ]
  },
  {
    "value": "Eugena Washington",
    "synonyms": [
      "Eugena Washington"
    ]
  },
  {
    "value": "Ewa Sonnet",
    "synonyms": [
      "Ewa Sonnet"
    ]
  },
  {
    "value": "Gemma Atkinson",
    "synonyms": [
      "Gemma Atkinson"
    ]
  },
  {
    "value": "Georgia Salpa",
    "synonyms": [
      "Georgia Salpa"
    ]
  },
  {
    "value": "Gia Genevieve",
    "synonyms": [
      "Gia Genevieve"
    ]
  },
  {
    "value": "Gigi Hadid",
    "synonyms": [
      "Gigi Hadid"
    ]
  },
  {
    "value": "Gisele Bündchen",
    "synonyms": [
      "Gisele Bündchen"
    ]
  },
  {
    "value": "Hailey Clauson",
    "synonyms": [
      "Hailey Clauson"
    ]
  },
  {
    "value": "Hannah Davis",
    "synonyms": [
      "Hannah Davis"
    ]
  },
  {
    "value": "Hayley-Marie Coppin",
    "synonyms": [
      "Hayley-Marie Coppin"
    ]
  },
  {
    "value": "Heather Depriest",
    "synonyms": [
      "Heather Depriest"
    ]
  },
  {
    "value": "Heidi Klum",
    "synonyms": [
      "Heidi Klum"
    ]
  },
  {
    "value": "Helena Christensen",
    "synonyms": [
      "Helena Christensen"
    ]
  },
  {
    "value": "Holly Peers",
    "synonyms": [
      "Holly Peers"
    ]
  },
  {
    "value": "Hope Dworaczyk",
    "synonyms": [
      "Hope Dworaczyk"
    ]
  },
  {
    "value": "India Reynolds",
    "synonyms": [
      "India Reynolds"
    ]
  },
  {
    "value": "Inés Rivero",
    "synonyms": [
      "Inés Rivero"
    ]
  },
  {
    "value": "Irina Shayk",
    "synonyms": [
      "Irina Shayk"
    ]
  },
  {
    "value": "Isabel Sarli",
    "synonyms": [
      "Isabel Sarli"
    ]
  },
  {
    "value": "Isabeli Fontana",
    "synonyms": [
      "Isabeli Fontana"
    ]
  },
  {
    "value": "Izabel Goulart",
    "synonyms": [
      "Izabel Goulart"
    ]
  },
  {
    "value": "Jac Jagaciak",
    "synonyms": [
      "Jac Jagaciak"
    ]
  },
  {
    "value": "Jaclyn Swedberg",
    "synonyms": [
      "Jaclyn Swedberg"
    ]
  },
  {
    "value": "Jakki Degg",
    "synonyms": [
      "Jakki Degg"
    ]
  },
  {
    "value": "Jamee Becker",
    "synonyms": [
      "Jamee Becker"
    ]
  },
  {
    "value": "Janine Habeck",
    "synonyms": [
      "Janine Habeck"
    ]
  },
  {
    "value": "Jasmine Tookes",
    "synonyms": [
      "Jasmine Tookes"
    ]
  },
  {
    "value": "Jennifer Ellison",
    "synonyms": [
      "Jennifer Ellison"
    ]
  },
  {
    "value": "Jennifer Humphrey",
    "synonyms": [
      "Jennifer Humphrey"
    ]
  },
  {
    "value": "Jenny McCarthy",
    "synonyms": [
      "Jenny McCarthy"
    ]
  },
  {
    "value": "Jessica-Jane Clement",
    "synonyms": [
      "Jessica-Jane Clement"
    ]
  },
  {
    "value": "Jo Guest",
    "synonyms": [
      "Jo Guest"
    ]
  },
  {
    "value": "Joanna KrupaAdriana Lima",
    "synonyms": [
      "Joanna KrupaAdriana Lima"
    ]
  },
  {
    "value": "Jodie Gasson",
    "synonyms": [
      "Jodie Gasson"
    ]
  },
  {
    "value": "Jodie Marsh",
    "synonyms": [
      "Jodie Marsh"
    ]
  },
  {
    "value": "Josephine Skriver",
    "synonyms": [
      "Josephine Skriver"
    ]
  },
  {
    "value": "Judit Masco",
    "synonyms": [
      "Judit Masco"
    ]
  },
  {
    "value": "Jésica Cirio",
    "synonyms": [
      "Jésica Cirio"
    ]
  },
  {
    "value": "Kara MonacoLinda O\u0027Neil",
    "synonyms": [
      "Kara MonacoLinda O\u0027Neil"
    ]
  },
  {
    "value": "Karen McDougal",
    "synonyms": [
      "Karen McDougal"
    ]
  },
  {
    "value": "Karen Mulder",
    "synonyms": [
      "Karen Mulder"
    ]
  },
  {
    "value": "Karina Smirnoff",
    "synonyms": [
      "Karina Smirnoff"
    ]
  },
  {
    "value": "Karlie Kloss",
    "synonyms": [
      "Karlie Kloss"
    ]
  },
  {
    "value": "Kataxenna Kova",
    "synonyms": [
      "Kataxenna Kova"
    ]
  },
  {
    "value": "Kate Grigorieva",
    "synonyms": [
      "Kate Grigorieva"
    ]
  },
  {
    "value": "Kate Moss",
    "synonyms": [
      "Kate Moss"
    ]
  },
  {
    "value": "Kate Upton",
    "synonyms": [
      "Kate Upton"
    ]
  },
  {
    "value": "Kathy Ireland",
    "synonyms": [
      "Kathy Ireland"
    ]
  },
  {
    "value": "Katie Downes",
    "synonyms": [
      "Katie Downes"
    ]
  },
  {
    "value": "Katie Green",
    "synonyms": [
      "Katie Green"
    ]
  },
  {
    "value": "Katie Price",
    "synonyms": [
      "Katie Price"
    ]
  },
  {
    "value": "Katie Richmond",
    "synonyms": [
      "Katie Richmond"
    ]
  },
  {
    "value": "Katiti Kironde",
    "synonyms": [
      "Katiti Kironde"
    ]
  },
  {
    "value": "Kayleigh Pearson",
    "synonyms": [
      "Kayleigh Pearson"
    ]
  },
  {
    "value": "Keeley Hazell",
    "synonyms": [
      "Keeley Hazell"
    ]
  },
  {
    "value": "Keilani Asmus",
    "synonyms": [
      "Keilani Asmus"
    ]
  },
  {
    "value": "Kelly Bell",
    "synonyms": [
      "Kelly Bell"
    ]
  },
  {
    "value": "Kelly Bensimon",
    "synonyms": [
      "Kelly Bensimon"
    ]
  },
  {
    "value": "Kelly Brook",
    "synonyms": [
      "Kelly Brook"
    ]
  },
  {
    "value": "Kelly Gale",
    "synonyms": [
      "Kelly Gale"
    ]
  },
  {
    "value": "Kendall Jenner",
    "synonyms": [
      "Kendall Jenner"
    ]
  },
  {
    "value": "Kendra Wilkinson",
    "synonyms": [
      "Kendra Wilkinson"
    ]
  },
  {
    "value": "Kennedy Summers",
    "synonyms": [
      "Kennedy Summers"
    ]
  },
  {
    "value": "Kim Acourt",
    "synonyms": [
      "Kim Acourt"
    ]
  },
  {
    "value": "Kim Kardashian",
    "synonyms": [
      "Kim Kardashian"
    ]
  },
  {
    "value": "Lacey Banghard",
    "synonyms": [
      "Lacey Banghard"
    ]
  },
  {
    "value": "Laetitia Casta",
    "synonyms": [
      "Laetitia Casta"
    ]
  },
  {
    "value": "Lais Ribeiro",
    "synonyms": [
      "Lais Ribeiro"
    ]
  },
  {
    "value": "Las Vegas Water Beauties",
    "synonyms": [
      "Las Vegas Water Beauties"
    ]
  },
  {
    "value": "Laura Benanti",
    "synonyms": [
      "Laura Benanti"
    ]
  },
  {
    "value": "Lauren Pope",
    "synonyms": [
      "Lauren Pope"
    ]
  },
  {
    "value": "Lauren Young",
    "synonyms": [
      "Lauren Young"
    ]
  },
  {
    "value": "Leeann Tweeden",
    "synonyms": [
      "Leeann Tweeden"
    ]
  },
  {
    "value": "Leilani Dowding",
    "synonyms": [
      "Leilani Dowding"
    ]
  },
  {
    "value": "Lena Kansbod",
    "synonyms": [
      "Lena Kansbod"
    ]
  },
  {
    "value": "Lene Alexandra",
    "synonyms": [
      "Lene Alexandra"
    ]
  },
  {
    "value": "Lily Aldridge",
    "synonyms": [
      "Lily Aldridge"
    ]
  },
  {
    "value": "Linda Evangelista",
    "synonyms": [
      "Linda Evangelista"
    ]
  },
  {
    "value": "Linda LusardiHolly Madison",
    "synonyms": [
      "Linda LusardiHolly Madison"
    ]
  },
  {
    "value": "Lindsay Ellingson",
    "synonyms": [
      "Lindsay Ellingson"
    ]
  },
  {
    "value": "Linni Meister",
    "synonyms": [
      "Linni Meister"
    ]
  },
  {
    "value": "Linsey Dawn McKenzie",
    "synonyms": [
      "Linsey Dawn McKenzie"
    ]
  },
  {
    "value": "Louise Cliffe",
    "synonyms": [
      "Louise Cliffe"
    ]
  },
  {
    "value": "Louise Glover",
    "synonyms": [
      "Louise Glover"
    ]
  },
  {
    "value": "Lucy Collett",
    "synonyms": [
      "Lucy Collett"
    ]
  },
  {
    "value": "Lucy Pinder",
    "synonyms": [
      "Lucy Pinder"
    ]
  },
  {
    "value": "Madison Welch",
    "synonyms": [
      "Madison Welch"
    ]
  },
  {
    "value": "Maria Eriksson",
    "synonyms": [
      "Maria Eriksson"
    ]
  },
  {
    "value": "Maria Gabriella De Faria",
    "synonyms": [
      "Maria Gabriella De Faria"
    ]
  },
  {
    "value": "Maria Joao",
    "synonyms": [
      "Maria Joao"
    ]
  },
  {
    "value": "Maria Whittaker",
    "synonyms": [
      "Maria Whittaker"
    ]
  },
  {
    "value": "Marilyn Tindall",
    "synonyms": [
      "Marilyn Tindall"
    ]
  },
  {
    "value": "Marisa Miller",
    "synonyms": [
      "Marisa Miller"
    ]
  },
  {
    "value": "Martha Hunt",
    "synonyms": [
      "Martha Hunt"
    ]
  },
  {
    "value": "Maryse Ouellet",
    "synonyms": [
      "Maryse Ouellet"
    ]
  },
  {
    "value": "May Andersen",
    "synonyms": [
      "May Andersen"
    ]
  },
  {
    "value": "Michelle Marsh",
    "synonyms": [
      "Michelle Marsh"
    ]
  },
  {
    "value": "Mikayla Wingle",
    "synonyms": [
      "Mikayla Wingle"
    ]
  },
  {
    "value": "Miranda Kerr",
    "synonyms": [
      "Miranda Kerr"
    ]
  },
  {
    "value": "Monica Bellucci",
    "synonyms": [
      "Monica Bellucci"
    ]
  },
  {
    "value": "Mónica Farro",
    "synonyms": [
      "Mónica Farro"
    ]
  },
  {
    "value": "Naomi Campbell",
    "synonyms": [
      "Naomi Campbell"
    ]
  },
  {
    "value": "Natalia Vodjanova",
    "synonyms": [
      "Natalia Vodjanova"
    ]
  },
  {
    "value": "Natalie Denning",
    "synonyms": [
      "Natalie Denning"
    ]
  },
  {
    "value": "Natalie Pike",
    "synonyms": [
      "Natalie Pike"
    ]
  },
  {
    "value": "Natasha Alam",
    "synonyms": [
      "Natasha Alam"
    ]
  },
  {
    "value": "Natasha Mealey",
    "synonyms": [
      "Natasha Mealey"
    ]
  },
  {
    "value": "Nicola McLean",
    "synonyms": [
      "Nicola McLean"
    ]
  },
  {
    "value": "Nicola Tappenden",
    "synonyms": [
      "Nicola Tappenden"
    ]
  },
  {
    "value": "Nina Agdal",
    "synonyms": [
      "Nina Agdal"
    ]
  },
  {
    "value": "Pamela Anderson",
    "synonyms": [
      "Pamela Anderson"
    ]
  },
  {
    "value": "Pamela Green",
    "synonyms": [
      "Pamela Green"
    ]
  },
  {
    "value": "Pamela Horton",
    "synonyms": [
      "Pamela Horton"
    ]
  },
  {
    "value": "Paulina Porizkova",
    "synonyms": [
      "Paulina Porizkova"
    ]
  },
  {
    "value": "Paz de la Huerta",
    "synonyms": [
      "Paz de la Huerta"
    ]
  },
  {
    "value": "Peta Todd",
    "synonyms": [
      "Peta Todd"
    ]
  },
  {
    "value": "Rachel Hunter",
    "synonyms": [
      "Rachel Hunter"
    ]
  },
  {
    "value": "Rachel Mortenson",
    "synonyms": [
      "Rachel Mortenson"
    ]
  },
  {
    "value": "Raquel Pomplun",
    "synonyms": [
      "Raquel Pomplun"
    ]
  },
  {
    "value": "Rebecca Romijn",
    "synonyms": [
      "Rebecca Romijn"
    ]
  },
  {
    "value": "Rhian Sugden",
    "synonyms": [
      "Rhian Sugden"
    ]
  },
  {
    "value": "Romee Strijd",
    "synonyms": [
      "Romee Strijd"
    ]
  },
  {
    "value": "Ronda Rousey",
    "synonyms": [
      "Ronda Rousey"
    ]
  },
  {
    "value": "Rosie Huntington-Whiteley",
    "synonyms": [
      "Rosie Huntington-Whiteley"
    ]
  },
  {
    "value": "Rosie Jones",
    "synonyms": [
      "Rosie Jones"
    ]
  },
  {
    "value": "Ruth Higham",
    "synonyms": [
      "Ruth Higham"
    ]
  },
  {
    "value": "Sam Cooke",
    "synonyms": [
      "Sam Cooke"
    ]
  },
  {
    "value": "Samantha Fox",
    "synonyms": [
      "Samantha Fox"
    ]
  },
  {
    "value": "Sara Sampaio",
    "synonyms": [
      "Sara Sampaio"
    ]
  },
  {
    "value": "Sarah McDaniel",
    "synonyms": [
      "Sarah McDaniel"
    ]
  },
  {
    "value": "Selita Ebanks",
    "synonyms": [
      "Selita Ebanks"
    ]
  },
  {
    "value": "Seren Gibson",
    "synonyms": [
      "Seren Gibson"
    ]
  },
  {
    "value": "Sheila Roscoe",
    "synonyms": [
      "Sheila Roscoe"
    ]
  },
  {
    "value": "Shelley Hack",
    "synonyms": [
      "Shelley Hack"
    ]
  },
  {
    "value": "Shera Bechard",
    "synonyms": [
      "Shera Bechard"
    ]
  },
  {
    "value": "Simone Holtznagel",
    "synonyms": [
      "Simone Holtznagel"
    ]
  },
  {
    "value": "Sky Ferreira",
    "synonyms": [
      "Sky Ferreira"
    ]
  },
  {
    "value": "Sophie Howard",
    "synonyms": [
      "Sophie Howard"
    ]
  },
  {
    "value": "Sophie Reade",
    "synonyms": [
      "Sophie Reade"
    ]
  },
  {
    "value": "Stella Maxwell",
    "synonyms": [
      "Stella Maxwell"
    ]
  },
  {
    "value": "Stephanie Branton",
    "synonyms": [
      "Stephanie Branton"
    ]
  },
  {
    "value": "Stephanie Corneliussen",
    "synonyms": [
      "Stephanie Corneliussen"
    ]
  },
  {
    "value": "Stephanie Fox",
    "synonyms": [
      "Stephanie Fox"
    ]
  },
  {
    "value": "Stephanie Seymour",
    "synonyms": [
      "Stephanie Seymour"
    ]
  },
  {
    "value": "Sue Peterson",
    "synonyms": [
      "Sue Peterson"
    ]
  },
  {
    "value": "Sunny Bippus",
    "synonyms": [
      "Sunny Bippus"
    ]
  },
  {
    "value": "Tamara Ecclestone",
    "synonyms": [
      "Tamara Ecclestone"
    ]
  },
  {
    "value": "Tannia Rubiano",
    "synonyms": [
      "Tannia Rubiano"
    ]
  },
  {
    "value": "Tanya Robinson",
    "synonyms": [
      "Tanya Robinson"
    ]
  },
  {
    "value": "Tara Reid",
    "synonyms": [
      "Tara Reid"
    ]
  },
  {
    "value": "Taryn Manning",
    "synonyms": [
      "Taryn Manning"
    ]
  },
  {
    "value": "Taylor Marie Hill",
    "synonyms": [
      "Taylor Marie Hill"
    ]
  },
  {
    "value": "Turia Mau",
    "synonyms": [
      "Turia Mau"
    ]
  },
  {
    "value": "Tyra Banks",
    "synonyms": [
      "Tyra Banks"
    ]
  },
  {
    "value": "Valeria Mazza",
    "synonyms": [
      "Valeria Mazza"
    ]
  },
  {
    "value": "Valerie van der Graaf",
    "synonyms": [
      "Valerie van der Graaf"
    ]
  },
  {
    "value": "Vendela Kirsebom",
    "synonyms": [
      "Vendela Kirsebom"
    ]
  },
  {
    "value": "Vida Guerra",
    "synonyms": [
      "Vida Guerra"
    ]
  },
  {
    "value": "Winter Ave Zoli",
    "synonyms": [
      "Winter Ave Zoli"
    ]
  },
  {
    "value": "Yamila Diaz-Rahi",
    "synonyms": [
      "Yamila Diaz-Rahi"
    ]
  },
  {
    "value": "Yvette Sylvander",
    "synonyms": [
      "Yvette Sylvander"
    ]
  }
]