[
  {
    "value": "Alfred Hitchcock",
    "synonyms": [
      "Alfred Hitchcock"
    ]
  },
  {
    "value": "Arthur Penn",
    "synonyms": [
      "Arthur Penn"
    ]
  },
  {
    "value": "Billy Wilder",
    "synonyms": [
      "Billy Wilder"
    ]
  },
  {
    "value": "Brian De Palma",
    "synonyms": [
      "Brian De Palma"
    ]
  },
  {
    "value": "Cecil B. DeMille",
    "synonyms": [
      "Cecil B. DeMille"
    ]
  },
  {
    "value": "Charlie Chaplin",
    "synonyms": [
      "Charlie Chaplin"
    ]
  },
  {
    "value": "Clint Eastwood",
    "synonyms": [
      "Clint Eastwood"
    ]
  },
  {
    "value": "D.W. Griffith",
    "synonyms": [
      "D.W. Griffith"
    ]
  },
  {
    "value": "David Lean",
    "synonyms": [
      "David Lean"
    ]
  },
  {
    "value": "David Lynch",
    "synonyms": [
      "David Lynch"
    ]
  },
  {
    "value": "Douglas Sirk",
    "synonyms": [
      "Douglas Sirk"
    ]
  },
  {
    "value": "Elia Kazan",
    "synonyms": [
      "Elia Kazan"
    ]
  },
  {
    "value": "Ernst Lubitsch",
    "synonyms": [
      "Ernst Lubitsch"
    ]
  },
  {
    "value": "Francis Ford Coppola",
    "synonyms": [
      "Francis Ford Coppola"
    ]
  },
  {
    "value": "Frank Capra",
    "synonyms": [
      "Frank Capra"
    ]
  },
  {
    "value": "Fritz Lang",
    "synonyms": [
      "Fritz Lang"
    ]
  },
  {
    "value": "George Cukor",
    "synonyms": [
      "George Cukor"
    ]
  },
  {
    "value": "George Lucas",
    "synonyms": [
      "George Lucas"
    ]
  },
  {
    "value": "Howard Hawks",
    "synonyms": [
      "Howard Hawks"
    ]
  },
  {
    "value": "James Cameron",
    "synonyms": [
      "James Cameron"
    ]
  },
  {
    "value": "Joel Coen",
    "synonyms": [
      "Joel Coen"
    ]
  },
  {
    "value": "John Cassavetes",
    "synonyms": [
      "John Cassavetes"
    ]
  },
  {
    "value": "John Ford",
    "synonyms": [
      "John Ford"
    ]
  },
  {
    "value": "John Huston",
    "synonyms": [
      "John Huston"
    ]
  },
  {
    "value": "Joseph L. Mankiewicz",
    "synonyms": [
      "Joseph L. Mankiewicz"
    ]
  },
  {
    "value": "Martin Scorsese",
    "synonyms": [
      "Martin Scorsese"
    ]
  },
  {
    "value": "Mel Brooks",
    "synonyms": [
      "Mel Brooks"
    ]
  },
  {
    "value": "Michael Curtiz",
    "synonyms": [
      "Michael Curtiz"
    ]
  },
  {
    "value": "Michael Powell",
    "synonyms": [
      "Michael Powell"
    ]
  },
  {
    "value": "Mike Nichols",
    "synonyms": [
      "Mike Nichols"
    ]
  },
  {
    "value": "Oliver Stone",
    "synonyms": [
      "Oliver Stone"
    ]
  },
  {
    "value": "Orson Welles",
    "synonyms": [
      "Orson Welles"
    ]
  },
  {
    "value": "Otto Preminger",
    "synonyms": [
      "Otto Preminger"
    ]
  },
  {
    "value": "Peter Jackson",
    "synonyms": [
      "Peter Jackson"
    ]
  },
  {
    "value": "Preston Sturges",
    "synonyms": [
      "Preston Sturges"
    ]
  },
  {
    "value": "Quentin Tarantino",
    "synonyms": [
      "Quentin Tarantino"
    ]
  },
  {
    "value": "Ridley Scott",
    "synonyms": [
      "Ridley Scott"
    ]
  },
  {
    "value": "Robert Altman",
    "synonyms": [
      "Robert Altman"
    ]
  },
  {
    "value": "Robert Zemeckis",
    "synonyms": [
      "Robert Zemeckis"
    ]
  },
  {
    "value": "Roman Polanski",
    "synonyms": [
      "Roman Polanski"
    ]
  },
  {
    "value": "Sam Peckinpah",
    "synonyms": [
      "Sam Peckinpah"
    ]
  },
  {
    "value": "Sam Raimi",
    "synonyms": [
      "Sam Raimi"
    ]
  },
  {
    "value": "Spike Lee",
    "synonyms": [
      "Spike Lee"
    ]
  },
  {
    "value": "Stanley Kubrick",
    "synonyms": [
      "Stanley Kubrick"
    ]
  },
  {
    "value": "Steven Spielberg",
    "synonyms": [
      "Steven Spielberg"
    ]
  },
  {
    "value": "Terrence Malick",
    "synonyms": [
      "Terrence Malick"
    ]
  },
  {
    "value": "Tim Burton",
    "synonyms": [
      "Tim Burton"
    ]
  },
  {
    "value": "Vincente Minnelli",
    "synonyms": [
      "Vincente Minnelli"
    ]
  },
  {
    "value": "William Wyler",
    "synonyms": [
      "William Wyler"
    ]
  },
  {
    "value": "Woody Allen",
    "synonyms": [
      "Woody Allen"
    ]
  }
]