{
  "id": "c6591b8f-f876-427c-baad-f6a350c2a7d8",
  "name": "tv_listings.search",
  "auto": true,
  "contexts": [],
  "responses": [
    {
      "resetContexts": false,
      "action": "tv_listings.search",
      "affectedContexts": [
        {
          "name": "tv-search",
          "parameters": {},
          "lifespan": 5
        }
      ],
      "parameters": [
        {
          "id": "fce07719-b879-4957-8dd9-b4ef0036fe77",
          "required": false,
          "dataType": "@sys.number",
          "name": "number",
          "value": "$number",
          "promptMessages": [],
          "noMatchPromptMessages": [],
          "noInputPromptMessages": [],
          "outputDialogContexts": [],
          "isList": false
        },
        {
          "id": "c5793983-0018-4a18-9a6a-c96e3b4ba613",
          "required": false,
          "dataType": "@movie",
          "name": "movie",
          "value": "$movie",
          "promptMessages": [],
          "noMatchPromptMessages": [],
          "noInputPromptMessages": [],
          "outputDialogContexts": [],
          "isList": false
        },
        {
          "id": "bcc04e96-64a8-4aa0-abf2-5362a60b2c94",
          "required": false,
          "dataType": "@movie-genre",
          "name": "movie-genre",
          "value": "$movie-genre",
          "promptMessages": [],
          "noMatchPromptMessages": [],
          "noInputPromptMessages": [],
          "outputDialogContexts": [],
          "isList": false
        },
        {
          "id": "26a2686a-0629-4e94-8e4b-2dcf45e592ee",
          "required": false,
          "dataType": "@sport-team",
          "name": "team",
          "value": "$team",
          "promptMessages": [],
          "noMatchPromptMessages": [],
          "noInputPromptMessages": [],
          "outputDialogContexts": [],
          "isList": false
        },
        {
          "id": "bba5afe3-d7f3-48f9-9e4c-0167eed1909c",
          "required": false,
          "dataType": "@tv-channel",
          "name": "channel",
          "value": "$channel",
          "promptMessages": [],
          "noMatchPromptMessages": [],
          "noInputPromptMessages": [],
          "outputDialogContexts": [],
          "isList": false
        },
        {
          "id": "da0d05b4-4adc-40aa-9ab7-0c4ffb0a12db",
          "required": false,
          "dataType": "@sys.date-time",
          "name": "date-time",
          "value": "$date-time",
          "promptMessages": [],
          "noMatchPromptMessages": [],
          "noInputPromptMessages": [],
          "outputDialogContexts": [],
          "isList": false
        },
        {
          "id": "2a350fb9-ce30-4dfc-ae2d-23251fa3b14c",
          "required": false,
          "dataType": "@person",
          "name": "person",
          "value": "$person",
          "promptMessages": [],
          "noMatchPromptMessages": [],
          "noInputPromptMessages": [],
          "outputDialogContexts": [],
          "isList": false
        },
        {
          "id": "0d203717-f6be-4934-a6dd-c3fe4a5922aa",
          "required": false,
          "dataType": "@tv-show",
          "name": "show",
          "value": "$show",
          "promptMessages": [],
          "noMatchPromptMessages": [],
          "noInputPromptMessages": [],
          "outputDialogContexts": [],
          "isList": false
        }
      ],
      "messages": [
        {
          "type": 0,
          "lang": "en",
          "condition": "",
          "speech": []
        }
      ],
      "defaultResponsePlatforms": {},
      "speech": []
    }
  ],
  "priority": 500000,
  "webhookUsed": false,
  "webhookForSlotFilling": false,
  "fallbackIntent": false,
  "events": [],
  "conditionalResponses": [],
  "condition": "",
  "conditionalFollowupEvents": []
}