{
  "id": "053612be-2aaa-4544-9912-bc9c4019f2f1",
  "name": "tv_listings.search - context:tv-search - comment:date time",
  "auto": true,
  "contexts": [
    "tv-search"
  ],
  "responses": [
    {
      "resetContexts": false,
      "action": "tv_listings.search",
      "affectedContexts": [],
      "parameters": [
        {
          "id": "312382ce-dbf1-4f42-bc6d-75849e9f69e2",
          "required": false,
          "dataType": "@sys.date-time",
          "name": "date-time",
          "value": "$date-time",
          "promptMessages": [],
          "noMatchPromptMessages": [],
          "noInputPromptMessages": [],
          "outputDialogContexts": [],
          "isList": false
        }
      ],
      "messages": [
        {
          "type": 0,
          "lang": "en",
          "condition": "",
          "speech": []
        }
      ],
      "defaultResponsePlatforms": {},
      "speech": []
    }
  ],
  "priority": 500000,
  "webhookUsed": false,
  "webhookForSlotFilling": false,
  "fallbackIntent": false,
  "events": [],
  "conditionalResponses": [],
  "condition": "",
  "conditionalFollowupEvents": []
}