[
  {
    "id": "a1c9800f-2e4c-49d2-a99f-240d92dc0116",
    "data": [
      {
        "text": "Breaking Bad",
        "alias": "show",
        "meta": "@tv-show",
        "userDefined": false
      },
      {
        "text": " too",
        "userDefined": false
      }
    ],
    "isTemplate": false,
    "count": 0,
    "updated": 0
  },
  {
    "id": "06d3a9da-9a36-46c6-8d0d-ab18439fe6b7",
    "data": [
      {
        "text": "and what about ",
        "userDefined": false
      },
      {
        "text": "Friends",
        "alias": "show",
        "meta": "@tv-show",
        "userDefined": true
      }
    ],
    "isTemplate": false,
    "count": 0,
    "updated": 0
  },
  {
    "id": "c017b21a-eefd-446d-a973-0e7551dc1516",
    "data": [
      {
        "text": "Breaking Bad",
        "alias": "show",
        "meta": "@tv-show",
        "userDefined": false
      },
      {
        "text": " please",
        "userDefined": false
      }
    ],
    "isTemplate": false,
    "count": 1,
    "updated": 0
  },
  {
    "id": "74091726-6c9a-4658-8b07-86685cbec41a",
    "data": [
      {
        "text": "and ",
        "userDefined": false
      },
      {
        "text": "House of Cards",
        "alias": "show",
        "meta": "@tv-show",
        "userDefined": false
      },
      {
        "text": " as ",
        "userDefined": false
      },
      {
        "text": "well",
        "meta": "@sys.ignore",
        "userDefined": false
      },
      {
        "text": " please",
        "userDefined": false
      }
    ],
    "isTemplate": false,
    "count": 0,
    "updated": 0
  },
  {
    "id": "d19df2d0-4797-4e78-bfb6-c7a2f1d37697",
    "data": [
      {
        "text": "and ",
        "userDefined": false
      },
      {
        "text": "Walking Dead",
        "alias": "show",
        "meta": "@tv-show",
        "userDefined": false
      }
    ],
    "isTemplate": false,
    "count": 0,
    "updated": 0
  },
  {
    "id": "1e606289-7440-43b7-b8ce-6de9ea1173ce",
    "data": [
      {
        "text": "and ",
        "userDefined": false
      },
      {
        "text": "now",
        "meta": "@sys.ignore",
        "userDefined": false
      },
      {
        "text": " ",
        "userDefined": false
      },
      {
        "text": "Breaking Bad",
        "alias": "show",
        "meta": "@tv-show",
        "userDefined": false
      },
      {
        "text": " please",
        "userDefined": false
      }
    ],
    "isTemplate": false,
    "count": 0,
    "updated": 0
  },
  {
    "id": "81db96f6-4a77-4850-9483-fa19becbe13d",
    "data": [
      {
        "text": "Better Call Saul",
        "alias": "show",
        "meta": "@tv-show",
        "userDefined": true
      },
      {
        "text": " also",
        "userDefined": false
      }
    ],
    "isTemplate": false,
    "count": 0,
    "updated": 0
  },
  {
    "id": "b7f5fe33-4a46-42ac-b473-ba2dbbf464f0",
    "data": [
      {
        "text": "The Vampire Diaries",
        "alias": "show",
        "meta": "@tv-show",
        "userDefined": true
      }
    ],
    "isTemplate": false,
    "count": 0,
    "updated": 0
  },
  {
    "id": "bb5d5de9-3027-4435-8b94-0a8ac1748ec3",
    "data": [
      {
        "text": "how ",
        "userDefined": false
      },
      {
        "text": "about",
        "meta": "@sys.ignore",
        "userDefined": false
      },
      {
        "text": " ",
        "userDefined": false
      },
      {
        "text": "Supergirl",
        "alias": "show",
        "meta": "@tv-show",
        "userDefined": false
      }
    ],
    "isTemplate": false,
    "count": 0,
    "updated": 0
  },
  {
    "id": "dd007f2d-1ff4-43b8-ad14-b7a7635565bb",
    "data": [
      {
        "text": "what about ",
        "userDefined": false
      },
      {
        "text": "Big Bang Theory",
        "alias": "show",
        "meta": "@tv-show",
        "userDefined": false
      }
    ],
    "isTemplate": false,
    "count": 0,
    "updated": 0
  }
]