{
  "id": "bbefa0df-28ab-4973-81d6-67d4db40e6a2",
  "name": "tv_listings.search - context:tv-search - comment:show",
  "auto": true,
  "contexts": [
    "tv-search"
  ],
  "responses": [
    {
      "resetContexts": false,
      "action": "tv_listings.search",
      "affectedContexts": [
        {
          "name": "tv-search",
          "parameters": {},
          "lifespan": 2
        }
      ],
      "parameters": [
        {
          "id": "2c4c7868-fe06-4901-9953-cedc75fc3708",
          "required": false,
          "dataType": "@tv-show",
          "name": "show",
          "value": "$show",
          "promptMessages": [],
          "noMatchPromptMessages": [],
          "noInputPromptMessages": [],
          "outputDialogContexts": [],
          "isList": false
        }
      ],
      "messages": [
        {
          "type": 0,
          "lang": "en",
          "condition": "",
          "speech": []
        }
      ],
      "defaultResponsePlatforms": {},
      "speech": []
    }
  ],
  "priority": 500000,
  "webhookUsed": false,
  "webhookForSlotFilling": false,
  "fallbackIntent": false,
  "events": [],
  "conditionalResponses": [],
  "condition": "",
  "conditionalFollowupEvents": []
}