[
  {
    "id": "aab6bf1d-151d-4be6-9d47-e94c6e2be080",
    "data": [
      {
        "text": "clear history in ",
        "userDefined": false
      },
      {
        "text": "Slack",
        "alias": "app-name",
        "meta": "@app-name",
        "userDefined": false
      }
    ],
    "isTemplate": false,
    "count": 0,
    "updated": 0
  },
  {
    "id": "e25999ba-a91d-4ea9-957f-4ff66f281d3c",
    "data": [
      {
        "text": "delete ",
        "userDefined": false
      },
      {
        "text": "Skype",
        "alias": "app-name",
        "meta": "@app-name",
        "userDefined": false
      },
      {
        "text": " history",
        "userDefined": false
      }
    ],
    "isTemplate": false,
    "count": 0,
    "updated": 0
  },
  {
    "id": "903b6416-c35e-4383-b933-46e74df9e78e",
    "data": [
      {
        "text": "clear history of the app ",
        "userDefined": false
      },
      {
        "text": "Viber",
        "alias": "app-name",
        "meta": "@app-name",
        "userDefined": false
      }
    ],
    "isTemplate": false,
    "count": 0,
    "updated": 0
  },
  {
    "id": "cc604a17-205a-426b-92aa-8ce20d63a5cb",
    "data": [
      {
        "text": "clear ",
        "userDefined": false
      },
      {
        "text": "browser",
        "alias": "app-name",
        "meta": "@app-name",
        "userDefined": false
      },
      {
        "text": " history",
        "userDefined": false
      }
    ],
    "isTemplate": false,
    "count": 0,
    "updated": 0
  },
  {
    "id": "19c923a7-7e6f-450a-9ca2-c51cae9a0f09",
    "data": [
      {
        "text": "clear history in ",
        "userDefined": false
      },
      {
        "text": "Facebook",
        "alias": "app-name",
        "meta": "@app-name",
        "userDefined": false
      },
      {
        "text": " app",
        "userDefined": false
      }
    ],
    "isTemplate": false,
    "count": 0,
    "updated": 0
  }
]