[
  {
    "id": "43bb0a43-7fea-4b32-84f2-d85081175b8c",
    "data": [
      {
        "text": "what\u0027s new in the current version",
        "userDefined": false
      }
    ],
    "isTemplate": false,
    "count": 0,
    "updated": 0
  },
  {
    "id": "340448a4-3232-45e8-9207-c12a14334e80",
    "data": [
      {
        "text": "current",
        "meta": "@sys.ignore",
        "userDefined": false
      },
      {
        "text": " version summary",
        "userDefined": false
      }
    ],
    "isTemplate": false,
    "count": 0,
    "updated": 0
  },
  {
    "id": "5016a680-7078-4653-8082-613655001ecf",
    "data": [
      {
        "text": "what\u0027s new in this version",
        "userDefined": false
      }
    ],
    "isTemplate": false,
    "count": 0,
    "updated": 0
  },
  {
    "id": "b3f98faa-c81d-4118-837c-fb96b5cb59cf",
    "data": [
      {
        "text": "what\u0027s new in current version",
        "userDefined": false
      }
    ],
    "isTemplate": false,
    "count": 0,
    "updated": 0
  },
  {
    "id": "fa52a0e6-a017-4aba-81aa-7ab4a935a8a5",
    "data": [
      {
        "text": "show me the summary of the ",
        "userDefined": false
      },
      {
        "text": "current",
        "meta": "@sys.ignore",
        "userDefined": false
      },
      {
        "text": " version",
        "userDefined": false
      }
    ],
    "isTemplate": false,
    "count": 0,
    "updated": 0
  },
  {
    "id": "1112003e-da00-445f-a5f5-fa8814b490b2",
    "data": [
      {
        "text": "give me a summary of your ",
        "userDefined": false
      },
      {
        "text": "current",
        "meta": "@sys.ignore",
        "userDefined": false
      },
      {
        "text": " version",
        "userDefined": false
      }
    ],
    "isTemplate": false,
    "count": 0,
    "updated": 0
  }
]