{
  "id": "6026816e-7e89-4281-a1f8-8772f355f056",
  "name": "app.settings.open",
  "auto": true,
  "contexts": [],
  "responses": [
    {
      "resetContexts": false,
      "action": "app.settings.open",
      "affectedContexts": [],
      "parameters": [
        {
          "id": "48251ba2-e4da-46c3-8dea-2916be6431a4",
          "required": false,
          "dataType": "@app-name",
          "name": "app-name",
          "value": "$app-name",
          "promptMessages": [],
          "noMatchPromptMessages": [],
          "noInputPromptMessages": [],
          "outputDialogContexts": [],
          "isList": false
        }
      ],
      "messages": [
        {
          "type": 0,
          "lang": "en",
          "condition": "",
          "speech": []
        }
      ],
      "defaultResponsePlatforms": {},
      "speech": []
    }
  ],
  "priority": 500000,
  "webhookUsed": false,
  "webhookForSlotFilling": false,
  "fallbackIntent": false,
  "events": [],
  "conditionalResponses": [],
  "condition": "",
  "conditionalFollowupEvents": []
}