[
  {
    "id": "a0a93cb7-1503-42f2-88bd-ea271c59be94",
    "data": [
      {
        "text": "uninstall app",
        "userDefined": false
      }
    ],
    "isTemplate": false,
    "count": 0,
    "updated": 0
  },
  {
    "id": "49f81a70-dcd8-4427-89cb-2b3186ed062e",
    "data": [
      {
        "text": "can you uninstall app",
        "userDefined": false
      }
    ],
    "isTemplate": false,
    "count": 0,
    "updated": 0
  },
  {
    "id": "204578d0-bf44-480b-b17b-cbe106ec7e42",
    "data": [
      {
        "text": "get",
        "meta": "@sys.ignore",
        "userDefined": true
      },
      {
        "text": " rid of ",
        "userDefined": false
      },
      {
        "text": "WhatsApp",
        "alias": "app-name",
        "meta": "@app-name",
        "userDefined": true
      }
    ],
    "isTemplate": false,
    "count": 0,
    "updated": 0
  },
  {
    "id": "a415c2bc-5891-4b9f-914f-eb8a36b3047d",
    "data": [
      {
        "text": "remove ",
        "userDefined": false
      },
      {
        "text": "all",
        "alias": "all",
        "meta": "@all",
        "userDefined": true
      },
      {
        "text": " apps",
        "userDefined": false
      }
    ],
    "isTemplate": false,
    "count": 1,
    "updated": 0
  },
  {
    "id": "7d1d8bfa-8603-4936-bb2a-7e769169061a",
    "data": [
      {
        "text": "remove application",
        "userDefined": false
      }
    ],
    "isTemplate": false,
    "count": 0,
    "updated": 0
  },
  {
    "id": "5c1f84d7-b3f9-4ac9-80dd-3ba5a9a99175",
    "data": [
      {
        "text": "delete app",
        "userDefined": false
      }
    ],
    "isTemplate": false,
    "count": 0,
    "updated": 0
  },
  {
    "id": "0b3951db-6543-4505-b90a-31e41b665297",
    "data": [
      {
        "text": "delete ",
        "userDefined": false
      },
      {
        "text": "every",
        "alias": "all",
        "meta": "@all",
        "userDefined": true
      },
      {
        "text": " apps",
        "userDefined": false
      }
    ],
    "isTemplate": false,
    "count": 0,
    "updated": 0
  },
  {
    "id": "b8763633-c786-48dc-9650-f676fba463af",
    "data": [
      {
        "text": "can you uninstall my apps",
        "userDefined": false
      }
    ],
    "isTemplate": false,
    "count": 0,
    "updated": 0
  },
  {
    "id": "0b3ae689-7494-4e10-87ff-4992096df01a",
    "data": [
      {
        "text": "uninstall some app",
        "userDefined": false
      }
    ],
    "isTemplate": false,
    "count": 0,
    "updated": 0
  },
  {
    "id": "ac9ac849-5762-4b64-bee8-7a6e7072f6fa",
    "data": [
      {
        "text": "uninstall ",
        "userDefined": false
      },
      {
        "text": "Viber",
        "alias": "app-name",
        "meta": "@app-name",
        "userDefined": true
      }
    ],
    "isTemplate": false,
    "count": 1,
    "updated": 0
  },
  {
    "id": "f97b56a8-af27-4181-976c-c812aaa528fc",
    "data": [
      {
        "text": "I want to delete app ",
        "userDefined": false
      },
      {
        "text": "Skeevy",
        "alias": "app-name",
        "meta": "@app-name",
        "userDefined": true
      }
    ],
    "isTemplate": false,
    "count": 0,
    "updated": 0
  },
  {
    "id": "471d13cd-be42-405c-9733-63399ad8b162",
    "data": [
      {
        "text": "delete ",
        "userDefined": false
      },
      {
        "text": "YouTube",
        "alias": "app-name",
        "meta": "@app-name",
        "userDefined": false
      }
    ],
    "isTemplate": false,
    "count": 0,
    "updated": 0
  },
  {
    "id": "4347f827-3eda-488a-ac18-a09886ef88d7",
    "data": [
      {
        "text": "can you uninstall an app for me",
        "userDefined": false
      }
    ],
    "isTemplate": false,
    "count": 0,
    "updated": 0
  },
  {
    "id": "67a5011f-bd55-4014-be80-4c9b430bb237",
    "data": [
      {
        "text": "can you delete an app",
        "userDefined": false
      }
    ],
    "isTemplate": false,
    "count": 0,
    "updated": 0
  },
  {
    "id": "2429320b-4d2f-4b31-943c-5c95dd55c48c",
    "data": [
      {
        "text": "uninstall ",
        "userDefined": false
      },
      {
        "text": "all of",
        "alias": "all",
        "meta": "@all",
        "userDefined": true
      },
      {
        "text": " my apps",
        "userDefined": false
      }
    ],
    "isTemplate": false,
    "count": 0,
    "updated": 0
  },
  {
    "id": "9a67aa9a-8c77-453a-b3f8-9e76a8952c75",
    "data": [
      {
        "text": "can you uninstall an app",
        "userDefined": false
      }
    ],
    "isTemplate": false,
    "count": 0,
    "updated": 0
  },
  {
    "id": "57ceb9df-1488-4ccd-86d3-33d1fee53a07",
    "data": [
      {
        "text": "remove application ",
        "userDefined": false
      },
      {
        "text": "WhatsApp",
        "alias": "app-name",
        "meta": "@app-name",
        "userDefined": true
      }
    ],
    "isTemplate": false,
    "count": 0,
    "updated": 0
  },
  {
    "id": "3a326cea-2b97-4ec7-af2a-65295c3c5d38",
    "data": [
      {
        "text": "please uninstall ",
        "userDefined": false
      },
      {
        "text": "Facebook Messenger",
        "alias": "app-name",
        "meta": "@app-name",
        "userDefined": true
      }
    ],
    "isTemplate": false,
    "count": 0,
    "updated": 0
  },
  {
    "id": "62166f7f-4b09-49a8-b14d-639b4bc2b7dc",
    "data": [
      {
        "text": "uninstall ",
        "userDefined": false
      },
      {
        "text": "App Store",
        "alias": "store-name",
        "meta": "@app-store-name",
        "userDefined": true
      }
    ],
    "isTemplate": false,
    "count": 0,
    "updated": 0
  },
  {
    "id": "5c2c3eaf-244c-488c-acf6-a428f71e71f2",
    "data": [
      {
        "text": "remove my ",
        "userDefined": false
      },
      {
        "text": "Twitter",
        "alias": "app-name",
        "meta": "@app-name",
        "userDefined": true
      },
      {
        "text": " application",
        "userDefined": false
      }
    ],
    "isTemplate": false,
    "count": 0,
    "updated": 0
  },
  {
    "id": "6501a48c-fa69-4df5-aad9-8471e924560f",
    "data": [
      {
        "text": "can you delete apps",
        "userDefined": false
      }
    ],
    "isTemplate": false,
    "count": 0,
    "updated": 0
  },
  {
    "id": "0237fe22-c976-4dca-82ea-74882f23b096",
    "data": [
      {
        "text": "uninstall application",
        "userDefined": false
      }
    ],
    "isTemplate": false,
    "count": 0,
    "updated": 0
  },
  {
    "id": "e81acff8-1b06-4287-ae8d-d5e0ca4f76c4",
    "data": [
      {
        "text": "can you delete an app for me",
        "userDefined": false
      }
    ],
    "isTemplate": false,
    "count": 0,
    "updated": 0
  },
  {
    "id": "3231de1f-f958-4c1f-892d-5350e5855784",
    "data": [
      {
        "text": "I\u0027d like to remove an app",
        "userDefined": false
      }
    ],
    "isTemplate": false,
    "count": 0,
    "updated": 0
  },
  {
    "id": "4dba5208-756e-4a63-b0fa-2e77d3508510",
    "data": [
      {
        "text": "can you delete apps for me",
        "userDefined": false
      }
    ],
    "isTemplate": false,
    "count": 0,
    "updated": 0
  },
  {
    "id": "9b68ce0e-d4c6-473b-b403-de600f2a0533",
    "data": [
      {
        "text": "delete my apps",
        "userDefined": false
      }
    ],
    "isTemplate": false,
    "count": 0,
    "updated": 0
  },
  {
    "id": "0ca8b425-987e-40d4-a5de-07bb6081246f",
    "data": [
      {
        "text": "how do I delete apps",
        "userDefined": false
      }
    ],
    "isTemplate": false,
    "count": 0,
    "updated": 0
  },
  {
    "id": "66097854-7201-4711-9394-7a6a271693ce",
    "data": [
      {
        "text": "uninstall ",
        "userDefined": false
      },
      {
        "text": "all",
        "alias": "all",
        "meta": "@all",
        "userDefined": true
      },
      {
        "text": " apps",
        "userDefined": false
      }
    ],
    "isTemplate": false,
    "count": 0,
    "updated": 0
  },
  {
    "id": "d32bdbb9-9728-470f-a429-ed4385745686",
    "data": [
      {
        "text": "get",
        "meta": "@sys.ignore",
        "userDefined": false
      },
      {
        "text": " rid ",
        "userDefined": false
      },
      {
        "text": "of",
        "meta": "@sys.ignore",
        "userDefined": false
      },
      {
        "text": " ",
        "userDefined": false
      },
      {
        "text": "Chrome",
        "alias": "app-name",
        "meta": "@app-name",
        "userDefined": false
      },
      {
        "text": " app",
        "userDefined": false
      }
    ],
    "isTemplate": false,
    "count": 0,
    "updated": 0
  },
  {
    "id": "27526833-79a7-4906-bc56-f20071990aaa",
    "data": [
      {
        "text": "uninstall ",
        "userDefined": false
      },
      {
        "text": "WhatsApp",
        "alias": "app-name",
        "meta": "@app-name",
        "userDefined": false
      }
    ],
    "isTemplate": false,
    "count": 0,
    "updated": 0
  },
  {
    "id": "97f5fa89-f9de-47e6-97a5-b69d9897a954",
    "data": [
      {
        "text": "delete ",
        "userDefined": false
      },
      {
        "text": "Angry Birds",
        "alias": "app-name",
        "meta": "@app-name",
        "userDefined": true
      },
      {
        "text": " from my phone",
        "userDefined": false
      }
    ],
    "isTemplate": false,
    "count": 0,
    "updated": 0
  },
  {
    "id": "7b9296f4-c566-4187-8d1b-f494d7f68d73",
    "data": [
      {
        "text": "can",
        "meta": "@sys.ignore",
        "userDefined": false
      },
      {
        "text": " you uninstall ",
        "userDefined": false
      },
      {
        "text": "an",
        "meta": "@sys.ignore",
        "userDefined": false
      },
      {
        "text": " application",
        "userDefined": false
      }
    ],
    "isTemplate": false,
    "count": 0,
    "updated": 0
  },
  {
    "id": "55bee83d-7f01-406d-9659-dd6dffec9d60",
    "data": [
      {
        "text": "delete ",
        "userDefined": false
      },
      {
        "text": "all",
        "alias": "all",
        "meta": "@all",
        "userDefined": true
      },
      {
        "text": " my apps",
        "userDefined": false
      }
    ],
    "isTemplate": false,
    "count": 0,
    "updated": 0
  },
  {
    "id": "0fbc5807-e97e-410b-8ef3-fcbb6dd09708",
    "data": [
      {
        "text": "can you delete ",
        "userDefined": false
      },
      {
        "text": "all",
        "alias": "all",
        "meta": "@all",
        "userDefined": true
      },
      {
        "text": " my apps",
        "userDefined": false
      }
    ],
    "isTemplate": false,
    "count": 0,
    "updated": 0
  },
  {
    "id": "9c6412a4-6711-4c11-8380-c5708a60e605",
    "data": [
      {
        "text": "remove ",
        "userDefined": false
      },
      {
        "text": "Play Store",
        "alias": "store-name",
        "meta": "@app-store-name",
        "userDefined": false
      }
    ],
    "isTemplate": false,
    "count": 0,
    "updated": 0
  },
  {
    "id": "1a8c3976-3d91-4463-aa40-bb738e40a298",
    "data": [
      {
        "text": "I want to uninstall an app",
        "userDefined": false
      }
    ],
    "isTemplate": false,
    "count": 0,
    "updated": 0
  },
  {
    "id": "9b507b9a-3ac2-4fe2-b3ec-99e9401aadfe",
    "data": [
      {
        "text": "delete ",
        "userDefined": false
      },
      {
        "text": "every",
        "alias": "all",
        "meta": "@all",
        "userDefined": true
      },
      {
        "text": " application from my device",
        "userDefined": false
      }
    ],
    "isTemplate": false,
    "count": 0,
    "updated": 0
  },
  {
    "id": "4583ed3f-633e-45f0-87e2-7bcb610d8ec4",
    "data": [
      {
        "text": "uninstall program",
        "userDefined": false
      }
    ],
    "isTemplate": false,
    "count": 0,
    "updated": 0
  },
  {
    "id": "c4b80ec5-a547-443b-8e67-1b8e50d28ba0",
    "data": [
      {
        "text": "I want to uninstall ",
        "userDefined": false
      },
      {
        "text": "App Store",
        "alias": "store-name",
        "meta": "@app-store-name",
        "userDefined": true
      }
    ],
    "isTemplate": false,
    "count": 0,
    "updated": 0
  },
  {
    "id": "59c9f113-6953-4f68-bf16-3a839c6e41f3",
    "data": [
      {
        "text": "can you remove ",
        "userDefined": false
      },
      {
        "text": "TuneIn Radio Pro",
        "alias": "app-name",
        "meta": "@app-name",
        "userDefined": true
      }
    ],
    "isTemplate": false,
    "count": 0,
    "updated": 0
  },
  {
    "id": "37b6c580-8e0b-4e4a-9f8d-e03bc6a22e36",
    "data": [
      {
        "text": "could you remove the app ",
        "userDefined": false
      },
      {
        "text": "Soccer",
        "alias": "app-name",
        "meta": "@app-name",
        "userDefined": true
      }
    ],
    "isTemplate": false,
    "count": 0,
    "updated": 0
  },
  {
    "id": "df045aaa-9a2b-4a60-a5ec-e6e1594e520a",
    "data": [
      {
        "text": "how do I delete an app",
        "userDefined": false
      }
    ],
    "isTemplate": false,
    "count": 0,
    "updated": 0
  },
  {
    "id": "51345e43-4d3e-40f8-8db9-afac721a5d25",
    "data": [
      {
        "text": "how to delete the app ",
        "userDefined": false
      },
      {
        "text": "Viber",
        "alias": "app-name",
        "meta": "@app-name",
        "userDefined": true
      }
    ],
    "isTemplate": false,
    "count": 0,
    "updated": 0
  },
  {
    "id": "49bad17d-ea36-4f1f-9f1c-b2334b9e1cf0",
    "data": [
      {
        "text": "can",
        "meta": "@sys.ignore",
        "userDefined": false
      },
      {
        "text": " you uninstall apps for me",
        "userDefined": false
      }
    ],
    "isTemplate": false,
    "count": 0,
    "updated": 0
  },
  {
    "id": "5453d9f5-f252-4e6a-b7b6-0cc31f23b41c",
    "data": [
      {
        "text": "how can I get rid of ",
        "userDefined": false
      },
      {
        "text": "Viber",
        "alias": "app-name",
        "meta": "@app-name",
        "userDefined": true
      },
      {
        "text": " application",
        "userDefined": false
      }
    ],
    "isTemplate": false,
    "count": 0,
    "updated": 0
  },
  {
    "id": "7eb53990-5a00-42e8-b216-de2b044c82b8",
    "data": [
      {
        "text": "remove ",
        "userDefined": false
      },
      {
        "text": "Fruit Ninja",
        "alias": "app-name",
        "meta": "@app-name",
        "userDefined": true
      }
    ],
    "isTemplate": false,
    "count": 0,
    "updated": 0
  },
  {
    "id": "92cb26e5-4c1b-4414-8517-9b1fb09f4d64",
    "data": [
      {
        "text": "remove ",
        "userDefined": false
      },
      {
        "text": "Twitter",
        "alias": "app-name",
        "meta": "@app-name",
        "userDefined": true
      },
      {
        "text": " app",
        "userDefined": false
      }
    ],
    "isTemplate": false,
    "count": 0,
    "updated": 0
  },
  {
    "id": "ae45a7fe-9254-49ea-ba1a-08a6b391eaa4",
    "data": [
      {
        "text": "delete apps",
        "userDefined": false
      }
    ],
    "isTemplate": false,
    "count": 0,
    "updated": 0
  },
  {
    "id": "3f8d7390-8daf-45cc-ba56-f44f42428054",
    "data": [
      {
        "text": "I\u0027m",
        "meta": "@sys.ignore",
        "userDefined": false
      },
      {
        "text": " going to delete the app",
        "userDefined": false
      }
    ],
    "isTemplate": false,
    "count": 0,
    "updated": 0
  },
  {
    "id": "d4779cdd-2844-4e99-8f17-074026fe7212",
    "data": [
      {
        "text": "can you delete applications",
        "userDefined": false
      }
    ],
    "isTemplate": false,
    "count": 0,
    "updated": 0
  }
]