[
  {
    "id": "a9f2f9af-49ec-4b34-bfe1-ac7f53dcde5a",
    "data": [
      {
        "text": "show me the summary of the new version of the ",
        "userDefined": false
      },
      {
        "text": "Kik",
        "alias": "app-name",
        "meta": "@app-name",
        "userDefined": true
      },
      {
        "text": " app",
        "userDefined": false
      }
    ],
    "isTemplate": false,
    "count": 0,
    "updated": 0
  },
  {
    "id": "c5df4eda-6e5e-4f77-8aa3-30c0df63aead",
    "data": [
      {
        "text": "read the version summary of the ",
        "userDefined": false
      },
      {
        "text": "VK",
        "alias": "app-name",
        "meta": "@app-name",
        "userDefined": true
      },
      {
        "text": " application",
        "userDefined": false
      }
    ],
    "isTemplate": false,
    "count": 0,
    "updated": 0
  },
  {
    "id": "4036b134-e2d1-4276-b8de-67b8480e1077",
    "data": [
      {
        "text": "what\u0027s new in ",
        "userDefined": false
      },
      {
        "text": "WhatsApp",
        "alias": "app-name",
        "meta": "@app-name",
        "userDefined": false
      },
      {
        "text": " ",
        "userDefined": false
      },
      {
        "text": "latest",
        "meta": "@sys.ignore",
        "userDefined": true
      },
      {
        "text": " version",
        "userDefined": false
      }
    ],
    "isTemplate": false,
    "count": 0,
    "updated": 0
  },
  {
    "id": "3b39f41c-83e9-45a6-a85c-50db331bc268",
    "data": [
      {
        "text": "Slack",
        "alias": "app-name",
        "meta": "@app-name",
        "userDefined": true
      },
      {
        "text": " version summary",
        "userDefined": false
      }
    ],
    "isTemplate": false,
    "count": 0,
    "updated": 0
  },
  {
    "id": "537c19ec-b1fb-40d7-87eb-1b4d30fa33d7",
    "data": [
      {
        "text": "what\u0027s new in the latest version of ",
        "userDefined": false
      },
      {
        "text": "Twitter",
        "alias": "app-name",
        "meta": "@app-name",
        "userDefined": true
      },
      {
        "text": " app",
        "userDefined": false
      }
    ],
    "isTemplate": false,
    "count": 0,
    "updated": 0
  },
  {
    "id": "ba2d9a95-619a-4e0b-81d8-e2ace915002f",
    "data": [
      {
        "text": "show me what\u0027s new in the latest version of ",
        "userDefined": false
      },
      {
        "text": "Skype",
        "alias": "app-name",
        "meta": "@app-name",
        "userDefined": true
      }
    ],
    "isTemplate": false,
    "count": 0,
    "updated": 0
  }
]