[
  {
    "id": "6eebab23-92cd-4e68-9afc-ea4633aba0d6",
    "data": [
      {
        "text": "I want to adjust your speech",
        "userDefined": false
      }
    ],
    "isTemplate": false,
    "count": 0,
    "updated": 0
  },
  {
    "id": "d71f09cc-7193-46ec-8545-6f8513102545",
    "data": [
      {
        "text": "show me your speech settings",
        "userDefined": false
      }
    ],
    "isTemplate": false,
    "count": 0,
    "updated": 0
  },
  {
    "id": "41a7817a-ac51-4631-a4d6-3d4034901564",
    "data": [
      {
        "text": "where can I adjust your speech",
        "userDefined": false
      }
    ],
    "isTemplate": false,
    "count": 0,
    "updated": 0
  },
  {
    "id": "412ec837-7847-4bb1-9cde-12b18ec75402",
    "data": [
      {
        "text": "open speech settings of your app",
        "userDefined": false
      }
    ],
    "isTemplate": false,
    "count": 0,
    "updated": 0
  },
  {
    "id": "4b9f14c1-56f7-4c7b-9b0e-9da0573801ab",
    "data": [
      {
        "text": "I\u0027d like to open your speech settings",
        "userDefined": false
      }
    ],
    "isTemplate": false,
    "count": 0,
    "updated": 0
  },
  {
    "id": "72b31a94-c2fa-4f3f-a937-b1a0887accfe",
    "data": [
      {
        "text": "pull up speech settings",
        "userDefined": false
      }
    ],
    "isTemplate": false,
    "count": 0,
    "updated": 0
  },
  {
    "id": "ec44b01d-8dfb-40c7-b06d-b92cc3c9ea0b",
    "data": [
      {
        "text": "change your speech settings",
        "userDefined": false
      }
    ],
    "isTemplate": false,
    "count": 0,
    "updated": 0
  }
]