[
  {
    "id": "f8f5e202-030e-4b56-98ef-667ddc2f9b7b",
    "data": [
      {
        "text": "any notifications from ",
        "userDefined": false
      },
      {
        "text": "Angry birds",
        "alias": "app-name",
        "meta": "@app-name",
        "userDefined": true
      }
    ],
    "isTemplate": false,
    "count": 0,
    "updated": 0
  },
  {
    "id": "2d991d6c-8e6b-49b6-b6f6-8c9c710119de",
    "data": [
      {
        "text": "show notifications from ",
        "userDefined": false
      },
      {
        "text": "my",
        "meta": "@sys.ignore",
        "userDefined": true
      },
      {
        "text": " ",
        "userDefined": false
      },
      {
        "text": "Facebook",
        "alias": "app-name",
        "meta": "@app-name",
        "userDefined": true
      }
    ],
    "isTemplate": false,
    "count": 0,
    "updated": 0
  },
  {
    "id": "1c35edd6-284b-4182-899d-a0f6ece09255",
    "data": [
      {
        "text": "could you read",
        "meta": "@sys.ignore",
        "userDefined": true
      },
      {
        "text": " notifications from my ",
        "userDefined": false
      },
      {
        "text": "Twitter",
        "alias": "app-name",
        "meta": "@app-name",
        "userDefined": true
      }
    ],
    "isTemplate": false,
    "count": 0,
    "updated": 0
  },
  {
    "id": "5d569325-7863-44ea-bf41-739b76ceed9f",
    "data": [
      {
        "text": "access ",
        "userDefined": false
      },
      {
        "text": "Google Assistant",
        "alias": "app-name",
        "meta": "@app-name",
        "userDefined": true
      },
      {
        "text": " notifications menu",
        "userDefined": false
      }
    ],
    "isTemplate": false,
    "count": 0,
    "updated": 0
  },
  {
    "id": "28e236d1-9e61-4309-9d65-a9fd433ceeaf",
    "data": [
      {
        "text": "open ",
        "userDefined": false
      },
      {
        "text": "Allo",
        "alias": "app-name",
        "meta": "@app-name",
        "userDefined": true
      },
      {
        "text": " notifications settings",
        "userDefined": false
      }
    ],
    "isTemplate": false,
    "count": 0,
    "updated": 0
  },
  {
    "id": "e079abd3-e4c7-4ee4-bbe3-a5752cdafee7",
    "data": [
      {
        "text": "read notifications from ",
        "userDefined": false
      },
      {
        "text": "Skype",
        "alias": "app-name",
        "meta": "@app-name",
        "userDefined": true
      }
    ],
    "isTemplate": false,
    "count": 0,
    "updated": 0
  },
  {
    "id": "f93eef8a-78ca-409e-a35b-8817c7bdefa1",
    "data": [
      {
        "text": "open ",
        "userDefined": false
      },
      {
        "text": "Slack",
        "alias": "app-name",
        "meta": "@app-name",
        "userDefined": true
      },
      {
        "text": " notifications",
        "userDefined": false
      }
    ],
    "isTemplate": false,
    "count": 0,
    "updated": 0
  }
]