[
  {
    "id": "152820cb-c731-4b06-8e24-20c79ecced40",
    "data": [
      {
        "text": "Russian history",
        "userDefined": false
      }
    ],
    "isTemplate": false,
    "count": 0,
    "updated": 0
  },
  {
    "id": "98cd4d1c-d5aa-44f9-96f2-50ee6341c197",
    "data": [
      {
        "text": "find me most rated cafe nearby",
        "userDefined": false
      }
    ],
    "isTemplate": false,
    "count": 0,
    "updated": 0
  },
  {
    "id": "2b7ad2bd-9dbe-4f7f-9bd1-b307a4dea683",
    "data": [
      {
        "text": "most rated restaurant",
        "userDefined": false
      }
    ],
    "isTemplate": false,
    "count": 0,
    "updated": 0
  },
  {
    "id": "ca83b09b-17c4-4215-beb7-995c25a828e0",
    "data": [
      {
        "text": "I don\u0027t like my voice",
        "userDefined": false
      }
    ],
    "isTemplate": false,
    "count": 0,
    "updated": 0
  },
  {
    "id": "04f14980-9264-44ea-bcd9-f9d8839e34bb",
    "data": [
      {
        "text": "I like your voice",
        "userDefined": false
      }
    ],
    "isTemplate": false,
    "count": 0,
    "updated": 0
  },
  {
    "id": "3a87491b-0a6a-4c7d-bb83-79c6b65a0ce9",
    "data": [
      {
        "text": "American history",
        "userDefined": false
      }
    ],
    "isTemplate": false,
    "count": 0,
    "updated": 0
  },
  {
    "id": "34f3229f-facc-40eb-af6b-6a6566c69dcb",
    "data": [
      {
        "text": "what is my phone number",
        "userDefined": false
      }
    ],
    "isTemplate": false,
    "count": 0,
    "updated": 0
  },
  {
    "id": "33750cd7-7466-4de3-8316-42ea4ba711ae",
    "data": [
      {
        "text": "what is your phone number",
        "userDefined": false
      }
    ],
    "isTemplate": false,
    "count": 0,
    "updated": 0
  },
  {
    "id": "cf1561ad-caa5-4a95-bd6e-80b5dcc2affb",
    "data": [
      {
        "text": "where am I",
        "userDefined": false
      }
    ],
    "isTemplate": false,
    "count": 0,
    "updated": 0
  },
  {
    "id": "5d21b540-89b7-4602-873b-d76093b607eb",
    "data": [
      {
        "text": "find me",
        "userDefined": false
      }
    ],
    "isTemplate": false,
    "count": 0,
    "updated": 0
  }
]