[
  {
    "id": "46c6693d-b93a-41b5-846d-c36a19fa9b7a",
    "data": [
      {
        "text": "switch to ",
        "userDefined": false
      },
      {
        "text": "imperial",
        "meta": "@sys.ignore",
        "userDefined": false
      },
      {
        "text": " units",
        "userDefined": false
      }
    ],
    "isTemplate": false,
    "count": 0,
    "updated": 0
  },
  {
    "id": "76e05935-bc28-47ca-86cc-2a5f605894be",
    "data": [
      {
        "text": "use ",
        "userDefined": false
      },
      {
        "text": "imperial",
        "meta": "@sys.ignore",
        "userDefined": false
      },
      {
        "text": " units",
        "userDefined": false
      }
    ],
    "isTemplate": false,
    "count": 0,
    "updated": 0
  },
  {
    "id": "05b8c2e3-9023-467c-b989-8654183d4e4e",
    "data": [
      {
        "text": "provide me information in ",
        "userDefined": false
      },
      {
        "text": "imperial",
        "meta": "@sys.ignore",
        "userDefined": false
      },
      {
        "text": " units",
        "userDefined": false
      }
    ],
    "isTemplate": false,
    "count": 0,
    "updated": 0
  },
  {
    "id": "00a6f839-154f-4831-a9df-ff1f9103c4f6",
    "data": [
      {
        "text": "could you use ",
        "userDefined": false
      },
      {
        "text": "imperial",
        "meta": "@sys.ignore",
        "userDefined": false
      },
      {
        "text": " units of measurement",
        "userDefined": false
      }
    ],
    "isTemplate": false,
    "count": 0,
    "updated": 0
  },
  {
    "id": "1937a5c6-1700-4798-9194-e77d11a98a03",
    "data": [
      {
        "text": "imperial",
        "meta": "@sys.ignore",
        "userDefined": false
      },
      {
        "text": " units system",
        "userDefined": false
      }
    ],
    "isTemplate": false,
    "count": 0,
    "updated": 0
  },
  {
    "id": "4a879bf8-e968-4418-a7c3-a87632b30db2",
    "data": [
      {
        "text": "I\u0027d like to use ",
        "userDefined": false
      },
      {
        "text": "imperial",
        "meta": "@sys.ignore",
        "userDefined": false
      },
      {
        "text": " system",
        "userDefined": false
      }
    ],
    "isTemplate": false,
    "count": 0,
    "updated": 0
  }
]