[
  {
    "id": "c13b51c5-5ff9-4c96-9607-10343b182914",
    "data": [
      {
        "text": "use ",
        "userDefined": false
      },
      {
        "text": "24-hour",
        "alias": "format",
        "meta": "@time-format",
        "userDefined": true
      },
      {
        "text": " format",
        "userDefined": false
      }
    ],
    "isTemplate": false,
    "count": 0,
    "updated": 0
  },
  {
    "id": "0c9a51d1-9ab4-4727-84f2-9b13ddda3002",
    "data": [
      {
        "text": "use ",
        "userDefined": false
      },
      {
        "text": "12 hour",
        "alias": "format",
        "meta": "@time-format",
        "userDefined": true
      },
      {
        "text": " time format",
        "userDefined": false
      }
    ],
    "isTemplate": false,
    "count": 0,
    "updated": 0
  },
  {
    "id": "a4d8de63-569f-4e5a-9e0b-e13a0e5aca88",
    "data": [
      {
        "text": "show me the time in ",
        "userDefined": false
      },
      {
        "text": "12-hr",
        "alias": "format",
        "meta": "@time-format",
        "userDefined": true
      },
      {
        "text": " format",
        "userDefined": false
      }
    ],
    "isTemplate": false,
    "count": 0,
    "updated": 0
  },
  {
    "id": "9c3f2d49-e119-49ba-9634-f408a4b42283",
    "data": [
      {
        "text": "provide me the time in ",
        "userDefined": false
      },
      {
        "text": "military",
        "alias": "format",
        "meta": "@time-format",
        "userDefined": true
      },
      {
        "text": " format",
        "userDefined": false
      }
    ],
    "isTemplate": false,
    "count": 0,
    "updated": 0
  },
  {
    "id": "faf9751d-5ad5-4c53-869d-f1a4575f1917",
    "data": [
      {
        "text": "I\u0027d like to get the time in ",
        "userDefined": false
      },
      {
        "text": "24 hour",
        "alias": "format",
        "meta": "@time-format",
        "userDefined": true
      },
      {
        "text": " format",
        "userDefined": false
      }
    ],
    "isTemplate": false,
    "count": 0,
    "updated": 0
  },
  {
    "id": "c4824aaa-e1e1-44ea-908e-c854e8784c44",
    "data": [
      {
        "text": "set the time format",
        "userDefined": false
      }
    ],
    "isTemplate": false,
    "count": 0,
    "updated": 0
  },
  {
    "id": "58467773-adcc-4aca-8ee4-e33c145a1d33",
    "data": [
      {
        "text": "set ",
        "userDefined": false
      },
      {
        "text": "military",
        "alias": "format",
        "meta": "@time-format",
        "userDefined": true
      },
      {
        "text": " time format",
        "userDefined": false
      }
    ],
    "isTemplate": false,
    "count": 0,
    "updated": 0
  }
]