[
  {
    "id": "941abbf0-7141-4e04-9425-d20b10fc8f74",
    "data": [
      {
        "text": "what OS version do I have",
        "userDefined": false
      }
    ],
    "isTemplate": false,
    "count": 0,
    "updated": 0
  },
  {
    "id": "329913ca-6c94-408f-8096-6bbad6f8b453",
    "data": [
      {
        "text": "check my OS",
        "userDefined": false
      }
    ],
    "isTemplate": false,
    "count": 0,
    "updated": 0
  },
  {
    "id": "d11011fd-2462-442e-80d4-1227ba955a37",
    "data": [
      {
        "text": "my Android version",
        "userDefined": false
      }
    ],
    "isTemplate": false,
    "count": 0,
    "updated": 0
  },
  {
    "id": "2b23a0dc-97f3-4993-9c5e-401903e45e65",
    "data": [
      {
        "text": "what OS do I use",
        "userDefined": false
      }
    ],
    "isTemplate": false,
    "count": 0,
    "updated": 0
  },
  {
    "id": "28c4b4a9-5266-442d-be50-9c9b1dc52d3f",
    "data": [
      {
        "text": "check operational system",
        "userDefined": false
      }
    ],
    "isTemplate": false,
    "count": 0,
    "updated": 0
  },
  {
    "id": "d1541c91-5ca8-492b-aac1-69485d750cbd",
    "data": [
      {
        "text": "check my iOS version",
        "userDefined": false
      }
    ],
    "isTemplate": false,
    "count": 0,
    "updated": 0
  },
  {
    "id": "fad89a71-07b9-485c-8eaf-75864d1f9ddf",
    "data": [
      {
        "text": "what OS am I running",
        "userDefined": false
      }
    ],
    "isTemplate": false,
    "count": 0,
    "updated": 0
  },
  {
    "id": "7abde59b-dad9-468a-8552-cdf5d921edfa",
    "data": [
      {
        "text": "what is my operational system",
        "userDefined": false
      }
    ],
    "isTemplate": false,
    "count": 0,
    "updated": 0
  },
  {
    "id": "b95fa93d-60d3-4228-a303-9562b1ae6601",
    "data": [
      {
        "text": "check OS version",
        "userDefined": false
      }
    ],
    "isTemplate": false,
    "count": 0,
    "updated": 0
  },
  {
    "id": "66f12075-5042-4d70-aadd-e30e8952fab1",
    "data": [
      {
        "text": "what Andriod version do I have",
        "userDefined": false
      }
    ],
    "isTemplate": false,
    "count": 0,
    "updated": 0
  },
  {
    "id": "a60b04c7-629f-474d-813e-1679338b33e2",
    "data": [
      {
        "text": "software version",
        "userDefined": false
      }
    ],
    "isTemplate": false,
    "count": 0,
    "updated": 0
  }
]