[
  {
    "id": "1d1306b8-6ca3-46c4-9a46-edb112b78ff5",
    "data": [
      {
        "text": "what is my battery percentage",
        "userDefined": false
      }
    ],
    "isTemplate": false,
    "count": 0,
    "updated": 0
  },
  {
    "id": "e0d4ffef-2511-4351-b24d-5b9e339f1078",
    "data": [
      {
        "text": "check battery level",
        "userDefined": false
      }
    ],
    "isTemplate": false,
    "count": 0,
    "updated": 0
  },
  {
    "id": "0fe217cd-a71b-43a7-8e63-0a67ff4cc8ae",
    "data": [
      {
        "text": "do I need to charge my battery",
        "userDefined": false
      }
    ],
    "isTemplate": false,
    "count": 0,
    "updated": 0
  },
  {
    "id": "8f17ffcb-5194-4eca-b08a-f9f855a85b44",
    "data": [
      {
        "text": "how much battery do I have",
        "userDefined": false
      }
    ],
    "isTemplate": false,
    "count": 0,
    "updated": 0
  },
  {
    "id": "64f7a151-a3d8-4091-8bad-b51f732a82ce",
    "data": [
      {
        "text": "can you check my battery",
        "userDefined": false
      }
    ],
    "isTemplate": false,
    "count": 0,
    "updated": 0
  },
  {
    "id": "745462bf-c4e0-4428-acd9-7d78478945d4",
    "data": [
      {
        "text": "how low is my battery",
        "userDefined": false
      }
    ],
    "isTemplate": false,
    "count": 0,
    "updated": 0
  },
  {
    "id": "0260b7f8-0579-407d-b96f-8cb0d1dff5bf",
    "data": [
      {
        "text": "battery monitor",
        "userDefined": false
      }
    ],
    "isTemplate": false,
    "count": 0,
    "updated": 0
  },
  {
    "id": "c0ea88cc-331f-4cdd-8ec1-2667f4ab48a1",
    "data": [
      {
        "text": "how is my battery",
        "userDefined": false
      }
    ],
    "isTemplate": false,
    "count": 0,
    "updated": 0
  },
  {
    "id": "24840a0b-b148-48b9-ba09-3616401736b6",
    "data": [
      {
        "text": "how much battery I got left",
        "userDefined": false
      }
    ],
    "isTemplate": false,
    "count": 0,
    "updated": 0
  },
  {
    "id": "b934db17-d964-4211-9066-7cc37553ce9e",
    "data": [
      {
        "text": "battery life",
        "userDefined": false
      }
    ],
    "isTemplate": false,
    "count": 0,
    "updated": 0
  },
  {
    "id": "c5f19f17-82c5-456d-a3cf-32b7759de74e",
    "data": [
      {
        "text": "how full is my battery",
        "userDefined": false
      }
    ],
    "isTemplate": false,
    "count": 0,
    "updated": 0
  },
  {
    "id": "d207875f-e2ac-44ab-a5ed-3171b8f115ab",
    "data": [
      {
        "text": "what\u0027s my battery charge",
        "userDefined": false
      }
    ],
    "isTemplate": false,
    "count": 0,
    "updated": 0
  },
  {
    "id": "1b70000a-873a-4462-9766-bed47ea770ff",
    "data": [
      {
        "text": "is the battery charged",
        "userDefined": false
      }
    ],
    "isTemplate": false,
    "count": 0,
    "updated": 0
  },
  {
    "id": "5047efc8-12e6-46e1-919d-7921be4a14cd",
    "data": [
      {
        "text": "show my battery percentage",
        "userDefined": false
      }
    ],
    "isTemplate": false,
    "count": 0,
    "updated": 0
  },
  {
    "id": "b21dd2c7-5bd4-4254-83c5-4d43e0768337",
    "data": [
      {
        "text": "how much battery power do I have",
        "userDefined": false
      }
    ],
    "isTemplate": false,
    "count": 0,
    "updated": 0
  },
  {
    "id": "8feca985-759e-49aa-a674-440c2beb8c43",
    "data": [
      {
        "text": "what\u0027s my battery level",
        "userDefined": false
      }
    ],
    "isTemplate": false,
    "count": 0,
    "updated": 0
  },
  {
    "id": "bda61c16-c5f3-4bfb-b98d-b0ac11e31ef3",
    "data": [
      {
        "text": "battery status",
        "userDefined": false
      }
    ],
    "isTemplate": false,
    "count": 0,
    "updated": 0
  },
  {
    "id": "717e4390-45e0-4246-bed7-bd9e0ace47d4",
    "data": [
      {
        "text": "battery level",
        "userDefined": false
      }
    ],
    "isTemplate": false,
    "count": 0,
    "updated": 0
  },
  {
    "id": "3374b98d-5885-4c2d-bd09-49655aae6cd1",
    "data": [
      {
        "text": "is my battery low",
        "userDefined": false
      }
    ],
    "isTemplate": false,
    "count": 0,
    "updated": 0
  },
  {
    "id": "21866a82-04ae-4b7f-bb3e-4f531ed4481e",
    "data": [
      {
        "text": "do I need to recharge",
        "userDefined": false
      }
    ],
    "isTemplate": false,
    "count": 0,
    "updated": 0
  },
  {
    "id": "2446879c-6a8c-4eee-9412-e8ca384b9dda",
    "data": [
      {
        "text": "how much battery is remaining",
        "userDefined": false
      }
    ],
    "isTemplate": false,
    "count": 0,
    "updated": 0
  }
]