{
  "id": "00e1d66b-599f-4076-a5c8-3a0d5ab4bb90",
  "name": "currency.convert - context:convert-currency",
  "auto": true,
  "contexts": [
    "convert-currency"
  ],
  "responses": [
    {
      "resetContexts": false,
      "action": "currency.convert",
      "affectedContexts": [],
      "parameters": [
        {
          "id": "68e1b3e4-7c01-427a-a2a3-7a6d67f0bd8c",
          "required": false,
          "dataType": "@sys.currency-name",
          "name": "currency-from",
          "value": "$currency-from",
          "promptMessages": [],
          "noMatchPromptMessages": [],
          "noInputPromptMessages": [],
          "outputDialogContexts": [],
          "isList": false
        },
        {
          "id": "53845440-bb31-4d6c-b3d1-390dedcd0aac",
          "required": false,
          "dataType": "@sys.currency-name",
          "name": "currency-to",
          "value": "$currency-to",
          "promptMessages": [],
          "noMatchPromptMessages": [],
          "noInputPromptMessages": [],
          "outputDialogContexts": [],
          "isList": false
        },
        {
          "id": "bc79ec11-ae9e-40a5-bcdd-978ca58896a9",
          "required": false,
          "dataType": "@sys.number",
          "name": "amount",
          "value": "$amount",
          "promptMessages": [],
          "noMatchPromptMessages": [],
          "noInputPromptMessages": [],
          "outputDialogContexts": [],
          "isList": false
        }
      ],
      "messages": [
        {
          "type": 0,
          "lang": "en",
          "condition": "",
          "speech": []
        }
      ],
      "defaultResponsePlatforms": {},
      "speech": []
    }
  ],
  "priority": 500000,
  "webhookUsed": false,
  "webhookForSlotFilling": false,
  "fallbackIntent": false,
  "events": [],
  "conditionalResponses": [],
  "condition": "",
  "conditionalFollowupEvents": []
}