[
  {
    "id": "3de4cea4-ded0-421a-8862-c87a6ce52049",
    "data": [
      {
        "text": "what\u0027s the exchange rate for ",
        "userDefined": false
      },
      {
        "text": "Canadian dollars",
        "alias": "currency-from",
        "meta": "@sys.currency-name",
        "userDefined": true
      },
      {
        "text": " to ",
        "userDefined": false
      },
      {
        "text": "US dollars",
        "alias": "currency-to",
        "meta": "@sys.currency-name",
        "userDefined": true
      }
    ],
    "isTemplate": false,
    "count": 0,
    "updated": 0
  },
  {
    "id": "ff0c8b0f-bf0f-47dc-ba58-0702f16748eb",
    "data": [
      {
        "text": "currency conversion",
        "userDefined": false
      }
    ],
    "isTemplate": false,
    "count": 0,
    "updated": 0
  },
  {
    "id": "7edccd9d-c818-41d6-8a68-2b4d12f59432",
    "data": [
      {
        "text": "how many ",
        "userDefined": false
      },
      {
        "text": "US Dollars",
        "alias": "currency-to",
        "meta": "@sys.currency-name",
        "userDefined": true
      },
      {
        "text": " will ",
        "userDefined": false
      },
      {
        "text": "300",
        "alias": "amount",
        "meta": "@sys.number",
        "userDefined": true
      },
      {
        "text": " ",
        "userDefined": false
      },
      {
        "text": "Euro",
        "alias": "currency-from",
        "meta": "@sys.currency-name",
        "userDefined": true
      },
      {
        "text": " get me",
        "userDefined": false
      }
    ],
    "isTemplate": false,
    "count": 0,
    "updated": 0
  },
  {
    "id": "6b40db8b-251b-450d-8f63-c26a60b9ac87",
    "data": [
      {
        "text": "the price for ",
        "userDefined": false
      },
      {
        "text": "Mexican Peso",
        "alias": "currency-from",
        "meta": "@sys.currency-name",
        "userDefined": true
      }
    ],
    "isTemplate": false,
    "count": 0,
    "updated": 0
  },
  {
    "id": "aa6ea3ae-2e9a-43fa-b008-5e8430555772",
    "data": [
      {
        "text": "what\u0027s the currency exchange ",
        "userDefined": false
      },
      {
        "text": "right now",
        "meta": "@sys.ignore",
        "userDefined": false
      }
    ],
    "isTemplate": false,
    "count": 0,
    "updated": 0
  },
  {
    "id": "37901473-9eb5-4a2f-940b-f52acb48009a",
    "data": [
      {
        "text": "how much will I get for ",
        "userDefined": false
      },
      {
        "text": "1000",
        "alias": "amount",
        "meta": "@sys.number",
        "userDefined": true
      },
      {
        "text": " ",
        "userDefined": false
      },
      {
        "text": "Euro",
        "alias": "currency-from",
        "meta": "@sys.currency-name",
        "userDefined": true
      }
    ],
    "isTemplate": false,
    "count": 0,
    "updated": 0
  },
  {
    "id": "6aedf66d-6b25-41b3-a85b-9871fff1c605",
    "data": [
      {
        "text": "how much is ",
        "userDefined": false
      },
      {
        "text": "30",
        "alias": "amount",
        "meta": "@sys.number",
        "userDefined": true
      },
      {
        "text": " ",
        "userDefined": false
      },
      {
        "text": "English Pounds",
        "alias": "currency-from",
        "meta": "@sys.currency-name",
        "userDefined": true
      },
      {
        "text": " in Ethiopian ",
        "userDefined": false
      },
      {
        "text": "Birrs",
        "alias": "currency-to",
        "meta": "@sys.currency-name",
        "userDefined": true
      }
    ],
    "isTemplate": false,
    "count": 0,
    "updated": 0
  },
  {
    "id": "bb936ebf-8079-4289-8916-b18b27541f55",
    "data": [
      {
        "text": "convert ",
        "userDefined": false
      },
      {
        "text": "Jamaican Dollars",
        "alias": "currency-from",
        "meta": "@sys.currency-name",
        "userDefined": true
      },
      {
        "text": " into ",
        "userDefined": false
      },
      {
        "text": "Euros",
        "alias": "currency-to",
        "meta": "@sys.currency-name",
        "userDefined": true
      }
    ],
    "isTemplate": false,
    "count": 0,
    "updated": 0
  },
  {
    "id": "b4af1cec-9695-4504-ba62-2c3a2445fa1a",
    "data": [
      {
        "text": "convert ",
        "userDefined": false
      },
      {
        "text": "$",
        "alias": "currency-from",
        "meta": "@sys.currency-name",
        "userDefined": true
      },
      {
        "text": "200",
        "alias": "amount",
        "meta": "@sys.number",
        "userDefined": true
      }
    ],
    "isTemplate": false,
    "count": 1,
    "updated": 0
  },
  {
    "id": "24138f98-4313-4522-8f3c-24106299de4f",
    "data": [
      {
        "text": "currency conversion from ",
        "userDefined": false
      },
      {
        "text": "Yens",
        "alias": "currency-from",
        "meta": "@sys.currency-name",
        "userDefined": true
      },
      {
        "text": " to ",
        "userDefined": false
      },
      {
        "text": "New Taiwan Dollars",
        "alias": "currency-to",
        "meta": "@sys.currency-name",
        "userDefined": true
      }
    ],
    "isTemplate": false,
    "count": 0,
    "updated": 0
  },
  {
    "id": "9b34d98d-5aac-4237-a7b3-11debb41a324",
    "data": [
      {
        "text": "25",
        "alias": "amount",
        "meta": "@sys.number",
        "userDefined": true
      },
      {
        "text": " ",
        "userDefined": false
      },
      {
        "text": "Tenge",
        "alias": "currency-from",
        "meta": "@sys.currency-name",
        "userDefined": true
      },
      {
        "text": " converted into ",
        "userDefined": false
      },
      {
        "text": "Dinar",
        "alias": "currency-to",
        "meta": "@sys.currency-name",
        "userDefined": true
      }
    ],
    "isTemplate": false,
    "count": 0,
    "updated": 0
  },
  {
    "id": "7c1c1b95-48fe-4b10-9fe5-8d9d65fca646",
    "data": [
      {
        "text": "what\u0027s the ",
        "userDefined": false
      },
      {
        "text": "Euro",
        "alias": "currency-from",
        "meta": "@sys.currency-name",
        "userDefined": true
      },
      {
        "text": " exchange rate",
        "userDefined": false
      }
    ],
    "isTemplate": false,
    "count": 0,
    "updated": 0
  },
  {
    "id": "255128e5-4126-4356-91ce-5d9662fa0ca2",
    "data": [
      {
        "text": "100",
        "alias": "amount",
        "meta": "@sys.number",
        "userDefined": true
      },
      {
        "text": " ",
        "userDefined": false
      },
      {
        "text": "Euro",
        "alias": "currency-from",
        "meta": "@sys.currency-name",
        "userDefined": true
      },
      {
        "text": " into ",
        "userDefined": false
      },
      {
        "text": "US Dollars",
        "alias": "currency-to",
        "meta": "@sys.currency-name",
        "userDefined": true
      }
    ],
    "isTemplate": false,
    "count": 0,
    "updated": 0
  },
  {
    "id": "66c2b252-3640-495a-a0a2-4563372b2262",
    "data": [
      {
        "text": "convert ",
        "userDefined": false
      },
      {
        "text": "100",
        "alias": "amount",
        "meta": "@sys.number",
        "userDefined": true
      },
      {
        "text": " ",
        "userDefined": false
      },
      {
        "text": "Pounds",
        "alias": "currency-from",
        "meta": "@sys.currency-name",
        "userDefined": true
      },
      {
        "text": " to ",
        "userDefined": false
      },
      {
        "text": "Dollars",
        "alias": "currency-to",
        "meta": "@sys.currency-name",
        "userDefined": true
      }
    ],
    "isTemplate": false,
    "count": 0,
    "updated": 0
  },
  {
    "id": "1183eb21-40f1-4d5b-a3a3-901e2b64fc1c",
    "data": [
      {
        "text": "exchange rate",
        "userDefined": false
      }
    ],
    "isTemplate": false,
    "count": 0,
    "updated": 0
  },
  {
    "id": "46830df7-faea-412c-9f97-4117e38a0a2c",
    "data": [
      {
        "text": "USD",
        "alias": "currency-from",
        "meta": "@sys.currency-name",
        "userDefined": true
      },
      {
        "text": " into ",
        "userDefined": false
      },
      {
        "text": "JPY",
        "alias": "currency-to",
        "meta": "@sys.currency-name",
        "userDefined": true
      }
    ],
    "isTemplate": false,
    "count": 0,
    "updated": 0
  },
  {
    "id": "d80419e8-a663-4e41-afef-5e9d079f8102",
    "data": [
      {
        "text": "can you convert currencies",
        "userDefined": false
      }
    ],
    "isTemplate": false,
    "count": 0,
    "updated": 0
  },
  {
    "id": "16c4e03a-b370-4692-8be7-8eff75e2bbd4",
    "data": [
      {
        "text": "what\u0027s ",
        "userDefined": false
      },
      {
        "text": "100",
        "alias": "amount",
        "meta": "@sys.number",
        "userDefined": true
      },
      {
        "text": " ",
        "userDefined": false
      },
      {
        "text": "Levas",
        "alias": "currency-from",
        "meta": "@sys.currency-name",
        "userDefined": true
      },
      {
        "text": " in ",
        "userDefined": false
      },
      {
        "text": "Kunas",
        "alias": "currency-to",
        "meta": "@sys.currency-name",
        "userDefined": true
      }
    ],
    "isTemplate": false,
    "count": 0,
    "updated": 0
  },
  {
    "id": "168c4f57-3722-4db4-a669-8a0d490f5ff5",
    "data": [
      {
        "text": "how do currencies perform",
        "userDefined": false
      }
    ],
    "isTemplate": false,
    "count": 0,
    "updated": 0
  },
  {
    "id": "2847941a-609a-4aec-aab8-99e5a6061d90",
    "data": [
      {
        "text": "convert ",
        "userDefined": false
      },
      {
        "text": "3",
        "alias": "amount",
        "meta": "@sys.number",
        "userDefined": true
      },
      {
        "text": " ",
        "userDefined": false
      },
      {
        "text": "dinars",
        "alias": "currency-from",
        "meta": "@sys.currency-name",
        "userDefined": true
      },
      {
        "text": " in ",
        "userDefined": false
      },
      {
        "text": "dollars",
        "alias": "currency-to",
        "meta": "@sys.currency-name",
        "userDefined": true
      }
    ],
    "isTemplate": false,
    "count": 0,
    "updated": 0
  },
  {
    "id": "d4705b3b-f5e4-48bf-8720-de20214897cb",
    "data": [
      {
        "text": "British Pound",
        "alias": "currency-from",
        "meta": "@sys.currency-name",
        "userDefined": true
      },
      {
        "text": " currency rate",
        "userDefined": false
      }
    ],
    "isTemplate": false,
    "count": 0,
    "updated": 0
  },
  {
    "id": "9c228d36-b39f-4299-a7d7-830d91e35f64",
    "data": [
      {
        "text": "convert ",
        "userDefined": false
      },
      {
        "text": "1 000",
        "alias": "amount",
        "meta": "@sys.number",
        "userDefined": true
      },
      {
        "text": " ",
        "userDefined": false
      },
      {
        "text": "Indian Rupee",
        "alias": "currency-from",
        "meta": "@sys.currency-name",
        "userDefined": true
      },
      {
        "text": " into ",
        "userDefined": false
      },
      {
        "text": "Yens",
        "alias": "currency-to",
        "meta": "@sys.currency-name",
        "userDefined": true
      }
    ],
    "isTemplate": false,
    "count": 0,
    "updated": 0
  },
  {
    "id": "a9fe5bca-24bb-4187-a3bd-55990c90e538",
    "data": [
      {
        "text": "convert ",
        "userDefined": false
      },
      {
        "text": "3",
        "alias": "amount",
        "meta": "@sys.number",
        "userDefined": true
      },
      {
        "text": " ",
        "userDefined": false
      },
      {
        "text": "Rubles",
        "alias": "currency-from",
        "meta": "@sys.currency-name",
        "userDefined": true
      },
      {
        "text": " in ",
        "userDefined": false
      },
      {
        "text": "Dollars",
        "alias": "currency-to",
        "meta": "@sys.currency-name",
        "userDefined": true
      }
    ],
    "isTemplate": false,
    "count": 0,
    "updated": 0
  },
  {
    "id": "93381592-c600-4eea-9489-804d17a6ea6f",
    "data": [
      {
        "text": "$",
        "alias": "currency-from",
        "meta": "@sys.currency-name",
        "userDefined": true
      },
      {
        "text": "12.34",
        "alias": "amount",
        "meta": "@sys.number",
        "userDefined": true
      },
      {
        "text": " into ",
        "userDefined": false
      },
      {
        "text": "Yen",
        "alias": "currency-to",
        "meta": "@sys.currency-name",
        "userDefined": true
      }
    ],
    "isTemplate": false,
    "count": 0,
    "updated": 0
  },
  {
    "id": "1a3c3c89-5575-4ebe-a84b-7cf34c0abf5c",
    "data": [
      {
        "text": "what\u0027s the exchange rate for ",
        "userDefined": false
      },
      {
        "text": "Canadian Dollars",
        "alias": "currency-from",
        "meta": "@sys.currency-name",
        "userDefined": true
      },
      {
        "text": " to ",
        "userDefined": false
      },
      {
        "text": "US Dollars",
        "alias": "currency-to",
        "meta": "@sys.currency-name",
        "userDefined": true
      }
    ],
    "isTemplate": false,
    "count": 0,
    "updated": 0
  }
]