[
  {
    "id": "56c202b5-c91c-434f-8793-8acfdb8ea6e5",
    "data": [
      {
        "text": "price of hotel in Paris in us dollars",
        "userDefined": false
      }
    ],
    "isTemplate": false,
    "count": 0,
    "updated": 0
  },
  {
    "id": "da4973bf-339d-4c45-8711-3e2ceacc2f5c",
    "data": [
      {
        "text": "convert it into inches",
        "userDefined": false
      }
    ],
    "isTemplate": false,
    "count": 0,
    "updated": 0
  },
  {
    "id": "88304b3d-39fa-484d-b380-255cc9f04b7c",
    "data": [
      {
        "text": "now into Paris",
        "userDefined": false
      }
    ],
    "isTemplate": false,
    "count": 0,
    "updated": 0
  },
  {
    "id": "03427ced-4839-4817-a8f8-afdef6c6bbbc",
    "data": [
      {
        "text": "the price for Mexican hotel",
        "userDefined": false
      }
    ],
    "isTemplate": false,
    "count": 0,
    "updated": 0
  },
  {
    "id": "5d2c02c0-4bd5-4bb7-9e04-62070c185936",
    "data": [
      {
        "text": "convert 100 Fahrenheit to Celsius",
        "userDefined": false
      }
    ],
    "isTemplate": false,
    "count": 0,
    "updated": 0
  },
  {
    "id": "ec3fde11-fdfd-488b-a156-9000705c77e4",
    "data": [
      {
        "text": "don\u0027t convert 100 Pounds to Dollars",
        "userDefined": false
      }
    ],
    "isTemplate": false,
    "count": 0,
    "updated": 0
  },
  {
    "id": "55a363c8-1fb2-4196-95ef-0f17bf689508",
    "data": [
      {
        "text": "how many inches in a meter",
        "userDefined": false
      }
    ],
    "isTemplate": false,
    "count": 0,
    "updated": 0
  }
]