[
  {
    "id": "4ab7a0e0-8881-4806-a7c7-547832c9933f",
    "data": [
      {
        "text": "and for savings",
        "userDefined": false
      }
    ],
    "isTemplate": false,
    "count": 0,
    "updated": 0
  },
  {
    "id": "d0603c64-f374-4eea-a454-d74e35d2bf42",
    "data": [
      {
        "text": "how about ",
        "userDefined": false
      },
      {
        "text": "checking",
        "alias": "account",
        "meta": "@account",
        "userDefined": true
      }
    ],
    "isTemplate": false,
    "count": 0,
    "updated": 0
  },
  {
    "id": "c2540462-1dda-4928-a6d6-64c51257567f",
    "data": [
      {
        "text": "and ",
        "userDefined": false
      },
      {
        "text": "savings",
        "alias": "account",
        "meta": "@account",
        "userDefined": true
      }
    ],
    "isTemplate": false,
    "count": 0,
    "updated": 0
  },
  {
    "id": "40c8dd09-3d03-432f-9283-3fa8f49ed398",
    "data": [
      {
        "text": "can you check my ",
        "userDefined": false
      },
      {
        "text": "savings",
        "alias": "account",
        "meta": "@account",
        "userDefined": true
      },
      {
        "text": " as well",
        "userDefined": false
      }
    ],
    "isTemplate": false,
    "count": 0,
    "updated": 0
  },
  {
    "id": "7bd77ccd-9ef2-4653-84b3-ba6cea8bf0a5",
    "data": [
      {
        "text": "check ",
        "userDefined": false
      },
      {
        "text": "checking",
        "alias": "account",
        "meta": "@account",
        "userDefined": true
      },
      {
        "text": " too",
        "userDefined": false
      }
    ],
    "isTemplate": false,
    "count": 0,
    "updated": 0
  }
]