[
  {
    "id": "ced44134-1951-45f2-81b4-ccce6dfc0e05",
    "data": [
      {
        "text": "from ",
        "userDefined": false
      },
      {
        "text": "next Sunday",
        "alias": "date-from",
        "meta": "@sys.date",
        "userDefined": true
      },
      {
        "text": " to ",
        "userDefined": false
      },
      {
        "text": "this Sunday",
        "alias": "date-to",
        "meta": "@sys.date",
        "userDefined": true
      }
    ],
    "isTemplate": false,
    "count": 0,
    "updated": 0
  },
  {
    "id": "4af4627d-7e6c-455e-b326-a66cee73d99e",
    "data": [
      {
        "text": "change it",
        "userDefined": false
      }
    ],
    "isTemplate": false,
    "count": 0,
    "updated": 0
  },
  {
    "id": "e4b60501-2b9d-4c24-8aa4-7f7abff77e8e",
    "data": [
      {
        "text": "from ",
        "userDefined": false
      },
      {
        "text": "5:45",
        "alias": "time-from",
        "meta": "@sys.time",
        "userDefined": false
      },
      {
        "text": " to ",
        "userDefined": false
      },
      {
        "text": "5:30",
        "alias": "time-to",
        "meta": "@sys.time",
        "userDefined": false
      },
      {
        "text": " ",
        "userDefined": false
      },
      {
        "text": "every weekday",
        "alias": "recurrence-to",
        "meta": "@recurrence",
        "userDefined": false
      }
    ],
    "isTemplate": false,
    "count": 0,
    "updated": 0
  },
  {
    "id": "1d43536f-0af7-45db-a459-db9bd165954c",
    "data": [
      {
        "text": "change it from ",
        "userDefined": false
      },
      {
        "text": "Tuesday",
        "alias": "date-from",
        "meta": "@sys.date",
        "userDefined": true
      },
      {
        "text": " to ",
        "userDefined": false
      },
      {
        "text": "Wednesday",
        "alias": "date-to",
        "meta": "@sys.date",
        "userDefined": true
      },
      {
        "text": " from ",
        "userDefined": false
      },
      {
        "text": "11 am",
        "alias": "time-from",
        "meta": "@sys.time",
        "userDefined": true
      },
      {
        "text": " to ",
        "userDefined": false
      },
      {
        "text": "10 am",
        "alias": "time-to",
        "meta": "@sys.time",
        "userDefined": true
      }
    ],
    "isTemplate": false,
    "count": 0,
    "updated": 0
  },
  {
    "id": "86b0666c-3e0d-44ab-b515-f1d45121ce8b",
    "data": [
      {
        "text": "change it to ",
        "userDefined": false
      },
      {
        "text": "All of me",
        "alias": "song",
        "meta": "@song",
        "userDefined": true
      }
    ],
    "isTemplate": false,
    "count": 0,
    "updated": 0
  },
  {
    "id": "e90db7ec-72ae-4552-a470-5d588167d41a",
    "data": [
      {
        "text": "to ",
        "userDefined": false
      },
      {
        "text": "daily",
        "alias": "recurrence-to",
        "meta": "@recurrence",
        "userDefined": false
      },
      {
        "text": " from ",
        "userDefined": false
      },
      {
        "text": "weekdays",
        "alias": "recurrence-from",
        "meta": "@recurrence",
        "userDefined": true
      },
      {
        "text": " only",
        "userDefined": false
      }
    ],
    "isTemplate": false,
    "count": 0,
    "updated": 0
  },
  {
    "id": "97c69487-a2dd-4f7e-9a74-045adde35433",
    "data": [
      {
        "text": "change it to ",
        "userDefined": false
      },
      {
        "text": "Wednesday",
        "alias": "date-to",
        "meta": "@sys.date",
        "userDefined": true
      },
      {
        "text": " from ",
        "userDefined": false
      },
      {
        "text": "Friday",
        "alias": "date-from",
        "meta": "@sys.date",
        "userDefined": true
      }
    ],
    "isTemplate": false,
    "count": 0,
    "updated": 0
  },
  {
    "id": "d17f9113-4af2-4f9d-8b5d-7c7423d24947",
    "data": [
      {
        "text": "to",
        "meta": "@sys.ignore",
        "userDefined": false
      },
      {
        "text": " ",
        "userDefined": false
      },
      {
        "text": "Shape Of You",
        "alias": "song",
        "meta": "@song",
        "userDefined": true
      }
    ],
    "isTemplate": false,
    "count": 0,
    "updated": 0
  },
  {
    "id": "f7baa3b0-0f57-4ea5-bc5c-c5f84d44797f",
    "data": [
      {
        "text": "no the one on ",
        "userDefined": false
      },
      {
        "text": "Monday",
        "alias": "date-from",
        "meta": "@sys.date",
        "userDefined": true
      }
    ],
    "isTemplate": false,
    "count": 0,
    "updated": 0
  },
  {
    "id": "f76f6a1b-aa1e-445d-bdf1-f3d8be30831b",
    "data": [
      {
        "text": "from ",
        "userDefined": false
      },
      {
        "text": "Tuesday",
        "alias": "date-from",
        "meta": "@sys.date",
        "userDefined": true
      },
      {
        "text": " to ",
        "userDefined": false
      },
      {
        "text": "Monday",
        "alias": "date-to",
        "meta": "@sys.date",
        "userDefined": true
      }
    ],
    "isTemplate": false,
    "count": 0,
    "updated": 0
  },
  {
    "id": "f3584a09-b594-4901-acfe-5c1a1fbf023f",
    "data": [
      {
        "text": "to ",
        "userDefined": false
      },
      {
        "text": "10 am",
        "alias": "time-to",
        "meta": "@sys.time",
        "userDefined": false
      }
    ],
    "isTemplate": false,
    "count": 0,
    "updated": 0
  },
  {
    "id": "63479a1f-0b02-4bfc-a413-cf54dac17fa0",
    "data": [
      {
        "text": "no to ",
        "userDefined": false
      },
      {
        "text": "10 am",
        "alias": "time-to",
        "meta": "@sys.time",
        "userDefined": true
      }
    ],
    "isTemplate": false,
    "count": 0,
    "updated": 0
  },
  {
    "id": "bc3d4316-6806-4b08-888e-49098c71c25c",
    "data": [
      {
        "text": "to ",
        "userDefined": false
      },
      {
        "text": "every weekend",
        "alias": "recurrence-to",
        "meta": "@recurrence",
        "userDefined": true
      }
    ],
    "isTemplate": false,
    "count": 0,
    "updated": 0
  },
  {
    "id": "d37ab4b1-ab04-4826-88f5-78299c5ad585",
    "data": [
      {
        "text": "and from ",
        "userDefined": false
      },
      {
        "text": "10 am",
        "alias": "time-from",
        "meta": "@sys.time",
        "userDefined": true
      },
      {
        "text": " to ",
        "userDefined": false
      },
      {
        "text": "9 am",
        "alias": "time-to",
        "meta": "@sys.time",
        "userDefined": true
      }
    ],
    "isTemplate": false,
    "count": 0,
    "updated": 0
  },
  {
    "id": "fa334c5c-dfd5-42c4-9cc7-309c5a90522d",
    "data": [
      {
        "text": "the one at ",
        "userDefined": false
      },
      {
        "text": "10 am",
        "alias": "time-from",
        "meta": "@sys.time",
        "userDefined": true
      }
    ],
    "isTemplate": false,
    "count": 0,
    "updated": 0
  },
  {
    "id": "6f1662dc-d702-445b-abeb-c9877595961c",
    "data": [
      {
        "text": "from ",
        "userDefined": false
      },
      {
        "text": "weekdays",
        "alias": "recurrence-from",
        "meta": "@recurrence",
        "userDefined": true
      },
      {
        "text": " to ",
        "userDefined": false
      },
      {
        "text": "every day",
        "alias": "recurrence-to",
        "meta": "@recurrence",
        "userDefined": true
      }
    ],
    "isTemplate": false,
    "count": 0,
    "updated": 0
  }
]