{
  "id": "fe1d235c-2704-4c61-a065-f700b02b3cfc",
  "name": "app.voice.open",
  "auto": true,
  "contexts": [],
  "responses": [
    {
      "resetContexts": false,
      "action": "app.voice.open",
      "affectedContexts": [],
      "parameters": [
        {
          "id": "15ac60da-cef2-4b69-837a-240412de13a0",
          "required": false,
          "dataType": "@app-name",
          "name": "app-name",
          "value": "$app-name",
          "promptMessages": [],
          "noMatchPromptMessages": [],
          "noInputPromptMessages": [],
          "outputDialogContexts": [],
          "isList": false
        }
      ],
      "messages": [
        {
          "type": 0,
          "lang": "en",
          "condition": "",
          "speech": []
        }
      ],
      "defaultResponsePlatforms": {},
      "speech": []
    }
  ],
  "priority": 500000,
  "webhookUsed": false,
  "webhookForSlotFilling": false,
  "fallbackIntent": false,
  "events": [],
  "conditionalResponses": [],
  "condition": "",
  "conditionalFollowupEvents": []
}