[
  {
    "id": "b80fc16b-1c0a-4e80-8324-dbf3396cde9e",
    "data": [
      {
        "text": "how do I open your app",
        "userDefined": false
      }
    ],
    "isTemplate": false,
    "count": 0,
    "updated": 0
  },
  {
    "id": "e96d1487-1e71-4862-88ff-9792c6bdb1a8",
    "data": [
      {
        "text": "I need to open your app",
        "userDefined": false
      }
    ],
    "isTemplate": false,
    "count": 0,
    "updated": 0
  },
  {
    "id": "d089f79b-d78c-4534-9192-acbc2bffd5dc",
    "data": [
      {
        "text": "how can I open you",
        "userDefined": false
      }
    ],
    "isTemplate": false,
    "count": 1,
    "updated": 0
  },
  {
    "id": "7ab25836-d3ef-4045-a20e-962d4d63041c",
    "data": [
      {
        "text": "open",
        "meta": "@sys.ignore",
        "userDefined": false
      },
      {
        "text": " ",
        "userDefined": false
      },
      {
        "text": "your",
        "meta": "@sys.ignore",
        "userDefined": false
      },
      {
        "text": " app",
        "userDefined": false
      }
    ],
    "isTemplate": false,
    "count": 0,
    "updated": 0
  },
  {
    "id": "d0cd1a56-9dfa-4f6c-b0d0-7d1f913256bf",
    "data": [
      {
        "text": "how to ",
        "userDefined": false
      },
      {
        "text": "open",
        "meta": "@sys.ignore",
        "userDefined": false
      },
      {
        "text": " ",
        "userDefined": false
      },
      {
        "text": "your",
        "meta": "@sys.ignore",
        "userDefined": false
      },
      {
        "text": " application",
        "userDefined": false
      }
    ],
    "isTemplate": false,
    "count": 0,
    "updated": 0
  },
  {
    "id": "cad387ce-b3ce-44f0-b6da-017a51c861cb",
    "data": [
      {
        "text": "tell me how to open you",
        "userDefined": false
      }
    ],
    "isTemplate": false,
    "count": 0,
    "updated": 0
  },
  {
    "id": "29b13090-960c-41f5-bff4-16767514d636",
    "data": [
      {
        "text": "I want to open your app",
        "userDefined": false
      }
    ],
    "isTemplate": false,
    "count": 0,
    "updated": 0
  },
  {
    "id": "60f9f468-b436-4779-9cc3-7df5e61b66ac",
    "data": [
      {
        "text": "open",
        "meta": "@sys.ignore",
        "userDefined": false
      },
      {
        "text": " yourself",
        "userDefined": false
      }
    ],
    "isTemplate": false,
    "count": 0,
    "updated": 0
  }
]