[
  {
    "id": "684c1382-7982-4611-8275-10e02c8c02a3",
    "data": [
      {
        "text": "access ",
        "userDefined": false
      },
      {
        "text": "Chrome",
        "alias": "app-name",
        "meta": "@app-name",
        "userDefined": true
      },
      {
        "text": " settings",
        "userDefined": false
      }
    ],
    "isTemplate": false,
    "count": 0,
    "updated": 0
  },
  {
    "id": "fe49153e-07d3-46a5-800e-e98bce8e86f9",
    "data": [
      {
        "text": "open ",
        "userDefined": false
      },
      {
        "text": "Skype",
        "alias": "app-name",
        "meta": "@app-name",
        "userDefined": true
      },
      {
        "text": " settings",
        "userDefined": false
      }
    ],
    "isTemplate": false,
    "count": 0,
    "updated": 0
  },
  {
    "id": "48941f95-2721-4428-94fc-a34b61a8944a",
    "data": [
      {
        "text": "I\u0027d like to open ",
        "userDefined": false
      },
      {
        "text": "Twitter",
        "alias": "app-name",
        "meta": "@app-name",
        "userDefined": true
      },
      {
        "text": " app settings",
        "userDefined": false
      }
    ],
    "isTemplate": false,
    "count": 0,
    "updated": 0
  },
  {
    "id": "f72c8426-e6c5-49cb-b9f4-833d4a52601e",
    "data": [
      {
        "text": "how can I open the settings of the ",
        "userDefined": false
      },
      {
        "text": "Angry Birds",
        "alias": "app-name",
        "meta": "@app-name",
        "userDefined": true
      },
      {
        "text": " app",
        "userDefined": false
      }
    ],
    "isTemplate": false,
    "count": 0,
    "updated": 0
  },
  {
    "id": "a733f076-9df3-4073-81c1-d19d3516dd78",
    "data": [
      {
        "text": "go to ",
        "userDefined": false
      },
      {
        "text": "Shazam",
        "alias": "app-name",
        "meta": "@app-name",
        "userDefined": true
      },
      {
        "text": " settings",
        "userDefined": false
      }
    ],
    "isTemplate": false,
    "count": 0,
    "updated": 0
  },
  {
    "id": "8908162a-2cd1-4324-8061-d7aa7368b435",
    "data": [
      {
        "text": "could you open ",
        "userDefined": false
      },
      {
        "text": "Facebook",
        "alias": "app-name",
        "meta": "@app-name",
        "userDefined": true
      },
      {
        "text": " settings",
        "userDefined": false
      }
    ],
    "isTemplate": false,
    "count": 0,
    "updated": 0
  },
  {
    "id": "a11e9eef-f672-4500-a331-94d0c9475f7f",
    "data": [
      {
        "text": "open up ",
        "userDefined": false
      },
      {
        "text": "Slack",
        "alias": "app-name",
        "meta": "@app-name",
        "userDefined": true
      },
      {
        "text": " settings menu",
        "userDefined": false
      }
    ],
    "isTemplate": false,
    "count": 0,
    "updated": 0
  }
]