[
  {
    "id": "c4e2367b-ebd0-477b-8e73-38d75b74c0ea",
    "data": [
      {
        "text": "I need to install you",
        "userDefined": false
      }
    ],
    "isTemplate": false,
    "count": 0,
    "updated": 0
  },
  {
    "id": "9244d00e-8128-489a-b23c-87525d31808d",
    "data": [
      {
        "text": "how can I install your app",
        "userDefined": false
      }
    ],
    "isTemplate": false,
    "count": 0,
    "updated": 0
  },
  {
    "id": "482c0a44-273d-4226-a480-e28dcc2d15c2",
    "data": [
      {
        "text": "how do I install you",
        "userDefined": false
      }
    ],
    "isTemplate": false,
    "count": 0,
    "updated": 0
  },
  {
    "id": "be09548a-ec49-42f7-97d3-c86536a2f160",
    "data": [
      {
        "text": "install yourself",
        "userDefined": false
      }
    ],
    "isTemplate": false,
    "count": 0,
    "updated": 0
  },
  {
    "id": "baf5eb6d-aace-4c05-b625-c66b3a9ad283",
    "data": [
      {
        "text": "install ",
        "userDefined": false
      },
      {
        "text": "your",
        "meta": "@sys.ignore",
        "userDefined": false
      },
      {
        "text": " application",
        "userDefined": false
      }
    ],
    "isTemplate": false,
    "count": 0,
    "updated": 0
  },
  {
    "id": "7410613c-bb24-4e9b-9a84-6ce1c97053aa",
    "data": [
      {
        "text": "can",
        "meta": "@sys.ignore",
        "userDefined": false
      },
      {
        "text": " you install yourself",
        "userDefined": false
      }
    ],
    "isTemplate": false,
    "count": 0,
    "updated": 0
  },
  {
    "id": "3be74614-1dc5-4279-aa28-df1f0a186db5",
    "data": [
      {
        "text": "how to install ",
        "userDefined": false
      },
      {
        "text": "your",
        "meta": "@sys.ignore",
        "userDefined": false
      },
      {
        "text": " app",
        "userDefined": false
      }
    ],
    "isTemplate": false,
    "count": 0,
    "updated": 0
  },
  {
    "id": "80092e6f-de97-4ad8-917e-5af194b9e60a",
    "data": [
      {
        "text": "install your app",
        "userDefined": false
      }
    ],
    "isTemplate": false,
    "count": 0,
    "updated": 0
  }
]