[
  {
    "id": "32726d91-e2fe-4352-bfca-21e6537ef5c9",
    "data": [
      {
        "text": "can you close ",
        "userDefined": false
      },
      {
        "text": "TuneIn Radio Pro",
        "alias": "app-name",
        "meta": "@app-name",
        "userDefined": true
      }
    ],
    "isTemplate": false,
    "count": 0,
    "updated": 0
  },
  {
    "id": "65db2a50-e75c-4ea1-832c-88c0a3aefa47",
    "data": [
      {
        "text": "close ",
        "userDefined": false
      },
      {
        "text": "Angry Birds",
        "alias": "app-name",
        "meta": "@app-name",
        "userDefined": true
      }
    ],
    "isTemplate": false,
    "count": 0,
    "updated": 0
  },
  {
    "id": "d34f9fda-e229-4e1a-bdca-dca31e6c9c8d",
    "data": [
      {
        "text": "I\u0027d like to close the ",
        "userDefined": false
      },
      {
        "text": "Task Manager",
        "alias": "app-name",
        "meta": "@app-name",
        "userDefined": true
      }
    ],
    "isTemplate": false,
    "count": 0,
    "updated": 0
  },
  {
    "id": "710b1fbb-ed2d-4cda-add4-0272c753d864",
    "data": [
      {
        "text": "close ",
        "userDefined": false
      },
      {
        "text": "Play Store",
        "alias": "store-name",
        "meta": "@app-store-name",
        "userDefined": true
      }
    ],
    "isTemplate": false,
    "count": 0,
    "updated": 0
  },
  {
    "id": "9aab64c6-bd4f-4aaf-94af-d232fc6296a0",
    "data": [
      {
        "text": "close ",
        "userDefined": false
      },
      {
        "text": "Accu Weather",
        "alias": "app-name",
        "meta": "@app-name",
        "userDefined": true
      },
      {
        "text": " app",
        "userDefined": false
      }
    ],
    "isTemplate": false,
    "count": 0,
    "updated": 0
  },
  {
    "id": "3b402585-cdae-4bec-b808-6d115bc9eefc",
    "data": [
      {
        "text": "quit ",
        "userDefined": false
      },
      {
        "text": "Skype",
        "alias": "app-name",
        "meta": "@app-name",
        "userDefined": true
      },
      {
        "text": " app",
        "userDefined": false
      }
    ],
    "isTemplate": false,
    "count": 1,
    "updated": 0
  },
  {
    "id": "343645e0-20bf-40b2-b591-088e5d60bada",
    "data": [
      {
        "text": "exit ",
        "userDefined": false
      },
      {
        "text": "all",
        "alias": "all",
        "meta": "@all",
        "userDefined": true
      },
      {
        "text": " applications",
        "userDefined": false
      }
    ],
    "isTemplate": false,
    "count": 0,
    "updated": 0
  },
  {
    "id": "6dd5a9c2-c464-4608-b38f-a2c26f7352c5",
    "data": [
      {
        "text": "close ",
        "userDefined": false
      },
      {
        "text": "all of",
        "alias": "all",
        "meta": "@all",
        "userDefined": true
      },
      {
        "text": " my applications",
        "userDefined": false
      }
    ],
    "isTemplate": false,
    "count": 0,
    "updated": 0
  },
  {
    "id": "517ee2e3-cd57-42ad-a089-8783015fac39",
    "data": [
      {
        "text": "close the ",
        "userDefined": false
      },
      {
        "text": "Google Play Store",
        "alias": "store-name",
        "meta": "@app-store-name",
        "userDefined": true
      }
    ],
    "isTemplate": false,
    "count": 0,
    "updated": 0
  },
  {
    "id": "27150631-bc54-4c61-b33a-f2b508848cb9",
    "data": [
      {
        "text": "could you switch off the app which is called ",
        "userDefined": false
      },
      {
        "text": "Viber",
        "alias": "app-name",
        "meta": "@app-name",
        "userDefined": true
      }
    ],
    "isTemplate": false,
    "count": 0,
    "updated": 0
  },
  {
    "id": "ace4320d-2102-474c-80e3-dac7e149ad47",
    "data": [
      {
        "text": "close",
        "meta": "@sys.ignore",
        "userDefined": true
      },
      {
        "text": " ",
        "userDefined": false
      },
      {
        "text": "every",
        "alias": "all",
        "meta": "@all",
        "userDefined": true
      },
      {
        "text": " apps",
        "userDefined": false
      }
    ],
    "isTemplate": false,
    "count": 0,
    "updated": 0
  },
  {
    "id": "ebddf992-6158-4aee-8050-3534108e06ec",
    "data": [
      {
        "text": "can you close apps",
        "userDefined": false
      }
    ],
    "isTemplate": false,
    "count": 0,
    "updated": 0
  },
  {
    "id": "44f9347f-0ed5-41ed-8d7c-a0d216e012e9",
    "data": [
      {
        "text": "switch off the app ",
        "userDefined": false
      },
      {
        "text": "Viber",
        "alias": "app-name",
        "meta": "@app-name",
        "userDefined": true
      }
    ],
    "isTemplate": false,
    "count": 0,
    "updated": 0
  },
  {
    "id": "bc664aa0-766c-42f1-9b68-537fc5431716",
    "data": [
      {
        "text": "shut down ",
        "userDefined": false
      },
      {
        "text": "Line",
        "alias": "app-name",
        "meta": "@app-name",
        "userDefined": true
      },
      {
        "text": " application",
        "userDefined": false
      }
    ],
    "isTemplate": false,
    "count": 0,
    "updated": 0
  },
  {
    "id": "b845d870-2782-4c90-bc9a-21ca1d9c174b",
    "data": [
      {
        "text": "take me out of the ",
        "userDefined": false
      },
      {
        "text": "Poweramp",
        "alias": "app-name",
        "meta": "@app-name",
        "userDefined": true
      }
    ],
    "isTemplate": false,
    "count": 0,
    "updated": 0
  },
  {
    "id": "ed622653-cdbc-458c-94ee-10f44309aee3",
    "data": [
      {
        "text": "close applications",
        "userDefined": false
      }
    ],
    "isTemplate": false,
    "count": 0,
    "updated": 0
  },
  {
    "id": "003ae96e-b730-4c64-8290-9d03b14add3b",
    "data": [
      {
        "text": "can you close ",
        "userDefined": false
      },
      {
        "text": "all",
        "alias": "all",
        "meta": "@all",
        "userDefined": true
      },
      {
        "text": " of the open apps",
        "userDefined": false
      }
    ],
    "isTemplate": false,
    "count": 0,
    "updated": 0
  },
  {
    "id": "a37f4be0-2b12-4527-b723-22c1fdddfd90",
    "data": [
      {
        "text": "exit app ",
        "userDefined": false
      },
      {
        "text": "Instagram",
        "alias": "app-name",
        "meta": "@app-name",
        "userDefined": true
      }
    ],
    "isTemplate": false,
    "count": 0,
    "updated": 0
  },
  {
    "id": "11d4065d-4f31-47ac-9ce0-b8451936da25",
    "data": [
      {
        "text": "close",
        "meta": "@sys.ignore",
        "userDefined": true
      },
      {
        "text": " application ",
        "userDefined": false
      },
      {
        "text": "Facebook",
        "alias": "app-name",
        "meta": "@app-name",
        "userDefined": true
      }
    ],
    "isTemplate": false,
    "count": 0,
    "updated": 0
  },
  {
    "id": "b052e1b3-e003-4468-83dc-596b5a65772f",
    "data": [
      {
        "text": "shut down ",
        "userDefined": false
      },
      {
        "text": "Plants vs Zombies",
        "alias": "app-name",
        "meta": "@app-name",
        "userDefined": true
      }
    ],
    "isTemplate": false,
    "count": 0,
    "updated": 0
  },
  {
    "id": "73144e3c-5c07-427c-ab1d-fc459fb6bfcf",
    "data": [
      {
        "text": "close",
        "meta": "@sys.ignore",
        "userDefined": true
      },
      {
        "text": " ",
        "userDefined": false
      },
      {
        "text": "Angry Birds",
        "alias": "app-name",
        "meta": "@app-name",
        "userDefined": true
      },
      {
        "text": " application",
        "userDefined": false
      }
    ],
    "isTemplate": false,
    "count": 0,
    "updated": 0
  },
  {
    "id": "3181e46d-16e9-4a95-8cfc-ff45f2adcbee",
    "data": [
      {
        "text": "close app",
        "userDefined": false
      }
    ],
    "isTemplate": false,
    "count": 0,
    "updated": 0
  },
  {
    "id": "01ce29e5-a687-4b0b-b868-50df818b3b2d",
    "data": [
      {
        "text": "quit ",
        "userDefined": false
      },
      {
        "text": "Google Play Store",
        "alias": "store-name",
        "meta": "@app-store-name",
        "userDefined": true
      }
    ],
    "isTemplate": false,
    "count": 0,
    "updated": 0
  },
  {
    "id": "6fd3cd57-8a42-4851-8f42-932ae74186c5",
    "data": [
      {
        "text": "I need you to close the ",
        "userDefined": false
      },
      {
        "text": "Google Keep",
        "alias": "app-name",
        "meta": "@app-name",
        "userDefined": true
      },
      {
        "text": " app",
        "userDefined": false
      }
    ],
    "isTemplate": false,
    "count": 0,
    "updated": 0
  },
  {
    "id": "ee9765fc-b436-4fe2-892a-83c17f14476c",
    "data": [
      {
        "text": "can you close the ",
        "userDefined": false
      },
      {
        "text": "YouTube",
        "alias": "app-name",
        "meta": "@app-name",
        "userDefined": false
      }
    ],
    "isTemplate": false,
    "count": 0,
    "updated": 0
  },
  {
    "id": "8cb0e31e-d1c1-438d-8c7b-9d79605ef15a",
    "data": [
      {
        "text": "close ",
        "userDefined": false
      },
      {
        "text": "Dropbox",
        "alias": "app-name",
        "meta": "@app-name",
        "userDefined": true
      }
    ],
    "isTemplate": false,
    "count": 0,
    "updated": 0
  },
  {
    "id": "0c6b0238-674c-4e84-9bae-6208232baefb",
    "data": [
      {
        "text": "I\u0027d like to close ",
        "userDefined": false
      },
      {
        "text": "App Store",
        "alias": "store-name",
        "meta": "@app-store-name",
        "userDefined": true
      }
    ],
    "isTemplate": false,
    "count": 0,
    "updated": 0
  },
  {
    "id": "3dccfebf-d892-4700-b17b-bc778f37e116",
    "data": [
      {
        "text": "can you close my ",
        "userDefined": false
      },
      {
        "text": "Twitter",
        "alias": "app-name",
        "meta": "@app-name",
        "userDefined": true
      },
      {
        "text": " app",
        "userDefined": false
      }
    ],
    "isTemplate": false,
    "count": 0,
    "updated": 0
  },
  {
    "id": "cf7e117a-335c-4815-95e8-8ad1155364ab",
    "data": [
      {
        "text": "close app ",
        "userDefined": false
      },
      {
        "text": "Beautiful Widgets Pro",
        "alias": "app-name",
        "meta": "@app-name",
        "userDefined": true
      }
    ],
    "isTemplate": false,
    "count": 0,
    "updated": 0
  },
  {
    "id": "12a8d23b-edc8-4f45-b056-56ced60a5bee",
    "data": [
      {
        "text": "close my ",
        "userDefined": false
      },
      {
        "text": "Camera",
        "alias": "app-name",
        "meta": "@app-name",
        "userDefined": true
      },
      {
        "text": " application please",
        "userDefined": false
      }
    ],
    "isTemplate": false,
    "count": 0,
    "updated": 0
  },
  {
    "id": "b18b1720-6712-43aa-86dd-ef074e118f29",
    "data": [
      {
        "text": "turn off ",
        "userDefined": false
      },
      {
        "text": "Paper Camera",
        "alias": "app-name",
        "meta": "@app-name",
        "userDefined": true
      }
    ],
    "isTemplate": false,
    "count": 0,
    "updated": 0
  }
]