[
  {
    "id": "060d7764-ceb5-4370-bfc7-80741d2dde46",
    "data": [
      {
        "text": "could you open ",
        "userDefined": false
      },
      {
        "text": "Cortana",
        "alias": "app-name",
        "meta": "@app-name",
        "userDefined": true
      },
      {
        "text": " speech settings",
        "userDefined": false
      }
    ],
    "isTemplate": false,
    "count": 0,
    "updated": 0
  },
  {
    "id": "20efbbdc-d49b-4568-8c12-305f11cdea4a",
    "data": [
      {
        "text": "open ",
        "userDefined": false
      },
      {
        "text": "Skype",
        "alias": "app-name",
        "meta": "@app-name",
        "userDefined": true
      },
      {
        "text": " speech settings",
        "userDefined": false
      }
    ],
    "isTemplate": false,
    "count": 0,
    "updated": 0
  },
  {
    "id": "9e883e63-81ed-4e42-8c6c-1307e73ea7e5",
    "data": [
      {
        "text": "Google Assistant",
        "alias": "app-name",
        "meta": "@app-name",
        "userDefined": true
      },
      {
        "text": " speech settings",
        "userDefined": false
      }
    ],
    "isTemplate": false,
    "count": 0,
    "updated": 0
  },
  {
    "id": "5df936e0-67a3-4303-84dc-c7d33deb701c",
    "data": [
      {
        "text": "how can I open the speech settings of the ",
        "userDefined": false
      },
      {
        "text": "Speaktoit Assistant",
        "alias": "app-name",
        "meta": "@app-name",
        "userDefined": true
      },
      {
        "text": " app",
        "userDefined": false
      }
    ],
    "isTemplate": false,
    "count": 0,
    "updated": 0
  },
  {
    "id": "5a88efdc-580a-4894-83ba-9dfe3b49bd5c",
    "data": [
      {
        "text": "I\u0027d like to adjust ",
        "userDefined": false
      },
      {
        "text": "Sherpa",
        "alias": "app-name",
        "meta": "@app-name",
        "userDefined": true
      },
      {
        "text": " app speech",
        "userDefined": false
      }
    ],
    "isTemplate": false,
    "count": 0,
    "updated": 0
  },
  {
    "id": "68413446-7cce-432d-bbde-13093d6df080",
    "data": [
      {
        "text": "adjust ",
        "userDefined": false
      },
      {
        "text": "Allo",
        "alias": "app-name",
        "meta": "@app-name",
        "userDefined": true
      },
      {
        "text": " speech",
        "userDefined": false
      }
    ],
    "isTemplate": false,
    "count": 0,
    "updated": 0
  },
  {
    "id": "082b83e8-2cab-44d4-bcee-3cc8da72bd54",
    "data": [
      {
        "text": "go to ",
        "userDefined": false
      },
      {
        "text": "Google Assistant",
        "alias": "app-name",
        "meta": "@app-name",
        "userDefined": true
      },
      {
        "text": " speech settings",
        "userDefined": false
      }
    ],
    "isTemplate": false,
    "count": 0,
    "updated": 0
  }
]