{
  "id": "46fe51d4-e9d9-4f41-ac80-4d634c2977ee",
  "name": "app.settings.close",
  "auto": true,
  "contexts": [],
  "responses": [
    {
      "resetContexts": false,
      "action": "app.settings.close",
      "affectedContexts": [],
      "parameters": [
        {
          "id": "2f808e1a-9f17-406f-b7a0-da8ffe51071a",
          "required": false,
          "dataType": "@app-name",
          "name": "app-name",
          "value": "$app-name",
          "promptMessages": [],
          "noMatchPromptMessages": [],
          "noInputPromptMessages": [],
          "outputDialogContexts": [],
          "isList": false
        }
      ],
      "messages": [
        {
          "type": 0,
          "lang": "en",
          "condition": "",
          "speech": []
        }
      ],
      "defaultResponsePlatforms": {},
      "speech": []
    }
  ],
  "priority": 500000,
  "webhookUsed": false,
  "webhookForSlotFilling": false,
  "fallbackIntent": false,
  "events": [],
  "conditionalResponses": [],
  "condition": "",
  "conditionalFollowupEvents": []
}