[
  {
    "id": "b883020f-fd94-4cf4-b443-22aa2dc9f4d0",
    "data": [
      {
        "text": "hundred",
        "alias": "amount-without-tip",
        "meta": "@sys.number",
        "userDefined": true
      },
      {
        "text": " ",
        "userDefined": false
      },
      {
        "text": "bucks",
        "alias": "currency",
        "meta": "@sys.currency-name",
        "userDefined": true
      },
      {
        "text": " plus ",
        "userDefined": false
      },
      {
        "text": "10%",
        "alias": "tip-percentage",
        "meta": "@sys.percentage",
        "userDefined": true
      },
      {
        "text": " tip ",
        "userDefined": false
      },
      {
        "text": "split",
        "meta": "@sys.ignore",
        "userDefined": true
      },
      {
        "text": " between ",
        "userDefined": false
      },
      {
        "text": "3",
        "alias": "people-number",
        "meta": "@sys.number",
        "userDefined": true
      },
      {
        "text": " people",
        "userDefined": false
      }
    ],
    "isTemplate": false,
    "count": 0,
    "updated": 0
  },
  {
    "id": "286fbc74-a28b-4205-9c96-d40aac9d8d85",
    "data": [
      {
        "text": "tip ",
        "userDefined": false
      },
      {
        "text": "calculator",
        "meta": "@sys.ignore",
        "userDefined": true
      }
    ],
    "isTemplate": false,
    "count": 0,
    "updated": 0
  },
  {
    "id": "e10f3277-4cf5-4495-9826-9f333293ae86",
    "data": [
      {
        "text": "calculate the tip on ",
        "userDefined": false
      },
      {
        "text": "hundred",
        "alias": "amount-without-tip",
        "meta": "@sys.number",
        "userDefined": true
      },
      {
        "text": " ",
        "userDefined": false
      },
      {
        "text": "rupees",
        "alias": "currency",
        "meta": "@sys.currency-name",
        "userDefined": true
      }
    ],
    "isTemplate": false,
    "count": 0,
    "updated": 0
  },
  {
    "id": "ce1ee4bc-0963-4e7a-88fd-f2d6ef2f7e3f",
    "data": [
      {
        "text": "250",
        "alias": "amount-without-tip",
        "meta": "@sys.number",
        "userDefined": true
      },
      {
        "text": " ",
        "userDefined": false
      },
      {
        "text": "dollars",
        "alias": "currency",
        "meta": "@sys.currency-name",
        "userDefined": true
      },
      {
        "text": " + ",
        "userDefined": false
      },
      {
        "text": "10%",
        "alias": "tip-percentage",
        "meta": "@sys.percentage",
        "userDefined": true
      },
      {
        "text": " tip for ",
        "userDefined": false
      },
      {
        "text": "3",
        "alias": "people-number",
        "meta": "@sys.number",
        "userDefined": true
      },
      {
        "text": " people",
        "userDefined": false
      }
    ],
    "isTemplate": false,
    "count": 0,
    "updated": 0
  },
  {
    "id": "e0933668-af1f-4a0a-ae77-90e936248dac",
    "data": [
      {
        "text": "88",
        "alias": "amount-without-tip",
        "meta": "@sys.number",
        "userDefined": true
      },
      {
        "text": " ",
        "userDefined": false
      },
      {
        "text": "bucks",
        "alias": "currency",
        "meta": "@sys.currency-name",
        "userDefined": true
      },
      {
        "text": " with ",
        "userDefined": false
      },
      {
        "text": "10%",
        "alias": "tip-percentage",
        "meta": "@sys.percentage",
        "userDefined": true
      },
      {
        "text": " tip between ",
        "userDefined": false
      },
      {
        "text": "3",
        "alias": "people-number",
        "meta": "@sys.number",
        "userDefined": true
      },
      {
        "text": " people",
        "userDefined": false
      }
    ],
    "isTemplate": false,
    "count": 0,
    "updated": 0
  },
  {
    "id": "42023a48-0ee5-4b4d-94ce-c0d50925a63f",
    "data": [
      {
        "text": "150",
        "alias": "amount-without-tip",
        "meta": "@sys.number",
        "userDefined": true
      },
      {
        "text": " ",
        "userDefined": false
      },
      {
        "text": "pounds",
        "alias": "currency",
        "meta": "@sys.currency-name",
        "userDefined": true
      },
      {
        "text": " + ",
        "userDefined": false
      },
      {
        "text": "10 percent",
        "alias": "tip-percentage",
        "meta": "@sys.percentage",
        "userDefined": true
      },
      {
        "text": " tip for ",
        "userDefined": false
      },
      {
        "text": "5",
        "alias": "people-number",
        "meta": "@sys.number",
        "userDefined": true
      },
      {
        "text": " person",
        "userDefined": false
      }
    ],
    "isTemplate": false,
    "count": 0,
    "updated": 0
  },
  {
    "id": "622aa5b6-e548-4422-8baa-a7e1b2de7293",
    "data": [
      {
        "text": "100",
        "alias": "amount-without-tip",
        "meta": "@sys.number",
        "userDefined": true
      },
      {
        "text": " ",
        "userDefined": false
      },
      {
        "text": "€",
        "alias": "currency",
        "meta": "@sys.currency-name",
        "userDefined": true
      },
      {
        "text": " plus ",
        "userDefined": false
      },
      {
        "text": "19%",
        "alias": "tip-percentage",
        "meta": "@sys.percentage",
        "userDefined": true
      },
      {
        "text": " tip for ",
        "userDefined": false
      },
      {
        "text": "5",
        "alias": "people-number",
        "meta": "@sys.number",
        "userDefined": true
      },
      {
        "text": " people",
        "userDefined": false
      }
    ],
    "isTemplate": false,
    "count": 0,
    "updated": 0
  },
  {
    "id": "e3632cd2-08d3-450a-a42d-de33d9722ab2",
    "data": [
      {
        "text": "88.9",
        "alias": "amount-without-tip",
        "meta": "@sys.number",
        "userDefined": true
      },
      {
        "text": " ",
        "userDefined": false
      },
      {
        "text": "bucks",
        "alias": "currency",
        "meta": "@sys.currency-name",
        "userDefined": true
      },
      {
        "text": " plus a ",
        "userDefined": false
      },
      {
        "text": "10%",
        "alias": "tip-percentage",
        "meta": "@sys.percentage",
        "userDefined": true
      },
      {
        "text": " tip ",
        "userDefined": false
      },
      {
        "text": "split",
        "meta": "@sys.ignore",
        "userDefined": true
      },
      {
        "text": " between ",
        "userDefined": false
      },
      {
        "text": "3",
        "alias": "people-number",
        "meta": "@sys.number",
        "userDefined": true
      },
      {
        "text": " people",
        "userDefined": false
      }
    ],
    "isTemplate": false,
    "count": 0,
    "updated": 0
  },
  {
    "id": "dbd3e502-6f3e-43bb-bce0-c3a279722147",
    "data": [
      {
        "text": "tips ",
        "userDefined": false
      },
      {
        "text": "calculator",
        "meta": "@sys.ignore",
        "userDefined": true
      }
    ],
    "isTemplate": false,
    "count": 0,
    "updated": 0
  },
  {
    "id": "afecac75-b4ce-4c2f-bd04-8787df6f4878",
    "data": [
      {
        "text": "what\u0027s the tip on ",
        "userDefined": false
      },
      {
        "text": "$",
        "alias": "currency",
        "meta": "@sys.currency-name",
        "userDefined": true
      },
      {
        "text": "15",
        "alias": "amount-without-tip",
        "meta": "@sys.number",
        "userDefined": true
      }
    ],
    "isTemplate": false,
    "count": 0,
    "updated": 0
  },
  {
    "id": "6bec9703-90c5-4c6e-99d1-150ec3117603",
    "data": [
      {
        "text": "200",
        "alias": "amount-without-tip",
        "meta": "@sys.number",
        "userDefined": true
      },
      {
        "text": " ",
        "userDefined": false
      },
      {
        "text": "dollars",
        "alias": "currency",
        "meta": "@sys.currency-name",
        "userDefined": true
      },
      {
        "text": " + ",
        "userDefined": false
      },
      {
        "text": "10%",
        "alias": "tip-percentage",
        "meta": "@sys.percentage",
        "userDefined": true
      },
      {
        "text": " tip",
        "userDefined": false
      }
    ],
    "isTemplate": false,
    "count": 0,
    "updated": 0
  },
  {
    "id": "65c51bf2-601a-4008-91f7-724633b4b1a0",
    "data": [
      {
        "text": "calculate ",
        "userDefined": false
      },
      {
        "text": "20%",
        "alias": "tip-percentage",
        "meta": "@sys.percentage",
        "userDefined": true
      },
      {
        "text": " percent tip",
        "userDefined": false
      }
    ],
    "isTemplate": false,
    "count": 0,
    "updated": 0
  },
  {
    "id": "4c20520d-df57-49db-8357-a24d9bc91b21",
    "data": [
      {
        "text": "calculate ",
        "userDefined": false
      },
      {
        "text": "16%",
        "alias": "tip-percentage",
        "meta": "@sys.percentage",
        "userDefined": true
      },
      {
        "text": " tip ",
        "userDefined": false
      },
      {
        "text": "on",
        "meta": "@sys.ignore",
        "userDefined": true
      },
      {
        "text": " ",
        "userDefined": false
      },
      {
        "text": "29",
        "alias": "people-number",
        "meta": "@sys.number",
        "userDefined": true
      },
      {
        "text": " ",
        "userDefined": false
      },
      {
        "text": "bucks",
        "alias": "currency",
        "meta": "@sys.currency-name",
        "userDefined": true
      }
    ],
    "isTemplate": false,
    "count": 0,
    "updated": 0
  },
  {
    "id": "442d41ce-d897-415c-9161-c14863e84737",
    "data": [
      {
        "text": "15%",
        "alias": "tip-percentage",
        "meta": "@sys.percentage",
        "userDefined": true
      },
      {
        "text": " tip ",
        "userDefined": false
      },
      {
        "text": "on",
        "meta": "@sys.ignore",
        "userDefined": true
      },
      {
        "text": " ",
        "userDefined": false
      },
      {
        "text": "63",
        "alias": "amount-without-tip",
        "meta": "@sys.number",
        "userDefined": true
      },
      {
        "text": " dollars",
        "userDefined": false
      }
    ],
    "isTemplate": false,
    "count": 0,
    "updated": 0
  },
  {
    "id": "9f470575-7090-4d89-b714-c6a63200cbad",
    "data": [
      {
        "text": "what is in ",
        "userDefined": false
      },
      {
        "text": "18%",
        "alias": "tip-percentage",
        "meta": "@sys.percentage",
        "userDefined": true
      },
      {
        "text": " tip ",
        "userDefined": false
      },
      {
        "text": "on",
        "meta": "@sys.ignore",
        "userDefined": true
      },
      {
        "text": " ",
        "userDefined": false
      },
      {
        "text": "52",
        "alias": "amount-without-tip",
        "meta": "@sys.number",
        "userDefined": true
      }
    ],
    "isTemplate": false,
    "count": 0,
    "updated": 0
  },
  {
    "id": "df1c13cd-3b0b-4ebe-ab63-2ae3e6c0a649",
    "data": [
      {
        "text": "calculate ",
        "userDefined": false
      },
      {
        "text": "€",
        "alias": "currency",
        "meta": "@sys.currency-name",
        "userDefined": true
      },
      {
        "text": "200",
        "alias": "amount-without-tip",
        "meta": "@sys.number",
        "userDefined": true
      },
      {
        "text": " and ",
        "userDefined": false
      },
      {
        "text": "5%",
        "alias": "tip-percentage",
        "meta": "@sys.percentage",
        "userDefined": true
      },
      {
        "text": " ",
        "userDefined": false
      },
      {
        "text": "tip",
        "meta": "@sys.ignore",
        "userDefined": true
      }
    ],
    "isTemplate": false,
    "count": 0,
    "updated": 0
  },
  {
    "id": "7c089a5a-466b-4790-9ab3-7ff789ae701c",
    "data": [
      {
        "text": "how much is ",
        "userDefined": false
      },
      {
        "text": "$",
        "alias": "currency",
        "meta": "@sys.currency-name",
        "userDefined": true
      },
      {
        "text": "143",
        "alias": "amount-without-tip",
        "meta": "@sys.number",
        "userDefined": true
      },
      {
        "text": " + ",
        "userDefined": false
      },
      {
        "text": "5 percent",
        "alias": "tip-percentage",
        "meta": "@sys.percentage",
        "userDefined": true
      },
      {
        "text": " tip ",
        "userDefined": false
      },
      {
        "text": "for",
        "meta": "@sys.ignore",
        "userDefined": true
      },
      {
        "text": " ",
        "userDefined": false
      },
      {
        "text": "10",
        "alias": "people-number",
        "meta": "@sys.number",
        "userDefined": true
      },
      {
        "text": " ",
        "userDefined": false
      },
      {
        "text": "people",
        "meta": "@sys.ignore",
        "userDefined": true
      }
    ],
    "isTemplate": false,
    "count": 0,
    "updated": 0
  },
  {
    "id": "18fc5957-6dc5-4f11-b2d7-940e46829a02",
    "data": [
      {
        "text": "15%",
        "alias": "tip-percentage",
        "meta": "@sys.percentage",
        "userDefined": true
      },
      {
        "text": " tip ",
        "userDefined": false
      },
      {
        "text": "on",
        "meta": "@sys.ignore",
        "userDefined": true
      },
      {
        "text": " ",
        "userDefined": false
      },
      {
        "text": "40",
        "alias": "amount-without-tip",
        "meta": "@sys.number",
        "userDefined": true
      }
    ],
    "isTemplate": false,
    "count": 0,
    "updated": 0
  },
  {
    "id": "1be859e8-bfe5-4b49-96bc-6d8ea3c582e9",
    "data": [
      {
        "text": "calculate the tip on ",
        "userDefined": false
      },
      {
        "text": "$",
        "alias": "currency",
        "meta": "@sys.currency-name",
        "userDefined": true
      },
      {
        "text": "82.13",
        "alias": "amount-without-tip",
        "meta": "@sys.number",
        "userDefined": true
      }
    ],
    "isTemplate": false,
    "count": 0,
    "updated": 0
  },
  {
    "id": "08c4b4ab-12e5-4793-86e4-fffc12184f48",
    "data": [
      {
        "text": "what is ",
        "userDefined": false
      },
      {
        "text": "15%",
        "alias": "tip-percentage",
        "meta": "@sys.percentage",
        "userDefined": true
      },
      {
        "text": " tip",
        "userDefined": false
      }
    ],
    "isTemplate": false,
    "count": 0,
    "updated": 0
  },
  {
    "id": "488214fb-985e-428e-b4a7-b2f388644f57",
    "data": [
      {
        "text": "how much ",
        "userDefined": false
      },
      {
        "text": "do",
        "meta": "@sys.ignore",
        "userDefined": true
      },
      {
        "text": " I ",
        "userDefined": false
      },
      {
        "text": "tip",
        "meta": "@sys.ignore",
        "userDefined": true
      },
      {
        "text": " ",
        "userDefined": false
      },
      {
        "text": "on",
        "meta": "@sys.ignore",
        "userDefined": true
      },
      {
        "text": " ",
        "userDefined": false
      },
      {
        "text": "1250",
        "alias": "amount-without-tip",
        "meta": "@sys.number",
        "userDefined": true
      }
    ],
    "isTemplate": false,
    "count": 0,
    "updated": 0
  },
  {
    "id": "40273029-2525-42d9-8aee-cfdf1f8a89fc",
    "data": [
      {
        "text": "I need a tip ",
        "userDefined": false
      },
      {
        "text": "calculator",
        "meta": "@sys.ignore",
        "userDefined": true
      }
    ],
    "isTemplate": false,
    "count": 0,
    "updated": 0
  },
  {
    "id": "c857ee6b-eb16-407f-8256-6c9f13fc0870",
    "data": [
      {
        "text": "calculate tip between ",
        "userDefined": false
      },
      {
        "text": "3",
        "alias": "people-number",
        "meta": "@sys.number",
        "userDefined": true
      },
      {
        "text": " people",
        "userDefined": false
      }
    ],
    "isTemplate": false,
    "count": 0,
    "updated": 0
  },
  {
    "id": "e0b32569-beab-4ef7-ac6d-3f34e7ff9e42",
    "data": [
      {
        "text": "49",
        "alias": "amount-without-tip",
        "meta": "@sys.number",
        "userDefined": true
      },
      {
        "text": " ",
        "userDefined": false
      },
      {
        "text": "bucks",
        "alias": "currency",
        "meta": "@sys.currency-name",
        "userDefined": true
      },
      {
        "text": " ",
        "userDefined": false
      },
      {
        "text": "split",
        "meta": "@sys.ignore",
        "userDefined": true
      },
      {
        "text": " between ",
        "userDefined": false
      },
      {
        "text": "four",
        "alias": "people-number",
        "meta": "@sys.number",
        "userDefined": true
      },
      {
        "text": " people",
        "userDefined": false
      }
    ],
    "isTemplate": false,
    "count": 0,
    "updated": 0
  },
  {
    "id": "8c0dbf7b-0d77-451f-93e3-8463025f139e",
    "data": [
      {
        "text": "100",
        "alias": "amount-without-tip",
        "meta": "@sys.number",
        "userDefined": true
      },
      {
        "text": " ",
        "userDefined": false
      },
      {
        "text": "euros",
        "alias": "currency",
        "meta": "@sys.currency-name",
        "userDefined": true
      },
      {
        "text": " plus ",
        "userDefined": false
      },
      {
        "text": "20%",
        "alias": "tip-percentage",
        "meta": "@sys.percentage",
        "userDefined": true
      },
      {
        "text": " tip for ",
        "userDefined": false
      },
      {
        "text": "5",
        "alias": "people-number",
        "meta": "@sys.number",
        "userDefined": true
      },
      {
        "text": " people",
        "userDefined": false
      }
    ],
    "isTemplate": false,
    "count": 0,
    "updated": 0
  },
  {
    "id": "b629bb59-24a8-4cfd-a5dd-7f2073e4d2b3",
    "data": [
      {
        "text": "100",
        "alias": "amount-without-tip",
        "meta": "@sys.number",
        "userDefined": true
      },
      {
        "text": " ",
        "userDefined": false
      },
      {
        "text": "dollar",
        "alias": "currency",
        "meta": "@sys.currency-name",
        "userDefined": true
      },
      {
        "text": " plus ",
        "userDefined": false
      },
      {
        "text": "20%",
        "alias": "tip-percentage",
        "meta": "@sys.percentage",
        "userDefined": true
      },
      {
        "text": " tip",
        "userDefined": false
      }
    ],
    "isTemplate": false,
    "count": 0,
    "updated": 0
  },
  {
    "id": "18b37e78-2218-4e79-b629-7bfa5295cb31",
    "data": [
      {
        "text": "how much should I tip",
        "meta": "@sys.ignore",
        "userDefined": true
      },
      {
        "text": " ",
        "userDefined": false
      },
      {
        "text": "on",
        "meta": "@sys.ignore",
        "userDefined": true
      },
      {
        "text": " ",
        "userDefined": false
      },
      {
        "text": "159",
        "alias": "amount-without-tip",
        "meta": "@sys.number",
        "userDefined": true
      },
      {
        "text": " ",
        "userDefined": false
      },
      {
        "text": "dollars",
        "alias": "currency",
        "meta": "@sys.currency-name",
        "userDefined": true
      }
    ],
    "isTemplate": false,
    "count": 0,
    "updated": 0
  },
  {
    "id": "2fe41e43-4cf0-4966-886f-c77eb95ec47e",
    "data": [
      {
        "text": "15%",
        "alias": "tip-percentage",
        "meta": "@sys.percentage",
        "userDefined": true
      },
      {
        "text": " tip ",
        "userDefined": false
      },
      {
        "text": "on",
        "meta": "@sys.ignore",
        "userDefined": true
      },
      {
        "text": " ",
        "userDefined": false
      },
      {
        "text": "63.70",
        "alias": "amount-without-tip",
        "meta": "@sys.number",
        "userDefined": true
      },
      {
        "text": " ",
        "userDefined": false
      },
      {
        "text": "dollars",
        "alias": "currency",
        "meta": "@sys.currency-name",
        "userDefined": true
      }
    ],
    "isTemplate": false,
    "count": 0,
    "updated": 0
  },
  {
    "id": "2a0a6456-2b52-4ce6-aa54-59c79fc1aae4",
    "data": [
      {
        "text": "split a ",
        "userDefined": false
      },
      {
        "text": "$",
        "alias": "currency",
        "meta": "@sys.currency-name",
        "userDefined": true
      },
      {
        "text": "76.50",
        "alias": "amount-without-tip",
        "meta": "@sys.number",
        "userDefined": true
      },
      {
        "text": " check ",
        "userDefined": false
      },
      {
        "text": "3",
        "alias": "people-number",
        "meta": "@sys.number",
        "userDefined": true
      },
      {
        "text": " ways with a ",
        "userDefined": false
      },
      {
        "text": "20%",
        "alias": "tip-percentage",
        "meta": "@sys.percentage",
        "userDefined": true
      },
      {
        "text": " tip included",
        "userDefined": false
      }
    ],
    "isTemplate": false,
    "count": 0,
    "updated": 0
  },
  {
    "id": "5f6d99bf-7c2e-4cb0-9464-1cf261222b80",
    "data": [
      {
        "text": "calculate ",
        "userDefined": false
      },
      {
        "text": "20%",
        "alias": "tip-percentage",
        "meta": "@sys.percentage",
        "userDefined": true
      },
      {
        "text": " tip ",
        "userDefined": false
      },
      {
        "text": "on",
        "meta": "@sys.ignore",
        "userDefined": true
      },
      {
        "text": " ",
        "userDefined": false
      },
      {
        "text": "100",
        "alias": "amount-without-tip",
        "meta": "@sys.number",
        "userDefined": true
      }
    ],
    "isTemplate": false,
    "count": 0,
    "updated": 0
  },
  {
    "id": "f6f62948-fa37-4a49-9122-ace5f082b1f6",
    "data": [
      {
        "text": "200",
        "alias": "amount-without-tip",
        "meta": "@sys.number",
        "userDefined": true
      },
      {
        "text": " ",
        "userDefined": false
      },
      {
        "text": "€",
        "alias": "currency",
        "meta": "@sys.currency-name",
        "userDefined": true
      },
      {
        "text": " and ",
        "userDefined": false
      },
      {
        "text": "5%",
        "alias": "tip-percentage",
        "meta": "@sys.percentage",
        "userDefined": true
      },
      {
        "text": " ",
        "userDefined": false
      },
      {
        "text": "tip",
        "meta": "@sys.ignore",
        "userDefined": true
      }
    ],
    "isTemplate": false,
    "count": 0,
    "updated": 0
  },
  {
    "id": "10cafbe6-cc2a-4176-abb0-af1ebf26c1f2",
    "data": [
      {
        "text": "100",
        "alias": "amount-without-tip",
        "meta": "@sys.number",
        "userDefined": true
      },
      {
        "text": " ",
        "userDefined": false
      },
      {
        "text": "dollar",
        "alias": "currency",
        "meta": "@sys.currency-name",
        "userDefined": true
      },
      {
        "text": " plus ",
        "userDefined": false
      },
      {
        "text": "20%",
        "alias": "tip-percentage",
        "meta": "@sys.percentage",
        "userDefined": true
      },
      {
        "text": " tip for ",
        "userDefined": false
      },
      {
        "text": "5",
        "alias": "people-number",
        "meta": "@sys.number",
        "userDefined": true
      },
      {
        "text": " people",
        "userDefined": false
      }
    ],
    "isTemplate": false,
    "count": 0,
    "updated": 0
  },
  {
    "id": "ea32780e-7ebf-4a5e-bb65-51d91c27cd30",
    "data": [
      {
        "text": "15%",
        "alias": "tip-percentage",
        "meta": "@sys.percentage",
        "userDefined": true
      },
      {
        "text": " tip ",
        "userDefined": false
      },
      {
        "text": "on",
        "meta": "@sys.ignore",
        "userDefined": true
      },
      {
        "text": " ",
        "userDefined": false
      },
      {
        "text": "36",
        "alias": "amount-without-tip",
        "meta": "@sys.number",
        "userDefined": true
      }
    ],
    "isTemplate": false,
    "count": 0,
    "updated": 0
  },
  {
    "id": "9ccd38b6-f0a2-4548-bd21-8507b897ee5e",
    "data": [
      {
        "text": "calculate tip for ",
        "userDefined": false
      },
      {
        "text": "48",
        "alias": "amount-without-tip",
        "meta": "@sys.number",
        "userDefined": true
      },
      {
        "text": " ",
        "userDefined": false
      },
      {
        "text": "dollars",
        "alias": "currency",
        "meta": "@sys.currency-name",
        "userDefined": true
      },
      {
        "text": ".",
        "userDefined": false
      }
    ],
    "isTemplate": false,
    "count": 0,
    "updated": 0
  },
  {
    "id": "720f9a5d-2383-47d3-a4ca-6f6f83eebc31",
    "data": [
      {
        "text": "100",
        "alias": "amount-without-tip",
        "meta": "@sys.number",
        "userDefined": true
      },
      {
        "text": "$",
        "alias": "currency",
        "meta": "@sys.currency-name",
        "userDefined": true
      },
      {
        "text": " ",
        "userDefined": false
      },
      {
        "text": "plus",
        "meta": "@sys.ignore",
        "userDefined": true
      },
      {
        "text": " ",
        "userDefined": false
      },
      {
        "text": "4%",
        "alias": "tip-percentage",
        "meta": "@sys.percentage",
        "userDefined": true
      },
      {
        "text": " ",
        "userDefined": false
      },
      {
        "text": "tip",
        "meta": "@sys.ignore",
        "userDefined": true
      }
    ],
    "isTemplate": false,
    "count": 0,
    "updated": 0
  },
  {
    "id": "5035ff91-9f80-46bb-a976-ed725f416e1f",
    "data": [
      {
        "text": "13.20",
        "alias": "amount-without-tip",
        "meta": "@sys.number",
        "userDefined": true
      },
      {
        "text": " ",
        "userDefined": false
      },
      {
        "text": "€",
        "alias": "currency",
        "meta": "@sys.currency-name",
        "userDefined": true
      },
      {
        "text": " + ",
        "userDefined": false
      },
      {
        "text": "19%",
        "alias": "tip-percentage",
        "meta": "@sys.percentage",
        "userDefined": true
      }
    ],
    "isTemplate": false,
    "count": 0,
    "updated": 0
  },
  {
    "id": "5c9fca1d-c362-496f-a8a0-88f6fa807df1",
    "data": [
      {
        "text": "what\u0027s an ",
        "userDefined": false
      },
      {
        "text": "18 percent",
        "alias": "tip-percentage",
        "meta": "@sys.percentage",
        "userDefined": true
      },
      {
        "text": " tip ",
        "userDefined": false
      },
      {
        "text": "on",
        "meta": "@sys.ignore",
        "userDefined": true
      },
      {
        "text": " ",
        "userDefined": false
      },
      {
        "text": "106 point 31",
        "alias": "amount-without-tip",
        "meta": "@sys.number",
        "userDefined": true
      },
      {
        "text": " ",
        "userDefined": false
      },
      {
        "text": "cents",
        "alias": "currency",
        "meta": "@sys.currency-name",
        "userDefined": true
      }
    ],
    "isTemplate": false,
    "count": 0,
    "updated": 0
  },
  {
    "id": "e987dd34-6e28-4563-80c1-5c9ae2304aeb",
    "data": [
      {
        "text": "what\u0027s",
        "meta": "@sys.ignore",
        "userDefined": true
      },
      {
        "text": " the tip",
        "userDefined": false
      }
    ],
    "isTemplate": false,
    "count": 0,
    "updated": 0
  },
  {
    "id": "b74d7162-cc35-47b4-a5fb-a3f97fba25bd",
    "data": [
      {
        "text": "tip on ",
        "userDefined": false
      },
      {
        "text": "66.99",
        "alias": "amount-without-tip",
        "meta": "@sys.number",
        "userDefined": true
      }
    ],
    "isTemplate": false,
    "count": 0,
    "updated": 0
  },
  {
    "id": "cba3972b-0b63-419c-bc55-d05f221957d4",
    "data": [
      {
        "text": "calculate ",
        "userDefined": false
      },
      {
        "text": "20%",
        "alias": "tip-percentage",
        "meta": "@sys.percentage",
        "userDefined": true
      },
      {
        "text": " tip ",
        "userDefined": false
      },
      {
        "text": "on",
        "meta": "@sys.ignore",
        "userDefined": true
      },
      {
        "text": " ",
        "userDefined": false
      },
      {
        "text": "80",
        "alias": "amount-without-tip",
        "meta": "@sys.number",
        "userDefined": true
      },
      {
        "text": " ",
        "userDefined": false
      },
      {
        "text": "bucks",
        "alias": "currency",
        "meta": "@sys.currency-name",
        "userDefined": true
      }
    ],
    "isTemplate": false,
    "count": 1,
    "updated": 0
  },
  {
    "id": "61290cfe-6939-4758-bfc2-509e50f0731c",
    "data": [
      {
        "text": "102",
        "alias": "amount-without-tip",
        "meta": "@sys.number",
        "userDefined": true
      },
      {
        "text": " ",
        "userDefined": false
      },
      {
        "text": "dollars",
        "alias": "currency",
        "meta": "@sys.currency-name",
        "userDefined": true
      },
      {
        "text": " ",
        "userDefined": false
      },
      {
        "text": "10%",
        "alias": "tip-percentage",
        "meta": "@sys.percentage",
        "userDefined": true
      },
      {
        "text": " tip ",
        "userDefined": false
      },
      {
        "text": "4",
        "alias": "people-number",
        "meta": "@sys.number",
        "userDefined": true
      },
      {
        "text": " people",
        "userDefined": false
      }
    ],
    "isTemplate": false,
    "count": 0,
    "updated": 0
  },
  {
    "id": "3d494de9-f609-41a8-a872-96b81ef83925",
    "data": [
      {
        "text": "what is ",
        "userDefined": false
      },
      {
        "text": "15%",
        "alias": "tip-percentage",
        "meta": "@sys.percentage",
        "userDefined": true
      },
      {
        "text": " tip ",
        "userDefined": false
      },
      {
        "text": "on",
        "meta": "@sys.ignore",
        "userDefined": true
      },
      {
        "text": " ",
        "userDefined": false
      },
      {
        "text": "567.32",
        "alias": "amount-without-tip",
        "meta": "@sys.number",
        "userDefined": true
      }
    ],
    "isTemplate": false,
    "count": 0,
    "updated": 0
  },
  {
    "id": "85b25a17-1b7b-4f37-8507-d47ce52aeb31",
    "data": [
      {
        "text": "250",
        "alias": "amount-without-tip",
        "meta": "@sys.number",
        "userDefined": true
      },
      {
        "text": " ",
        "userDefined": false
      },
      {
        "text": "dollars",
        "alias": "currency",
        "meta": "@sys.currency-name",
        "userDefined": true
      },
      {
        "text": " plus ",
        "userDefined": false
      },
      {
        "text": "10%",
        "alias": "tip-percentage",
        "meta": "@sys.percentage",
        "userDefined": true
      },
      {
        "text": " tip for ",
        "userDefined": false
      },
      {
        "text": "3",
        "alias": "people-number",
        "meta": "@sys.number",
        "userDefined": true
      },
      {
        "text": " people",
        "userDefined": false
      }
    ],
    "isTemplate": false,
    "count": 0,
    "updated": 0
  },
  {
    "id": "97392840-61fb-4095-a6e7-693a0fdd8cc5",
    "data": [
      {
        "text": "88.90",
        "alias": "amount-without-tip",
        "meta": "@sys.number",
        "userDefined": true
      },
      {
        "text": " ",
        "userDefined": false
      },
      {
        "text": "bucks",
        "alias": "currency",
        "meta": "@sys.currency-name",
        "userDefined": true
      },
      {
        "text": " plus a ",
        "userDefined": false
      },
      {
        "text": "10%",
        "alias": "tip-percentage",
        "meta": "@sys.percentage",
        "userDefined": true
      },
      {
        "text": " tip ",
        "userDefined": false
      },
      {
        "text": "split",
        "meta": "@sys.ignore",
        "userDefined": true
      },
      {
        "text": " between ",
        "userDefined": false
      },
      {
        "text": "3",
        "alias": "people-number",
        "meta": "@sys.number",
        "userDefined": true
      },
      {
        "text": " people",
        "userDefined": false
      }
    ],
    "isTemplate": false,
    "count": 1,
    "updated": 0
  },
  {
    "id": "718f6c90-811e-4716-a30e-758a06fa076c",
    "data": [
      {
        "text": "20%",
        "alias": "tip-percentage",
        "meta": "@sys.percentage",
        "userDefined": true
      },
      {
        "text": " tip ",
        "userDefined": false
      },
      {
        "text": "on",
        "meta": "@sys.ignore",
        "userDefined": true
      },
      {
        "text": " ",
        "userDefined": false
      },
      {
        "text": "149",
        "alias": "amount-without-tip",
        "meta": "@sys.number",
        "userDefined": true
      },
      {
        "text": " ",
        "userDefined": false
      },
      {
        "text": "split",
        "meta": "@sys.ignore",
        "userDefined": true
      },
      {
        "text": " between ",
        "userDefined": false
      },
      {
        "text": "two",
        "alias": "people-number",
        "meta": "@sys.number",
        "userDefined": true
      },
      {
        "text": " people",
        "userDefined": false
      }
    ],
    "isTemplate": false,
    "count": 0,
    "updated": 0
  },
  {
    "id": "4cd462cd-44c5-4f19-a606-9a82cf9ed4d5",
    "data": [
      {
        "text": "what do I tip for a ",
        "userDefined": false
      },
      {
        "text": "30",
        "alias": "amount-without-tip",
        "meta": "@sys.number",
        "userDefined": true
      },
      {
        "text": " ",
        "userDefined": false
      },
      {
        "text": "dollar",
        "alias": "currency",
        "meta": "@sys.currency-name",
        "userDefined": true
      },
      {
        "text": " ",
        "userDefined": false
      },
      {
        "text": "bill",
        "meta": "@sys.ignore",
        "userDefined": true
      }
    ],
    "isTemplate": false,
    "count": 0,
    "updated": 0
  },
  {
    "id": "2890e78c-5ea4-4165-b6f8-cb671f54d469",
    "data": [
      {
        "text": "calculate a ",
        "userDefined": false
      },
      {
        "text": "15%",
        "alias": "tip-percentage",
        "meta": "@sys.percentage",
        "userDefined": true
      },
      {
        "text": " tip ",
        "userDefined": false
      },
      {
        "text": "on",
        "meta": "@sys.ignore",
        "userDefined": true
      },
      {
        "text": " ",
        "userDefined": false
      },
      {
        "text": "20.52",
        "alias": "amount-without-tip",
        "meta": "@sys.number",
        "userDefined": true
      }
    ],
    "isTemplate": false,
    "count": 0,
    "updated": 0
  },
  {
    "id": "a0069696-551f-4e82-ae41-3ce5650b3dba",
    "data": [
      {
        "text": "15%",
        "alias": "tip-percentage",
        "meta": "@sys.percentage",
        "userDefined": true
      },
      {
        "text": " tip ",
        "userDefined": false
      },
      {
        "text": "on",
        "meta": "@sys.ignore",
        "userDefined": true
      },
      {
        "text": " ",
        "userDefined": false
      },
      {
        "text": "35",
        "alias": "amount-without-tip",
        "meta": "@sys.number",
        "userDefined": true
      }
    ],
    "isTemplate": false,
    "count": 0,
    "updated": 0
  },
  {
    "id": "a833ded3-0216-4a37-a856-6bd1e07530e5",
    "data": [
      {
        "text": "how much do I tip on ",
        "userDefined": false
      },
      {
        "text": "$",
        "alias": "currency",
        "meta": "@sys.currency-name",
        "userDefined": true
      },
      {
        "text": "150",
        "alias": "amount-without-tip",
        "meta": "@sys.number",
        "userDefined": true
      }
    ],
    "isTemplate": false,
    "count": 0,
    "updated": 0
  },
  {
    "id": "7d14d83d-3b87-42ac-926d-43ce9e2c6b3b",
    "data": [
      {
        "text": "100",
        "alias": "amount-without-tip",
        "meta": "@sys.number",
        "userDefined": true
      },
      {
        "text": " ",
        "userDefined": false
      },
      {
        "text": "dollars",
        "alias": "currency",
        "meta": "@sys.currency-name",
        "userDefined": true
      },
      {
        "text": " plus ",
        "userDefined": false
      },
      {
        "text": "20%",
        "alias": "tip-percentage",
        "meta": "@sys.percentage",
        "userDefined": true
      },
      {
        "text": " tip",
        "userDefined": false
      }
    ],
    "isTemplate": false,
    "count": 1,
    "updated": 0
  },
  {
    "id": "39ae4785-ab62-48cf-9f58-59e4a0e26d31",
    "data": [
      {
        "text": "how much should I tip",
        "userDefined": false
      }
    ],
    "isTemplate": false,
    "count": 0,
    "updated": 0
  },
  {
    "id": "feda7bd7-19d6-4601-a426-6b0db66d5f31",
    "data": [
      {
        "text": "calculate tips",
        "userDefined": false
      }
    ],
    "isTemplate": false,
    "count": 0,
    "updated": 0
  },
  {
    "id": "3b8d1d72-67ec-4342-ba46-9e88dc9df243",
    "data": [
      {
        "text": "what\u0027s a proper tip for a ",
        "userDefined": false
      },
      {
        "text": "$",
        "alias": "currency",
        "meta": "@sys.currency-name",
        "userDefined": true
      },
      {
        "text": "123",
        "alias": "amount-without-tip",
        "meta": "@sys.number",
        "userDefined": true
      },
      {
        "text": " bill",
        "userDefined": false
      }
    ],
    "isTemplate": false,
    "count": 0,
    "updated": 0
  },
  {
    "id": "17d1f5ad-befd-4516-b4b5-d389080053a4",
    "data": [
      {
        "text": "calculate tip ",
        "userDefined": false
      },
      {
        "text": "on",
        "meta": "@sys.ignore",
        "userDefined": true
      },
      {
        "text": " ",
        "userDefined": false
      },
      {
        "text": "120",
        "alias": "amount-without-tip",
        "meta": "@sys.number",
        "userDefined": true
      },
      {
        "text": " ",
        "userDefined": false
      },
      {
        "text": "bucks",
        "alias": "currency",
        "meta": "@sys.currency-name",
        "userDefined": true
      }
    ],
    "isTemplate": false,
    "count": 1,
    "updated": 0
  },
  {
    "id": "489a2d80-05cd-40ce-8c3d-808f0c7fdadd",
    "data": [
      {
        "text": "what is a ",
        "userDefined": false
      },
      {
        "text": "20%",
        "alias": "tip-percentage",
        "meta": "@sys.percentage",
        "userDefined": true
      },
      {
        "text": " tip ",
        "userDefined": false
      },
      {
        "text": "on",
        "meta": "@sys.ignore",
        "userDefined": true
      },
      {
        "text": " ",
        "userDefined": false
      },
      {
        "text": "68.46",
        "alias": "amount-without-tip",
        "meta": "@sys.number",
        "userDefined": true
      }
    ],
    "isTemplate": false,
    "count": 0,
    "updated": 0
  },
  {
    "id": "71a79bf2-1811-46fa-a8b6-7e742beccfd0",
    "data": [
      {
        "text": "what is a ",
        "userDefined": false
      },
      {
        "text": "20%",
        "alias": "tip-percentage",
        "meta": "@sys.percentage",
        "userDefined": true
      },
      {
        "text": " tip ",
        "userDefined": false
      },
      {
        "text": "on",
        "meta": "@sys.ignore",
        "userDefined": true
      },
      {
        "text": " ",
        "userDefined": false
      },
      {
        "text": "80",
        "alias": "amount-without-tip",
        "meta": "@sys.number",
        "userDefined": true
      }
    ],
    "isTemplate": false,
    "count": 0,
    "updated": 0
  },
  {
    "id": "834af35b-f43d-4518-ac59-a1a0863e4029",
    "data": [
      {
        "text": "tip",
        "userDefined": false
      }
    ],
    "isTemplate": false,
    "count": 0,
    "updated": 0
  },
  {
    "id": "d0bb614b-51c7-46b5-befd-02cdccaf77d0",
    "data": [
      {
        "text": "how much is ",
        "userDefined": false
      },
      {
        "text": "$",
        "alias": "currency",
        "meta": "@sys.currency-name",
        "userDefined": true
      },
      {
        "text": "30",
        "alias": "amount-without-tip",
        "meta": "@sys.number",
        "userDefined": true
      },
      {
        "text": " plus a ",
        "userDefined": false
      },
      {
        "text": "15%",
        "alias": "tip-percentage",
        "meta": "@sys.percentage",
        "userDefined": true
      },
      {
        "text": " tip",
        "userDefined": false
      }
    ],
    "isTemplate": false,
    "count": 0,
    "updated": 0
  },
  {
    "id": "628a023e-3591-4249-b469-89f2215480c8",
    "data": [
      {
        "text": "what is ",
        "userDefined": false
      },
      {
        "text": "15%",
        "alias": "tip-percentage",
        "meta": "@sys.percentage",
        "userDefined": true
      },
      {
        "text": " tip ",
        "userDefined": false
      },
      {
        "text": "on",
        "meta": "@sys.ignore",
        "userDefined": true
      },
      {
        "text": " ",
        "userDefined": false
      },
      {
        "text": "40",
        "alias": "amount-without-tip",
        "meta": "@sys.number",
        "userDefined": true
      }
    ],
    "isTemplate": false,
    "count": 0,
    "updated": 0
  },
  {
    "id": "f7615de1-5856-4330-b07a-f2a9e6f8c63b",
    "data": [
      {
        "text": "20",
        "alias": "amount-without-tip",
        "meta": "@sys.number",
        "userDefined": true
      },
      {
        "text": " ",
        "userDefined": false
      },
      {
        "text": "bucks",
        "alias": "currency",
        "meta": "@sys.currency-name",
        "userDefined": true
      },
      {
        "text": " with a ",
        "userDefined": false
      },
      {
        "text": "10%",
        "alias": "tip-percentage",
        "meta": "@sys.percentage",
        "userDefined": true
      },
      {
        "text": " tip ",
        "userDefined": false
      },
      {
        "text": "split",
        "meta": "@sys.ignore",
        "userDefined": true
      },
      {
        "text": " between ",
        "userDefined": false
      },
      {
        "text": "5",
        "alias": "people-number",
        "meta": "@sys.number",
        "userDefined": true
      },
      {
        "text": " people",
        "userDefined": false
      }
    ],
    "isTemplate": false,
    "count": 0,
    "updated": 0
  },
  {
    "id": "a71a588a-1d92-406c-a5ff-4195460bf02c",
    "data": [
      {
        "text": "tip calculation",
        "userDefined": false
      }
    ],
    "isTemplate": false,
    "count": 0,
    "updated": 0
  },
  {
    "id": "68818c19-dc22-43be-8229-b055dffe4e19",
    "data": [
      {
        "text": "calculate tip",
        "userDefined": false
      }
    ],
    "isTemplate": false,
    "count": 0,
    "updated": 0
  },
  {
    "id": "156c5eb8-f680-4503-b264-670d3c680c0f",
    "data": [
      {
        "text": "15%",
        "alias": "tip-percentage",
        "meta": "@sys.percentage",
        "userDefined": true
      },
      {
        "text": " tip ",
        "userDefined": false
      },
      {
        "text": "on",
        "meta": "@sys.ignore",
        "userDefined": true
      },
      {
        "text": " ",
        "userDefined": false
      },
      {
        "text": "36.50",
        "alias": "amount-without-tip",
        "meta": "@sys.number",
        "userDefined": true
      }
    ],
    "isTemplate": false,
    "count": 1,
    "updated": 0
  },
  {
    "id": "cd1cd95f-8423-4f93-bd4d-c5c85975ca2e",
    "data": [
      {
        "text": "calculate ",
        "userDefined": false
      },
      {
        "text": "20%",
        "alias": "tip-percentage",
        "meta": "@sys.percentage",
        "userDefined": true
      },
      {
        "text": " tip for",
        "userDefined": false
      }
    ],
    "isTemplate": false,
    "count": 0,
    "updated": 0
  },
  {
    "id": "65100b5d-f213-4ebb-96ff-e6653c8df159",
    "data": [
      {
        "text": "19",
        "alias": "amount-without-tip",
        "meta": "@sys.number",
        "userDefined": true
      },
      {
        "text": " ",
        "userDefined": false
      },
      {
        "text": "rupees",
        "alias": "currency",
        "meta": "@sys.currency-name",
        "userDefined": true
      },
      {
        "text": " plus ",
        "userDefined": false
      },
      {
        "text": "10%",
        "alias": "tip-percentage",
        "meta": "@sys.percentage",
        "userDefined": true
      },
      {
        "text": " tip ",
        "userDefined": false
      },
      {
        "text": "split",
        "meta": "@sys.ignore",
        "userDefined": true
      },
      {
        "text": " between ",
        "userDefined": false
      },
      {
        "text": "3",
        "alias": "people-number",
        "meta": "@sys.number",
        "userDefined": true
      },
      {
        "text": " people",
        "userDefined": false
      }
    ],
    "isTemplate": false,
    "count": 0,
    "updated": 0
  },
  {
    "id": "8bbc0487-08c3-4d98-a394-5f7d5c3e34d7",
    "data": [
      {
        "text": "150",
        "alias": "amount-without-tip",
        "meta": "@sys.number",
        "userDefined": true
      },
      {
        "text": " ",
        "userDefined": false
      },
      {
        "text": "pounds",
        "alias": "currency",
        "meta": "@sys.currency-name",
        "userDefined": true
      },
      {
        "text": " plus ",
        "userDefined": false
      },
      {
        "text": "10 percent",
        "alias": "tip-percentage",
        "meta": "@sys.percentage",
        "userDefined": true
      },
      {
        "text": " tip for ",
        "userDefined": false
      },
      {
        "text": "5",
        "alias": "people-number",
        "meta": "@sys.number",
        "userDefined": true
      },
      {
        "text": " person",
        "userDefined": false
      }
    ],
    "isTemplate": false,
    "count": 0,
    "updated": 0
  },
  {
    "id": "17d029c9-8050-4571-a210-fdec93d8ade3",
    "data": [
      {
        "text": "calculate ",
        "userDefined": false
      },
      {
        "text": "20%",
        "alias": "tip-percentage",
        "meta": "@sys.percentage",
        "userDefined": true
      },
      {
        "text": " tip ",
        "userDefined": false
      },
      {
        "text": "on",
        "meta": "@sys.ignore",
        "userDefined": true
      },
      {
        "text": " ",
        "userDefined": false
      },
      {
        "text": "80",
        "alias": "amount-without-tip",
        "meta": "@sys.number",
        "userDefined": true
      }
    ],
    "isTemplate": false,
    "count": 0,
    "updated": 0
  },
  {
    "id": "09a26cfd-dc96-454f-823b-e8b624e7621f",
    "data": [
      {
        "text": "tips",
        "userDefined": false
      }
    ],
    "isTemplate": false,
    "count": 0,
    "updated": 0
  },
  {
    "id": "98fa6c7c-ff24-4a8d-adc5-4e8d9ca4b06f",
    "data": [
      {
        "text": "20%",
        "alias": "tip-percentage",
        "meta": "@sys.percentage",
        "userDefined": true
      },
      {
        "text": " tip ",
        "userDefined": false
      },
      {
        "text": "on",
        "meta": "@sys.ignore",
        "userDefined": true
      },
      {
        "text": " ",
        "userDefined": false
      },
      {
        "text": "21",
        "alias": "amount-without-tip",
        "meta": "@sys.number",
        "userDefined": true
      }
    ],
    "isTemplate": false,
    "count": 0,
    "updated": 0
  },
  {
    "id": "b79a2d49-f110-46c6-8e7c-7bbfe6e9b019",
    "data": [
      {
        "text": "15%",
        "alias": "tip-percentage",
        "meta": "@sys.percentage",
        "userDefined": true
      },
      {
        "text": " tip ",
        "userDefined": false
      },
      {
        "text": "on",
        "meta": "@sys.ignore",
        "userDefined": true
      },
      {
        "text": " ",
        "userDefined": false
      },
      {
        "text": "3650",
        "alias": "amount-without-tip",
        "meta": "@sys.number",
        "userDefined": true
      }
    ],
    "isTemplate": false,
    "count": 0,
    "updated": 0
  }
]