[
  {
    "id": "a209cfcf-bc71-4e27-9b74-980f078f78a9",
    "data": [
      {
        "text": "repeat ",
        "userDefined": false
      },
      {
        "text": "every day",
        "alias": "recurrence",
        "meta": "@recurrence",
        "userDefined": false
      }
    ],
    "isTemplate": false,
    "count": 0,
    "updated": 0
  },
  {
    "id": "cf9e293e-6fcb-4fa0-9ffe-591dfe6d3f8e",
    "data": [
      {
        "text": "do it ",
        "userDefined": false
      },
      {
        "text": "daily",
        "alias": "recurrence",
        "meta": "@recurrence",
        "userDefined": false
      },
      {
        "text": " ",
        "userDefined": false
      },
      {
        "text": "at 8 am",
        "alias": "date-time",
        "meta": "@sys.date-time",
        "userDefined": false
      }
    ],
    "isTemplate": false,
    "count": 0,
    "updated": 0
  },
  {
    "id": "f7189cc9-b3a1-4262-8071-506f8974c3a1",
    "data": [
      {
        "text": "and repeat it ",
        "userDefined": false
      },
      {
        "text": "at 9 pm",
        "alias": "date-time",
        "meta": "@sys.date-time",
        "userDefined": false
      }
    ],
    "isTemplate": false,
    "count": 0,
    "updated": 0
  }
]