[
  {
    "id": "1b836d75-6b7d-45d9-97b4-ea8d404dd500",
    "data": [
      {
        "text": "turn on car ",
        "userDefined": false
      },
      {
        "text": "backup lights",
        "alias": "car-part",
        "meta": "@car-part",
        "userDefined": true
      },
      {
        "text": " when I ",
        "userDefined": false
      },
      {
        "text": "get in",
        "alias": "condition",
        "meta": "@condition",
        "userDefined": true
      },
      {
        "text": " the car",
        "userDefined": false
      }
    ],
    "isTemplate": false,
    "count": 0,
    "updated": 0
  },
  {
    "id": "996943b0-755f-46f4-8e1b-8b2c1a4fcdc8",
    "data": [
      {
        "text": "turn on",
        "meta": "@sys.ignore",
        "userDefined": false
      },
      {
        "text": " ",
        "userDefined": false
      },
      {
        "text": "all of",
        "alias": "all",
        "meta": "@all",
        "userDefined": true
      },
      {
        "text": " the car lights ",
        "userDefined": false
      },
      {
        "text": "when",
        "meta": "@sys.ignore",
        "userDefined": false
      },
      {
        "text": " I ",
        "userDefined": false
      },
      {
        "text": "leave",
        "alias": "condition",
        "meta": "@condition",
        "userDefined": false
      },
      {
        "text": " my car",
        "userDefined": false
      }
    ],
    "isTemplate": false,
    "count": 0,
    "updated": 0
  },
  {
    "id": "701ce84f-b0cf-467b-9733-d856958d1655",
    "data": [
      {
        "text": "turn on lights",
        "meta": "@sys.ignore",
        "userDefined": false
      },
      {
        "text": " ",
        "userDefined": false
      },
      {
        "text": "when",
        "meta": "@sys.ignore",
        "userDefined": false
      },
      {
        "text": " I ",
        "userDefined": false
      },
      {
        "text": "get in",
        "alias": "condition",
        "meta": "@condition",
        "userDefined": false
      },
      {
        "text": " ",
        "userDefined": false
      },
      {
        "text": "the car",
        "meta": "@sys.ignore",
        "userDefined": false
      }
    ],
    "isTemplate": false,
    "count": 0,
    "updated": 0
  },
  {
    "id": "e4c55025-c6a7-41a0-b4f2-5c040c1513d9",
    "data": [
      {
        "text": "turn on car lights for ",
        "userDefined": false
      },
      {
        "text": "Jacky",
        "alias": "given-name",
        "meta": "@sys.given-name",
        "userDefined": true
      },
      {
        "text": " when she ",
        "userDefined": false
      },
      {
        "text": "gets in",
        "alias": "condition",
        "meta": "@condition",
        "userDefined": true
      },
      {
        "text": " the car",
        "userDefined": false
      }
    ],
    "isTemplate": false,
    "count": 0,
    "updated": 0
  }
]