{
  "id": "b8001c46-e91b-4d37-9010-56bdb7f093dc",
  "name": "car.lights.brightness.up",
  "auto": true,
  "contexts": [],
  "responses": [
    {
      "resetContexts": false,
      "action": "car.lights.brightness.up",
      "affectedContexts": [
        {
          "name": "car-brightness",
          "parameters": {},
          "lifespan": 5
        }
      ],
      "parameters": [
        {
          "id": "66ab34af-e5cc-4bb5-9b9f-6cf21a4d0014",
          "required": false,
          "dataType": "@car-light",
          "name": "car-part",
          "value": "$car-part",
          "promptMessages": [],
          "noMatchPromptMessages": [],
          "noInputPromptMessages": [],
          "outputDialogContexts": [],
          "isList": false
        },
        {
          "id": "7ec59f33-b722-47ce-9639-f38504b5dd71",
          "required": false,
          "dataType": "@sys.given-name",
          "name": "name",
          "value": "$name",
          "promptMessages": [],
          "noMatchPromptMessages": [],
          "noInputPromptMessages": [],
          "outputDialogContexts": [],
          "isList": false
        },
        {
          "id": "c3d91d38-3bc4-4d65-a0a6-3488f4fac0cc",
          "required": false,
          "dataType": "@sys.number",
          "name": "change-value",
          "value": "$change-value",
          "promptMessages": [],
          "noMatchPromptMessages": [],
          "noInputPromptMessages": [],
          "outputDialogContexts": [],
          "isList": false
        },
        {
          "id": "23a5e44f-6514-4dd4-af59-6df7cbc7321b",
          "required": false,
          "dataType": "@all",
          "name": "all",
          "value": "$all",
          "promptMessages": [],
          "noMatchPromptMessages": [],
          "noInputPromptMessages": [],
          "outputDialogContexts": [],
          "isList": false
        }
      ],
      "messages": [
        {
          "type": 0,
          "lang": "en",
          "condition": "",
          "speech": []
        }
      ],
      "defaultResponsePlatforms": {},
      "speech": []
    }
  ],
  "priority": 500000,
  "webhookUsed": false,
  "webhookForSlotFilling": false,
  "fallbackIntent": false,
  "events": [],
  "conditionalResponses": [],
  "condition": "",
  "conditionalFollowupEvents": []
}