[
  {
    "id": "75764779-6457-4eb9-bf27-c3a463755638",
    "data": [
      {
        "text": "lower the brightness of lights for ",
        "userDefined": false
      },
      {
        "text": "John",
        "alias": "passenger",
        "meta": "@sys.given-name",
        "userDefined": true
      }
    ],
    "isTemplate": false,
    "count": 1,
    "updated": 0
  },
  {
    "id": "ed18ce85-5135-45fa-a795-56d4f888942f",
    "data": [
      {
        "text": "dim",
        "meta": "@sys.ignore",
        "userDefined": false
      },
      {
        "text": " ",
        "userDefined": false
      },
      {
        "text": "all",
        "alias": "all",
        "meta": "@all",
        "userDefined": false
      },
      {
        "text": " the lights ",
        "userDefined": false
      },
      {
        "text": "in",
        "meta": "@sys.ignore",
        "userDefined": false
      },
      {
        "text": " ",
        "userDefined": false
      },
      {
        "text": "the car",
        "meta": "@sys.ignore",
        "userDefined": false
      }
    ],
    "isTemplate": false,
    "count": 0,
    "updated": 0
  },
  {
    "id": "160abb58-9381-4317-aef3-55a3521dc97e",
    "data": [
      {
        "text": "car lights down for ",
        "userDefined": false
      },
      {
        "text": "2",
        "alias": "change-value",
        "meta": "@sys.number",
        "userDefined": true
      },
      {
        "text": " points",
        "userDefined": false
      }
    ],
    "isTemplate": false,
    "count": 0,
    "updated": 0
  },
  {
    "id": "d516e614-5589-43ba-b8a9-ed76e2409ec7",
    "data": [
      {
        "text": "dim the ",
        "userDefined": false
      },
      {
        "text": "light",
        "meta": "@sys.ignore",
        "userDefined": true
      },
      {
        "text": " in ",
        "userDefined": false
      },
      {
        "text": "the car",
        "meta": "@sys.ignore",
        "userDefined": true
      }
    ],
    "isTemplate": false,
    "count": 0,
    "updated": 0
  },
  {
    "id": "032de260-46f8-46dc-87c1-747ef7e62c73",
    "data": [
      {
        "text": "turn ",
        "userDefined": false
      },
      {
        "text": "the car",
        "meta": "@sys.ignore",
        "userDefined": true
      },
      {
        "text": " ",
        "userDefined": false
      },
      {
        "text": "lights",
        "meta": "@sys.ignore",
        "userDefined": true
      },
      {
        "text": " down",
        "userDefined": false
      }
    ],
    "isTemplate": false,
    "count": 0,
    "updated": 0
  },
  {
    "id": "1e520402-8e42-4fe0-bcdb-8812228720b8",
    "data": [
      {
        "text": "turn down the ",
        "userDefined": false
      },
      {
        "text": "head light",
        "alias": "car-part",
        "meta": "@car-light",
        "userDefined": true
      }
    ],
    "isTemplate": false,
    "count": 0,
    "updated": 0
  },
  {
    "id": "9a7aa088-7e27-4818-94b2-8f0417ae3591",
    "data": [
      {
        "text": "dim the ",
        "userDefined": false
      },
      {
        "text": "head light",
        "alias": "car-part",
        "meta": "@car-light",
        "userDefined": true
      }
    ],
    "isTemplate": false,
    "count": 0,
    "updated": 0
  },
  {
    "id": "47a5b624-6bd8-4ee3-a5b9-2e9211a3a456",
    "data": [
      {
        "text": "dim ",
        "userDefined": false
      },
      {
        "text": "every",
        "alias": "all",
        "meta": "@all",
        "userDefined": true
      },
      {
        "text": " light in car",
        "userDefined": false
      }
    ],
    "isTemplate": false,
    "count": 0,
    "updated": 0
  },
  {
    "id": "3e7cfa08-44bd-47c8-b4c3-6992ea5a84be",
    "data": [
      {
        "text": "dim ",
        "userDefined": false
      },
      {
        "text": "car",
        "meta": "@sys.ignore",
        "userDefined": true
      },
      {
        "text": " ",
        "userDefined": false
      },
      {
        "text": "lights",
        "meta": "@sys.ignore",
        "userDefined": true
      }
    ],
    "isTemplate": false,
    "count": 0,
    "updated": 0
  },
  {
    "id": "f3738d1a-dded-459d-8a67-18a25a492d55",
    "data": [
      {
        "text": "lower the brightness of ",
        "userDefined": false
      },
      {
        "text": "all",
        "alias": "all",
        "meta": "@all",
        "userDefined": true
      },
      {
        "text": " lights in the car",
        "userDefined": false
      }
    ],
    "isTemplate": false,
    "count": 1,
    "updated": 0
  },
  {
    "id": "cbd7b0d6-9c15-4f34-a218-1ea1a7abc608",
    "data": [
      {
        "text": "lower",
        "meta": "@sys.ignore",
        "userDefined": true
      },
      {
        "text": " the brightness of car ",
        "userDefined": false
      },
      {
        "text": "lights",
        "meta": "@sys.ignore",
        "userDefined": true
      }
    ],
    "isTemplate": false,
    "count": 0,
    "updated": 0
  },
  {
    "id": "a723a9f5-5f14-4e83-b8da-1b111370933e",
    "data": [
      {
        "text": "turn down the ",
        "userDefined": false
      },
      {
        "text": "lights",
        "meta": "@sys.ignore",
        "userDefined": true
      },
      {
        "text": " in ",
        "userDefined": false
      },
      {
        "text": "the car",
        "meta": "@sys.ignore",
        "userDefined": true
      }
    ],
    "isTemplate": false,
    "count": 0,
    "updated": 0
  },
  {
    "id": "189206f2-7689-4309-8c54-80e6a04556d8",
    "data": [
      {
        "text": "turn the ",
        "userDefined": false
      },
      {
        "text": "warning light",
        "alias": "car-part",
        "meta": "@car-light",
        "userDefined": true
      },
      {
        "text": " down",
        "userDefined": false
      }
    ],
    "isTemplate": false,
    "count": 0,
    "updated": 0
  },
  {
    "id": "ce4d3c8b-7709-4fb2-9012-282e60cf1345",
    "data": [
      {
        "text": "decrease the ",
        "userDefined": false
      },
      {
        "text": "power",
        "meta": "@sys.ignore",
        "userDefined": true
      },
      {
        "text": " of ",
        "userDefined": false
      },
      {
        "text": "reverse lights",
        "alias": "car-part",
        "meta": "@car-light",
        "userDefined": true
      }
    ],
    "isTemplate": false,
    "count": 0,
    "updated": 0
  },
  {
    "id": "a964184a-673f-4b4e-bddc-04d7a4cfd34a",
    "data": [
      {
        "text": "turn down the ",
        "userDefined": false
      },
      {
        "text": "head light",
        "alias": "car-part",
        "meta": "@car-light",
        "userDefined": true
      },
      {
        "text": " for ",
        "userDefined": false
      },
      {
        "text": "my seat",
        "meta": "@sys.ignore",
        "userDefined": true
      }
    ],
    "isTemplate": false,
    "count": 0,
    "updated": 0
  },
  {
    "id": "0a08b64d-9e62-4306-907a-c95c8cc907ce",
    "data": [
      {
        "text": "decrease the ",
        "userDefined": false
      },
      {
        "text": "light",
        "meta": "@sys.ignore",
        "userDefined": true
      },
      {
        "text": " in ",
        "userDefined": false
      },
      {
        "text": "the car",
        "meta": "@sys.ignore",
        "userDefined": true
      }
    ],
    "isTemplate": false,
    "count": 0,
    "updated": 0
  }
]