{
  "id": "a395d3a8-2dcc-43b2-a425-c4593d77a023",
  "name": "car.ac - context:car-ac - comment:change final grad",
  "auto": true,
  "contexts": [
    "car-ac"
  ],
  "responses": [
    {
      "resetContexts": false,
      "action": "#car-ac.intent_action",
      "affectedContexts": [],
      "parameters": [
        {
          "id": "71407162-a11a-48e3-8833-9766bebeac7b",
          "required": false,
          "dataType": "@sys.number",
          "name": "final-value",
          "value": "$final-value",
          "promptMessages": [],
          "noMatchPromptMessages": [],
          "noInputPromptMessages": [],
          "outputDialogContexts": [],
          "isList": false
        }
      ],
      "messages": [
        {
          "type": 0,
          "lang": "en",
          "condition": "",
          "speech": []
        }
      ],
      "defaultResponsePlatforms": {},
      "speech": []
    }
  ],
  "priority": 500000,
  "webhookUsed": false,
  "webhookForSlotFilling": false,
  "fallbackIntent": false,
  "events": [],
  "conditionalResponses": [],
  "condition": "",
  "conditionalFollowupEvents": []
}