{
  "id": "d5b52ee2-e57f-490e-95fe-749dd48e1705",
  "name": "car.ac - context:car-ac - comment:increase or decrease grad",
  "auto": true,
  "contexts": [
    "car-ac"
  ],
  "responses": [
    {
      "resetContexts": false,
      "action": "#car-ac.intent_action",
      "affectedContexts": [],
      "parameters": [
        {
          "id": "e545665d-1f39-4ec1-abc2-a7028bf0b24a",
          "required": false,
          "dataType": "@sys.number",
          "name": "final-value",
          "value": "$final-value",
          "promptMessages": [],
          "noMatchPromptMessages": [],
          "noInputPromptMessages": [],
          "outputDialogContexts": [],
          "isList": false
        },
        {
          "id": "2e458e9c-ea22-4847-9d68-729c5d0acaa6",
          "required": false,
          "dataType": "@sys.number",
          "name": "change-value",
          "value": "$change-value",
          "promptMessages": [],
          "noMatchPromptMessages": [],
          "noInputPromptMessages": [],
          "outputDialogContexts": [],
          "isList": false
        }
      ],
      "messages": [
        {
          "type": 0,
          "lang": "en",
          "condition": "",
          "speech": []
        }
      ],
      "defaultResponsePlatforms": {},
      "speech": []
    }
  ],
  "priority": 500000,
  "webhookUsed": false,
  "webhookForSlotFilling": false,
  "fallbackIntent": false,
  "events": [],
  "conditionalResponses": [],
  "condition": "",
  "conditionalFollowupEvents": []
}