[
  {
    "id": "934f3ac0-a133-4863-bbb8-a32c355e8a98",
    "data": [
      {
        "text": "turn on ",
        "userDefined": false
      },
      {
        "text": "alarm",
        "meta": "@sys.ignore",
        "userDefined": false
      },
      {
        "text": " system of my car",
        "userDefined": false
      }
    ],
    "isTemplate": false,
    "count": 0,
    "updated": 0
  },
  {
    "id": "afa499ca-d905-49c7-a551-43f9f20ba9be",
    "data": [
      {
        "text": "turn on the ",
        "userDefined": false
      },
      {
        "text": "alarm",
        "meta": "@sys.ignore",
        "userDefined": false
      },
      {
        "text": " for my car",
        "userDefined": false
      }
    ],
    "isTemplate": false,
    "count": 1,
    "updated": 0
  },
  {
    "id": "64e164c4-fae2-4e01-a10b-9339999a77ff",
    "data": [
      {
        "text": "set car state to armed",
        "userDefined": false
      }
    ],
    "isTemplate": false,
    "count": 0,
    "updated": 0
  },
  {
    "id": "11261583-eea0-4538-984d-546f0b1b8b36",
    "data": [
      {
        "text": "turn on the alarm system",
        "userDefined": false
      }
    ],
    "isTemplate": false,
    "count": 0,
    "updated": 0
  },
  {
    "id": "630f6813-1510-4d2b-b989-f1a788e6ea3f",
    "data": [
      {
        "text": "turn on the car ",
        "userDefined": false
      },
      {
        "text": "alarm system",
        "meta": "@sys.ignore",
        "userDefined": false
      }
    ],
    "isTemplate": false,
    "count": 0,
    "updated": 0
  },
  {
    "id": "7022545f-9661-4995-b363-04fb5cd2485b",
    "data": [
      {
        "text": "activate ",
        "userDefined": false
      },
      {
        "text": "car",
        "meta": "@sys.ignore",
        "userDefined": true
      },
      {
        "text": " ",
        "userDefined": false
      },
      {
        "text": "alarm",
        "meta": "@sys.ignore",
        "userDefined": true
      }
    ],
    "isTemplate": false,
    "count": 0,
    "updated": 0
  },
  {
    "id": "5bacc481-12e0-44c4-9c59-6439e50ace9c",
    "data": [
      {
        "text": "switch the ",
        "userDefined": false
      },
      {
        "text": "alarm",
        "meta": "@sys.ignore",
        "userDefined": false
      },
      {
        "text": " system of my car",
        "userDefined": false
      }
    ],
    "isTemplate": false,
    "count": 0,
    "updated": 0
  },
  {
    "id": "57f145de-928c-43ae-ba81-0b0bb94ff0c6",
    "data": [
      {
        "text": "I need ",
        "userDefined": false
      },
      {
        "text": "to",
        "meta": "@sys.ignore",
        "userDefined": true
      },
      {
        "text": " ",
        "userDefined": false
      },
      {
        "text": "set",
        "meta": "@sys.ignore",
        "userDefined": true
      },
      {
        "text": " the clock ",
        "userDefined": false
      },
      {
        "text": "in",
        "meta": "@sys.ignore",
        "userDefined": true
      },
      {
        "text": " ",
        "userDefined": false
      },
      {
        "text": "my",
        "meta": "@sys.ignore",
        "userDefined": true
      },
      {
        "text": " ",
        "userDefined": false
      },
      {
        "text": "car",
        "meta": "@sys.ignore",
        "userDefined": true
      }
    ],
    "isTemplate": false,
    "count": 0,
    "updated": 0
  }
]