{
  "id": "77b72e9c-5f50-4a06-88cb-0d1f6958e17b",
  "name": "car.ac.off - context:car-ac - comment:turn off",
  "auto": true,
  "contexts": [
    "car-ac"
  ],
  "responses": [
    {
      "resetContexts": false,
      "action": "car.ac.off",
      "affectedContexts": [],
      "parameters": [],
      "messages": [
        {
          "type": 0,
          "lang": "en",
          "condition": "",
          "speech": []
        }
      ],
      "defaultResponsePlatforms": {},
      "speech": []
    }
  ],
  "priority": 500000,
  "webhookUsed": false,
  "webhookForSlotFilling": false,
  "fallbackIntent": false,
  "events": [],
  "conditionalResponses": [],
  "condition": "",
  "conditionalFollowupEvents": []
}