[
  {
    "id": "3f6e0751-5e44-4357-bb34-1d49cab8671b",
    "data": [
      {
        "text": "how do I ",
        "userDefined": false
      },
      {
        "text": "set my cruise control",
        "alias": "topic",
        "meta": "@car-topic",
        "userDefined": true
      }
    ],
    "isTemplate": false,
    "count": 0,
    "updated": 0
  },
  {
    "id": "3809f5f7-a8dc-4afe-902b-b7db2732b5c9",
    "data": [
      {
        "text": "how ",
        "userDefined": false
      },
      {
        "text": "to",
        "meta": "@sys.ignore",
        "userDefined": false
      },
      {
        "text": " ",
        "userDefined": false
      },
      {
        "text": "change car oil",
        "alias": "topic",
        "meta": "@car-topic",
        "userDefined": true
      }
    ],
    "isTemplate": false,
    "count": 0,
    "updated": 0
  },
  {
    "id": "42a3f3eb-debe-422f-b6a7-3372f14b88c4",
    "data": [
      {
        "text": "do ",
        "userDefined": false
      },
      {
        "text": "you",
        "meta": "@sys.ignore",
        "userDefined": true
      },
      {
        "text": " know how to ",
        "userDefined": false
      },
      {
        "text": "change the wheel",
        "alias": "topic",
        "meta": "@car-topic",
        "userDefined": true
      }
    ],
    "isTemplate": false,
    "count": 0,
    "updated": 0
  },
  {
    "id": "15e3e8ec-abe9-4dc7-856e-5bf7994361da",
    "data": [
      {
        "text": "how do I  ",
        "userDefined": false
      },
      {
        "text": "set my cruise control",
        "alias": "topic",
        "meta": "@car-topic",
        "userDefined": true
      }
    ],
    "isTemplate": false,
    "count": 0,
    "updated": 0
  },
  {
    "id": "50de860b-408c-42ff-8806-c2f17d2f556d",
    "data": [
      {
        "text": "do you know how to ",
        "userDefined": false
      },
      {
        "text": "change the steering wheel position",
        "alias": "topic",
        "meta": "@car-topic",
        "userDefined": true
      }
    ],
    "isTemplate": false,
    "count": 0,
    "updated": 0
  },
  {
    "id": "423f7f02-af53-41f5-9d36-31c73b16cf25",
    "data": [
      {
        "text": "how can I ",
        "userDefined": false
      },
      {
        "text": "program my favorite radio stations",
        "alias": "topic",
        "meta": "@car-topic",
        "userDefined": true
      }
    ],
    "isTemplate": false,
    "count": 0,
    "updated": 0
  },
  {
    "id": "0d0d8f6b-4da5-41e5-ba4e-45333d4c95f7",
    "data": [
      {
        "text": "how do I ",
        "userDefined": false
      },
      {
        "text": "adjust seat",
        "alias": "topic",
        "meta": "@car-topic",
        "userDefined": true
      }
    ],
    "isTemplate": false,
    "count": 0,
    "updated": 0
  },
  {
    "id": "e94049c3-8921-44b4-941a-5b185e25bf62",
    "data": [
      {
        "text": "I ",
        "userDefined": false
      },
      {
        "text": "don",
        "meta": "@sys.ignore",
        "userDefined": true
      },
      {
        "text": "\u0027t know how to ",
        "userDefined": false
      },
      {
        "text": "fix the engine block",
        "alias": "topic",
        "meta": "@car-topic",
        "userDefined": true
      }
    ],
    "isTemplate": false,
    "count": 0,
    "updated": 0
  },
  {
    "id": "0ec14839-091c-40cd-91ea-1825dc02a423",
    "data": [
      {
        "text": "how to ",
        "userDefined": false
      },
      {
        "text": "adjust ignition switch",
        "alias": "topic",
        "meta": "@car-topic",
        "userDefined": true
      }
    ],
    "isTemplate": false,
    "count": 0,
    "updated": 0
  },
  {
    "id": "0cacd6aa-34af-44d6-9d07-b9160652f439",
    "data": [
      {
        "text": "tell me how to ",
        "userDefined": false
      },
      {
        "text": "turn on the navigation system",
        "alias": "topic",
        "meta": "@car-topic",
        "userDefined": true
      }
    ],
    "isTemplate": false,
    "count": 0,
    "updated": 0
  },
  {
    "id": "2f4ff0db-0ba5-455b-a53b-75fd06cf543d",
    "data": [
      {
        "text": "how to ",
        "userDefined": false
      },
      {
        "text": "fasten the seat belt",
        "alias": "topic",
        "meta": "@car-topic",
        "userDefined": true
      }
    ],
    "isTemplate": false,
    "count": 0,
    "updated": 0
  },
  {
    "id": "0d3dae8e-3f6d-4465-9fe5-eee8ce5da80e",
    "data": [
      {
        "text": "how to ",
        "userDefined": false
      },
      {
        "text": "repair car speakers",
        "alias": "topic",
        "meta": "@car-topic",
        "userDefined": true
      }
    ],
    "isTemplate": false,
    "count": 0,
    "updated": 0
  },
  {
    "id": "0f225f42-38de-4480-8089-e3262d925a2b",
    "data": [
      {
        "text": "how to ",
        "userDefined": false
      },
      {
        "text": "set the clock",
        "alias": "topic",
        "meta": "@car-topic",
        "userDefined": true
      },
      {
        "text": " in my car",
        "userDefined": false
      }
    ],
    "isTemplate": false,
    "count": 0,
    "updated": 0
  },
  {
    "id": "fc3fc1d5-b774-49ca-b4bd-39e8f423e259",
    "data": [
      {
        "text": "how to ",
        "userDefined": false
      },
      {
        "text": "adjust seats manually",
        "alias": "topic",
        "meta": "@car-topic",
        "userDefined": true
      }
    ],
    "isTemplate": false,
    "count": 0,
    "updated": 0
  },
  {
    "id": "6bbfa7b6-4ddc-42e3-b7de-d84a5eb3bc45",
    "data": [
      {
        "text": "how ",
        "userDefined": false
      },
      {
        "text": "often do I need to change oil",
        "alias": "topic",
        "meta": "@car-topic",
        "userDefined": true
      }
    ],
    "isTemplate": false,
    "count": 0,
    "updated": 0
  },
  {
    "id": "79c145a4-6dce-45bf-bfa5-f094e9156351",
    "data": [
      {
        "text": "can I ",
        "userDefined": false
      },
      {
        "text": "adjust the wheel",
        "alias": "topic",
        "meta": "@car-topic",
        "userDefined": true
      }
    ],
    "isTemplate": false,
    "count": 0,
    "updated": 0
  },
  {
    "id": "5de6338b-4d81-4a00-9835-5e631e3342c9",
    "data": [
      {
        "text": "how do I ",
        "userDefined": false
      },
      {
        "text": "drive this car",
        "alias": "topic",
        "meta": "@car-topic",
        "userDefined": true
      }
    ],
    "isTemplate": false,
    "count": 0,
    "updated": 0
  }
]