[
  {
    "id": "36b777bf-cc73-4734-bf89-a9e24e3191f0",
    "data": [
      {
        "text": "turn ",
        "userDefined": false
      },
      {
        "text": "up",
        "meta": "@sys.ignore",
        "userDefined": true
      },
      {
        "text": " the ",
        "userDefined": false
      },
      {
        "text": "lights in",
        "meta": "@sys.ignore",
        "userDefined": true
      },
      {
        "text": " ",
        "userDefined": false
      },
      {
        "text": "the car",
        "meta": "@sys.ignore",
        "userDefined": true
      }
    ],
    "isTemplate": false,
    "count": 0,
    "updated": 0
  },
  {
    "id": "427addfb-6b07-4f9f-a664-c5f12144062a",
    "data": [
      {
        "text": "turn up the head light for ",
        "userDefined": false
      },
      {
        "text": "8",
        "alias": "change-value",
        "meta": "@sys.number",
        "userDefined": true
      },
      {
        "text": " points",
        "userDefined": false
      }
    ],
    "isTemplate": false,
    "count": 0,
    "updated": 0
  },
  {
    "id": "ca04c52a-1894-4ded-b668-7194e7964a11",
    "data": [
      {
        "text": "turn up the ",
        "userDefined": false
      },
      {
        "text": "head light",
        "alias": "car-part",
        "meta": "@car-light",
        "userDefined": true
      },
      {
        "text": " for ",
        "userDefined": false
      },
      {
        "text": "Kate",
        "alias": "name",
        "meta": "@sys.given-name",
        "userDefined": true
      }
    ],
    "isTemplate": false,
    "count": 0,
    "updated": 0
  },
  {
    "id": "a7e325f7-cebe-4e8d-b1f4-513c53d0d8f8",
    "data": [
      {
        "text": "increase the light for ",
        "userDefined": false
      },
      {
        "text": "Mary\u0027s",
        "alias": "name",
        "meta": "@sys.given-name",
        "userDefined": true
      },
      {
        "text": " seat",
        "userDefined": false
      }
    ],
    "isTemplate": false,
    "count": 0,
    "updated": 0
  },
  {
    "id": "15d42d9e-9dca-4a1d-b514-548e3f7b6be7",
    "data": [
      {
        "text": "turn ",
        "userDefined": false
      },
      {
        "text": "the car",
        "meta": "@sys.ignore",
        "userDefined": true
      },
      {
        "text": " ",
        "userDefined": false
      },
      {
        "text": "lights",
        "meta": "@sys.ignore",
        "userDefined": true
      },
      {
        "text": " ",
        "userDefined": false
      },
      {
        "text": "up",
        "meta": "@sys.ignore",
        "userDefined": true
      }
    ],
    "isTemplate": false,
    "count": 0,
    "updated": 0
  },
  {
    "id": "ee66997b-66a8-49a5-8b4f-92137e015efa",
    "data": [
      {
        "text": "increase the ",
        "userDefined": false
      },
      {
        "text": "power",
        "meta": "@sys.ignore",
        "userDefined": true
      },
      {
        "text": " of ",
        "userDefined": false
      },
      {
        "text": "reverse lights",
        "alias": "car-part",
        "meta": "@car-light",
        "userDefined": true
      }
    ],
    "isTemplate": false,
    "count": 0,
    "updated": 0
  },
  {
    "id": "1957983f-6efa-41f4-9db5-9910be7f0759",
    "data": [
      {
        "text": "turn ",
        "userDefined": false
      },
      {
        "text": "up",
        "meta": "@sys.ignore",
        "userDefined": true
      },
      {
        "text": " ",
        "userDefined": false
      },
      {
        "text": "all",
        "alias": "all",
        "meta": "@all",
        "userDefined": true
      },
      {
        "text": " the ",
        "userDefined": false
      },
      {
        "text": "lights",
        "meta": "@sys.ignore",
        "userDefined": true
      },
      {
        "text": " in ",
        "userDefined": false
      },
      {
        "text": "the car",
        "meta": "@sys.ignore",
        "userDefined": true
      }
    ],
    "isTemplate": false,
    "count": 0,
    "updated": 0
  },
  {
    "id": "5cd26318-1002-4775-b989-b3b6c3a3578f",
    "data": [
      {
        "text": "increase the ",
        "userDefined": false
      },
      {
        "text": "light",
        "meta": "@sys.ignore",
        "userDefined": true
      },
      {
        "text": " in the car",
        "userDefined": false
      }
    ],
    "isTemplate": false,
    "count": 0,
    "updated": 0
  },
  {
    "id": "4e99dfbf-0de0-4878-bd34-f51d42d26f88",
    "data": [
      {
        "text": "turn the ",
        "userDefined": false
      },
      {
        "text": "warning light",
        "alias": "car-part",
        "meta": "@car-light",
        "userDefined": true
      },
      {
        "text": " ",
        "userDefined": false
      },
      {
        "text": "up",
        "meta": "@sys.ignore",
        "userDefined": true
      }
    ],
    "isTemplate": false,
    "count": 0,
    "updated": 0
  },
  {
    "id": "48bbb6ff-b823-4da1-a4d1-5513591e313e",
    "data": [
      {
        "text": "turn the ",
        "userDefined": false
      },
      {
        "text": "dashboard lights",
        "alias": "car-part",
        "meta": "@car-light",
        "userDefined": true
      },
      {
        "text": " up for ",
        "userDefined": false
      },
      {
        "text": "John",
        "alias": "name",
        "meta": "@sys.given-name",
        "userDefined": true
      }
    ],
    "isTemplate": false,
    "count": 0,
    "updated": 0
  },
  {
    "id": "5ded4f88-09b6-4ab1-8d39-09144425c19f",
    "data": [
      {
        "text": "turn up the ",
        "userDefined": false
      },
      {
        "text": "head light",
        "alias": "car-part",
        "meta": "@car-light",
        "userDefined": true
      },
      {
        "text": " for ",
        "userDefined": false
      },
      {
        "text": "my seat",
        "meta": "@sys.ignore",
        "userDefined": true
      }
    ],
    "isTemplate": false,
    "count": 0,
    "updated": 0
  },
  {
    "id": "53aad398-ba7c-4bb4-bac5-c0e820ade91b",
    "data": [
      {
        "text": "turn ",
        "userDefined": false
      },
      {
        "text": "up",
        "meta": "@sys.ignore",
        "userDefined": true
      },
      {
        "text": " the ",
        "userDefined": false
      },
      {
        "text": "head light",
        "alias": "car-part",
        "meta": "@car-light",
        "userDefined": true
      }
    ],
    "isTemplate": false,
    "count": 0,
    "updated": 0
  }
]