[
  {
    "id": "0222e142-e9f7-4a59-9fc2-4580c1cb82c9",
    "data": [
      {
        "text": "did",
        "meta": "@sys.ignore",
        "userDefined": false
      },
      {
        "text": " I close ",
        "userDefined": false
      },
      {
        "text": "the door",
        "alias": "car-part",
        "meta": "@car-part",
        "userDefined": false
      },
      {
        "text": " ",
        "userDefined": false
      },
      {
        "text": "when",
        "meta": "@sys.ignore",
        "userDefined": false
      },
      {
        "text": " I ",
        "userDefined": false
      },
      {
        "text": "left",
        "meta": "@sys.ignore",
        "userDefined": false
      },
      {
        "text": " my ",
        "userDefined": false
      },
      {
        "text": "car",
        "meta": "@sys.ignore",
        "userDefined": false
      }
    ],
    "isTemplate": false,
    "count": 0,
    "updated": 0
  },
  {
    "id": "e3c69809-9322-4a7e-a840-2660e64af513",
    "data": [
      {
        "text": "did",
        "meta": "@sys.ignore",
        "userDefined": false
      },
      {
        "text": " I closed ",
        "userDefined": false
      },
      {
        "text": "all",
        "alias": "all",
        "meta": "@all",
        "userDefined": true
      },
      {
        "text": " the ",
        "userDefined": false
      },
      {
        "text": "windows",
        "alias": "car-part",
        "meta": "@car-part",
        "userDefined": false
      },
      {
        "text": " ",
        "userDefined": false
      },
      {
        "text": "in",
        "meta": "@sys.ignore",
        "userDefined": false
      },
      {
        "text": " ",
        "userDefined": false
      },
      {
        "text": "the car",
        "meta": "@sys.ignore",
        "userDefined": false
      }
    ],
    "isTemplate": false,
    "count": 0,
    "updated": 0
  },
  {
    "id": "4dfdcee6-68f3-4a21-917b-a17919948a57",
    "data": [
      {
        "text": "is the",
        "meta": "@sys.ignore",
        "userDefined": false
      },
      {
        "text": " ",
        "userDefined": false
      },
      {
        "text": "roof",
        "alias": "car-part",
        "meta": "@car-part",
        "userDefined": false
      },
      {
        "text": " closed",
        "userDefined": false
      }
    ],
    "isTemplate": false,
    "count": 0,
    "updated": 0
  },
  {
    "id": "2e30d765-c7dd-4d0b-ab39-b9c753f36bde",
    "data": [
      {
        "text": "make ",
        "userDefined": false
      },
      {
        "text": "sure",
        "meta": "@sys.ignore",
        "userDefined": false
      },
      {
        "text": " that ",
        "userDefined": false
      },
      {
        "text": "all",
        "alias": "all",
        "meta": "@all",
        "userDefined": true
      },
      {
        "text": " ",
        "userDefined": false
      },
      {
        "text": "windows",
        "alias": "car-part",
        "meta": "@car-part",
        "userDefined": false
      },
      {
        "text": " ",
        "userDefined": false
      },
      {
        "text": "are",
        "meta": "@sys.ignore",
        "userDefined": false
      },
      {
        "text": " closed ",
        "userDefined": false
      },
      {
        "text": "in",
        "meta": "@sys.ignore",
        "userDefined": false
      },
      {
        "text": " ",
        "userDefined": false
      },
      {
        "text": "the car",
        "meta": "@sys.ignore",
        "userDefined": false
      }
    ],
    "isTemplate": false,
    "count": 0,
    "updated": 0
  },
  {
    "id": "32b99581-7af1-47b3-96a2-d2b3fd6bbfe3",
    "data": [
      {
        "text": "are",
        "meta": "@sys.ignore",
        "userDefined": false
      },
      {
        "text": " you ",
        "userDefined": false
      },
      {
        "text": "sure",
        "meta": "@sys.ignore",
        "userDefined": false
      },
      {
        "text": " that I\u0027",
        "userDefined": false
      },
      {
        "text": "ve",
        "meta": "@sys.ignore",
        "userDefined": false
      },
      {
        "text": " closed the ",
        "userDefined": false
      },
      {
        "text": "driver\u0027s door",
        "alias": "car-part",
        "meta": "@car-part",
        "userDefined": true
      }
    ],
    "isTemplate": false,
    "count": 0,
    "updated": 0
  }
]