[
  {
    "id": "62c25c8a-d048-4b40-9fa3-f9c45f9990c8",
    "data": [
      {
        "text": "the car lights are too dark",
        "userDefined": false
      }
    ],
    "isTemplate": false,
    "count": 0,
    "updated": 0
  },
  {
    "id": "59b643bc-96f4-4046-b5d3-a27f63ce8491",
    "data": [
      {
        "text": "too ",
        "userDefined": false
      },
      {
        "text": "dark",
        "meta": "@sys.ignore",
        "userDefined": false
      },
      {
        "text": " ",
        "userDefined": false
      },
      {
        "text": "in",
        "meta": "@sys.ignore",
        "userDefined": false
      },
      {
        "text": " my ",
        "userDefined": false
      },
      {
        "text": "car",
        "meta": "@sys.ignore",
        "userDefined": false
      }
    ],
    "isTemplate": false,
    "count": 0,
    "updated": 0
  },
  {
    "id": "7573fb50-9cbe-4094-a51f-2c25d5286b41",
    "data": [
      {
        "text": "backup light",
        "alias": "car-part",
        "meta": "@car-light",
        "userDefined": true
      },
      {
        "text": " is way too ",
        "userDefined": false
      },
      {
        "text": "dark",
        "meta": "@sys.ignore",
        "userDefined": false
      }
    ],
    "isTemplate": false,
    "count": 0,
    "updated": 0
  },
  {
    "id": "c9ce2cf5-ab62-419b-9419-acffb9c970f0",
    "data": [
      {
        "text": "too ",
        "userDefined": false
      },
      {
        "text": "dark",
        "meta": "@sys.ignore",
        "userDefined": false
      },
      {
        "text": " for ",
        "userDefined": false
      },
      {
        "text": "Mary",
        "alias": "passenger",
        "meta": "@sys.given-name",
        "userDefined": true
      },
      {
        "text": " in the car",
        "userDefined": false
      }
    ],
    "isTemplate": false,
    "count": 0,
    "updated": 0
  },
  {
    "id": "6a96f195-4ecc-4c94-b4a5-02c29adffd28",
    "data": [
      {
        "text": "it is",
        "meta": "@sys.ignore",
        "userDefined": false
      },
      {
        "text": " too ",
        "userDefined": false
      },
      {
        "text": "dark",
        "meta": "@sys.ignore",
        "userDefined": false
      },
      {
        "text": " ",
        "userDefined": false
      },
      {
        "text": "in",
        "meta": "@sys.ignore",
        "userDefined": false
      },
      {
        "text": " ",
        "userDefined": false
      },
      {
        "text": "the car",
        "meta": "@sys.ignore",
        "userDefined": false
      }
    ],
    "isTemplate": false,
    "count": 0,
    "updated": 0
  }
]