{
  "id": "efb7a724-33bb-42c7-a157-cc19befa0528",
  "name": "currency.convert",
  "auto": true,
  "contexts": [],
  "responses": [
    {
      "resetContexts": false,
      "action": "currency.convert",
      "affectedContexts": [
        {
          "name": "convert-currency",
          "parameters": {},
          "lifespan": 5
        }
      ],
      "parameters": [
        {
          "id": "d968996f-a39a-47bf-a161-8dc9a2d30a29",
          "required": false,
          "dataType": "@sys.currency-name",
          "name": "currency-from",
          "value": "$currency-from",
          "promptMessages": [],
          "noMatchPromptMessages": [],
          "noInputPromptMessages": [],
          "outputDialogContexts": [],
          "isList": false
        },
        {
          "id": "493d073f-4250-49e0-be61-64ab409929fa",
          "required": false,
          "dataType": "@sys.currency-name",
          "name": "currency-to",
          "value": "$currency-to",
          "promptMessages": [],
          "noMatchPromptMessages": [],
          "noInputPromptMessages": [],
          "outputDialogContexts": [],
          "isList": false
        },
        {
          "id": "9da275dc-fd5f-47a5-997a-731331fdf998",
          "required": false,
          "dataType": "@sys.number",
          "name": "amount",
          "value": "$amount",
          "promptMessages": [],
          "noMatchPromptMessages": [],
          "noInputPromptMessages": [],
          "outputDialogContexts": [],
          "isList": false
        }
      ],
      "messages": [
        {
          "type": 0,
          "lang": "en",
          "condition": "",
          "speech": []
        }
      ],
      "defaultResponsePlatforms": {},
      "speech": []
    }
  ],
  "priority": 500000,
  "webhookUsed": false,
  "webhookForSlotFilling": false,
  "fallbackIntent": false,
  "events": [],
  "conditionalResponses": [],
  "condition": "",
  "conditionalFollowupEvents": []
}