[
  {
    "id": "892373fb-8fd3-453d-9d65-6707d2f48cf2",
    "data": [
      {
        "text": "is it the ",
        "userDefined": false
      },
      {
        "text": "21st of February",
        "alias": "date",
        "meta": "@sys.date",
        "userDefined": true
      }
    ],
    "isTemplate": false,
    "count": 0,
    "updated": 0
  },
  {
    "id": "54c6dba8-96aa-4339-965f-33e0c787647a",
    "data": [
      {
        "text": "check if it\u0027s ",
        "userDefined": false
      },
      {
        "text": "Monday",
        "alias": "date",
        "meta": "@sys.date",
        "userDefined": true
      },
      {
        "text": " in ",
        "userDefined": false
      },
      {
        "text": "Luxembourg",
        "alias": "location",
        "meta": "@sys.location",
        "userDefined": true
      }
    ],
    "isTemplate": false,
    "count": 0,
    "updated": 0
  },
  {
    "id": "ed8aed72-8cfd-494f-8270-57ffc782e2a8",
    "data": [
      {
        "text": "is it ",
        "userDefined": false
      },
      {
        "text": "June 19th",
        "alias": "date",
        "meta": "@sys.date",
        "userDefined": true
      }
    ],
    "isTemplate": false,
    "count": 0,
    "updated": 0
  },
  {
    "id": "295d45ec-9f6d-4d39-b473-13eed846a956",
    "data": [
      {
        "text": "is today ",
        "userDefined": false
      },
      {
        "text": "28th",
        "alias": "date",
        "meta": "@sys.date",
        "userDefined": true
      }
    ],
    "isTemplate": false,
    "count": 0,
    "updated": 0
  },
  {
    "id": "c9613b27-e0e9-46ad-9a5c-26ba29539fe0",
    "data": [
      {
        "text": "tell me is it ",
        "userDefined": false
      },
      {
        "text": "September 8",
        "alias": "date",
        "meta": "@sys.date",
        "userDefined": true
      },
      {
        "text": " in ",
        "userDefined": false
      },
      {
        "text": "Munich",
        "alias": "location",
        "meta": "@sys.location",
        "userDefined": true
      }
    ],
    "isTemplate": false,
    "count": 0,
    "updated": 0
  }
]