{
  "id": "6a7431ff-0439-40c1-b4a7-61b9a8d89def",
  "name": "date.check - context:date-check",
  "auto": true,
  "contexts": [
    "date-check"
  ],
  "responses": [
    {
      "resetContexts": false,
      "action": "date.check",
      "affectedContexts": [],
      "parameters": [
        {
          "id": "229948aa-aa32-4fa6-968b-b0342b52ba8a",
          "required": false,
          "dataType": "@sys.location",
          "name": "location",
          "value": "$location",
          "promptMessages": [],
          "noMatchPromptMessages": [],
          "noInputPromptMessages": [],
          "outputDialogContexts": [],
          "isList": false
        }
      ],
      "messages": [
        {
          "type": 0,
          "lang": "en",
          "condition": "",
          "speech": []
        }
      ],
      "defaultResponsePlatforms": {},
      "speech": []
    }
  ],
  "priority": 500000,
  "webhookUsed": false,
  "webhookForSlotFilling": false,
  "fallbackIntent": false,
  "events": [],
  "conditionalResponses": [],
  "condition": "",
  "conditionalFollowupEvents": []
}