[
  {
    "id": "47b4c192-5473-41ad-83d8-fe4aba416e4a",
    "data": [
      {
        "text": "how many ",
        "userDefined": false
      },
      {
        "text": "days",
        "alias": "unit",
        "meta": "@unit-time",
        "userDefined": true
      },
      {
        "text": " are between ",
        "userDefined": false
      },
      {
        "text": "November 13",
        "alias": "date-1",
        "meta": "@sys.date",
        "userDefined": true
      },
      {
        "text": " and ",
        "userDefined": false
      },
      {
        "text": "July 22",
        "alias": "date-2",
        "meta": "@sys.date",
        "userDefined": true
      }
    ],
    "isTemplate": false,
    "count": 0,
    "updated": 0
  },
  {
    "id": "29514eb8-82f5-4f7b-8b8b-fa064880e85c",
    "data": [
      {
        "text": "calculate the number of ",
        "userDefined": false
      },
      {
        "text": "minutes",
        "alias": "unit",
        "meta": "@unit-time",
        "userDefined": true
      },
      {
        "text": " between ",
        "userDefined": false
      },
      {
        "text": "today",
        "alias": "date-1",
        "meta": "@sys.date",
        "userDefined": true
      },
      {
        "text": " and ",
        "userDefined": false
      },
      {
        "text": "Wednesday",
        "alias": "date-2",
        "meta": "@sys.date",
        "userDefined": true
      }
    ],
    "isTemplate": false,
    "count": 0,
    "updated": 0
  },
  {
    "id": "6f118cd6-d78c-4443-9313-04675a906bc2",
    "data": [
      {
        "text": "compute the number of ",
        "userDefined": false
      },
      {
        "text": "seconds",
        "alias": "unit",
        "meta": "@unit-time",
        "userDefined": true
      },
      {
        "text": " between ",
        "userDefined": false
      },
      {
        "text": "today",
        "alias": "date-1",
        "meta": "@sys.date",
        "userDefined": true
      },
      {
        "text": " and ",
        "userDefined": false
      },
      {
        "text": "March 7 2017",
        "alias": "date-2",
        "meta": "@sys.date",
        "userDefined": true
      }
    ],
    "isTemplate": false,
    "count": 0,
    "updated": 0
  },
  {
    "id": "eaa23ebe-cb23-4da3-b6d4-0c5968fdceca",
    "data": [
      {
        "text": "tell me the number of ",
        "userDefined": false
      },
      {
        "text": "weeks",
        "alias": "unit",
        "meta": "@unit-time",
        "userDefined": true
      },
      {
        "text": " between ",
        "userDefined": false
      },
      {
        "text": "today",
        "alias": "date-1",
        "meta": "@sys.date",
        "userDefined": true
      },
      {
        "text": " and ",
        "userDefined": false
      },
      {
        "text": "January 1st",
        "alias": "date-2",
        "meta": "@sys.date",
        "userDefined": true
      }
    ],
    "isTemplate": false,
    "count": 0,
    "updated": 0
  },
  {
    "id": "ea5d19e4-6d6e-4acb-bb2b-4ff76085ba95",
    "data": [
      {
        "text": "I need to know the number of ",
        "userDefined": false
      },
      {
        "text": "days",
        "alias": "unit",
        "meta": "@unit-time",
        "userDefined": true
      },
      {
        "text": " between ",
        "userDefined": false
      },
      {
        "text": "today",
        "alias": "date-1",
        "meta": "@sys.date",
        "userDefined": true
      },
      {
        "text": " and the ",
        "userDefined": false
      },
      {
        "text": "next Friday",
        "alias": "date-2",
        "meta": "@sys.date",
        "userDefined": true
      }
    ],
    "isTemplate": false,
    "count": 0,
    "updated": 0
  },
  {
    "id": "447a1dde-e096-4746-b9ad-c8bdb8ad44a3",
    "data": [
      {
        "text": "count the number of ",
        "userDefined": false
      },
      {
        "text": "hours",
        "alias": "unit",
        "meta": "@unit-time",
        "userDefined": true
      },
      {
        "text": " between ",
        "userDefined": false
      },
      {
        "text": "June 5",
        "alias": "date-1",
        "meta": "@sys.date",
        "userDefined": true
      },
      {
        "text": " and ",
        "userDefined": false
      },
      {
        "text": "June 14",
        "alias": "date-2",
        "meta": "@sys.date",
        "userDefined": true
      }
    ],
    "isTemplate": false,
    "count": 0,
    "updated": 0
  },
  {
    "id": "168f3ae9-befe-4638-8f00-7b93170c7d65",
    "data": [
      {
        "text": "number of ",
        "userDefined": false
      },
      {
        "text": "seconds",
        "alias": "unit",
        "meta": "@unit-time",
        "userDefined": true
      },
      {
        "text": " between ",
        "userDefined": false
      },
      {
        "text": "today",
        "alias": "date-1",
        "meta": "@sys.date",
        "userDefined": true
      },
      {
        "text": " and ",
        "userDefined": false
      },
      {
        "text": "April 1st",
        "alias": "date-2",
        "meta": "@sys.date",
        "userDefined": true
      }
    ],
    "isTemplate": false,
    "count": 0,
    "updated": 0
  },
  {
    "id": "187bd6ab-5686-45c6-8828-253541b8fe34",
    "data": [
      {
        "text": "evaluate how many ",
        "userDefined": false
      },
      {
        "text": "days",
        "alias": "unit",
        "meta": "@unit-time",
        "userDefined": true
      },
      {
        "text": " are between ",
        "userDefined": false
      },
      {
        "text": "today",
        "alias": "date-1",
        "meta": "@sys.date",
        "userDefined": true
      },
      {
        "text": " and ",
        "userDefined": false
      },
      {
        "text": "February 14 2018",
        "alias": "date-2",
        "meta": "@sys.date",
        "userDefined": true
      }
    ],
    "isTemplate": false,
    "count": 0,
    "updated": 0
  }
]