{
  "id": "324ee2f7-56e6-44da-b11c-bb3703ff8335",
  "name": "date.since",
  "auto": true,
  "contexts": [],
  "responses": [
    {
      "resetContexts": false,
      "action": "date.since",
      "affectedContexts": [],
      "parameters": [
        {
          "id": "2cf67055-836d-4b92-9d6b-72b28665f8dd",
          "required": false,
          "dataType": "@sys.date",
          "name": "date",
          "value": "$date",
          "promptMessages": [],
          "noMatchPromptMessages": [],
          "noInputPromptMessages": [],
          "outputDialogContexts": [],
          "isList": false
        },
        {
          "id": "b1c67d8c-0cad-4844-acc4-07a259469ffe",
          "required": false,
          "dataType": "@unit-time",
          "name": "unit",
          "value": "$unit",
          "promptMessages": [],
          "noMatchPromptMessages": [],
          "noInputPromptMessages": [],
          "outputDialogContexts": [],
          "isList": false
        }
      ],
      "messages": [
        {
          "type": 0,
          "lang": "en",
          "condition": "",
          "speech": []
        }
      ],
      "defaultResponsePlatforms": {},
      "speech": []
    }
  ],
  "priority": 500000,
  "webhookUsed": false,
  "webhookForSlotFilling": false,
  "fallbackIntent": false,
  "events": [],
  "conditionalResponses": [],
  "condition": "",
  "conditionalFollowupEvents": []
}