{
  "id": "489c6ebd-482b-4e67-ae30-2168ebf99356",
  "name": "date.holiday.until",
  "auto": true,
  "contexts": [],
  "responses": [
    {
      "resetContexts": false,
      "action": "date.holiday.until",
      "affectedContexts": [],
      "parameters": [
        {
          "id": "a89dcfd1-35b3-4863-867a-6cac99df991a",
          "required": false,
          "dataType": "@holiday",
          "name": "holiday",
          "value": "$holiday",
          "promptMessages": [],
          "noMatchPromptMessages": [],
          "noInputPromptMessages": [],
          "outputDialogContexts": [],
          "isList": false
        },
        {
          "id": "b347472e-0230-405c-b08c-d4067c63d916",
          "required": false,
          "dataType": "@unit-time",
          "name": "unit",
          "value": "$unit",
          "promptMessages": [],
          "noMatchPromptMessages": [],
          "noInputPromptMessages": [],
          "outputDialogContexts": [],
          "isList": false
        }
      ],
      "messages": [
        {
          "type": 0,
          "lang": "en",
          "condition": "",
          "speech": []
        }
      ],
      "defaultResponsePlatforms": {},
      "speech": []
    }
  ],
  "priority": 500000,
  "webhookUsed": false,
  "webhookForSlotFilling": false,
  "fallbackIntent": false,
  "events": [],
  "conditionalResponses": [],
  "condition": "",
  "conditionalFollowupEvents": []
}