[
  {
    "id": "aea4b91a-2a04-4edf-bd79-fae38584e3dc",
    "data": [
      {
        "text": "I have a meeting in SF tomorrow please book me a hotel there",
        "userDefined": false
      }
    ],
    "isTemplate": false,
    "count": 0,
    "updated": 0
  },
  {
    "id": "bb025de6-58f3-4bb3-b837-2650d9cfcfa5",
    "data": [
      {
        "text": "could you please book me a room in the best hotel of NY",
        "userDefined": false
      }
    ],
    "isTemplate": false,
    "count": 0,
    "updated": 0
  },
  {
    "id": "d94ed700-27ff-4d23-81a3-cca8826f86ea",
    "data": [
      {
        "text": "please book me the hotel",
        "userDefined": false
      }
    ],
    "isTemplate": false,
    "count": 0,
    "updated": 0
  },
  {
    "id": "a956a174-7b95-40c4-9e34-cf090a9365fa",
    "data": [
      {
        "text": "I would like to book a car",
        "userDefined": false
      }
    ],
    "isTemplate": false,
    "count": 0,
    "updated": 0
  },
  {
    "id": "20cd9029-cd82-46a0-9f00-7d27fd7eebe2",
    "data": [
      {
        "text": "I need to book a car for weekend",
        "userDefined": false
      }
    ],
    "isTemplate": false,
    "count": 0,
    "updated": 0
  },
  {
    "id": "49de5846-985a-40f4-aaf8-4353e7793bfd",
    "data": [
      {
        "text": "I would like to book an apartment",
        "userDefined": false
      }
    ],
    "isTemplate": false,
    "count": 0,
    "updated": 0
  },
  {
    "id": "b3575252-05fc-4b8d-b512-7ca09c9c0aa1",
    "data": [
      {
        "text": "book an apartment in Berlin for 3 adults and 1 child",
        "userDefined": false
      }
    ],
    "isTemplate": false,
    "count": 0,
    "updated": 0
  },
  {
    "id": "40b340a0-7391-4fed-a3b0-faadd4f69b4a",
    "data": [
      {
        "text": "book a room for 2 adults",
        "userDefined": false
      }
    ],
    "isTemplate": false,
    "count": 0,
    "updated": 0
  },
  {
    "id": "9804fe22-e938-4d5a-a2ec-f3a4d566f6de",
    "data": [
      {
        "text": "book the hotel in Paris for tomorrow",
        "userDefined": false
      }
    ],
    "isTemplate": false,
    "count": 0,
    "updated": 0
  },
  {
    "id": "7b3f7605-bd9d-44f5-b6fa-f6e98dfb8962",
    "data": [
      {
        "text": "book me a hotel for tonight",
        "userDefined": false
      }
    ],
    "isTemplate": false,
    "count": 0,
    "updated": 0
  }
]