[
  {
    "id": "f7f49283-de30-44e0-a59d-323def5ef906",
    "data": [
      {
        "text": "can",
        "meta": "@sys.ignore",
        "userDefined": true
      },
      {
        "text": " you change ",
        "userDefined": false
      },
      {
        "text": "Japanese",
        "alias": "cuisine-from",
        "meta": "@cuisine",
        "userDefined": true
      },
      {
        "text": " ",
        "userDefined": false
      },
      {
        "text": "sushi",
        "alias": "product-from",
        "meta": "@delivery-product",
        "userDefined": true
      },
      {
        "text": " for a ",
        "userDefined": false
      },
      {
        "text": "Chinese",
        "alias": "cuisine-to",
        "meta": "@cuisine",
        "userDefined": true
      },
      {
        "text": " ",
        "userDefined": false
      },
      {
        "text": "dumplings",
        "alias": "product-to",
        "meta": "@delivery-product",
        "userDefined": true
      }
    ],
    "isTemplate": false,
    "count": 0,
    "updated": 0
  },
  {
    "id": "ef3ac6df-765a-4344-8af8-b786c9027480",
    "data": [
      {
        "text": "swap ",
        "userDefined": false
      },
      {
        "text": "Italian",
        "alias": "cuisine-from",
        "meta": "@cuisine",
        "userDefined": true
      },
      {
        "text": " food for something ",
        "userDefined": false
      },
      {
        "text": "Chinese",
        "alias": "cuisine-to",
        "meta": "@cuisine",
        "userDefined": true
      }
    ],
    "isTemplate": false,
    "count": 0,
    "updated": 0
  },
  {
    "id": "0c7d6d6f-c185-47d4-afac-0fac01ca24c0",
    "data": [
      {
        "text": "change the products in my delivery",
        "userDefined": false
      }
    ],
    "isTemplate": false,
    "count": 0,
    "updated": 0
  },
  {
    "id": "10f7a220-f3be-407c-8b56-394fb8428333",
    "data": [
      {
        "text": "change the ",
        "userDefined": false
      },
      {
        "text": "Coke",
        "alias": "product-from",
        "meta": "@delivery-product",
        "userDefined": true
      },
      {
        "text": " for ",
        "userDefined": false
      },
      {
        "text": "Sprite",
        "alias": "product-to",
        "meta": "@delivery-product",
        "userDefined": true
      }
    ],
    "isTemplate": false,
    "count": 0,
    "updated": 0
  },
  {
    "id": "1e336489-40ae-4a94-b917-7a9d0dcd7dc4",
    "data": [
      {
        "text": "change ",
        "userDefined": false
      },
      {
        "text": "the",
        "meta": "@sys.ignore",
        "userDefined": true
      },
      {
        "text": " ",
        "userDefined": false
      },
      {
        "text": "Coke",
        "alias": "product-from",
        "meta": "@delivery-product",
        "userDefined": true
      },
      {
        "text": " to ",
        "userDefined": false
      },
      {
        "text": "a",
        "meta": "@sys.ignore",
        "userDefined": true
      },
      {
        "text": " ",
        "userDefined": false
      },
      {
        "text": "Sprite",
        "alias": "product-to",
        "meta": "@delivery-product",
        "userDefined": true
      }
    ],
    "isTemplate": false,
    "count": 0,
    "updated": 0
  },
  {
    "id": "19164570-946a-4218-92f3-54e6c7b77e05",
    "data": [
      {
        "text": "swap products in my order",
        "userDefined": false
      }
    ],
    "isTemplate": false,
    "count": 0,
    "updated": 0
  },
  {
    "id": "27742bf6-784e-4892-beb7-9898dacda10e",
    "data": [
      {
        "text": "change",
        "meta": "@sys.ignore",
        "userDefined": false
      },
      {
        "text": " ",
        "userDefined": false
      },
      {
        "text": "Italian",
        "alias": "cuisine-from",
        "meta": "@cuisine",
        "userDefined": true
      },
      {
        "text": " ",
        "userDefined": false
      },
      {
        "text": "pizza",
        "alias": "product-from",
        "meta": "@delivery-product",
        "userDefined": false
      },
      {
        "text": " for ",
        "userDefined": false
      },
      {
        "text": "a",
        "meta": "@sys.ignore",
        "userDefined": false
      },
      {
        "text": " ",
        "userDefined": false
      },
      {
        "text": "burger",
        "alias": "product-to",
        "meta": "@delivery-product",
        "userDefined": false
      }
    ],
    "isTemplate": false,
    "count": 0,
    "updated": 0
  },
  {
    "id": "02906845-33f0-4a85-b9fc-19334a82f41e",
    "data": [
      {
        "text": "swap ",
        "userDefined": false
      },
      {
        "text": "pizza",
        "alias": "product-from",
        "meta": "@delivery-product",
        "userDefined": true
      },
      {
        "text": " and ",
        "userDefined": false
      },
      {
        "text": "burger",
        "alias": "product-from",
        "meta": "@delivery-product",
        "userDefined": true
      },
      {
        "text": " for ",
        "userDefined": false
      },
      {
        "text": "french fries",
        "alias": "product-to",
        "meta": "@delivery-product",
        "userDefined": true
      }
    ],
    "isTemplate": false,
    "count": 0,
    "updated": 0
  },
  {
    "id": "422ef85e-f02c-473a-a1a4-191198100a04",
    "data": [
      {
        "text": "swap the ",
        "userDefined": false
      },
      {
        "text": "Coke",
        "alias": "product-from",
        "meta": "@delivery-product",
        "userDefined": false
      },
      {
        "text": " for a ",
        "userDefined": false
      },
      {
        "text": "Fanta",
        "alias": "product-to",
        "meta": "@delivery-product",
        "userDefined": true
      }
    ],
    "isTemplate": false,
    "count": 0,
    "updated": 0
  }
]