[
  {
    "id": "8b86a6d7-34df-46b6-8369-88222231270d",
    "data": [
      {
        "text": "lock the home screen",
        "userDefined": false
      }
    ],
    "isTemplate": false,
    "count": 0,
    "updated": 0
  },
  {
    "id": "daff0dc4-3102-4a64-af5c-d8d9a2d83824",
    "data": [
      {
        "text": "set screen lock",
        "userDefined": false
      }
    ],
    "isTemplate": false,
    "count": 0,
    "updated": 0
  },
  {
    "id": "23439ca0-b4b8-464e-9462-a235e774078f",
    "data": [
      {
        "text": " lock the screen",
        "userDefined": false
      }
    ],
    "isTemplate": false,
    "count": 0,
    "updated": 0
  },
  {
    "id": "78a8885c-fbb0-4420-8371-caa1da128af0",
    "data": [
      {
        "text": "activate lock screen",
        "userDefined": false
      }
    ],
    "isTemplate": false,
    "count": 0,
    "updated": 0
  },
  {
    "id": "0d082560-8af7-417b-b17c-5598c24c7023",
    "data": [
      {
        "text": "can you lock my phone",
        "userDefined": false
      }
    ],
    "isTemplate": false,
    "count": 0,
    "updated": 0
  },
  {
    "id": "9f833fc3-567d-4c2e-a8a9-2ab2ba6a51ef",
    "data": [
      {
        "text": "take me to my lock screen",
        "userDefined": false
      }
    ],
    "isTemplate": false,
    "count": 0,
    "updated": 0
  },
  {
    "id": "7eda8699-f2db-4730-a046-da4f20c53fc6",
    "data": [
      {
        "text": "screen lock",
        "userDefined": false
      }
    ],
    "isTemplate": false,
    "count": 0,
    "updated": 0
  },
  {
    "id": "686396f9-bd9c-422b-9909-f8abec3f16cf",
    "data": [
      {
        "text": "open the screen lock",
        "userDefined": false
      }
    ],
    "isTemplate": false,
    "count": 0,
    "updated": 0
  },
  {
    "id": "7fa86772-032b-4120-827c-2b915b7a1f1a",
    "data": [
      {
        "text": "turn ",
        "userDefined": false
      },
      {
        "text": "on",
        "meta": "@sys.ignore",
        "userDefined": false
      },
      {
        "text": " lock screen",
        "userDefined": false
      }
    ],
    "isTemplate": false,
    "count": 0,
    "updated": 0
  }
]