{
  "id": "ffe65eb8-b583-4b04-9683-baee979df3af",
  "name": "device.settings.on - context:settings-on-off",
  "auto": true,
  "contexts": [
    "switch-on-off"
  ],
  "responses": [
    {
      "resetContexts": false,
      "action": "device.settings.on",
      "affectedContexts": [],
      "parameters": [],
      "messages": [
        {
          "type": 0,
          "lang": "en",
          "condition": "",
          "speech": []
        }
      ],
      "defaultResponsePlatforms": {},
      "speech": []
    }
  ],
  "priority": 500000,
  "webhookUsed": false,
  "webhookForSlotFilling": false,
  "fallbackIntent": false,
  "events": [],
  "conditionalResponses": [],
  "condition": "",
  "conditionalFollowupEvents": []
}