{
  "id": "139ad69f-ac35-4eb6-8f4d-13411eca9183",
  "name": "easteregg.meaning_of_life",
  "auto": true,
  "contexts": [],
  "responses": [
    {
      "resetContexts": false,
      "action": "easteregg.meaning_of_life",
      "affectedContexts": [],
      "parameters": [],
      "messages": [
        {
          "type": 0,
          "lang": "en",
          "condition": "",
          "speech": [
            "\"To spend it for something that will outlast it.\" John Cook (2007). The Book of Positive Quotations.",
            "42. Just 42."
          ]
        }
      ],
      "defaultResponsePlatforms": {},
      "speech": []
    }
  ],
  "priority": 500000,
  "webhookUsed": false,
  "webhookForSlotFilling": false,
  "fallbackIntent": false,
  "events": [],
  "conditionalResponses": [],
  "condition": "",
  "conditionalFollowupEvents": []
}