{
  "id": "d313939a-e5bf-4001-9942-fd7ee652b179",
  "parentId": "71a3af90-cb79-4f0c-9dee-aec88ffbff44",
  "rootParentId": "71a3af90-cb79-4f0c-9dee-aec88ffbff44",
  "name": "events.search - select.number",
  "auto": true,
  "contexts": [
    "eventssearch-followup"
  ],
  "responses": [
    {
      "resetContexts": false,
      "action": "events.select.number",
      "affectedContexts": [
        {
          "name": "eventssearch-selectnumber-followup",
          "parameters": {},
          "lifespan": 2
        }
      ],
      "parameters": [
        {
          "id": "afdc568c-21d2-4a0f-9eec-b7f76ac3cf3c",
          "required": false,
          "dataType": "@sys.number",
          "name": "number",
          "value": "$number",
          "promptMessages": [],
          "noMatchPromptMessages": [],
          "noInputPromptMessages": [],
          "outputDialogContexts": [],
          "isList": true
        },
        {
          "id": "92c16358-eed8-49ed-a91e-20b72676e6a2",
          "required": true,
          "dataType": "@sys.number",
          "name": "amount",
          "value": "$amount",
          "prompts": [
            {
              "lang": "en",
              "value": "How many of you are going?"
            }
          ],
          "promptMessages": [],
          "noMatchPromptMessages": [],
          "noInputPromptMessages": [],
          "outputDialogContexts": [],
          "isList": false
        }
      ],
      "messages": [
        {
          "type": 0,
          "lang": "en",
          "condition": "",
          "speech": "Like it? Ready to book tickets?"
        }
      ],
      "defaultResponsePlatforms": {},
      "speech": []
    }
  ],
  "priority": 500000,
  "webhookUsed": false,
  "webhookForSlotFilling": false,
  "fallbackIntent": false,
  "events": [],
  "conditionalResponses": [],
  "condition": "",
  "conditionalFollowupEvents": []
}