{
  "id": "e0ccca8b-3dfe-412a-abe3-2c26feb974f3",
  "name": "faq.luggage.cabin_items",
  "auto": true,
  "contexts": [],
  "responses": [
    {
      "resetContexts": false,
      "action": "faq.luggage.cabin_items",
      "affectedContexts": [],
      "parameters": [
        {
          "id": "a1bb60ce-cd6d-4a70-8b8f-4e46e6db3e73",
          "required": false,
          "dataType": "@cabin-items",
          "name": "cabin-item",
          "value": "$cabin-item",
          "promptMessages": [],
          "noMatchPromptMessages": [],
          "noInputPromptMessages": [],
          "outputDialogContexts": [],
          "isList": false
        }
      ],
      "messages": [
        {
          "type": 0,
          "lang": "en",
          "condition": "",
          "speech": "As well as your cabin bag, you’re allowed to bring some extra things into the cabin, e.g. umbrella, overcoat, crutches, walking stick, one standard shopping bag of duty free goods bought at the airport"
        }
      ],
      "defaultResponsePlatforms": {},
      "speech": []
    }
  ],
  "priority": 500000,
  "webhookUsed": false,
  "webhookForSlotFilling": false,
  "fallbackIntent": false,
  "events": [],
  "conditionalResponses": [],
  "condition": "",
  "conditionalFollowupEvents": []
}