[
  {
    "id": "2aad2e00-8f7e-4d07-962c-5f1bbbbf09bc",
    "data": [
      {
        "text": "I\u0027ve lost my luggage",
        "userDefined": false
      }
    ],
    "isTemplate": false,
    "count": 0,
    "updated": 0
  },
  {
    "id": "20937b73-8679-4609-8302-68c4ab1a786c",
    "data": [
      {
        "text": "my luggage is lost",
        "userDefined": false
      }
    ],
    "isTemplate": false,
    "count": 0,
    "updated": 0
  },
  {
    "id": "2c60902d-1d71-4b6a-85fb-571fa0d6e108",
    "data": [
      {
        "text": "damaged luggage",
        "userDefined": false
      }
    ],
    "isTemplate": false,
    "count": 0,
    "updated": 0
  },
  {
    "id": "af30fdf1-fca6-460c-8818-b35edddbc4c4",
    "data": [
      {
        "text": "I lost my suitcase",
        "userDefined": false
      }
    ],
    "isTemplate": false,
    "count": 0,
    "updated": 0
  },
  {
    "id": "f896844a-8e4e-4df9-a863-b16afbb2ced9",
    "data": [
      {
        "text": "my luggage was stolen",
        "userDefined": false
      }
    ],
    "isTemplate": false,
    "count": 0,
    "updated": 0
  },
  {
    "id": "e95bc486-8e70-4b2e-9ee4-6fc176c90aac",
    "data": [
      {
        "text": "my luggage is missing",
        "userDefined": false
      }
    ],
    "isTemplate": false,
    "count": 0,
    "updated": 0
  },
  {
    "id": "91ae5b07-58b9-4bd7-adc1-b61c62fb70cb",
    "data": [
      {
        "text": "my bag is damaged",
        "userDefined": false
      }
    ],
    "isTemplate": false,
    "count": 0,
    "updated": 0
  },
  {
    "id": "3cd41645-7ca2-43a9-9b8c-cbaf64093730",
    "data": [
      {
        "text": "I can\u0027t find my bags",
        "userDefined": false
      }
    ],
    "isTemplate": false,
    "count": 0,
    "updated": 0
  },
  {
    "id": "79d160b6-20e2-4753-a74e-7ae117b417ef",
    "data": [
      {
        "text": "my baggage is missing",
        "userDefined": false
      }
    ],
    "isTemplate": false,
    "count": 0,
    "updated": 0
  }
]