[
  {
    "id": "5f97d4a4-19b1-422c-9d6e-f8ca4ec5b3b1",
    "data": [
      {
        "text": "limit of personal bags on board",
        "userDefined": false
      }
    ],
    "isTemplate": false,
    "count": 0,
    "updated": 0
  },
  {
    "id": "02a5150d-fe18-49b3-9039-9b1cfdbf2fbe",
    "data": [
      {
        "text": "Is there a weight limit for cabin bags",
        "userDefined": false
      }
    ],
    "isTemplate": false,
    "count": 0,
    "updated": 0
  },
  {
    "id": "9be364a4-1efd-4f9b-9794-30161407b801",
    "data": [
      {
        "text": "How many bags can I take on board?",
        "userDefined": false
      }
    ],
    "isTemplate": false,
    "count": 0,
    "updated": 0
  },
  {
    "id": "3c7d41a2-dea8-44a0-acf5-3ed13168ec99",
    "data": [
      {
        "text": "how many carry-ons per person",
        "userDefined": false
      }
    ],
    "isTemplate": false,
    "count": 0,
    "updated": 0
  },
  {
    "id": "1e111634-3eea-4c18-af8d-8737e2c7b1ae",
    "data": [
      {
        "text": "what\u0027s the maximum size of a cabin bag",
        "userDefined": false
      }
    ],
    "isTemplate": false,
    "count": 0,
    "updated": 0
  },
  {
    "id": "79ff7d0e-4279-45ba-8530-b3435998cb82",
    "data": [
      {
        "text": "cabin bags",
        "userDefined": false
      }
    ],
    "isTemplate": false,
    "count": 0,
    "updated": 0
  }
]