[
  {
    "id": "5f060956-41c6-4e0a-9247-f7da38014d05",
    "data": [
      {
        "text": "Hi, how do I submit a complaint?",
        "userDefined": false
      }
    ],
    "isTemplate": false,
    "count": 0,
    "updated": 0
  },
  {
    "id": "2bf3decb-89dc-4a71-816d-b814d462e86e",
    "data": [
      {
        "text": "file a complaint: ",
        "userDefined": false
      },
      {
        "text": "your website sucks",
        "alias": "complaint",
        "meta": "@sys.any",
        "userDefined": true
      }
    ],
    "isTemplate": false,
    "count": 0,
    "updated": 0
  },
  {
    "id": "0811d9c7-8b95-4d97-8812-7e29174e9f2d",
    "data": [
      {
        "text": "I have a complaint: ",
        "userDefined": false
      },
      {
        "text": "I didn\u0027t get my reward miles.",
        "alias": "complaint",
        "meta": "@sys.any",
        "userDefined": true
      }
    ],
    "isTemplate": false,
    "count": 0,
    "updated": 0
  },
  {
    "id": "6e7e85e9-ff48-409d-8823-c036bbc4a33b",
    "data": [
      {
        "text": "I am so angry",
        "userDefined": false
      }
    ],
    "isTemplate": false,
    "count": 0,
    "updated": 0
  },
  {
    "id": "a3585494-7e63-47e8-8f58-d9ab559b42d7",
    "data": [
      {
        "text": "File a complaint",
        "userDefined": false
      }
    ],
    "isTemplate": false,
    "count": 0,
    "updated": 0
  },
  {
    "id": "099f7124-7716-40f8-a034-0b9cb17204d8",
    "data": [
      {
        "text": "hate your service",
        "userDefined": false
      }
    ],
    "isTemplate": false,
    "count": 0,
    "updated": 0
  },
  {
    "id": "fedd6104-9b60-4d2a-8bd0-71924fcb1fd8",
    "data": [
      {
        "text": "I am pissed off",
        "userDefined": false
      }
    ],
    "isTemplate": false,
    "count": 0,
    "updated": 0
  },
  {
    "id": "8b74bd22-babf-419b-9494-9ca3b037db72",
    "data": [
      {
        "text": "my experience was awful",
        "userDefined": false
      }
    ],
    "isTemplate": false,
    "count": 0,
    "updated": 0
  }
]