{
  "id": "915873da-adc7-475f-a8c3-3f40bcab3258",
  "name": "faq.luggage.cabin_bags",
  "auto": true,
  "contexts": [],
  "responses": [
    {
      "resetContexts": false,
      "action": "faq.luggage.cabin_bags",
      "affectedContexts": [],
      "parameters": [],
      "messages": [
        {
          "type": 0,
          "lang": "en",
          "condition": "",
          "speech": "You can take one cabin bag on board. There’s no weight limit but we do ask that you are able to lift it into the overhead locker or under your seat."
        }
      ],
      "defaultResponsePlatforms": {
        "google": true
      },
      "speech": []
    }
  ],
  "priority": 500000,
  "webhookUsed": false,
  "webhookForSlotFilling": false,
  "fallbackIntent": false,
  "events": [],
  "conditionalResponses": [],
  "condition": "",
  "conditionalFollowupEvents": []
}