[
  {
    "id": "3e495366-13ae-40b6-b12d-f89b1f209116",
    "data": [
      {
        "text": "baggage policies",
        "userDefined": false
      }
    ],
    "isTemplate": false,
    "count": 1,
    "updated": 0
  },
  {
    "id": "5aef898b-d35c-420a-bae1-0dc0269d1083",
    "data": [
      {
        "text": "baggage",
        "userDefined": false
      }
    ],
    "isTemplate": false,
    "count": 0,
    "updated": 0
  },
  {
    "id": "58cf6eef-7de7-4e24-8bf7-751b7e18b9e7",
    "data": [
      {
        "text": "What can I put to my baggage?",
        "userDefined": false
      }
    ],
    "isTemplate": false,
    "count": 0,
    "updated": 0
  },
  {
    "id": "791a3923-e1dd-4135-ba85-8a4218aadfe4",
    "data": [
      {
        "text": "bags limits",
        "userDefined": false
      }
    ],
    "isTemplate": false,
    "count": 0,
    "updated": 0
  },
  {
    "id": "4ddac1a0-0336-42e3-ace9-4e7d1bc8d419",
    "data": [
      {
        "text": "what are your baggage policies",
        "userDefined": false
      }
    ],
    "isTemplate": false,
    "count": 0,
    "updated": 0
  },
  {
    "id": "58813087-dd0a-43a9-bbb5-cd9fd1b8946b",
    "data": [
      {
        "text": "I have a question about baggage",
        "userDefined": false
      }
    ],
    "isTemplate": false,
    "count": 0,
    "updated": 0
  },
  {
    "id": "526a51a7-faba-410d-a876-66549fae7043",
    "data": [
      {
        "text": "What can I bring on board?",
        "userDefined": false
      }
    ],
    "isTemplate": false,
    "count": 0,
    "updated": 0
  },
  {
    "id": "2c5a8e74-c97b-451b-93a5-880d01db193f",
    "data": [
      {
        "text": "I have a question concerning my baggage",
        "userDefined": false
      }
    ],
    "isTemplate": false,
    "count": 0,
    "updated": 0
  },
  {
    "id": "b4ffdbf5-5cfd-4339-b2d7-789877e1b913",
    "data": [
      {
        "text": "bag allowance",
        "userDefined": false
      }
    ],
    "isTemplate": false,
    "count": 0,
    "updated": 0
  }
]