[
  {
    "id": "bc47b374-c17a-4aba-bb00-023c944e8eec",
    "data": [
      {
        "text": "I ",
        "userDefined": false
      },
      {
        "text": "will",
        "meta": "@sys.ignore",
        "userDefined": false
      },
      {
        "text": " ",
        "userDefined": false
      },
      {
        "text": "leave",
        "meta": "@sys.ignore",
        "userDefined": false
      },
      {
        "text": " ",
        "userDefined": false
      },
      {
        "text": "today",
        "alias": "departure",
        "meta": "@sys.date-time",
        "userDefined": true
      }
    ],
    "isTemplate": false,
    "count": 0,
    "updated": 0
  },
  {
    "id": "e31f7525-7523-4c0c-bfca-67de21a2f1f9",
    "data": [
      {
        "text": "departing is ",
        "userDefined": false
      },
      {
        "text": "July 25",
        "alias": "departure",
        "meta": "@sys.date-time",
        "userDefined": true
      }
    ],
    "isTemplate": false,
    "count": 0,
    "updated": 0
  },
  {
    "id": "d87d6ce3-32c1-4c97-a4ad-764ea8053375",
    "data": [
      {
        "text": "the ",
        "userDefined": false
      },
      {
        "text": "departure",
        "meta": "@sys.ignore",
        "userDefined": false
      },
      {
        "text": " ",
        "userDefined": false
      },
      {
        "text": "date",
        "meta": "@sys.ignore",
        "userDefined": false
      },
      {
        "text": " is ",
        "userDefined": false
      },
      {
        "text": "in a week",
        "alias": "departure",
        "meta": "@sys.date-time",
        "userDefined": false
      }
    ],
    "isTemplate": false,
    "count": 0,
    "updated": 0
  },
  {
    "id": "fcb0d374-1c1f-4b98-a2b0-e4a85d092465",
    "data": [
      {
        "text": "I",
        "meta": "@sys.ignore",
        "userDefined": true
      },
      {
        "text": " ",
        "userDefined": false
      },
      {
        "text": "will",
        "meta": "@sys.ignore",
        "userDefined": true
      },
      {
        "text": " fly on ",
        "userDefined": false
      },
      {
        "text": "next Monday",
        "alias": "departure",
        "meta": "@sys.date-time",
        "userDefined": true
      }
    ],
    "isTemplate": false,
    "count": 0,
    "updated": 0
  },
  {
    "id": "9b20e032-82c5-44a6-9206-b8959695015f",
    "data": [
      {
        "text": "my ",
        "userDefined": false
      },
      {
        "text": "departure",
        "meta": "@sys.ignore",
        "userDefined": false
      },
      {
        "text": " ",
        "userDefined": false
      },
      {
        "text": "date",
        "meta": "@sys.ignore",
        "userDefined": false
      },
      {
        "text": " is on ",
        "userDefined": false
      },
      {
        "text": "Tuesday",
        "alias": "departure",
        "meta": "@sys.date-time",
        "userDefined": true
      }
    ],
    "isTemplate": false,
    "count": 0,
    "updated": 0
  },
  {
    "id": "9a8eaffc-b05c-44db-8cb2-79485ad72cb2",
    "data": [
      {
        "text": "flying",
        "meta": "@sys.ignore",
        "userDefined": false
      },
      {
        "text": " ",
        "userDefined": false
      },
      {
        "text": "next month",
        "alias": "departure",
        "meta": "@sys.date-time",
        "userDefined": false
      }
    ],
    "isTemplate": false,
    "count": 0,
    "updated": 0
  },
  {
    "id": "3a9afc31-43ad-49e7-97f9-a200e5dfd302",
    "data": [
      {
        "text": "my flight is",
        "meta": "@sys.ignore",
        "userDefined": false
      },
      {
        "text": " ",
        "userDefined": false
      },
      {
        "text": "in a week",
        "alias": "departure",
        "meta": "@sys.date-time",
        "userDefined": false
      }
    ],
    "isTemplate": false,
    "count": 0,
    "updated": 0
  },
  {
    "id": "3d44eb5d-971f-4718-ad0a-e489260b1b11",
    "data": [
      {
        "text": "departing on ",
        "userDefined": false
      },
      {
        "text": "Tuesday",
        "alias": "departure",
        "meta": "@sys.date-time",
        "userDefined": true
      }
    ],
    "isTemplate": false,
    "count": 1,
    "updated": 0
  },
  {
    "id": "227aaa83-f1dd-4047-af81-46b16dbdf5b6",
    "data": [
      {
        "text": "my departure is",
        "meta": "@sys.ignore",
        "userDefined": false
      },
      {
        "text": " ",
        "userDefined": false
      },
      {
        "text": "tomorrow",
        "alias": "departure",
        "meta": "@sys.date-time",
        "userDefined": false
      }
    ],
    "isTemplate": false,
    "count": 0,
    "updated": 0
  },
  {
    "id": "975f67af-2f3f-413e-8565-19f42309fd2e",
    "data": [
      {
        "text": "I ",
        "userDefined": false
      },
      {
        "text": "will",
        "meta": "@sys.ignore",
        "userDefined": false
      },
      {
        "text": " ",
        "userDefined": false
      },
      {
        "text": "fly",
        "meta": "@sys.ignore",
        "userDefined": false
      },
      {
        "text": " ",
        "userDefined": false
      },
      {
        "text": "in a week",
        "alias": "departure",
        "meta": "@sys.date-time",
        "userDefined": false
      }
    ],
    "isTemplate": false,
    "count": 0,
    "updated": 0
  }
]