[
  {
    "id": "1a712348-ba40-4976-9820-5d27d584d04c",
    "data": [
      {
        "text": "provide me weight measurements in ",
        "userDefined": false
      },
      {
        "text": "grams",
        "alias": "unit",
        "meta": "@sys.unit-weight-name",
        "userDefined": true
      }
    ],
    "isTemplate": false,
    "count": 0,
    "updated": 0
  },
  {
    "id": "d75ae50a-fe72-4168-b2a1-74a68196b699",
    "data": [
      {
        "text": "I\u0027d like to use ",
        "userDefined": false
      },
      {
        "text": "pounds",
        "alias": "unit",
        "meta": "@sys.unit-weight-name",
        "userDefined": true
      }
    ],
    "isTemplate": false,
    "count": 0,
    "updated": 0
  },
  {
    "id": "5d257911-8ba7-41ef-9335-280eda44995b",
    "data": [
      {
        "text": "use ",
        "userDefined": false
      },
      {
        "text": "kilograms",
        "alias": "unit",
        "meta": "@sys.unit-weight-name",
        "userDefined": true
      }
    ],
    "isTemplate": false,
    "count": 0,
    "updated": 0
  },
  {
    "id": "6d726318-8ad9-4798-a580-12a521b46f71",
    "data": [
      {
        "text": "set weight format",
        "userDefined": false
      }
    ],
    "isTemplate": false,
    "count": 0,
    "updated": 0
  },
  {
    "id": "a084b3b3-9e8d-4ea7-a041-c419054c23ea",
    "data": [
      {
        "text": "use ",
        "userDefined": false
      },
      {
        "text": "kilograms",
        "alias": "unit",
        "meta": "@sys.unit-weight-name",
        "userDefined": true
      },
      {
        "text": " as weight units",
        "userDefined": false
      }
    ],
    "isTemplate": false,
    "count": 0,
    "updated": 0
  },
  {
    "id": "d0a37318-ac28-4784-9d8d-8b05b231604c",
    "data": [
      {
        "text": "switch units format to ",
        "userDefined": false
      },
      {
        "text": "grams",
        "alias": "unit",
        "meta": "@sys.unit-weight-name",
        "userDefined": true
      }
    ],
    "isTemplate": false,
    "count": 0,
    "updated": 0
  }
]