{
  "id": "2335ff38-6bb3-4d3b-a901-60fc9e7ded56",
  "name": "format.weight.set",
  "auto": true,
  "contexts": [],
  "responses": [
    {
      "resetContexts": false,
      "action": "format.weight.set",
      "affectedContexts": [],
      "parameters": [
        {
          "id": "1874e206-eaee-4f67-954e-c7752332f1fb",
          "required": false,
          "dataType": "@sys.unit-weight-name",
          "name": "unit",
          "value": "$unit",
          "promptMessages": [],
          "noMatchPromptMessages": [],
          "noInputPromptMessages": [],
          "outputDialogContexts": [],
          "isList": false
        }
      ],
      "messages": [
        {
          "type": 0,
          "lang": "en",
          "condition": "",
          "speech": []
        }
      ],
      "defaultResponsePlatforms": {},
      "speech": []
    }
  ],
  "priority": 500000,
  "webhookUsed": false,
  "webhookForSlotFilling": false,
  "fallbackIntent": false,
  "events": [],
  "conditionalResponses": [],
  "condition": "",
  "conditionalFollowupEvents": []
}