{
  "id": "2ef5934d-7815-4f14-89c4-8130e74fc453",
  "name": "format.weight.unset",
  "auto": true,
  "contexts": [],
  "responses": [
    {
      "resetContexts": false,
      "action": "format.weight.unset",
      "affectedContexts": [],
      "parameters": [
        {
          "id": "cf0ea425-37b7-4d4a-9e0f-390695f0384f",
          "required": false,
          "dataType": "@sys.unit-weight-name",
          "name": "unit",
          "value": "$unit",
          "promptMessages": [],
          "noMatchPromptMessages": [],
          "noInputPromptMessages": [],
          "outputDialogContexts": [],
          "isList": false
        }
      ],
      "messages": [
        {
          "type": 0,
          "lang": "en",
          "condition": "",
          "speech": []
        }
      ],
      "defaultResponsePlatforms": {},
      "speech": []
    }
  ],
  "priority": 500000,
  "webhookUsed": false,
  "webhookForSlotFilling": false,
  "fallbackIntent": false,
  "events": [],
  "conditionalResponses": [],
  "condition": "",
  "conditionalFollowupEvents": []
}