{
  "id": "333fd33a-6e98-4913-8c3a-1b1357e1f392",
  "name": "format.time.unset",
  "auto": true,
  "contexts": [],
  "responses": [
    {
      "resetContexts": false,
      "action": "format.time.unset",
      "affectedContexts": [],
      "parameters": [
        {
          "id": "13a75648-823e-4ed4-97c3-cdfbb5f9786e",
          "required": false,
          "dataType": "@time-format",
          "name": "format",
          "value": "$format",
          "promptMessages": [],
          "noMatchPromptMessages": [],
          "noInputPromptMessages": [],
          "outputDialogContexts": [],
          "isList": false
        }
      ],
      "messages": [
        {
          "type": 0,
          "lang": "en",
          "condition": "",
          "speech": []
        }
      ],
      "defaultResponsePlatforms": {},
      "speech": []
    }
  ],
  "priority": 500000,
  "webhookUsed": false,
  "webhookForSlotFilling": false,
  "fallbackIntent": false,
  "events": [],
  "conditionalResponses": [],
  "condition": "",
  "conditionalFollowupEvents": []
}