[
  {
    "id": "678de5d6-da8f-4bc2-8fc5-9ccce53990f2",
    "data": [
      {
        "text": "use ",
        "userDefined": false
      },
      {
        "text": "miles",
        "alias": "unit",
        "meta": "@sys.unit-length-name",
        "userDefined": true
      }
    ],
    "isTemplate": false,
    "count": 0,
    "updated": 0
  },
  {
    "id": "73b7d95f-1f8e-44f9-9973-44d43444663e",
    "data": [
      {
        "text": "I\u0027d like you to use ",
        "userDefined": false
      },
      {
        "text": "kilometres",
        "alias": "unit",
        "meta": "@sys.unit-length-name",
        "userDefined": true
      }
    ],
    "isTemplate": false,
    "count": 0,
    "updated": 0
  },
  {
    "id": "eabd19b5-3640-4c17-ae27-f4344001272f",
    "data": [
      {
        "text": "set ",
        "userDefined": false
      },
      {
        "text": "kilometres",
        "alias": "unit",
        "meta": "@sys.unit-length-name",
        "userDefined": true
      },
      {
        "text": " as default length format",
        "userDefined": false
      }
    ],
    "isTemplate": false,
    "count": 0,
    "updated": 0
  },
  {
    "id": "9a21d089-ee1a-4fc8-9683-a4ad46570635",
    "data": [
      {
        "text": "use ",
        "userDefined": false
      },
      {
        "text": "miles",
        "alias": "unit",
        "meta": "@sys.unit-length-name",
        "userDefined": true
      },
      {
        "text": " for length measurement",
        "userDefined": false
      }
    ],
    "isTemplate": false,
    "count": 0,
    "updated": 0
  },
  {
    "id": "66b38a83-8239-44f7-aba6-dd39d7953a82",
    "data": [
      {
        "text": "set length format",
        "userDefined": false
      }
    ],
    "isTemplate": false,
    "count": 0,
    "updated": 0
  },
  {
    "id": "1e734b86-630f-420b-b609-3262060ad1a5",
    "data": [
      {
        "text": "show me distance in ",
        "userDefined": false
      },
      {
        "text": "miles",
        "alias": "unit",
        "meta": "@sys.unit-length-name",
        "userDefined": true
      }
    ],
    "isTemplate": false,
    "count": 0,
    "updated": 0
  },
  {
    "id": "3c082cf4-81ca-4f5f-869f-968d0783d110",
    "data": [
      {
        "text": "provide me distance in ",
        "userDefined": false
      },
      {
        "text": "kilometres",
        "alias": "unit",
        "meta": "@sys.unit-length-name",
        "userDefined": true
      }
    ],
    "isTemplate": false,
    "count": 0,
    "updated": 0
  }
]