{
  "id": "7011e03d-54b8-4e89-8f95-3daf9f8b6105",
  "name": "format.temperature.set",
  "auto": true,
  "contexts": [],
  "responses": [
    {
      "resetContexts": false,
      "action": "format.temperature.set",
      "affectedContexts": [],
      "parameters": [
        {
          "id": "98d5ff8e-339f-4c81-900a-dfdbd41a035b",
          "required": false,
          "dataType": "@unit-temperature",
          "name": "unit",
          "value": "$unit",
          "promptMessages": [],
          "noMatchPromptMessages": [],
          "noInputPromptMessages": [],
          "outputDialogContexts": [],
          "isList": false
        }
      ],
      "messages": [
        {
          "type": 0,
          "lang": "en",
          "condition": "",
          "speech": []
        }
      ],
      "defaultResponsePlatforms": {},
      "speech": []
    }
  ],
  "priority": 500000,
  "webhookUsed": false,
  "webhookForSlotFilling": false,
  "fallbackIntent": false,
  "events": [],
  "conditionalResponses": [],
  "condition": "",
  "conditionalFollowupEvents": []
}