[
  {
    "id": "51b3940a-6cf1-4d12-ae2c-9f8f3d7286f3",
    "data": [
      {
        "text": "what languages can you speak",
        "userDefined": false
      }
    ],
    "isTemplate": false,
    "count": 0,
    "updated": 0
  },
  {
    "id": "bf498afa-d788-413a-8c7a-af1e71d53681",
    "data": [
      {
        "text": "do you speak ",
        "userDefined": false
      },
      {
        "text": "Japanese",
        "alias": "language",
        "meta": "@sys.language",
        "userDefined": false
      }
    ],
    "isTemplate": false,
    "count": 0,
    "updated": 0
  },
  {
    "id": "3fb9b14e-509a-4ffa-bd97-609eeb44a945",
    "data": [
      {
        "text": "what languages ",
        "userDefined": false
      },
      {
        "text": "are",
        "meta": "@sys.ignore",
        "userDefined": true
      },
      {
        "text": " you available in",
        "userDefined": false
      }
    ],
    "isTemplate": false,
    "count": 0,
    "updated": 0
  },
  {
    "id": "183c6c0d-0bbe-4c0b-b62d-cb06e99c4e92",
    "data": [
      {
        "text": "can you speak some ",
        "userDefined": false
      },
      {
        "text": "Russian",
        "alias": "language",
        "meta": "@sys.language",
        "userDefined": true
      }
    ],
    "isTemplate": false,
    "count": 0,
    "updated": 0
  },
  {
    "id": "7398c83c-a235-43c1-827f-060d32844686",
    "data": [
      {
        "text": "can you speak in ",
        "userDefined": false
      },
      {
        "text": "Russian",
        "alias": "language",
        "meta": "@sys.language",
        "userDefined": true
      }
    ],
    "isTemplate": false,
    "count": 0,
    "updated": 0
  },
  {
    "id": "134e80dd-85f7-4c9e-a920-3b7146800e12",
    "data": [
      {
        "text": "what languages do you know",
        "userDefined": false
      }
    ],
    "isTemplate": false,
    "count": 0,
    "updated": 0
  },
  {
    "id": "d5559198-7a00-401c-8c9a-5b286e0d8fc5",
    "data": [
      {
        "text": "what ",
        "userDefined": false
      },
      {
        "text": "are",
        "meta": "@sys.ignore",
        "userDefined": true
      },
      {
        "text": " the languages you speak",
        "userDefined": false
      }
    ],
    "isTemplate": false,
    "count": 0,
    "updated": 0
  },
  {
    "id": "8938cd99-a734-46dd-8a0e-5fb1b7050701",
    "data": [
      {
        "text": "can you please speak ",
        "userDefined": false
      },
      {
        "text": "Tagalog",
        "alias": "language",
        "meta": "@sys.language",
        "userDefined": true
      }
    ],
    "isTemplate": false,
    "count": 0,
    "updated": 0
  },
  {
    "id": "1fd42438-ddfb-46e4-bc08-adeea1a40298",
    "data": [
      {
        "text": "what languages ",
        "userDefined": false
      },
      {
        "text": "are",
        "meta": "@sys.ignore",
        "userDefined": true
      },
      {
        "text": " you familiar with",
        "userDefined": false
      }
    ],
    "isTemplate": false,
    "count": 0,
    "updated": 0
  },
  {
    "id": "8483efe0-f950-4ff3-9638-afbad88eb1a9",
    "data": [
      {
        "text": "are you fluent in ",
        "userDefined": false
      },
      {
        "text": "Japanese",
        "alias": "language",
        "meta": "@sys.language",
        "userDefined": false
      }
    ],
    "isTemplate": false,
    "count": 0,
    "updated": 0
  },
  {
    "id": "d5f7ac0f-23e8-4d51-9f87-690ab65d482b",
    "data": [
      {
        "text": "what ",
        "userDefined": false
      },
      {
        "text": "are",
        "meta": "@sys.ignore",
        "userDefined": true
      },
      {
        "text": " ",
        "userDefined": false
      },
      {
        "text": "all",
        "meta": "@sys.ignore",
        "userDefined": true
      },
      {
        "text": " the languages you know",
        "userDefined": false
      }
    ],
    "isTemplate": false,
    "count": 0,
    "updated": 0
  },
  {
    "id": "9f542ffb-64e9-4a6d-a775-0e623fb040b8",
    "data": [
      {
        "text": "you speak ",
        "userDefined": false
      },
      {
        "text": "Hebrew",
        "alias": "language",
        "meta": "@sys.language",
        "userDefined": true
      }
    ],
    "isTemplate": false,
    "count": 0,
    "updated": 0
  },
  {
    "id": "4becc5db-a7c2-43c6-91bf-faa6857cadc1",
    "data": [
      {
        "text": "do you speak ",
        "userDefined": false
      },
      {
        "text": "Swahili",
        "alias": "language",
        "meta": "@sys.language",
        "userDefined": true
      }
    ],
    "isTemplate": false,
    "count": 0,
    "updated": 0
  },
  {
    "id": "e3421e65-5f4d-48bb-b6fb-f9766cfd6ce1",
    "data": [
      {
        "text": "do u talk in ",
        "userDefined": false
      },
      {
        "text": "Hindi",
        "alias": "language",
        "meta": "@sys.language",
        "userDefined": true
      }
    ],
    "isTemplate": false,
    "count": 0,
    "updated": 0
  },
  {
    "id": "c764ebab-9ff9-445b-9476-6845daaf0bd7",
    "data": [
      {
        "text": "you can speak ",
        "userDefined": false
      },
      {
        "text": "Thai",
        "alias": "language",
        "meta": "@sys.language",
        "userDefined": true
      }
    ],
    "isTemplate": false,
    "count": 0,
    "updated": 0
  },
  {
    "id": "48fd1a16-79f3-41db-a5b5-dcf070a085b5",
    "data": [
      {
        "text": "how ",
        "userDefined": false
      },
      {
        "text": "many",
        "meta": "@sys.ignore",
        "userDefined": true
      },
      {
        "text": " languages do you speak",
        "userDefined": false
      }
    ],
    "isTemplate": false,
    "count": 0,
    "updated": 0
  },
  {
    "id": "af8639f1-4b5a-4e1d-bb71-6327d875d3b7",
    "data": [
      {
        "text": "do you speak ",
        "userDefined": false
      },
      {
        "text": "General American",
        "alias": "language",
        "meta": "@sys.language",
        "userDefined": true
      }
    ],
    "isTemplate": false,
    "count": 0,
    "updated": 0
  },
  {
    "id": "e5e0eab8-53b4-4a83-8e25-a0559d38cfce",
    "data": [
      {
        "text": "can you speak ",
        "userDefined": false
      },
      {
        "text": "Bulgarian",
        "alias": "language",
        "meta": "@sys.language",
        "userDefined": true
      }
    ],
    "isTemplate": false,
    "count": 0,
    "updated": 0
  },
  {
    "id": "20790ba1-a85d-48e9-b6b5-c09949e48d04",
    "data": [
      {
        "text": "what ",
        "userDefined": false
      },
      {
        "text": "are",
        "meta": "@sys.ignore",
        "userDefined": true
      },
      {
        "text": " the other languages you know",
        "userDefined": false
      }
    ],
    "isTemplate": false,
    "count": 0,
    "updated": 0
  },
  {
    "id": "d8f03633-9c3b-42b3-b429-39e330d82b7f",
    "data": [
      {
        "text": "can you speak ",
        "userDefined": false
      },
      {
        "text": "American English",
        "alias": "language",
        "meta": "@sys.language",
        "userDefined": false
      }
    ],
    "isTemplate": false,
    "count": 0,
    "updated": 0
  },
  {
    "id": "cc0fff81-a44a-41b5-89a5-ce47ff8e827f",
    "data": [
      {
        "text": "can you speak in ",
        "userDefined": false
      },
      {
        "text": "Cantonese",
        "alias": "language",
        "meta": "@sys.language",
        "userDefined": true
      },
      {
        "text": " dialect",
        "userDefined": false
      }
    ],
    "isTemplate": false,
    "count": 0,
    "updated": 0
  },
  {
    "id": "c3abefd3-766f-4cd9-833e-8f9bea541033",
    "data": [
      {
        "text": "how ",
        "userDefined": false
      },
      {
        "text": "many",
        "meta": "@sys.ignore",
        "userDefined": true
      },
      {
        "text": " languages you know",
        "userDefined": false
      }
    ],
    "isTemplate": false,
    "count": 0,
    "updated": 0
  },
  {
    "id": "5277cecd-0a0b-4fbb-99fd-2a7daf441cb1",
    "data": [
      {
        "text": "what ",
        "userDefined": false
      },
      {
        "text": "are",
        "meta": "@sys.ignore",
        "userDefined": true
      },
      {
        "text": " the languages you can speak",
        "userDefined": false
      }
    ],
    "isTemplate": false,
    "count": 0,
    "updated": 0
  },
  {
    "id": "71adebe1-d3b2-4a59-98f5-af321f4c543e",
    "data": [
      {
        "text": "can you speak ",
        "userDefined": false
      },
      {
        "text": "English",
        "alias": "language",
        "meta": "@sys.language",
        "userDefined": true
      }
    ],
    "isTemplate": false,
    "count": 0,
    "updated": 0
  },
  {
    "id": "ff6448d2-7103-4e4a-bbdc-f343e7b76d2d",
    "data": [
      {
        "text": "can you speak ",
        "userDefined": false
      },
      {
        "text": "European Portuguese",
        "alias": "language",
        "meta": "@sys.language",
        "userDefined": true
      }
    ],
    "isTemplate": false,
    "count": 0,
    "updated": 0
  },
  {
    "id": "6a36fd85-8d1e-454c-aefc-f648fb0d8935",
    "data": [
      {
        "text": "can you speak other languages",
        "userDefined": false
      }
    ],
    "isTemplate": false,
    "count": 0,
    "updated": 0
  },
  {
    "id": "513e2cc7-0cb8-46bb-b56b-ce08c74398d7",
    "data": [
      {
        "text": "can you speak ",
        "userDefined": false
      },
      {
        "text": "Japanese",
        "alias": "language",
        "meta": "@sys.language",
        "userDefined": true
      }
    ],
    "isTemplate": false,
    "count": 0,
    "updated": 0
  },
  {
    "id": "0b90d92d-d20c-46b4-8a5f-b3ee9de9dc5e",
    "data": [
      {
        "text": "what other languages ",
        "userDefined": false
      },
      {
        "text": "are",
        "meta": "@sys.ignore",
        "userDefined": true
      },
      {
        "text": " you familiar with",
        "userDefined": false
      }
    ],
    "isTemplate": false,
    "count": 0,
    "updated": 0
  },
  {
    "id": "224483b4-d1a8-4a21-95a4-e99f8742569d",
    "data": [
      {
        "text": "which language can you speak",
        "userDefined": false
      }
    ],
    "isTemplate": false,
    "count": 0,
    "updated": 0
  },
  {
    "id": "24f77a3a-fac6-4be1-a482-749ef5222d70",
    "data": [
      {
        "text": "did you speak ",
        "userDefined": false
      },
      {
        "text": "Tagalog",
        "alias": "language",
        "meta": "@sys.language",
        "userDefined": true
      }
    ],
    "isTemplate": false,
    "count": 0,
    "updated": 0
  },
  {
    "id": "e3ea5f16-9e7d-4df0-b2f2-a666bf80edc7",
    "data": [
      {
        "text": "do you know how to speak ",
        "userDefined": false
      },
      {
        "text": "French",
        "alias": "language",
        "meta": "@sys.language",
        "userDefined": true
      }
    ],
    "isTemplate": false,
    "count": 0,
    "updated": 0
  },
  {
    "id": "dfe16c48-b45b-4b95-b9bb-fc44b6251389",
    "data": [
      {
        "text": "do you know ",
        "userDefined": false
      },
      {
        "text": "Chinese",
        "alias": "language",
        "meta": "@sys.language",
        "userDefined": true
      }
    ],
    "isTemplate": false,
    "count": 0,
    "updated": 0
  },
  {
    "id": "80033c74-6e9a-4f3d-95dc-91eba4930fcd",
    "data": [
      {
        "text": "how ",
        "userDefined": false
      },
      {
        "text": "many",
        "meta": "@sys.ignore",
        "userDefined": true
      },
      {
        "text": " languages do you understand",
        "userDefined": false
      }
    ],
    "isTemplate": false,
    "count": 0,
    "updated": 0
  },
  {
    "id": "e3a32ea0-a95d-4480-b87a-1a6fc1fc0175",
    "data": [
      {
        "text": "may",
        "meta": "@sys.ignore",
        "userDefined": true
      },
      {
        "text": " you speak ",
        "userDefined": false
      },
      {
        "text": "Tagalog",
        "alias": "language",
        "meta": "@sys.language",
        "userDefined": true
      }
    ],
    "isTemplate": false,
    "count": 0,
    "updated": 0
  },
  {
    "id": "0c4e5af8-91fc-43e6-87ce-68fde21541bc",
    "data": [
      {
        "text": "what ",
        "userDefined": false
      },
      {
        "text": "are",
        "meta": "@sys.ignore",
        "userDefined": true
      },
      {
        "text": " the languages you know",
        "userDefined": false
      }
    ],
    "isTemplate": false,
    "count": 0,
    "updated": 0
  },
  {
    "id": "79603012-4d99-4820-b321-06e330279eff",
    "data": [
      {
        "text": "what languages ",
        "userDefined": false
      },
      {
        "text": "are",
        "meta": "@sys.ignore",
        "userDefined": true
      },
      {
        "text": " you able to speak",
        "userDefined": false
      }
    ],
    "isTemplate": false,
    "count": 0,
    "updated": 0
  },
  {
    "id": "ea384ca9-9aef-4447-abf6-8d3f0ec6e147",
    "data": [
      {
        "text": "can you talk ",
        "userDefined": false
      },
      {
        "text": "Swedish",
        "alias": "language",
        "meta": "@sys.language",
        "userDefined": true
      }
    ],
    "isTemplate": false,
    "count": 0,
    "updated": 0
  },
  {
    "id": "0638a1c8-b0b7-4007-b730-7955773f3033",
    "data": [
      {
        "text": "you talk in ",
        "userDefined": false
      },
      {
        "text": "Hindi",
        "alias": "language",
        "meta": "@sys.language",
        "userDefined": true
      },
      {
        "text": " also",
        "userDefined": false
      }
    ],
    "isTemplate": false,
    "count": 0,
    "updated": 0
  }
]