{
  "id": "4d303c0d-88ee-48e6-91d2-e255445e3136",
  "name": "language.agent",
  "auto": true,
  "contexts": [],
  "responses": [
    {
      "resetContexts": false,
      "action": "language.agent",
      "affectedContexts": [
        {
          "name": "language-agent",
          "parameters": {},
          "lifespan": 5
        }
      ],
      "parameters": [
        {
          "id": "d004f069-c2b6-4a7a-b77f-7b73090fc7d5",
          "required": false,
          "dataType": "@sys.language",
          "name": "language",
          "value": "$language",
          "promptMessages": [],
          "noMatchPromptMessages": [],
          "noInputPromptMessages": [],
          "outputDialogContexts": [],
          "isList": false
        }
      ],
      "messages": [
        {
          "type": 0,
          "lang": "en",
          "condition": "",
          "speech": []
        }
      ],
      "defaultResponsePlatforms": {},
      "speech": []
    }
  ],
  "priority": 500000,
  "webhookUsed": false,
  "webhookForSlotFilling": false,
  "fallbackIntent": false,
  "events": [],
  "conditionalResponses": [],
  "condition": "",
  "conditionalFollowupEvents": []
}