{
  "id": "6315f5ee-327f-4c47-8512-b5fe0bebe020",
  "name": "music_player_control.add_playlist",
  "auto": true,
  "contexts": [
    "music-player-control"
  ],
  "responses": [
    {
      "resetContexts": false,
      "action": "music_player_control.add_playlist",
      "affectedContexts": [
        {
          "name": "music-player-control",
          "parameters": {},
          "lifespan": 3
        }
      ],
      "parameters": [
        {
          "id": "36f12eac-00d3-4545-8bf9-515fc4d5cbc0",
          "required": false,
          "dataType": "@sys.any",
          "name": "playlist",
          "value": "$playlist",
          "promptMessages": [],
          "noMatchPromptMessages": [],
          "noInputPromptMessages": [],
          "outputDialogContexts": [],
          "isList": false
        }
      ],
      "messages": [
        {
          "type": 0,
          "lang": "en",
          "condition": "",
          "speech": []
        }
      ],
      "defaultResponsePlatforms": {},
      "speech": []
    }
  ],
  "priority": 500000,
  "webhookUsed": false,
  "webhookForSlotFilling": false,
  "fallbackIntent": false,
  "events": [],
  "conditionalResponses": [],
  "condition": "",
  "conditionalFollowupEvents": []
}