{
  "id": "ba64e2b5-1768-49e3-9134-b62627d17935",
  "name": "music_player_control.shuffle",
  "auto": true,
  "contexts": [
    "music-player-control"
  ],
  "responses": [
    {
      "resetContexts": false,
      "action": "music_player_control.shuffle",
      "affectedContexts": [
        {
          "name": "music-player-control",
          "parameters": {},
          "lifespan": 3
        }
      ],
      "parameters": [],
      "messages": [
        {
          "type": 0,
          "lang": "en",
          "condition": "",
          "speech": []
        }
      ],
      "defaultResponsePlatforms": {},
      "speech": []
    }
  ],
  "priority": 500000,
  "webhookUsed": false,
  "webhookForSlotFilling": false,
  "fallbackIntent": false,
  "events": [],
  "conditionalResponses": [],
  "condition": "",
  "conditionalFollowupEvents": []
}