{
  "id": "4ec7535b-000c-4275-931d-2cea9eeb99b0",
  "name": "music.search - context:search-music",
  "auto": true,
  "contexts": [
    "search-music"
  ],
  "responses": [
    {
      "resetContexts": false,
      "action": "music.search",
      "affectedContexts": [],
      "parameters": [
        {
          "id": "a30ff157-82e0-4e69-a24b-65a5fd3a1d2c",
          "required": false,
          "dataType": "@song",
          "name": "song",
          "value": "$song",
          "promptMessages": [],
          "noMatchPromptMessages": [],
          "noInputPromptMessages": [],
          "outputDialogContexts": [],
          "isList": false
        },
        {
          "id": "5d29451a-3b2a-4db1-a096-dfc04956c2c6",
          "required": false,
          "dataType": "@sys.music-artist",
          "name": "artist",
          "value": "$artist",
          "promptMessages": [],
          "noMatchPromptMessages": [],
          "noInputPromptMessages": [],
          "outputDialogContexts": [],
          "isList": true
        },
        {
          "id": "4e78131f-502c-443d-9316-80c64d4a7d7a",
          "required": false,
          "dataType": "@sys.music-genre",
          "name": "genre",
          "value": "$genre",
          "promptMessages": [],
          "noMatchPromptMessages": [],
          "noInputPromptMessages": [],
          "outputDialogContexts": [],
          "isList": false
        },
        {
          "id": "c5c6b4e3-7fa6-43d3-9300-c09102d5ad65",
          "required": false,
          "dataType": "@music-album",
          "name": "album",
          "value": "$album",
          "promptMessages": [],
          "noMatchPromptMessages": [],
          "noInputPromptMessages": [],
          "outputDialogContexts": [],
          "isList": false
        },
        {
          "id": "7f7b4c38-2c63-4a98-b711-9807194e3249",
          "required": false,
          "dataType": "@playlist",
          "name": "playlist",
          "value": "$playlist",
          "promptMessages": [],
          "noMatchPromptMessages": [],
          "noInputPromptMessages": [],
          "outputDialogContexts": [],
          "isList": false
        },
        {
          "id": "6107c89a-f1a3-4e05-bdc3-400a424e67d7",
          "required": false,
          "dataType": "@music-service",
          "name": "service",
          "value": "$service",
          "promptMessages": [],
          "noMatchPromptMessages": [],
          "noInputPromptMessages": [],
          "outputDialogContexts": [],
          "isList": false
        }
      ],
      "messages": [
        {
          "type": 0,
          "lang": "en",
          "condition": "",
          "speech": []
        }
      ],
      "defaultResponsePlatforms": {},
      "speech": []
    }
  ],
  "priority": 500000,
  "webhookUsed": false,
  "webhookForSlotFilling": false,
  "fallbackIntent": false,
  "events": [],
  "conditionalResponses": [],
  "condition": "",
  "conditionalFollowupEvents": []
}