{
  "id": "7c9bffde-bb0f-4ffa-841f-79b380020cb5",
  "name": "name.agent.change",
  "auto": true,
  "contexts": [],
  "responses": [
    {
      "resetContexts": false,
      "action": "name.agent.change",
      "affectedContexts": [],
      "parameters": [
        {
          "id": "ccffe626-c631-4961-b921-0b56138e383e",
          "required": false,
          "dataType": "@sys.given-name",
          "name": "given-name",
          "value": "$given-name",
          "promptMessages": [],
          "noMatchPromptMessages": [],
          "noInputPromptMessages": [],
          "outputDialogContexts": [],
          "isList": false
        },
        {
          "id": "1e39454f-4765-4332-9791-5b79ce9dd96c",
          "required": false,
          "dataType": "@sys.last-name",
          "name": "last-name",
          "value": "$last-name",
          "promptMessages": [],
          "noMatchPromptMessages": [],
          "noInputPromptMessages": [],
          "outputDialogContexts": [],
          "isList": false
        },
        {
          "id": "f568559e-9aa2-45bf-84b4-c24119b2098d",
          "required": false,
          "dataType": "@nick-name",
          "name": "nick-name",
          "value": "$nick-name",
          "promptMessages": [],
          "noMatchPromptMessages": [],
          "noInputPromptMessages": [],
          "outputDialogContexts": [],
          "isList": false
        },
        {
          "id": "552aeaa8-b9c1-4b13-8778-823c08d86b64",
          "required": false,
          "dataType": "@name-type",
          "name": "type",
          "value": "$type",
          "promptMessages": [],
          "noMatchPromptMessages": [],
          "noInputPromptMessages": [],
          "outputDialogContexts": [],
          "isList": false
        }
      ],
      "messages": [
        {
          "type": 0,
          "lang": "en",
          "condition": "",
          "speech": []
        }
      ],
      "defaultResponsePlatforms": {},
      "speech": []
    }
  ],
  "priority": 500000,
  "webhookUsed": false,
  "webhookForSlotFilling": false,
  "fallbackIntent": false,
  "events": [],
  "conditionalResponses": [],
  "condition": "",
  "conditionalFollowupEvents": []
}