[
  {
    "id": "2e520ae6-d5d7-4736-8f5d-6476aed11bfa",
    "data": [
      {
        "text": "what should I call you",
        "userDefined": false
      }
    ],
    "isTemplate": false,
    "count": 0,
    "updated": 0
  },
  {
    "id": "06211e3b-f109-431d-a1a2-a39be456f0dc",
    "data": [
      {
        "text": "do you have a name",
        "userDefined": false
      }
    ],
    "isTemplate": false,
    "count": 0,
    "updated": 0
  },
  {
    "id": "f3bbce44-38e4-44aa-8ab5-2ac1ce2951dc",
    "data": [
      {
        "text": "you didn\u0027t tell me your name",
        "userDefined": false
      }
    ],
    "isTemplate": false,
    "count": 0,
    "updated": 0
  },
  {
    "id": "baa6055c-55d9-4005-a649-9a02f356736e",
    "data": [
      {
        "text": "do you have a ",
        "userDefined": false
      },
      {
        "text": "nickname",
        "alias": "type",
        "meta": "@name-type",
        "userDefined": true
      }
    ],
    "isTemplate": false,
    "count": 0,
    "updated": 0
  },
  {
    "id": "0237b5b2-5068-48c4-bdb5-24f8778207c1",
    "data": [
      {
        "text": "I forgot your name",
        "userDefined": false
      }
    ],
    "isTemplate": false,
    "count": 0,
    "updated": 0
  },
  {
    "id": "934da60e-b72b-4cd2-9ef8-1242e7f3ffaa",
    "data": [
      {
        "text": "do you have a ",
        "userDefined": false
      },
      {
        "text": "middle name",
        "alias": "type",
        "meta": "@name-type",
        "userDefined": true
      }
    ],
    "isTemplate": false,
    "count": 0,
    "updated": 0
  },
  {
    "id": "7718ab9f-a02f-41f5-87cc-a46da73a1c0b",
    "data": [
      {
        "text": "what is your name",
        "userDefined": false
      }
    ],
    "isTemplate": false,
    "count": 0,
    "updated": 0
  },
  {
    "id": "fe991358-5aef-498c-985b-3f9e209a53b5",
    "data": [
      {
        "text": "I\u0027d like to know your ",
        "userDefined": false
      },
      {
        "text": "middle name",
        "alias": "type",
        "meta": "@name-type",
        "userDefined": true
      }
    ],
    "isTemplate": false,
    "count": 0,
    "updated": 0
  },
  {
    "id": "5dfe598f-7df2-4081-8a45-f0f685b71bb4",
    "data": [
      {
        "text": "do you remember your name",
        "userDefined": false
      }
    ],
    "isTemplate": false,
    "count": 0,
    "updated": 0
  },
  {
    "id": "53d84bd9-2bcd-4ced-87ac-4fe06c117c56",
    "data": [
      {
        "text": "what\u0027s your name again",
        "userDefined": false
      }
    ],
    "isTemplate": false,
    "count": 0,
    "updated": 0
  },
  {
    "id": "a9c54bef-193c-4383-ab75-10b4d049b3b3",
    "data": [
      {
        "text": "how can I address you",
        "userDefined": false
      }
    ],
    "isTemplate": false,
    "count": 1,
    "updated": 0
  },
  {
    "id": "dec81598-c391-4cef-909b-0de3b0b2c864",
    "data": [
      {
        "text": "your name",
        "userDefined": false
      }
    ],
    "isTemplate": false,
    "count": 0,
    "updated": 0
  },
  {
    "id": "890501cf-d2b0-4e92-9229-bbd0cca7f965",
    "data": [
      {
        "text": "what is your ",
        "userDefined": false
      },
      {
        "text": "surname",
        "alias": "type",
        "meta": "@name-type",
        "userDefined": true
      }
    ],
    "isTemplate": false,
    "count": 0,
    "updated": 0
  },
  {
    "id": "bd3597ee-afb9-44f1-9cb2-3f76d8516a67",
    "data": [
      {
        "text": "do you remember your ",
        "userDefined": false
      },
      {
        "text": "surname",
        "alias": "type",
        "meta": "@name-type",
        "userDefined": true
      }
    ],
    "isTemplate": false,
    "count": 0,
    "updated": 0
  },
  {
    "id": "ffc215e9-8cdc-4989-a737-395f7370104d",
    "data": [
      {
        "text": "how can I call you",
        "userDefined": false
      }
    ],
    "isTemplate": false,
    "count": 0,
    "updated": 0
  },
  {
    "id": "8b70d8a4-a6ea-4d5f-9d41-c3343e55171e",
    "data": [
      {
        "text": "what\u0027s your ",
        "userDefined": false
      },
      {
        "text": "nickname",
        "alias": "type",
        "meta": "@name-type",
        "userDefined": true
      },
      {
        "text": " again",
        "userDefined": false
      }
    ],
    "isTemplate": false,
    "count": 0,
    "updated": 0
  },
  {
    "id": "5c5b07e9-0749-437e-880b-513494d16cd3",
    "data": [
      {
        "text": "I\u0027d like to know your name",
        "userDefined": false
      }
    ],
    "isTemplate": false,
    "count": 0,
    "updated": 0
  },
  {
    "id": "55a52b34-3dd6-47d2-89f5-327bc7d53425",
    "data": [
      {
        "text": "your ",
        "userDefined": false
      },
      {
        "text": "middle name",
        "alias": "type",
        "meta": "@name-type",
        "userDefined": true
      }
    ],
    "isTemplate": false,
    "count": 0,
    "updated": 0
  },
  {
    "id": "df749002-cd2d-4e46-9fce-2e8362f14752",
    "data": [
      {
        "text": "tell me your name",
        "userDefined": false
      }
    ],
    "isTemplate": false,
    "count": 0,
    "updated": 0
  },
  {
    "id": "98c08ab2-0237-4971-b816-2c902fbd9eea",
    "data": [
      {
        "text": "I forgot your ",
        "userDefined": false
      },
      {
        "text": "last name",
        "alias": "type",
        "meta": "@name-type",
        "userDefined": true
      }
    ],
    "isTemplate": false,
    "count": 0,
    "updated": 0
  },
  {
    "id": "227f36d5-267e-489f-8e97-59c039c5ef75",
    "data": [
      {
        "text": "tell me your ",
        "userDefined": false
      },
      {
        "text": "last name",
        "alias": "type",
        "meta": "@name-type",
        "userDefined": true
      }
    ],
    "isTemplate": false,
    "count": 0,
    "updated": 0
  },
  {
    "id": "b9c6999c-e5c9-4214-a3c0-6746ee55255b",
    "data": [
      {
        "text": "you didn\u0027t tell me your ",
        "userDefined": false
      },
      {
        "text": "last name",
        "alias": "type",
        "meta": "@name-type",
        "userDefined": true
      }
    ],
    "isTemplate": false,
    "count": 0,
    "updated": 0
  }
]