[
  {
    "id": "db94ea11-5fec-49a0-b9bf-d57434474f97",
    "data": [
      {
        "text": "your ",
        "userDefined": false
      },
      {
        "text": "middle name",
        "alias": "type",
        "meta": "@name-type",
        "userDefined": true
      },
      {
        "text": " is beautiful",
        "userDefined": false
      }
    ],
    "isTemplate": false,
    "count": 0,
    "updated": 0
  },
  {
    "id": "02470db2-087d-4575-8bab-e6a3e8cbf243",
    "data": [
      {
        "text": "I find your name adorable",
        "userDefined": false
      }
    ],
    "isTemplate": false,
    "count": 0,
    "updated": 0
  },
  {
    "id": "1373c29c-575c-4ff7-9941-0c05c39b1ca4",
    "data": [
      {
        "text": "you have a great ",
        "userDefined": false
      },
      {
        "text": "surname",
        "alias": "type",
        "meta": "@name-type",
        "userDefined": true
      }
    ],
    "isTemplate": false,
    "count": 0,
    "updated": 0
  },
  {
    "id": "38625c2c-4174-4be5-ba63-58bd0295f811",
    "data": [
      {
        "text": "your name is ",
        "userDefined": false
      },
      {
        "text": "cool",
        "meta": "@sys.ignore",
        "userDefined": false
      }
    ],
    "isTemplate": false,
    "count": 0,
    "updated": 0
  },
  {
    "id": "8c932a2a-2e53-42b6-b8d6-8a1c52fc79e9",
    "data": [
      {
        "text": "your name is ",
        "userDefined": false
      },
      {
        "text": "beautiful",
        "meta": "@sys.ignore",
        "userDefined": false
      }
    ],
    "isTemplate": false,
    "count": 0,
    "updated": 0
  },
  {
    "id": "2251e345-9d62-4373-a3c0-2adbd674f018",
    "data": [
      {
        "text": "I like your name",
        "userDefined": false
      }
    ],
    "isTemplate": false,
    "count": 0,
    "updated": 0
  },
  {
    "id": "b5e4a4aa-2ad4-4960-93d4-92e00ff5b37a",
    "data": [
      {
        "text": "you have a great name",
        "userDefined": false
      }
    ],
    "isTemplate": false,
    "count": 0,
    "updated": 0
  },
  {
    "id": "ca82fca9-3d19-452b-9c24-2b77e13f42de",
    "data": [
      {
        "text": "I like your ",
        "userDefined": false
      },
      {
        "text": "last name",
        "alias": "type",
        "meta": "@name-type",
        "userDefined": true
      }
    ],
    "isTemplate": false,
    "count": 0,
    "updated": 0
  }
]