[
  {
    "id": "0b0502fd-4032-413a-b61e-daaa60c56eeb",
    "data": [
      {
        "text": "how many kilometres are left to get to ",
        "userDefined": false
      },
      {
        "text": "1938 Sulivan Ln Metropolis",
        "alias": "to",
        "meta": "@sys.location",
        "userDefined": true
      }
    ],
    "isTemplate": false,
    "count": 0,
    "updated": 0
  },
  {
    "id": "05cde39d-3e07-474f-94b7-75c13ddd19b1",
    "data": [
      {
        "text": "how many ",
        "userDefined": false
      },
      {
        "text": "kilometres",
        "alias": "unit",
        "meta": "@sys.unit-length-name",
        "userDefined": true
      },
      {
        "text": " ",
        "userDefined": false
      },
      {
        "text": "to",
        "meta": "@sys.ignore",
        "userDefined": true
      },
      {
        "text": " ",
        "userDefined": false
      },
      {
        "text": "my",
        "meta": "@sys.ignore",
        "userDefined": true
      },
      {
        "text": " ",
        "userDefined": false
      },
      {
        "text": "home",
        "alias": "to",
        "meta": "@sys.location",
        "userDefined": true
      }
    ],
    "isTemplate": false,
    "count": 0,
    "updated": 0
  },
  {
    "id": "4eb93bc4-ad90-45d4-811c-a95e03ca4d53",
    "data": [
      {
        "text": "will I drive more than ",
        "userDefined": false
      },
      {
        "text": "300",
        "alias": "amount",
        "meta": "@sys.number",
        "userDefined": true
      },
      {
        "text": " ",
        "userDefined": false
      },
      {
        "text": "miles",
        "alias": "unit",
        "meta": "@sys.unit-length-name",
        "userDefined": true
      },
      {
        "text": " to get from ",
        "userDefined": false
      },
      {
        "text": "12 Arbour Road",
        "alias": "from",
        "meta": "@sys.location",
        "userDefined": true
      },
      {
        "text": " to ",
        "userDefined": false
      },
      {
        "text": "55 Central Park West",
        "alias": "to",
        "meta": "@sys.location",
        "userDefined": true
      }
    ],
    "isTemplate": false,
    "count": 0,
    "updated": 0
  },
  {
    "id": "9c6afa7a-9f5c-4c69-b62a-c262256d7604",
    "data": [
      {
        "text": "number of ",
        "userDefined": false
      },
      {
        "text": "miles",
        "alias": "unit",
        "meta": "@sys.unit-length-name",
        "userDefined": true
      },
      {
        "text": " I have to cover to reach ",
        "userDefined": false
      },
      {
        "text": "Main Street",
        "alias": "to",
        "meta": "@sys.location",
        "userDefined": true
      }
    ],
    "isTemplate": false,
    "count": 1,
    "updated": 0
  },
  {
    "id": "e0857420-eab3-4813-8217-eb43f2bd167b",
    "data": [
      {
        "text": "what\u0027s the distance ",
        "userDefined": false
      },
      {
        "text": "to the destination point",
        "meta": "@sys.ignore",
        "userDefined": false
      }
    ],
    "isTemplate": false,
    "count": 1,
    "updated": 0
  },
  {
    "id": "27056482-1b8f-459a-a4ff-6ad6e8faae77",
    "data": [
      {
        "text": "how far is ",
        "userDefined": false
      },
      {
        "text": "my",
        "meta": "@sys.ignore",
        "userDefined": true
      },
      {
        "text": " ",
        "userDefined": false
      },
      {
        "text": "office",
        "alias": "to",
        "meta": "@sys.location",
        "userDefined": true
      }
    ],
    "isTemplate": false,
    "count": 0,
    "updated": 0
  },
  {
    "id": "0627c165-0d47-48e6-9d3f-16d0efab1e9f",
    "data": [
      {
        "text": "how far is ",
        "userDefined": false
      },
      {
        "text": "my",
        "meta": "@sys.ignore",
        "userDefined": true
      },
      {
        "text": " destination ",
        "userDefined": false
      },
      {
        "text": "point",
        "meta": "@sys.ignore",
        "userDefined": true
      }
    ],
    "isTemplate": false,
    "count": 0,
    "updated": 0
  },
  {
    "id": "f5315763-83af-4c81-9705-e4500fa1d642",
    "data": [
      {
        "text": "tell me how many ",
        "userDefined": false
      },
      {
        "text": "miles",
        "alias": "unit",
        "meta": "@sys.unit-length-name",
        "userDefined": true
      },
      {
        "text": " to ",
        "userDefined": false
      },
      {
        "text": "New York",
        "alias": "to",
        "meta": "@sys.location",
        "userDefined": true
      }
    ],
    "isTemplate": false,
    "count": 0,
    "updated": 0
  },
  {
    "id": "801d4640-d8d0-4d75-9003-269c09fb2012",
    "data": [
      {
        "text": "do I have to drive more than ",
        "userDefined": false
      },
      {
        "text": "200",
        "alias": "amount",
        "meta": "@sys.number",
        "userDefined": true
      },
      {
        "text": " ",
        "userDefined": false
      },
      {
        "text": "miles",
        "alias": "unit",
        "meta": "@sys.unit-length-name",
        "userDefined": true
      }
    ],
    "isTemplate": false,
    "count": 0,
    "updated": 0
  },
  {
    "id": "dca4979d-cd4f-4939-a804-010a551efa04",
    "data": [
      {
        "text": "is this ",
        "userDefined": false
      },
      {
        "text": "route",
        "meta": "@sys.ignore",
        "userDefined": true
      },
      {
        "text": " longer than ",
        "userDefined": false
      },
      {
        "text": "5",
        "alias": "amount",
        "meta": "@sys.number",
        "userDefined": true
      },
      {
        "text": " ",
        "userDefined": false
      },
      {
        "text": "miles",
        "alias": "unit",
        "meta": "@sys.unit-length-name",
        "userDefined": true
      }
    ],
    "isTemplate": false,
    "count": 0,
    "updated": 0
  },
  {
    "id": "acf9de64-2dc8-4594-89c9-6631e4cc5a98",
    "data": [
      {
        "text": "how ",
        "userDefined": false
      },
      {
        "text": "many",
        "meta": "@sys.ignore",
        "userDefined": true
      },
      {
        "text": " ",
        "userDefined": false
      },
      {
        "text": "km",
        "alias": "unit",
        "meta": "@sys.unit-length-name",
        "userDefined": true
      },
      {
        "text": " should I ",
        "userDefined": false
      },
      {
        "text": "drive",
        "meta": "@sys.ignore",
        "userDefined": true
      },
      {
        "text": " ",
        "userDefined": false
      },
      {
        "text": "to",
        "meta": "@sys.ignore",
        "userDefined": true
      },
      {
        "text": " reach ",
        "userDefined": false
      },
      {
        "text": "New York",
        "alias": "to",
        "meta": "@sys.location",
        "userDefined": true
      }
    ],
    "isTemplate": false,
    "count": 0,
    "updated": 0
  }
]