[
  {
    "id": "166eeb80-9f40-4cfb-ae37-630e98645097",
    "data": [
      {
        "text": "get",
        "meta": "@sys.ignore",
        "userDefined": true
      },
      {
        "text": " directions to the ",
        "userDefined": false
      },
      {
        "text": "nearest",
        "alias": "sort",
        "meta": "@map-sort",
        "userDefined": true
      },
      {
        "text": " ",
        "userDefined": false
      },
      {
        "text": "ATM",
        "alias": "to",
        "meta": "@sys.location",
        "userDefined": true
      }
    ],
    "isTemplate": false,
    "count": 0,
    "updated": 0
  },
  {
    "id": "6fed336e-cc50-4dfa-b1ae-6f2e008a38de",
    "data": [
      {
        "text": "how do I get ",
        "userDefined": false
      },
      {
        "text": "home",
        "alias": "to",
        "meta": "@sys.location",
        "userDefined": true
      },
      {
        "text": " taking ",
        "userDefined": false
      },
      {
        "text": "E120",
        "alias": "include-point",
        "meta": "@sys.location",
        "userDefined": true
      }
    ],
    "isTemplate": false,
    "count": 0,
    "updated": 0
  },
  {
    "id": "9e8d9647-fa85-4abd-843f-12a4e2e8917c",
    "data": [
      {
        "text": "find the ",
        "userDefined": false
      },
      {
        "text": "fastest route",
        "alias": "route-type",
        "meta": "@navigation-route-type",
        "userDefined": true
      },
      {
        "text": " to ",
        "userDefined": false
      },
      {
        "text": "Baxter Building 42nd street Madison Avenue Manhattan",
        "alias": "to",
        "meta": "@sys.location",
        "userDefined": true
      }
    ],
    "isTemplate": false,
    "count": 0,
    "updated": 0
  },
  {
    "id": "365a71d5-cc8f-4742-b63a-d2d87bc3aea5",
    "data": [
      {
        "text": "how to get to the ",
        "userDefined": false
      },
      {
        "text": "Main Street",
        "alias": "to",
        "meta": "@sys.location",
        "userDefined": true
      },
      {
        "text": " ",
        "userDefined": false
      },
      {
        "text": "avoiding heavy traffic",
        "alias": "road-type",
        "meta": "@navigation-road-type",
        "userDefined": true
      }
    ],
    "isTemplate": false,
    "count": 0,
    "updated": 0
  },
  {
    "id": "4d4933f5-ec5a-436d-9f9b-3caad8333df2",
    "data": [
      {
        "text": "can you direct me to the ",
        "userDefined": false
      },
      {
        "text": "mobile office",
        "alias": "to",
        "meta": "@sys.location",
        "userDefined": true
      }
    ],
    "isTemplate": false,
    "count": 0,
    "updated": 0
  },
  {
    "id": "94560aee-9b79-4c99-9cc7-8611ad3eb50b",
    "data": [
      {
        "text": "can you find me the ",
        "userDefined": false
      },
      {
        "text": "best route",
        "alias": "route-type",
        "meta": "@navigation-route-type",
        "userDefined": true
      },
      {
        "text": " to ",
        "userDefined": false
      },
      {
        "text": "Ohio",
        "alias": "to",
        "meta": "@sys.location",
        "userDefined": true
      }
    ],
    "isTemplate": false,
    "count": 0,
    "updated": 0
  },
  {
    "id": "26203231-a764-48eb-b6b8-cec001aeb400",
    "data": [
      {
        "text": "directions to ",
        "userDefined": false
      },
      {
        "text": "bar",
        "alias": "to",
        "meta": "@sys.location",
        "userDefined": true
      },
      {
        "text": " ",
        "userDefined": false
      },
      {
        "text": "with light traffic",
        "alias": "road-type",
        "meta": "@navigation-road-type",
        "userDefined": true
      }
    ],
    "isTemplate": false,
    "count": 0,
    "updated": 0
  },
  {
    "id": "43b24e48-ee2a-423b-a17b-c4a356519178",
    "data": [
      {
        "text": "what is the ",
        "userDefined": false
      },
      {
        "text": "shortest route",
        "alias": "route-type",
        "meta": "@navigation-route-type",
        "userDefined": true
      },
      {
        "text": " to ",
        "userDefined": false
      },
      {
        "text": "San Francisco",
        "alias": "to",
        "meta": "@sys.location",
        "userDefined": true
      },
      {
        "text": " from here",
        "userDefined": false
      }
    ],
    "isTemplate": false,
    "count": 0,
    "updated": 0
  },
  {
    "id": "bc7f8eb8-92f7-441c-a1fb-6de38c4a1755",
    "data": [
      {
        "text": "show me the way ",
        "userDefined": false
      },
      {
        "text": "home",
        "alias": "to",
        "meta": "@sys.location",
        "userDefined": true
      }
    ],
    "isTemplate": false,
    "count": 0,
    "updated": 0
  },
  {
    "id": "f0b52a89-3124-462a-b7a7-627ba26a6a48",
    "data": [
      {
        "text": "how do I ",
        "userDefined": false
      },
      {
        "text": "get",
        "meta": "@sys.ignore",
        "userDefined": true
      },
      {
        "text": " to ",
        "userDefined": false
      },
      {
        "text": "San Diego",
        "alias": "to",
        "meta": "@sys.location",
        "userDefined": true
      },
      {
        "text": " from ",
        "userDefined": false
      },
      {
        "text": "my house",
        "alias": "from",
        "meta": "@sys.location",
        "userDefined": true
      }
    ],
    "isTemplate": false,
    "count": 0,
    "updated": 0
  },
  {
    "id": "af0567c0-7639-46ce-a3df-4f00cae6659b",
    "data": [
      {
        "text": "directions to ",
        "userDefined": false
      },
      {
        "text": "New York",
        "alias": "to",
        "meta": "@sys.location",
        "userDefined": true
      },
      {
        "text": " ",
        "userDefined": false
      },
      {
        "text": "avoiding heavy traffic",
        "alias": "road-type",
        "meta": "@navigation-road-type",
        "userDefined": true
      }
    ],
    "isTemplate": false,
    "count": 0,
    "updated": 0
  },
  {
    "id": "ffa203e8-8091-4f5c-8117-f1c9a8d037f6",
    "data": [
      {
        "text": "give ",
        "userDefined": false
      },
      {
        "text": "me",
        "meta": "@sys.ignore",
        "userDefined": false
      },
      {
        "text": " directions to ",
        "userDefined": false
      },
      {
        "text": "Starbucks",
        "alias": "to",
        "meta": "@sys.location",
        "userDefined": true
      }
    ],
    "isTemplate": false,
    "count": 0,
    "updated": 0
  },
  {
    "id": "a9ec6ed0-74c5-45b0-905c-7483270a0cb2",
    "data": [
      {
        "text": "how to get to the ",
        "userDefined": false
      },
      {
        "text": "nearest",
        "alias": "sort",
        "meta": "@map-sort",
        "userDefined": true
      },
      {
        "text": " ",
        "userDefined": false
      },
      {
        "text": "petrol station",
        "alias": "to",
        "meta": "@sys.location",
        "userDefined": true
      }
    ],
    "isTemplate": false,
    "count": 0,
    "updated": 0
  },
  {
    "id": "2b4d8bd8-ffb5-4c08-a1e8-15ee11a42b8d",
    "data": [
      {
        "text": "what\u0027s the ",
        "userDefined": false
      },
      {
        "text": "best way",
        "alias": "route-type",
        "meta": "@navigation-route-type",
        "userDefined": true
      },
      {
        "text": " to ",
        "userDefined": false
      },
      {
        "text": "get",
        "meta": "@sys.ignore",
        "userDefined": true
      },
      {
        "text": " ",
        "userDefined": false
      },
      {
        "text": "home",
        "alias": "to",
        "meta": "@sys.location",
        "userDefined": true
      }
    ],
    "isTemplate": false,
    "count": 0,
    "updated": 0
  },
  {
    "id": "f2cf8c6a-8d49-4027-bf5d-d81ebf095701",
    "data": [
      {
        "text": "directions to ",
        "userDefined": false
      },
      {
        "text": "New York",
        "alias": "to",
        "meta": "@sys.location",
        "userDefined": true
      },
      {
        "text": " ",
        "userDefined": false
      },
      {
        "text": "avoiding toll roads",
        "alias": "road-type",
        "meta": "@navigation-road-type",
        "userDefined": true
      }
    ],
    "isTemplate": false,
    "count": 0,
    "updated": 0
  },
  {
    "id": "a9f83d01-dfb2-4c6f-9cf7-b338be682105",
    "data": [
      {
        "text": "directions from ",
        "userDefined": false
      },
      {
        "text": "Denver",
        "alias": "from",
        "meta": "@sys.location",
        "userDefined": true
      },
      {
        "text": " to ",
        "userDefined": false
      },
      {
        "text": "Ohio",
        "alias": "to",
        "meta": "@sys.location",
        "userDefined": true
      }
    ],
    "isTemplate": false,
    "count": 0,
    "updated": 0
  },
  {
    "id": "67d5c750-1775-4e06-98d6-2ff3391f406d",
    "data": [
      {
        "text": "start navigation to ",
        "userDefined": false
      },
      {
        "text": "nearest",
        "alias": "sort",
        "meta": "@map-sort",
        "userDefined": true
      },
      {
        "text": " ",
        "userDefined": false
      },
      {
        "text": "Starbucks",
        "alias": "to",
        "meta": "@sys.location",
        "userDefined": true
      },
      {
        "text": " via ",
        "userDefined": false
      },
      {
        "text": "fastest route",
        "alias": "route-type",
        "meta": "@navigation-route-type",
        "userDefined": true
      }
    ],
    "isTemplate": false,
    "count": 0,
    "updated": 0
  },
  {
    "id": "430e6185-e9d6-4165-a791-dfbddc6e1e0a",
    "data": [
      {
        "text": "show me directions to the ",
        "userDefined": false
      },
      {
        "text": "Heathrow airport",
        "alias": "to",
        "meta": "@sys.location",
        "userDefined": true
      }
    ],
    "isTemplate": false,
    "count": 0,
    "updated": 0
  },
  {
    "id": "c68056c7-ff45-4920-a854-77953739086a",
    "data": [
      {
        "text": "find directions to the ",
        "userDefined": false
      },
      {
        "text": "nearest",
        "alias": "sort",
        "meta": "@map-sort",
        "userDefined": true
      },
      {
        "text": " ",
        "userDefined": false
      },
      {
        "text": "grocery shop",
        "alias": "to",
        "meta": "@sys.location",
        "userDefined": true
      }
    ],
    "isTemplate": false,
    "count": 0,
    "updated": 0
  },
  {
    "id": "cbd46e2f-8aba-4d74-b0ff-5b9035fbc830",
    "data": [
      {
        "text": "what\u0027s the ",
        "userDefined": false
      },
      {
        "text": "best way",
        "alias": "route-type",
        "meta": "@navigation-route-type",
        "userDefined": true
      },
      {
        "text": " to get ",
        "userDefined": false
      },
      {
        "text": "home",
        "alias": "to",
        "meta": "@sys.location",
        "userDefined": true
      },
      {
        "text": " from here",
        "userDefined": false
      }
    ],
    "isTemplate": false,
    "count": 1,
    "updated": 0
  },
  {
    "id": "0fa849cb-d940-40a0-b3d1-cd10b44c0e19",
    "data": [
      {
        "text": "show me the ",
        "userDefined": false
      },
      {
        "text": "best way",
        "alias": "route-type",
        "meta": "@navigation-route-type",
        "userDefined": false
      },
      {
        "text": " to get to the ",
        "userDefined": false
      },
      {
        "text": "airport",
        "alias": "to",
        "meta": "@sys.location",
        "userDefined": false
      }
    ],
    "isTemplate": false,
    "count": 0,
    "updated": 0
  },
  {
    "id": "81e6b013-9ddd-49eb-850f-0ccaaa9da230",
    "data": [
      {
        "text": "can you please direct me to the ",
        "userDefined": false
      },
      {
        "text": "nearest",
        "alias": "sort",
        "meta": "@map-sort",
        "userDefined": true
      },
      {
        "text": " ",
        "userDefined": false
      },
      {
        "text": "petrol pump",
        "alias": "to",
        "meta": "@sys.location",
        "userDefined": true
      }
    ],
    "isTemplate": false,
    "count": 0,
    "updated": 0
  },
  {
    "id": "c748027c-1fc7-4c4c-9666-9d5247680977",
    "data": [
      {
        "text": "how to get to ",
        "userDefined": false
      },
      {
        "text": "Danemea High street St Mary Mead",
        "alias": "to",
        "meta": "@sys.location",
        "userDefined": true
      }
    ],
    "isTemplate": false,
    "count": 0,
    "updated": 0
  },
  {
    "id": "7246d790-eed8-40c3-a2ab-95cbc08be2c9",
    "data": [
      {
        "text": "what is the ",
        "userDefined": false
      },
      {
        "text": "fastest way",
        "alias": "route-type",
        "meta": "@navigation-route-type",
        "userDefined": true
      },
      {
        "text": " to ",
        "userDefined": false
      },
      {
        "text": "my house",
        "alias": "to",
        "meta": "@sys.location",
        "userDefined": true
      }
    ],
    "isTemplate": false,
    "count": 0,
    "updated": 0
  },
  {
    "id": "ce85652b-670a-4f63-8e5f-502529315ba6",
    "data": [
      {
        "text": "directions to ",
        "userDefined": false
      },
      {
        "text": "metro",
        "alias": "to",
        "meta": "@sys.location",
        "userDefined": true
      },
      {
        "text": " with ",
        "userDefined": false
      },
      {
        "text": "fastest way",
        "alias": "route-type",
        "meta": "@navigation-route-type",
        "userDefined": true
      }
    ],
    "isTemplate": false,
    "count": 0,
    "updated": 0
  },
  {
    "id": "80d3f91e-144c-49d9-ba9c-061e21a4c199",
    "data": [
      {
        "text": "what\u0027s the ",
        "userDefined": false
      },
      {
        "text": "fastest way",
        "alias": "route-type",
        "meta": "@navigation-route-type",
        "userDefined": true
      },
      {
        "text": " to get to ",
        "userDefined": false
      },
      {
        "text": "work",
        "alias": "to",
        "meta": "@sys.location",
        "userDefined": true
      },
      {
        "text": " without taking ",
        "userDefined": false
      },
      {
        "text": "Center Avenue",
        "alias": "exclude-point",
        "meta": "@sys.location",
        "userDefined": true
      }
    ],
    "isTemplate": false,
    "count": 0,
    "updated": 0
  },
  {
    "id": "f52fcf11-b045-400d-b1e7-9905534bf959",
    "data": [
      {
        "text": "how do I get to ",
        "userDefined": false
      },
      {
        "text": "Central Park",
        "alias": "to",
        "meta": "@sys.location",
        "userDefined": true
      }
    ],
    "isTemplate": false,
    "count": 0,
    "updated": 0
  },
  {
    "id": "55b4e10d-aedd-4eb0-991c-49faec2e2469",
    "data": [
      {
        "text": "the ",
        "userDefined": false
      },
      {
        "text": "quickest route",
        "alias": "route-type",
        "meta": "@navigation-route-type",
        "userDefined": true
      },
      {
        "text": " to ",
        "userDefined": false
      },
      {
        "text": "420 Paper St Wilmington DE 19886",
        "alias": "to",
        "meta": "@sys.location",
        "userDefined": true
      }
    ],
    "isTemplate": false,
    "count": 0,
    "updated": 0
  },
  {
    "id": "626f1fd6-8de5-4bbc-a86b-d5e935fdaaa7",
    "data": [
      {
        "text": "show me the ",
        "userDefined": false
      },
      {
        "text": "fastest way",
        "alias": "route-type",
        "meta": "@navigation-route-type",
        "userDefined": true
      },
      {
        "text": " to get to the ",
        "userDefined": false
      },
      {
        "text": "office",
        "alias": "to",
        "meta": "@sys.location",
        "userDefined": true
      }
    ],
    "isTemplate": false,
    "count": 0,
    "updated": 0
  },
  {
    "id": "3d7904d1-ce09-4bee-a88b-caadcda33178",
    "data": [
      {
        "text": "display directions to ",
        "userDefined": false
      },
      {
        "text": "San Francisco",
        "alias": "to",
        "meta": "@sys.location",
        "userDefined": true
      }
    ],
    "isTemplate": false,
    "count": 0,
    "updated": 0
  },
  {
    "id": "49b1eeeb-5c0f-4d82-a172-d685d1890fc5",
    "data": [
      {
        "text": "show me directions to ",
        "userDefined": false
      },
      {
        "text": "nearest",
        "alias": "sort",
        "meta": "@map-sort",
        "userDefined": true
      },
      {
        "text": " ",
        "userDefined": false
      },
      {
        "text": "gas station",
        "alias": "to",
        "meta": "@sys.location",
        "userDefined": true
      }
    ],
    "isTemplate": false,
    "count": 0,
    "updated": 0
  },
  {
    "id": "df3477d2-74ef-491a-86ef-93f377d55546",
    "data": [
      {
        "text": "directions to ",
        "userDefined": false
      },
      {
        "text": "restaurant",
        "alias": "to",
        "meta": "@sys.location",
        "userDefined": true
      },
      {
        "text": " ",
        "userDefined": false
      },
      {
        "text": "with light traffic",
        "alias": "road-type",
        "meta": "@navigation-road-type",
        "userDefined": true
      }
    ],
    "isTemplate": false,
    "count": 0,
    "updated": 0
  },
  {
    "id": "f9785831-ae24-48d2-a100-000d381ec30d",
    "data": [
      {
        "text": "route me to ",
        "userDefined": false
      },
      {
        "text": "Fort Bragg",
        "alias": "to",
        "meta": "@sys.location",
        "userDefined": true
      },
      {
        "text": " from ",
        "userDefined": false
      },
      {
        "text": "my current location",
        "meta": "@sys.ignore",
        "userDefined": true
      }
    ],
    "isTemplate": false,
    "count": 0,
    "updated": 0
  },
  {
    "id": "1ab5e85f-346a-4983-8e9b-90f2b8c68084",
    "data": [
      {
        "text": "how do I ",
        "userDefined": false
      },
      {
        "text": "get",
        "meta": "@sys.ignore",
        "userDefined": true
      },
      {
        "text": " to the ",
        "userDefined": false
      },
      {
        "text": "Cherry Hill mall",
        "alias": "to",
        "meta": "@sys.location",
        "userDefined": true
      },
      {
        "text": " from here",
        "userDefined": false
      }
    ],
    "isTemplate": false,
    "count": 0,
    "updated": 0
  },
  {
    "id": "2b63ffe7-e682-4d6f-bbc5-c2ef8469c1d1",
    "data": [
      {
        "text": "let me see the directions to go to ",
        "userDefined": false
      },
      {
        "text": "301 Cobblestone Way Bedrock 70777",
        "alias": "to",
        "meta": "@sys.location",
        "userDefined": true
      }
    ],
    "isTemplate": false,
    "count": 0,
    "updated": 0
  },
  {
    "id": "fbd0f98c-cd63-422e-b9a1-9fc87e1db758",
    "data": [
      {
        "text": "how do I ",
        "userDefined": false
      },
      {
        "text": "get",
        "meta": "@sys.ignore",
        "userDefined": true
      },
      {
        "text": " to ",
        "userDefined": false
      },
      {
        "text": "my house",
        "alias": "to",
        "meta": "@sys.location",
        "userDefined": true
      },
      {
        "text": " from here",
        "userDefined": false
      }
    ],
    "isTemplate": false,
    "count": 0,
    "updated": 0
  },
  {
    "id": "283a0791-ad7a-43a5-a979-d442c106e1e8",
    "data": [
      {
        "text": "I need directions to ",
        "userDefined": false
      },
      {
        "text": "Pittsburgh",
        "alias": "to",
        "meta": "@sys.location",
        "userDefined": true
      }
    ],
    "isTemplate": false,
    "count": 0,
    "updated": 0
  },
  {
    "id": "593e846b-126d-437c-b19d-95406a2119c8",
    "data": [
      {
        "text": "driving directions to ",
        "userDefined": false
      },
      {
        "text": "Longbourn near Meryton Hertfortshire",
        "alias": "to",
        "meta": "@sys.location",
        "userDefined": true
      }
    ],
    "isTemplate": false,
    "count": 0,
    "updated": 0
  },
  {
    "id": "c90a0f01-6338-43d2-a489-29b459f09239",
    "data": [
      {
        "text": "how to get to ",
        "userDefined": false
      },
      {
        "text": "nearest",
        "alias": "sort",
        "meta": "@map-sort",
        "userDefined": true
      },
      {
        "text": " ",
        "userDefined": false
      },
      {
        "text": "petrol station",
        "alias": "to",
        "meta": "@sys.location",
        "userDefined": true
      }
    ],
    "isTemplate": false,
    "count": 0,
    "updated": 0
  },
  {
    "id": "aac8700c-e776-4a94-aa8d-772a65eb3c08",
    "data": [
      {
        "text": "give",
        "meta": "@sys.ignore",
        "userDefined": true
      },
      {
        "text": " me route to ",
        "userDefined": false
      },
      {
        "text": "Bristol",
        "alias": "to",
        "meta": "@sys.location",
        "userDefined": true
      },
      {
        "text": " ",
        "userDefined": false
      },
      {
        "text": "using highways",
        "alias": "road-type",
        "meta": "@navigation-road-type",
        "userDefined": true
      }
    ],
    "isTemplate": false,
    "count": 0,
    "updated": 0
  },
  {
    "id": "fe8135d0-85f3-4fc6-8a3b-c629374b35e8",
    "data": [
      {
        "text": "get me a route to the ",
        "userDefined": false
      },
      {
        "text": "San Francisco International airport",
        "alias": "to",
        "meta": "@sys.location",
        "userDefined": true
      },
      {
        "text": " ",
        "userDefined": false
      },
      {
        "text": "without using highways",
        "alias": "road-type",
        "meta": "@navigation-road-type",
        "userDefined": true
      }
    ],
    "isTemplate": false,
    "count": 0,
    "updated": 0
  },
  {
    "id": "e325ee80-b5cd-4aa4-9a85-3e0c939397dd",
    "data": [
      {
        "text": "show me the ",
        "userDefined": false
      },
      {
        "text": "quickest route",
        "alias": "route-type",
        "meta": "@navigation-route-type",
        "userDefined": true
      },
      {
        "text": " to ",
        "userDefined": false
      },
      {
        "text": "work",
        "alias": "to",
        "meta": "@sys.location",
        "userDefined": true
      }
    ],
    "isTemplate": false,
    "count": 0,
    "updated": 0
  }
]