{
  "id": "cdf67a03-f8e6-4c85-83a1-4ba641b70f86",
  "name": "navigation.distance",
  "auto": true,
  "contexts": [],
  "responses": [
    {
      "resetContexts": false,
      "action": "navigation.distance",
      "affectedContexts": [],
      "parameters": [
        {
          "id": "7aa534ec-a014-405b-8fa5-907173ef90ad",
          "required": false,
          "dataType": "@sys.location",
          "name": "from",
          "value": "$from",
          "promptMessages": [],
          "noMatchPromptMessages": [],
          "noInputPromptMessages": [],
          "outputDialogContexts": [],
          "isList": false
        },
        {
          "id": "8653689e-cb07-4155-a053-52ccc154456a",
          "required": false,
          "dataType": "@sys.location",
          "name": "to",
          "value": "$to",
          "promptMessages": [],
          "noMatchPromptMessages": [],
          "noInputPromptMessages": [],
          "outputDialogContexts": [],
          "isList": false
        },
        {
          "id": "65b84f8b-a6d6-436a-a736-d8988f787814",
          "required": false,
          "dataType": "@sys.number",
          "name": "amount",
          "value": "$amount",
          "promptMessages": [],
          "noMatchPromptMessages": [],
          "noInputPromptMessages": [],
          "outputDialogContexts": [],
          "isList": false
        },
        {
          "id": "df9579a4-f6c2-4911-bdad-32a31310791a",
          "required": false,
          "dataType": "@sys.unit-length-name",
          "name": "unit",
          "value": "$unit",
          "promptMessages": [],
          "noMatchPromptMessages": [],
          "noInputPromptMessages": [],
          "outputDialogContexts": [],
          "isList": false
        }
      ],
      "messages": [
        {
          "type": 0,
          "lang": "en",
          "condition": "",
          "speech": []
        }
      ],
      "defaultResponsePlatforms": {},
      "speech": []
    }
  ],
  "priority": 500000,
  "webhookUsed": false,
  "webhookForSlotFilling": false,
  "fallbackIntent": false,
  "events": [],
  "conditionalResponses": [],
  "condition": "",
  "conditionalFollowupEvents": []
}