{
  "id": "931b721b-4756-4b1c-91df-f93d3ba10f4a",
  "parentId": "27b82b25-a6d9-411f-b5fa-a4baaf9b3971",
  "rootParentId": "27b82b25-a6d9-411f-b5fa-a4baaf9b3971",
  "name": "news.search - previous",
  "auto": true,
  "contexts": [
    "newssearch-followup"
  ],
  "responses": [
    {
      "resetContexts": false,
      "action": "news.search.previous",
      "affectedContexts": [
        {
          "name": "newssearch-followup",
          "parameters": {},
          "lifespan": 5
        }
      ],
      "parameters": [],
      "messages": [
        {
          "type": 0,
          "lang": "en",
          "condition": "",
          "speech": []
        }
      ],
      "defaultResponsePlatforms": {},
      "speech": []
    }
  ],
  "priority": 500000,
  "webhookUsed": false,
  "webhookForSlotFilling": false,
  "fallbackIntent": false,
  "events": [],
  "conditionalResponses": [],
  "condition": "",
  "conditionalFollowupEvents": []
}