[
  {
    "id": "4d6e9a12-8c12-4c3f-9768-2ad12dede5bd",
    "data": [
      {
        "text": "my order number is ",
        "userDefined": false
      },
      {
        "text": "938464",
        "alias": "order-number",
        "meta": "@sys.number",
        "userDefined": false
      },
      {
        "text": " can you check it",
        "userDefined": false
      }
    ],
    "isTemplate": false,
    "count": 0,
    "updated": 0
  },
  {
    "id": "0146d9e2-d435-498f-9c68-97d57a37b175",
    "data": [
      {
        "text": "check my order",
        "userDefined": false
      }
    ],
    "isTemplate": false,
    "count": 0,
    "updated": 0
  },
  {
    "id": "1d654642-cd5f-492b-ae1b-de2794b7cb20",
    "data": [
      {
        "text": "where is my order",
        "userDefined": false
      }
    ],
    "isTemplate": false,
    "count": 0,
    "updated": 0
  },
  {
    "id": "0f78745a-3699-4890-86b3-2e757c81b05b",
    "data": [
      {
        "text": "can you check my orders",
        "userDefined": false
      }
    ],
    "isTemplate": false,
    "count": 0,
    "updated": 0
  },
  {
    "id": "75c90c78-5eb5-4d09-93fd-49a4b9bf6682",
    "data": [
      {
        "text": "where is my package",
        "userDefined": false
      }
    ],
    "isTemplate": false,
    "count": 0,
    "updated": 0
  },
  {
    "id": "06f9087b-d166-40dc-99f7-204ab87148c5",
    "data": [
      {
        "text": "my orders",
        "userDefined": false
      }
    ],
    "isTemplate": false,
    "count": 0,
    "updated": 0
  },
  {
    "id": "979430a9-1cbc-44ff-816b-52df1687ab36",
    "data": [
      {
        "text": "check order for email ",
        "userDefined": false
      },
      {
        "text": "example@dialogflow.com",
        "alias": "email",
        "meta": "@sys.email",
        "userDefined": true
      }
    ],
    "isTemplate": false,
    "count": 0,
    "updated": 0
  },
  {
    "id": "3f267a64-9f89-4a93-ad92-009530f7ca8e",
    "data": [
      {
        "text": "my email is ",
        "userDefined": false
      },
      {
        "text": "dialogflow@dialogflow.com",
        "alias": "email",
        "meta": "@sys.email",
        "userDefined": true
      },
      {
        "text": " can you check my order status",
        "userDefined": false
      }
    ],
    "isTemplate": false,
    "count": 0,
    "updated": 0
  },
  {
    "id": "4a3efab8-49ed-41e7-a16c-2e4642c0b0c1",
    "data": [
      {
        "text": "what\u0027s my order status",
        "userDefined": false
      }
    ],
    "isTemplate": false,
    "count": 0,
    "updated": 0
  },
  {
    "id": "1ff90145-4ab6-48b3-b107-507b143d42c4",
    "data": [
      {
        "text": "check order ",
        "userDefined": false
      },
      {
        "text": "1234",
        "alias": "order-number",
        "meta": "@sys.number",
        "userDefined": true
      },
      {
        "text": " for ",
        "userDefined": false
      },
      {
        "text": "test@dialogflow.com",
        "alias": "email",
        "meta": "@sys.email",
        "userDefined": true
      }
    ],
    "isTemplate": false,
    "count": 1,
    "updated": 0
  }
]