[
  {
    "id": "83b00a6f-675b-451e-bdff-da03bbda20c4",
    "data": [
      {
        "text": "different",
        "userDefined": false
      }
    ],
    "isTemplate": false,
    "count": 0,
    "updated": 0
  },
  {
    "id": "55347d6f-1aa8-41c8-a461-8835bf320ba1",
    "data": [
      {
        "text": "definitely not",
        "userDefined": false
      }
    ],
    "isTemplate": false,
    "count": 0,
    "updated": 0
  },
  {
    "id": "5d033562-f317-4aff-b412-10d1e6fb0d5e",
    "data": [
      {
        "text": "not interested",
        "userDefined": false
      }
    ],
    "isTemplate": false,
    "count": 0,
    "updated": 0
  },
  {
    "id": "d5f437dd-847d-4d1a-907d-6982d0aa079e",
    "data": [
      {
        "text": "another one: ",
        "userDefined": false
      },
      {
        "text": "1111222233334444",
        "alias": "card-number",
        "meta": "@sys.number",
        "userDefined": false
      }
    ],
    "isTemplate": false,
    "count": 0,
    "updated": 0
  },
  {
    "id": "32beef2c-3614-42d3-94fa-cb3d5f4c3e57",
    "data": [
      {
        "text": "no",
        "userDefined": false
      }
    ],
    "isTemplate": false,
    "count": 0,
    "updated": 0
  },
  {
    "id": "cd676efa-1acf-46a2-ab8f-1d2a86cdd60e",
    "data": [
      {
        "text": "I don\u0027t want that",
        "userDefined": false
      }
    ],
    "isTemplate": false,
    "count": 0,
    "updated": 0
  },
  {
    "id": "5ce86471-14e2-4798-bca0-6e2afd85ca99",
    "data": [
      {
        "text": "thanks but no",
        "userDefined": false
      }
    ],
    "isTemplate": false,
    "count": 0,
    "updated": 0
  },
  {
    "id": "df18ded1-7ab5-4d8f-bbf3-7bb86d017f06",
    "data": [
      {
        "text": "different card",
        "userDefined": false
      }
    ],
    "isTemplate": false,
    "count": 0,
    "updated": 0
  },
  {
    "id": "7725f615-4d61-4b6c-ad85-796ae5ec92b8",
    "data": [
      {
        "text": "another one",
        "userDefined": false
      }
    ],
    "isTemplate": false,
    "count": 0,
    "updated": 0
  },
  {
    "id": "0da59707-5525-435b-8f4a-c92557bb39c8",
    "data": [
      {
        "text": "I disagree",
        "userDefined": false
      }
    ],
    "isTemplate": false,
    "count": 0,
    "updated": 0
  },
  {
    "id": "4b5ea587-bc57-4d74-b0f6-e03952e1f40c",
    "data": [
      {
        "text": "don\u0027t do it",
        "userDefined": false
      }
    ],
    "isTemplate": false,
    "count": 0,
    "updated": 0
  },
  {
    "id": "c448122d-7b01-4bee-ae95-2024f72fb42a",
    "data": [
      {
        "text": "no this one: ",
        "userDefined": false
      },
      {
        "text": "11111111111111",
        "alias": "card-number",
        "meta": "@sys.number",
        "userDefined": false
      }
    ],
    "isTemplate": false,
    "count": 0,
    "updated": 0
  },
  {
    "id": "e6bb9c35-8b42-4dc1-8391-e903b32c289f",
    "data": [
      {
        "text": "not really",
        "userDefined": false
      }
    ],
    "isTemplate": false,
    "count": 0,
    "updated": 0
  },
  {
    "id": "7f118719-89f5-4735-b0b1-1ab3efb26ebb",
    "data": [
      {
        "text": "I don\u0027t think so",
        "userDefined": false
      }
    ],
    "isTemplate": false,
    "count": 0,
    "updated": 0
  }
]