{
  "id": "13727a0e-f535-4e29-9d6f-1c33863a25d7",
  "name": "radio_player_control.stop",
  "auto": true,
  "contexts": [
    "radio-player-control"
  ],
  "responses": [
    {
      "resetContexts": false,
      "action": "radio_player_control.stop",
      "affectedContexts": [
        {
          "name": "radio-player-control",
          "parameters": {},
          "lifespan": 3
        }
      ],
      "parameters": [],
      "messages": [
        {
          "type": 0,
          "lang": "en",
          "condition": "",
          "speech": []
        }
      ],
      "defaultResponsePlatforms": {},
      "speech": []
    }
  ],
  "priority": 500000,
  "webhookUsed": false,
  "webhookForSlotFilling": false,
  "fallbackIntent": false,
  "events": [],
  "conditionalResponses": [],
  "condition": "",
  "conditionalFollowupEvents": []
}