[
  {
    "id": "bfda8f35-bd33-42d8-afe7-091556ea031c",
    "data": [
      {
        "text": "refund policies",
        "userDefined": false
      }
    ],
    "isTemplate": false,
    "count": 0,
    "updated": 0
  },
  {
    "id": "4e749fe4-afa2-47c0-9be2-f89b2ece22c8",
    "data": [
      {
        "text": "what if I don\u0027t like the product? Can I get my money back, what are the policies?",
        "userDefined": false
      }
    ],
    "isTemplate": false,
    "count": 0,
    "updated": 0
  },
  {
    "id": "8c193b73-87cd-4b61-9f19-345a42e50d66",
    "data": [
      {
        "text": "can you direct me to your refund policies page",
        "userDefined": false
      }
    ],
    "isTemplate": false,
    "count": 0,
    "updated": 0
  },
  {
    "id": "0b9fd15c-9294-4fe9-85e0-88ab7ecef098",
    "data": [
      {
        "text": "show me your refund policies",
        "userDefined": false
      }
    ],
    "isTemplate": false,
    "count": 0,
    "updated": 0
  },
  {
    "id": "b93b74d3-fd46-4cce-b7cf-167e842729de",
    "data": [
      {
        "text": "are there any refund polices",
        "userDefined": false
      }
    ],
    "isTemplate": false,
    "count": 0,
    "updated": 0
  },
  {
    "id": "8e257919-762f-4f7d-84dd-bbb98e135833",
    "data": [
      {
        "text": "What\u0027s the refund policy?",
        "userDefined": false
      }
    ],
    "isTemplate": false,
    "count": 0,
    "updated": 0
  }
]