[
  {
    "id": "ce42f971-04cd-496f-901e-1ccf8dd46dd0",
    "data": [
      {
        "text": "you\u0027re clever",
        "userDefined": false
      }
    ],
    "isTemplate": false,
    "count": 0,
    "updated": 0
  },
  {
    "id": "26f43ff4-9843-4c73-aa6a-331d65b40020",
    "data": [
      {
        "text": "you\u0027re really brainy",
        "userDefined": false
      }
    ],
    "isTemplate": false,
    "count": 1,
    "updated": 0
  },
  {
    "id": "c7e83b80-a15b-495c-9993-185c1decc957",
    "data": [
      {
        "text": "you ",
        "userDefined": false
      },
      {
        "text": "are",
        "meta": "@sys.ignore",
        "userDefined": false
      },
      {
        "text": " very intelligent",
        "userDefined": false
      }
    ],
    "isTemplate": false,
    "count": 0,
    "updated": 0
  },
  {
    "id": "d6dcebb9-6282-426c-b2e8-d975c6680b4e",
    "data": [
      {
        "text": "you know a lot of things",
        "userDefined": false
      }
    ],
    "isTemplate": false,
    "count": 0,
    "updated": 0
  },
  {
    "id": "29045360-9d12-4e15-b324-0a32a79aed43",
    "data": [
      {
        "text": "you\u0027re a ",
        "userDefined": false
      },
      {
        "text": "smart",
        "meta": "@sys.ignore",
        "userDefined": false
      },
      {
        "text": " cookie",
        "userDefined": false
      }
    ],
    "isTemplate": false,
    "count": 0,
    "updated": 0
  },
  {
    "id": "a2992dfa-f2f9-4357-ba36-cb1ba5c27014",
    "data": [
      {
        "text": "you\u0027re intelligent",
        "userDefined": false
      }
    ],
    "isTemplate": false,
    "count": 0,
    "updated": 0
  },
  {
    "id": "19fbda16-ad16-45b3-b7db-2823bbfaed9a",
    "data": [
      {
        "text": "you ",
        "userDefined": false
      },
      {
        "text": "are",
        "meta": "@sys.ignore",
        "userDefined": false
      },
      {
        "text": " very ",
        "userDefined": false
      },
      {
        "text": "smart",
        "meta": "@sys.ignore",
        "userDefined": false
      }
    ],
    "isTemplate": false,
    "count": 0,
    "updated": 0
  },
  {
    "id": "13279174-fb30-4e8f-b006-d0646cea015d",
    "data": [
      {
        "text": "you know so much",
        "userDefined": false
      }
    ],
    "isTemplate": false,
    "count": 0,
    "updated": 0
  },
  {
    "id": "cf35d3f5-4009-4b06-8bd9-1db33c0e9ccb",
    "data": [
      {
        "text": "you ",
        "userDefined": false
      },
      {
        "text": "are",
        "meta": "@sys.ignore",
        "userDefined": false
      },
      {
        "text": " qualified",
        "userDefined": false
      }
    ],
    "isTemplate": false,
    "count": 0,
    "updated": 0
  },
  {
    "id": "10f9514d-cf4b-45c5-b221-757c99fa9814",
    "data": [
      {
        "text": "you\u0027re pretty ",
        "userDefined": false
      },
      {
        "text": "smart",
        "meta": "@sys.ignore",
        "userDefined": false
      }
    ],
    "isTemplate": false,
    "count": 0,
    "updated": 0
  },
  {
    "id": "18cd4b13-c7fb-424b-b4e1-2f91e0bd4172",
    "data": [
      {
        "text": "you ",
        "userDefined": false
      },
      {
        "text": "are",
        "meta": "@sys.ignore",
        "userDefined": false
      },
      {
        "text": " so intelligent",
        "userDefined": false
      }
    ],
    "isTemplate": false,
    "count": 0,
    "updated": 0
  },
  {
    "id": "3103f3e8-d858-4ab8-8c58-4551797faed9",
    "data": [
      {
        "text": "how brainy you ",
        "userDefined": false
      },
      {
        "text": "are",
        "meta": "@sys.ignore",
        "userDefined": false
      }
    ],
    "isTemplate": false,
    "count": 0,
    "updated": 0
  },
  {
    "id": "1758fa7c-d6bb-4ff6-b49f-bd9aa39c601d",
    "data": [
      {
        "text": "clever",
        "userDefined": false
      }
    ],
    "isTemplate": false,
    "count": 0,
    "updated": 0
  },
  {
    "id": "937bb50a-8c23-40a3-bc8c-5a5b0beef399",
    "data": [
      {
        "text": "you ",
        "userDefined": false
      },
      {
        "text": "are",
        "meta": "@sys.ignore",
        "userDefined": false
      },
      {
        "text": " very clever",
        "userDefined": false
      }
    ],
    "isTemplate": false,
    "count": 0,
    "updated": 0
  },
  {
    "id": "d8cc4ec1-b704-469e-8f00-2b5618cb65cc",
    "data": [
      {
        "text": "you ",
        "userDefined": false
      },
      {
        "text": "are",
        "meta": "@sys.ignore",
        "userDefined": false
      },
      {
        "text": " so ",
        "userDefined": false
      },
      {
        "text": "smart",
        "meta": "@sys.ignore",
        "userDefined": false
      }
    ],
    "isTemplate": false,
    "count": 0,
    "updated": 0
  },
  {
    "id": "9e36c075-88f5-4525-befc-2ad8191c8ceb",
    "data": [
      {
        "text": "you have a lot of knowledge",
        "userDefined": false
      }
    ],
    "isTemplate": false,
    "count": 0,
    "updated": 0
  },
  {
    "id": "53561786-7d07-4820-b0a6-5a37896b5348",
    "data": [
      {
        "text": "you know a lot",
        "userDefined": false
      }
    ],
    "isTemplate": false,
    "count": 0,
    "updated": 0
  },
  {
    "id": "a965392d-af37-4a3c-92e6-29d71c9588c1",
    "data": [
      {
        "text": "you ",
        "userDefined": false
      },
      {
        "text": "are",
        "meta": "@sys.ignore",
        "userDefined": false
      },
      {
        "text": " too ",
        "userDefined": false
      },
      {
        "text": "smart",
        "meta": "@sys.ignore",
        "userDefined": false
      }
    ],
    "isTemplate": false,
    "count": 0,
    "updated": 0
  },
  {
    "id": "d88f27e4-dfab-40f5-a509-dff5285c8a34",
    "data": [
      {
        "text": "how ",
        "userDefined": false
      },
      {
        "text": "smart",
        "meta": "@sys.ignore",
        "userDefined": false
      },
      {
        "text": " you ",
        "userDefined": false
      },
      {
        "text": "are",
        "meta": "@sys.ignore",
        "userDefined": false
      }
    ],
    "isTemplate": false,
    "count": 0,
    "updated": 0
  },
  {
    "id": "3024e7a4-c2df-4132-867c-d7cfa40407a8",
    "data": [
      {
        "text": "you ",
        "userDefined": false
      },
      {
        "text": "are",
        "meta": "@sys.ignore",
        "userDefined": false
      },
      {
        "text": " really ",
        "userDefined": false
      },
      {
        "text": "smart",
        "meta": "@sys.ignore",
        "userDefined": false
      }
    ],
    "isTemplate": false,
    "count": 1,
    "updated": 0
  },
  {
    "id": "cb07490c-acbf-4d0f-98ef-0715ab0a9fdf",
    "data": [
      {
        "text": "you are so clever",
        "userDefined": false
      }
    ],
    "isTemplate": false,
    "count": 0,
    "updated": 0
  },
  {
    "id": "3e914486-bfd4-47ca-b6e2-60e5bb529ef0",
    "data": [
      {
        "text": "you\u0027re very ",
        "userDefined": false
      },
      {
        "text": "smart",
        "meta": "@sys.ignore",
        "userDefined": true
      }
    ],
    "isTemplate": false,
    "count": 0,
    "updated": 0
  },
  {
    "id": "cccab034-2913-4448-9fe6-6c56695da616",
    "data": [
      {
        "text": "you\u0027re really ",
        "userDefined": false
      },
      {
        "text": "smart",
        "meta": "@sys.ignore",
        "userDefined": true
      }
    ],
    "isTemplate": false,
    "count": 1,
    "updated": 0
  },
  {
    "id": "bbc533ea-a413-42e6-97e5-933dabbfaf62",
    "data": [
      {
        "text": "you ",
        "userDefined": false
      },
      {
        "text": "are",
        "meta": "@sys.ignore",
        "userDefined": true
      },
      {
        "text": " clever",
        "userDefined": false
      }
    ],
    "isTemplate": false,
    "count": 0,
    "updated": 0
  },
  {
    "id": "d914299a-dc09-4b5f-b2c7-f9660dbf3f47",
    "data": [
      {
        "text": "you are a genius",
        "userDefined": false
      }
    ],
    "isTemplate": false,
    "count": 0,
    "updated": 0
  },
  {
    "id": "bd9767b2-8aed-4ba6-b2dc-583a2d934fc8",
    "data": [
      {
        "text": "how ",
        "userDefined": false
      },
      {
        "text": "brilliant",
        "meta": "@sys.ignore",
        "userDefined": false
      },
      {
        "text": " you ",
        "userDefined": false
      },
      {
        "text": "are",
        "meta": "@sys.ignore",
        "userDefined": false
      }
    ],
    "isTemplate": false,
    "count": 1,
    "updated": 0
  },
  {
    "id": "a4d7683f-ec49-4e5b-a9b5-951292705ada",
    "data": [
      {
        "text": "you\u0027re qualified",
        "userDefined": false
      }
    ],
    "isTemplate": false,
    "count": 0,
    "updated": 0
  },
  {
    "id": "2eca2115-ad92-4ffb-bed0-fccccc2b96f4",
    "data": [
      {
        "text": "you ",
        "userDefined": false
      },
      {
        "text": "are",
        "meta": "@sys.ignore",
        "userDefined": true
      },
      {
        "text": " so brainy",
        "userDefined": false
      }
    ],
    "isTemplate": false,
    "count": 0,
    "updated": 0
  },
  {
    "id": "f96f2dca-cf7c-4353-b7a9-1df29e328b8c",
    "data": [
      {
        "text": "you ",
        "userDefined": false
      },
      {
        "text": "are",
        "meta": "@sys.ignore",
        "userDefined": false
      },
      {
        "text": " intelligent",
        "userDefined": false
      }
    ],
    "isTemplate": false,
    "count": 0,
    "updated": 0
  },
  {
    "id": "50f9fa86-bb77-4078-ae0e-1881aae4a2be",
    "data": [
      {
        "text": "why ",
        "userDefined": false
      },
      {
        "text": "are",
        "meta": "@sys.ignore",
        "userDefined": false
      },
      {
        "text": " you so ",
        "userDefined": false
      },
      {
        "text": "smart",
        "meta": "@sys.ignore",
        "userDefined": false
      }
    ],
    "isTemplate": false,
    "count": 0,
    "updated": 0
  },
  {
    "id": "13e4b283-131b-402b-812f-a68450069128",
    "data": [
      {
        "text": "brilliant",
        "meta": "@sys.ignore",
        "userDefined": true
      }
    ],
    "isTemplate": false,
    "count": 0,
    "updated": 0
  },
  {
    "id": "29bdb7da-3560-4e61-a9eb-6ad06a42bf5c",
    "data": [
      {
        "text": "how clever you ",
        "userDefined": false
      },
      {
        "text": "are",
        "meta": "@sys.ignore",
        "userDefined": false
      }
    ],
    "isTemplate": false,
    "count": 0,
    "updated": 0
  },
  {
    "id": "6533b0d9-99e3-49c1-a539-65c10ec94315",
    "data": [
      {
        "text": "smart",
        "meta": "@sys.ignore",
        "userDefined": true
      }
    ],
    "isTemplate": false,
    "count": 0,
    "updated": 0
  },
  {
    "id": "6b166d2e-b22d-49c1-8986-55c884c1f569",
    "data": [
      {
        "text": "you\u0027re a genius",
        "userDefined": false
      }
    ],
    "isTemplate": false,
    "count": 0,
    "updated": 0
  }
]