[
  {
    "id": "103d3a66-1aca-4e6d-baab-1a1916636ebd",
    "data": [
      {
        "text": "miss",
        "meta": "@sys.ignore",
        "userDefined": false
      },
      {
        "text": " you",
        "userDefined": false
      }
    ],
    "isTemplate": false,
    "count": 0,
    "updated": 0
  },
  {
    "id": "f93d949c-64f2-46e8-801c-6c31ebbde4a0",
    "data": [
      {
        "text": "I ",
        "userDefined": false
      },
      {
        "text": "miss",
        "meta": "@sys.ignore",
        "userDefined": false
      },
      {
        "text": " you much",
        "userDefined": false
      }
    ],
    "isTemplate": false,
    "count": 0,
    "updated": 0
  },
  {
    "id": "cb03f20b-88f3-486a-957f-30353a3968d9",
    "data": [
      {
        "text": "I\u0027ve ",
        "userDefined": false
      },
      {
        "text": "missed",
        "meta": "@sys.ignore",
        "userDefined": false
      },
      {
        "text": " you",
        "userDefined": false
      }
    ],
    "isTemplate": false,
    "count": 0,
    "updated": 0
  },
  {
    "id": "a70d65e6-a7e1-4abf-9f9c-e68589938838",
    "data": [
      {
        "text": "already ",
        "userDefined": false
      },
      {
        "text": "miss",
        "meta": "@sys.ignore",
        "userDefined": false
      },
      {
        "text": " you",
        "userDefined": false
      }
    ],
    "isTemplate": false,
    "count": 0,
    "updated": 0
  },
  {
    "id": "887d7b5b-351d-437e-834c-0d526eaded06",
    "data": [
      {
        "text": "I ",
        "userDefined": false
      },
      {
        "text": "miss",
        "meta": "@sys.ignore",
        "userDefined": false
      },
      {
        "text": " you",
        "userDefined": false
      }
    ],
    "isTemplate": false,
    "count": 0,
    "updated": 0
  },
  {
    "id": "af78f078-60ad-41f4-bcaf-3adb25ea684c",
    "data": [
      {
        "text": "I ",
        "userDefined": false
      },
      {
        "text": "missed",
        "meta": "@sys.ignore",
        "userDefined": false
      },
      {
        "text": " you",
        "userDefined": false
      }
    ],
    "isTemplate": false,
    "count": 0,
    "updated": 0
  },
  {
    "id": "291247db-d369-444e-ae3c-e14fd7909e74",
    "data": [
      {
        "text": "missing you",
        "userDefined": false
      }
    ],
    "isTemplate": false,
    "count": 0,
    "updated": 0
  }
]