[
  {
    "id": "cf35e718-17a3-4621-905e-e8b90cc011a0",
    "data": [
      {
        "text": "can you speak with me",
        "userDefined": false
      }
    ],
    "isTemplate": false,
    "count": 0,
    "updated": 0
  },
  {
    "id": "cc78330d-7380-44ef-a3f7-01b857585e25",
    "data": [
      {
        "text": "chat with me",
        "userDefined": false
      }
    ],
    "isTemplate": false,
    "count": 1,
    "updated": 0
  },
  {
    "id": "abd388b6-f4f6-465e-a0de-4b5b7bc06315",
    "data": [
      {
        "text": "why ",
        "userDefined": false
      },
      {
        "text": "don\u0027t",
        "meta": "@sys.ignore",
        "userDefined": false
      },
      {
        "text": " you talk to me",
        "userDefined": false
      }
    ],
    "isTemplate": false,
    "count": 1,
    "updated": 0
  },
  {
    "id": "807f1117-8435-4c4a-ade8-1b3a5a033039",
    "data": [
      {
        "text": "you can talk to me",
        "userDefined": false
      }
    ],
    "isTemplate": false,
    "count": 0,
    "updated": 0
  },
  {
    "id": "01edf48c-f61b-415c-85ae-bdcb7b4eadb0",
    "data": [
      {
        "text": "speak with me",
        "userDefined": false
      }
    ],
    "isTemplate": false,
    "count": 0,
    "updated": 0
  },
  {
    "id": "61d8cbd8-91ca-43c4-900b-337fdb771a78",
    "data": [
      {
        "text": "talk",
        "meta": "@sys.ignore",
        "userDefined": false
      }
    ],
    "isTemplate": false,
    "count": 1,
    "updated": 0
  },
  {
    "id": "04278583-c759-4dda-9586-3d5d98ba7381",
    "data": [
      {
        "text": "say",
        "meta": "@sys.ignore",
        "userDefined": false
      }
    ],
    "isTemplate": false,
    "count": 0,
    "updated": 0
  },
  {
    "id": "d3dbf83e-d305-4b51-b38a-0cfa35eff783",
    "data": [
      {
        "text": "can you chat with me",
        "userDefined": false
      }
    ],
    "isTemplate": false,
    "count": 0,
    "updated": 0
  },
  {
    "id": "19432de1-e07b-41b8-8fc8-fab875a5cc0a",
    "data": [
      {
        "text": "just chat with me",
        "userDefined": false
      }
    ],
    "isTemplate": false,
    "count": 0,
    "updated": 0
  },
  {
    "id": "464b9450-5c99-4e8d-9bb3-6c63c3581ae7",
    "data": [
      {
        "text": "can you talk with me",
        "userDefined": false
      }
    ],
    "isTemplate": false,
    "count": 0,
    "updated": 0
  },
  {
    "id": "280b03cc-bc1b-4b9c-a495-dacf502d56b0",
    "data": [
      {
        "text": "talk to me",
        "userDefined": false
      }
    ],
    "isTemplate": false,
    "count": 1,
    "updated": 0
  },
  {
    "id": "a252e7ed-5bf1-434c-baa2-ccf8ba2763f6",
    "data": [
      {
        "text": "will",
        "meta": "@sys.ignore",
        "userDefined": false
      },
      {
        "text": " you talk to me",
        "userDefined": false
      }
    ],
    "isTemplate": false,
    "count": 0,
    "updated": 0
  },
  {
    "id": "028e90a4-d3c4-4cb3-841b-23d8e7df10ba",
    "data": [
      {
        "text": "are",
        "meta": "@sys.ignore",
        "userDefined": false
      },
      {
        "text": " you going to talk to me",
        "userDefined": false
      }
    ],
    "isTemplate": false,
    "count": 0,
    "updated": 0
  },
  {
    "id": "e6cf2e5d-4878-4162-bcaf-a25f19c5c33d",
    "data": [
      {
        "text": "speak to me",
        "userDefined": false
      }
    ],
    "isTemplate": false,
    "count": 0,
    "updated": 0
  },
  {
    "id": "2a90f0c5-3b6f-4186-b28f-122ed35a3bc7",
    "data": [
      {
        "text": "can you talk to me",
        "userDefined": false
      }
    ],
    "isTemplate": false,
    "count": 0,
    "updated": 0
  },
  {
    "id": "141cd919-b529-4ae4-8091-b34b4cdeb4fa",
    "data": [
      {
        "text": "why aren\u0027t you talking to me",
        "userDefined": false
      }
    ],
    "isTemplate": false,
    "count": 0,
    "updated": 0
  },
  {
    "id": "a458c4e5-789e-4f3d-9f69-7f3ddb6d153c",
    "data": [
      {
        "text": "do you want to chat with me",
        "userDefined": false
      }
    ],
    "isTemplate": false,
    "count": 0,
    "updated": 0
  },
  {
    "id": "da0343fd-4f1b-41fc-a06b-7a8a506b8dc5",
    "data": [
      {
        "text": "are",
        "meta": "@sys.ignore",
        "userDefined": false
      },
      {
        "text": " you talking to me",
        "userDefined": false
      }
    ],
    "isTemplate": false,
    "count": 0,
    "updated": 0
  },
  {
    "id": "93b4f840-1f04-4c02-816a-cf4b6bd73da4",
    "data": [
      {
        "text": "talk with me",
        "userDefined": false
      }
    ],
    "isTemplate": false,
    "count": 1,
    "updated": 0
  }
]