[
  {
    "id": "bfe483e1-be09-4ed7-9a4e-67266e36e67c",
    "data": [
      {
        "text": "pleasure to ",
        "userDefined": false
      },
      {
        "text": "meet",
        "meta": "@sys.ignore",
        "userDefined": false
      },
      {
        "text": " you",
        "userDefined": false
      }
    ],
    "isTemplate": false,
    "count": 0,
    "updated": 0
  },
  {
    "id": "9e4f82c4-1d6e-4765-b7f5-0cb0d6e68c64",
    "data": [
      {
        "text": "nice",
        "meta": "@sys.ignore",
        "userDefined": false
      },
      {
        "text": " to ",
        "userDefined": false
      },
      {
        "text": "meet",
        "meta": "@sys.ignore",
        "userDefined": false
      },
      {
        "text": " you too",
        "userDefined": false
      }
    ],
    "isTemplate": false,
    "count": 0,
    "updated": 0
  },
  {
    "id": "12db5206-dd46-4d75-9ac1-9c1a35362145",
    "data": [
      {
        "text": "nice",
        "meta": "@sys.ignore",
        "userDefined": false
      },
      {
        "text": " ",
        "userDefined": false
      },
      {
        "text": "meeting",
        "meta": "@sys.ignore",
        "userDefined": false
      },
      {
        "text": " you",
        "userDefined": false
      }
    ],
    "isTemplate": false,
    "count": 0,
    "updated": 0
  },
  {
    "id": "4eb71ac7-f3c3-423d-bd12-0271f82ca83d",
    "data": [
      {
        "text": "pleasure to ",
        "userDefined": false
      },
      {
        "text": "meet",
        "meta": "@sys.ignore",
        "userDefined": false
      },
      {
        "text": " you too",
        "userDefined": false
      }
    ],
    "isTemplate": false,
    "count": 0,
    "updated": 0
  },
  {
    "id": "036e4513-b830-4e8c-9d08-0af952e60189",
    "data": [
      {
        "text": "pleased to ",
        "userDefined": false
      },
      {
        "text": "meet",
        "meta": "@sys.ignore",
        "userDefined": false
      },
      {
        "text": " you",
        "userDefined": false
      }
    ],
    "isTemplate": false,
    "count": 0,
    "updated": 0
  },
  {
    "id": "a989d697-70fe-471f-8d9d-9b2676ee4bc8",
    "data": [
      {
        "text": "glad to ",
        "userDefined": false
      },
      {
        "text": "meet",
        "meta": "@sys.ignore",
        "userDefined": false
      },
      {
        "text": " you",
        "userDefined": false
      }
    ],
    "isTemplate": false,
    "count": 0,
    "updated": 0
  },
  {
    "id": "3e482f65-5a9a-4f4d-8a28-26206819917e",
    "data": [
      {
        "text": "it",
        "meta": "@sys.ignore",
        "userDefined": false
      },
      {
        "text": " was ",
        "userDefined": false
      },
      {
        "text": "nice",
        "meta": "@sys.ignore",
        "userDefined": false
      },
      {
        "text": " ",
        "userDefined": false
      },
      {
        "text": "meeting",
        "meta": "@sys.ignore",
        "userDefined": false
      },
      {
        "text": " you",
        "userDefined": false
      }
    ],
    "isTemplate": false,
    "count": 0,
    "updated": 0
  },
  {
    "id": "6687f0c8-507e-4dcc-9386-445c34a56690",
    "data": [
      {
        "text": "good to know ",
        "userDefined": false
      },
      {
        "text": "each",
        "meta": "@sys.ignore",
        "userDefined": false
      },
      {
        "text": " other",
        "userDefined": false
      }
    ],
    "isTemplate": false,
    "count": 0,
    "updated": 0
  },
  {
    "id": "9fa943c3-b70a-40aa-8fff-3c88b9349dd7",
    "data": [
      {
        "text": "it",
        "meta": "@sys.ignore",
        "userDefined": false
      },
      {
        "text": " was very ",
        "userDefined": false
      },
      {
        "text": "nice",
        "meta": "@sys.ignore",
        "userDefined": false
      },
      {
        "text": " to ",
        "userDefined": false
      },
      {
        "text": "meet",
        "meta": "@sys.ignore",
        "userDefined": false
      },
      {
        "text": " you",
        "userDefined": false
      }
    ],
    "isTemplate": false,
    "count": 0,
    "updated": 0
  },
  {
    "id": "d33e69aa-dde2-4545-b496-43d06d0c84f6",
    "data": [
      {
        "text": "nice",
        "meta": "@sys.ignore",
        "userDefined": false
      },
      {
        "text": " to ",
        "userDefined": false
      },
      {
        "text": "meet",
        "meta": "@sys.ignore",
        "userDefined": false
      },
      {
        "text": " you",
        "userDefined": false
      }
    ],
    "isTemplate": false,
    "count": 0,
    "updated": 0
  }
]