[
  {
    "id": "0f4d2c8f-b65e-43d3-92e7-917ccd260ca8",
    "data": [
      {
        "text": "it",
        "meta": "@sys.ignore",
        "userDefined": false
      },
      {
        "text": " was ",
        "userDefined": false
      },
      {
        "text": "nice",
        "meta": "@sys.ignore",
        "userDefined": false
      },
      {
        "text": " ",
        "userDefined": false
      },
      {
        "text": "meeting",
        "meta": "@sys.ignore",
        "userDefined": false
      },
      {
        "text": " you",
        "userDefined": false
      }
    ],
    "isTemplate": false,
    "count": 0,
    "updated": 0
  },
  {
    "id": "45287192-4aef-46a0-8a07-330ba9f6bfc9",
    "data": [
      {
        "text": "nice",
        "meta": "@sys.ignore",
        "userDefined": false
      },
      {
        "text": " to ",
        "userDefined": false
      },
      {
        "text": "meet",
        "meta": "@sys.ignore",
        "userDefined": false
      },
      {
        "text": " you",
        "userDefined": false
      }
    ],
    "isTemplate": false,
    "count": 0,
    "updated": 0
  },
  {
    "id": "3bd75ba8-18e2-4c0d-97b9-59466b9553cd",
    "data": [
      {
        "text": "glad to ",
        "userDefined": false
      },
      {
        "text": "meet",
        "meta": "@sys.ignore",
        "userDefined": false
      },
      {
        "text": " you",
        "userDefined": false
      }
    ],
    "isTemplate": false,
    "count": 0,
    "updated": 0
  },
  {
    "id": "c71d3942-5196-4e00-995f-88a1e3046ab6",
    "data": [
      {
        "text": "it",
        "meta": "@sys.ignore",
        "userDefined": false
      },
      {
        "text": " was very ",
        "userDefined": false
      },
      {
        "text": "nice",
        "meta": "@sys.ignore",
        "userDefined": false
      },
      {
        "text": " to ",
        "userDefined": false
      },
      {
        "text": "meet",
        "meta": "@sys.ignore",
        "userDefined": false
      },
      {
        "text": " you",
        "userDefined": false
      }
    ],
    "isTemplate": false,
    "count": 0,
    "updated": 0
  },
  {
    "id": "0511c17d-6bd8-4ae9-89b1-5be7eeff36df",
    "data": [
      {
        "text": "pleased to ",
        "userDefined": false
      },
      {
        "text": "meet",
        "meta": "@sys.ignore",
        "userDefined": false
      },
      {
        "text": " you",
        "userDefined": false
      }
    ],
    "isTemplate": false,
    "count": 0,
    "updated": 0
  },
  {
    "id": "c2e03a3d-d40d-4fe6-9b3a-b5fc4a177645",
    "data": [
      {
        "text": "pleasure to ",
        "userDefined": false
      },
      {
        "text": "meet",
        "meta": "@sys.ignore",
        "userDefined": false
      },
      {
        "text": " you too",
        "userDefined": false
      }
    ],
    "isTemplate": false,
    "count": 0,
    "updated": 0
  },
  {
    "id": "619d8792-6999-4cc2-8182-78a1413c3148",
    "data": [
      {
        "text": "good to know ",
        "userDefined": false
      },
      {
        "text": "each",
        "meta": "@sys.ignore",
        "userDefined": false
      },
      {
        "text": " other",
        "userDefined": false
      }
    ],
    "isTemplate": false,
    "count": 0,
    "updated": 0
  },
  {
    "id": "ac5c75eb-69b4-42bc-af16-e1c880295dc7",
    "data": [
      {
        "text": "nice",
        "meta": "@sys.ignore",
        "userDefined": false
      },
      {
        "text": " to ",
        "userDefined": false
      },
      {
        "text": "meet",
        "meta": "@sys.ignore",
        "userDefined": false
      },
      {
        "text": " you too",
        "userDefined": false
      }
    ],
    "isTemplate": false,
    "count": 0,
    "updated": 0
  },
  {
    "id": "551ec293-bd9e-428d-b5c3-4adeb43895a4",
    "data": [
      {
        "text": "pleasure to ",
        "userDefined": false
      },
      {
        "text": "meet",
        "meta": "@sys.ignore",
        "userDefined": false
      },
      {
        "text": " you",
        "userDefined": false
      }
    ],
    "isTemplate": false,
    "count": 0,
    "updated": 0
  },
  {
    "id": "96f8e194-060b-453f-a5c2-d5cbe89ab7e6",
    "data": [
      {
        "text": "nice",
        "meta": "@sys.ignore",
        "userDefined": false
      },
      {
        "text": " ",
        "userDefined": false
      },
      {
        "text": "meeting",
        "meta": "@sys.ignore",
        "userDefined": false
      },
      {
        "text": " you",
        "userDefined": false
      }
    ],
    "isTemplate": false,
    "count": 0,
    "updated": 0
  }
]