[
  {
    "id": "308f7122-de8b-46c4-bc5e-2eb0154d657e",
    "data": [
      {
        "text": "the air is too ",
        "userDefined": false
      },
      {
        "text": "hot",
        "meta": "@sys.ignore",
        "userDefined": true
      }
    ],
    "isTemplate": false,
    "count": 0,
    "updated": 0
  },
  {
    "id": "c8d189f5-071c-4a0f-8cf2-3b80e9d11842",
    "data": [
      {
        "text": "I\u0027m getting hot",
        "userDefined": false
      }
    ],
    "isTemplate": false,
    "count": 0,
    "updated": 0
  },
  {
    "id": "66e0189b-95e7-45f0-a423-fcafd6742814",
    "data": [
      {
        "text": "it\u0027s too warm here",
        "userDefined": false
      }
    ],
    "isTemplate": false,
    "count": 0,
    "updated": 0
  },
  {
    "id": "9cdbc467-4898-47e4-afe2-4fce331f00bc",
    "data": [
      {
        "text": "I\u0027m hot",
        "userDefined": false
      }
    ],
    "isTemplate": false,
    "count": 1,
    "updated": 0
  },
  {
    "id": "0cd04164-93a0-46b8-9687-20d942d13997",
    "data": [
      {
        "text": "too ",
        "userDefined": false
      },
      {
        "text": "warm",
        "meta": "@sys.ignore",
        "userDefined": true
      }
    ],
    "isTemplate": false,
    "count": 0,
    "updated": 0
  },
  {
    "id": "7df0f4b7-7d70-4b71-a556-fab44bd2a21d",
    "data": [
      {
        "text": "too ",
        "userDefined": false
      },
      {
        "text": "hot",
        "meta": "@sys.ignore",
        "userDefined": true
      },
      {
        "text": " in ",
        "userDefined": false
      },
      {
        "text": "all",
        "alias": "all",
        "meta": "@all",
        "userDefined": true
      },
      {
        "text": " rooms",
        "userDefined": false
      }
    ],
    "isTemplate": false,
    "count": 0,
    "updated": 0
  },
  {
    "id": "2ed6632a-38c2-4956-ae10-cbfff424a729",
    "data": [
      {
        "text": "too ",
        "userDefined": false
      },
      {
        "text": "hot",
        "meta": "@sys.ignore",
        "userDefined": true
      }
    ],
    "isTemplate": false,
    "count": 0,
    "updated": 0
  },
  {
    "id": "f0af9aa5-7bbb-4855-9978-865f593a8316",
    "data": [
      {
        "text": "it is hot in the ",
        "userDefined": false
      },
      {
        "text": "kitchen",
        "alias": "room",
        "meta": "@room",
        "userDefined": true
      }
    ],
    "isTemplate": false,
    "count": 0,
    "updated": 0
  },
  {
    "id": "d527d710-4fa0-4f6a-bbbe-7ca8ed0da00e",
    "data": [
      {
        "text": "it\u0027s very hot here",
        "userDefined": false
      }
    ],
    "isTemplate": false,
    "count": 1,
    "updated": 0
  },
  {
    "id": "552e1e91-2628-4770-ad71-c2d6e921afed",
    "data": [
      {
        "text": "it is really hot",
        "userDefined": false
      }
    ],
    "isTemplate": false,
    "count": 0,
    "updated": 0
  },
  {
    "id": "8d94626e-f2db-42f1-b78c-44eadecdfcf0",
    "data": [
      {
        "text": "it is really hot here",
        "userDefined": false
      }
    ],
    "isTemplate": false,
    "count": 0,
    "updated": 0
  },
  {
    "id": "267ee465-528b-4371-b50c-daaffa1f66f0",
    "data": [
      {
        "text": "it is too warm in here",
        "userDefined": false
      }
    ],
    "isTemplate": false,
    "count": 0,
    "updated": 0
  },
  {
    "id": "9ba02b58-7b2f-4f84-96ae-2ba866c0f5bf",
    "data": [
      {
        "text": "it\u0027s very hot",
        "userDefined": false
      }
    ],
    "isTemplate": false,
    "count": 0,
    "updated": 0
  },
  {
    "id": "e352cbbc-de81-4dbc-aaf5-04fa80024d43",
    "data": [
      {
        "text": "it",
        "meta": "@sys.ignore",
        "userDefined": true
      },
      {
        "text": "\u0027s ",
        "userDefined": false
      },
      {
        "text": "hot",
        "meta": "@sys.ignore",
        "userDefined": true
      },
      {
        "text": " in here",
        "userDefined": false
      }
    ],
    "isTemplate": false,
    "count": 0,
    "updated": 0
  },
  {
    "id": "c7ff95e6-3372-466c-a2b3-594937fa6207",
    "data": [
      {
        "text": "it",
        "meta": "@sys.ignore",
        "userDefined": true
      },
      {
        "text": "\u0027s too ",
        "userDefined": false
      },
      {
        "text": "hot",
        "meta": "@sys.ignore",
        "userDefined": true
      },
      {
        "text": " in here",
        "userDefined": false
      }
    ],
    "isTemplate": false,
    "count": 0,
    "updated": 0
  },
  {
    "id": "28f3ff3e-25e7-4ee9-b028-330ef2ae833f",
    "data": [
      {
        "text": "it\u0027s hot",
        "userDefined": false
      }
    ],
    "isTemplate": false,
    "count": 0,
    "updated": 0
  },
  {
    "id": "910994aa-f5cd-4162-b03b-614715e61c2b",
    "data": [
      {
        "text": "it is too hot",
        "userDefined": false
      }
    ],
    "isTemplate": false,
    "count": 0,
    "updated": 0
  },
  {
    "id": "cc1b5701-9ec5-4871-adbd-a3c40bd20e8c",
    "data": [
      {
        "text": "too ",
        "userDefined": false
      },
      {
        "text": "hot",
        "meta": "@sys.ignore",
        "userDefined": true
      },
      {
        "text": " in the ",
        "userDefined": false
      },
      {
        "text": "kitchen",
        "alias": "room",
        "meta": "@room",
        "userDefined": true
      }
    ],
    "isTemplate": false,
    "count": 0,
    "updated": 0
  },
  {
    "id": "e3fef0b9-ec99-42e9-acf2-c260676dbdb8",
    "data": [
      {
        "text": "it\u0027s too hot in here",
        "userDefined": false
      }
    ],
    "isTemplate": false,
    "count": 0,
    "updated": 0
  },
  {
    "id": "115a64b7-4823-431c-a800-6574aaf7abe1",
    "data": [
      {
        "text": "I\u0027m feeling hot",
        "userDefined": false
      }
    ],
    "isTemplate": false,
    "count": 0,
    "updated": 0
  }
]