{
  "id": "374ad1f7-1632-4ba2-a79e-76d98829e842",
  "name": "smarthome.device.switch.check.on - context:check - comment:check if device is on",
  "auto": true,
  "contexts": [
    "check"
  ],
  "responses": [
    {
      "resetContexts": false,
      "action": "smarthome.device.switch.check.on",
      "affectedContexts": [],
      "parameters": [],
      "messages": [
        {
          "type": 0,
          "lang": "en",
          "condition": "",
          "speech": []
        }
      ],
      "defaultResponsePlatforms": {},
      "speech": []
    }
  ],
  "priority": 500000,
  "webhookUsed": false,
  "webhookForSlotFilling": false,
  "fallbackIntent": false,
  "events": [],
  "conditionalResponses": [],
  "condition": "",
  "conditionalFollowupEvents": []
}