[
  {
    "id": "e8e4bcd7-a73d-4df3-9e96-2b52b80399da",
    "data": [
      {
        "text": "set hue to ",
        "userDefined": false
      },
      {
        "text": "green",
        "alias": "color",
        "meta": "@color",
        "userDefined": false
      }
    ],
    "isTemplate": false,
    "count": 0,
    "updated": 0
  },
  {
    "id": "5caf6b73-4f5f-467e-9c68-23e1347f8aaf",
    "data": [
      {
        "text": "set hue in ",
        "userDefined": false
      },
      {
        "text": "all",
        "alias": "all",
        "meta": "@all",
        "userDefined": true
      },
      {
        "text": " rooms",
        "userDefined": false
      }
    ],
    "isTemplate": false,
    "count": 0,
    "updated": 0
  },
  {
    "id": "5279f1ae-5c6d-4aeb-b18a-48314ce24aae",
    "data": [
      {
        "text": "set hue to ",
        "userDefined": false
      },
      {
        "text": "50",
        "alias": "final-value",
        "meta": "@sys.number",
        "userDefined": true
      },
      {
        "text": " points",
        "userDefined": false
      }
    ],
    "isTemplate": false,
    "count": 0,
    "updated": 0
  },
  {
    "id": "ee423302-f588-4c2f-8733-a66509957c5b",
    "data": [
      {
        "text": "set hue",
        "userDefined": false
      }
    ],
    "isTemplate": false,
    "count": 0,
    "updated": 0
  },
  {
    "id": "e47762ba-11d1-4ff1-89d5-a180433bf779",
    "data": [
      {
        "text": "red",
        "alias": "color",
        "meta": "@color",
        "userDefined": true
      },
      {
        "text": " hue",
        "userDefined": false
      }
    ],
    "isTemplate": false,
    "count": 0,
    "updated": 0
  },
  {
    "id": "83dbf6e3-731d-4321-859f-2c240c980647",
    "data": [
      {
        "text": "set hue in the ",
        "userDefined": false
      },
      {
        "text": "kitchen",
        "alias": "room",
        "meta": "@room",
        "userDefined": true
      }
    ],
    "isTemplate": false,
    "count": 0,
    "updated": 0
  },
  {
    "id": "7c1b3ea5-9fba-416c-815a-6b7bc8eb1811",
    "data": [
      {
        "text": "set ",
        "userDefined": false
      },
      {
        "text": "red",
        "alias": "color",
        "meta": "@color",
        "userDefined": true
      },
      {
        "text": " hue",
        "userDefined": false
      }
    ],
    "isTemplate": false,
    "count": 0,
    "updated": 0
  },
  {
    "id": "6a907a69-cb2c-4d46-992b-e5ea6d61a43a",
    "data": [
      {
        "text": "set hue ",
        "userDefined": false
      },
      {
        "text": "everywhere",
        "alias": "all",
        "meta": "@all",
        "userDefined": true
      }
    ],
    "isTemplate": false,
    "count": 0,
    "updated": 0
  },
  {
    "id": "6bfc04cc-e75f-403b-8f1e-d784cac76a60",
    "data": [
      {
        "text": "kitchen",
        "alias": "room",
        "meta": "@room",
        "userDefined": true
      },
      {
        "text": " hue",
        "userDefined": false
      }
    ],
    "isTemplate": false,
    "count": 1,
    "updated": 0
  },
  {
    "id": "5e2c0913-9b3f-44f9-ac1c-a7c96866476f",
    "data": [
      {
        "text": "set ",
        "userDefined": false
      },
      {
        "text": "kitchen",
        "alias": "room",
        "meta": "@room",
        "userDefined": true
      },
      {
        "text": " hue",
        "userDefined": false
      }
    ],
    "isTemplate": false,
    "count": 0,
    "updated": 0
  },
  {
    "id": "a99a8b84-a232-40ee-ab6b-64b986e0ce47",
    "data": [
      {
        "text": "hue till ",
        "userDefined": false
      },
      {
        "text": "23",
        "alias": "final-value",
        "meta": "@sys.number",
        "userDefined": true
      }
    ],
    "isTemplate": false,
    "count": 0,
    "updated": 0
  },
  {
    "id": "82fbda90-195b-4747-bd1b-f85892b2bd77",
    "data": [
      {
        "text": "set ",
        "userDefined": false
      },
      {
        "text": "lights",
        "alias": "device",
        "meta": "@lights",
        "userDefined": false
      },
      {
        "text": " hue ",
        "userDefined": false
      },
      {
        "text": "everywhere",
        "alias": "all",
        "meta": "@all",
        "userDefined": false
      }
    ],
    "isTemplate": false,
    "count": 0,
    "updated": 0
  },
  {
    "id": "1bbc917a-0334-4011-9ad8-da1c878b89b1",
    "data": [
      {
        "text": "set hue for ",
        "userDefined": false
      },
      {
        "text": "lights",
        "alias": "device",
        "meta": "@lights",
        "userDefined": true
      }
    ],
    "isTemplate": false,
    "count": 0,
    "updated": 0
  },
  {
    "id": "0f901c9d-f7a1-4211-9312-2951ca093464",
    "data": [
      {
        "text": "turn ",
        "userDefined": false
      },
      {
        "text": "on",
        "meta": "@sys.ignore",
        "userDefined": true
      },
      {
        "text": " hue till ",
        "userDefined": false
      },
      {
        "text": "10",
        "alias": "final-value",
        "meta": "@sys.number",
        "userDefined": false
      },
      {
        "text": " points",
        "userDefined": false
      }
    ],
    "isTemplate": false,
    "count": 0,
    "updated": 0
  },
  {
    "id": "71785b7a-a700-4e8c-9b59-9956228622c9",
    "data": [
      {
        "text": "hue",
        "userDefined": false
      }
    ],
    "isTemplate": false,
    "count": 0,
    "updated": 0
  },
  {
    "id": "ec2d9674-be37-4f8f-9c7a-ab0971eb3b42",
    "data": [
      {
        "text": "set ",
        "userDefined": false
      },
      {
        "text": "lights",
        "alias": "device",
        "meta": "@lights",
        "userDefined": true
      },
      {
        "text": " hue",
        "userDefined": false
      }
    ],
    "isTemplate": false,
    "count": 0,
    "updated": 0
  }
]