{
  "id": "c8f66009-65b3-410c-8e56-b44c9f58dd92",
  "name": "smarthome.device.switch.on",
  "auto": true,
  "contexts": [],
  "responses": [
    {
      "resetContexts": false,
      "action": "smarthome.device.switch.on",
      "affectedContexts": [
        {
          "name": "device-switch",
          "parameters": {},
          "lifespan": 5
        },
        {
          "name": "room",
          "parameters": {},
          "lifespan": 3
        },
        {
          "name": "schedule",
          "parameters": {},
          "lifespan": 3
        },
        {
          "name": "check",
          "parameters": {},
          "lifespan": 3
        },
        {
          "name": "device-brightness",
          "parameters": {},
          "lifespan": 5
        }
      ],
      "parameters": [
        {
          "id": "d474699b-630e-4ff0-a1cc-c6b41d4a3d61",
          "required": false,
          "dataType": "@device",
          "name": "device",
          "value": "$device",
          "prompts": [
            {
              "lang": "en",
              "value": "Which device?"
            }
          ],
          "promptMessages": [],
          "noMatchPromptMessages": [],
          "noInputPromptMessages": [],
          "outputDialogContexts": [],
          "isList": false
        },
        {
          "id": "79557dd6-e0be-49dc-9743-8d67e740e81f",
          "required": false,
          "dataType": "@room",
          "name": "room",
          "value": "$room",
          "promptMessages": [],
          "noMatchPromptMessages": [],
          "noInputPromptMessages": [],
          "outputDialogContexts": [],
          "isList": false
        },
        {
          "id": "ff652f0c-344f-4fb9-8a23-fd9b5bdde752",
          "required": false,
          "dataType": "@all",
          "name": "all",
          "value": "$all",
          "promptMessages": [],
          "noMatchPromptMessages": [],
          "noInputPromptMessages": [],
          "outputDialogContexts": [],
          "isList": false
        }
      ],
      "messages": [
        {
          "type": 0,
          "lang": "en",
          "condition": "",
          "speech": []
        }
      ],
      "defaultResponsePlatforms": {},
      "speech": []
    }
  ],
  "priority": 500000,
  "webhookUsed": false,
  "webhookForSlotFilling": false,
  "fallbackIntent": false,
  "events": [],
  "conditionalResponses": [],
  "condition": "",
  "conditionalFollowupEvents": []
}