{
  "id": "9a9c4312-31ca-41ba-88db-c56e33b18762",
  "name": "smarthome.device.volume.up.implicit",
  "auto": true,
  "contexts": [],
  "responses": [
    {
      "resetContexts": false,
      "action": "smarthome.device.volume.up.implicit",
      "affectedContexts": [],
      "parameters": [
        {
          "id": "1119491e-5f88-46e0-a659-827399ae6cc5",
          "required": false,
          "dataType": "@device-volume",
          "name": "device-volume",
          "value": "$device-volume",
          "promptMessages": [],
          "noMatchPromptMessages": [],
          "noInputPromptMessages": [],
          "outputDialogContexts": [],
          "isList": false
        },
        {
          "id": "b0e9acd3-b79b-4e83-9c97-525bbc063910",
          "required": false,
          "dataType": "@room",
          "name": "room",
          "value": "$room",
          "promptMessages": [],
          "noMatchPromptMessages": [],
          "noInputPromptMessages": [],
          "outputDialogContexts": [],
          "isList": false
        }
      ],
      "messages": [
        {
          "type": 0,
          "lang": "en",
          "condition": "",
          "speech": []
        }
      ],
      "defaultResponsePlatforms": {},
      "speech": []
    }
  ],
  "priority": 500000,
  "webhookUsed": false,
  "webhookForSlotFilling": false,
  "fallbackIntent": false,
  "events": [],
  "conditionalResponses": [],
  "condition": "",
  "conditionalFollowupEvents": []
}