[
  {
    "id": "a3621784-a26d-42ab-b25d-1cedd567b8bb",
    "data": [
      {
        "text": "unlock ",
        "userDefined": false
      },
      {
        "text": "garage",
        "alias": "room",
        "meta": "@room",
        "userDefined": true
      }
    ],
    "isTemplate": false,
    "count": 0,
    "updated": 0
  },
  {
    "id": "3870a4aa-bb6e-4fae-b18d-3d6284a9f4a0",
    "data": [
      {
        "text": "all",
        "alias": "all",
        "meta": "@all",
        "userDefined": false
      },
      {
        "text": " ",
        "userDefined": false
      },
      {
        "text": "doors",
        "alias": "lock",
        "meta": "@lock",
        "userDefined": false
      },
      {
        "text": " should be unlocked",
        "userDefined": false
      }
    ],
    "isTemplate": false,
    "count": 0,
    "updated": 0
  },
  {
    "id": "9592dce3-0248-4684-bb86-c0d05dc615d6",
    "data": [
      {
        "text": "unlock",
        "meta": "@sys.ignore",
        "userDefined": true
      },
      {
        "text": " the ",
        "userDefined": false
      },
      {
        "text": "front door",
        "alias": "lock",
        "meta": "@lock",
        "userDefined": true
      }
    ],
    "isTemplate": false,
    "count": 0,
    "updated": 0
  },
  {
    "id": "72b8ef6e-7d5f-45ef-8dde-3de36d2fe62c",
    "data": [
      {
        "text": "unlock the ",
        "userDefined": false
      },
      {
        "text": "door",
        "alias": "lock",
        "meta": "@lock",
        "userDefined": true
      }
    ],
    "isTemplate": false,
    "count": 0,
    "updated": 0
  },
  {
    "id": "3d1149b6-1f26-4d9d-b7e8-525dcf6a5299",
    "data": [
      {
        "text": "unlock",
        "meta": "@sys.ignore",
        "userDefined": true
      },
      {
        "text": " the ",
        "userDefined": false
      },
      {
        "text": "kitchen",
        "alias": "room",
        "meta": "@room",
        "userDefined": true
      },
      {
        "text": " ",
        "userDefined": false
      },
      {
        "text": "lock",
        "alias": "lock",
        "meta": "@lock",
        "userDefined": true
      }
    ],
    "isTemplate": false,
    "count": 0,
    "updated": 0
  },
  {
    "id": "9cd7fdd5-0e9a-4c38-afac-88120ff60e7f",
    "data": [
      {
        "text": "unlock",
        "meta": "@sys.ignore",
        "userDefined": true
      },
      {
        "text": " ",
        "userDefined": false
      },
      {
        "text": "doors",
        "alias": "lock",
        "meta": "@lock",
        "userDefined": true
      },
      {
        "text": " ",
        "userDefined": false
      },
      {
        "text": "everywhere",
        "alias": "all",
        "meta": "@all",
        "userDefined": true
      }
    ],
    "isTemplate": false,
    "count": 0,
    "updated": 0
  },
  {
    "id": "711befa7-fb58-4ee6-87f6-291a55135477",
    "data": [
      {
        "text": "unlock ",
        "userDefined": false
      },
      {
        "text": "all",
        "alias": "all",
        "meta": "@all",
        "userDefined": false
      },
      {
        "text": " ",
        "userDefined": false
      },
      {
        "text": "doors",
        "alias": "lock",
        "meta": "@lock",
        "userDefined": false
      }
    ],
    "isTemplate": false,
    "count": 0,
    "updated": 0
  },
  {
    "id": "865423e6-f26d-478c-88e9-d3774020eb7c",
    "data": [
      {
        "text": "unlock the ",
        "userDefined": false
      },
      {
        "text": "window",
        "alias": "lock",
        "meta": "@lock",
        "userDefined": false
      },
      {
        "text": " in ",
        "userDefined": false
      },
      {
        "text": "kitchen",
        "alias": "room",
        "meta": "@room",
        "userDefined": false
      }
    ],
    "isTemplate": false,
    "count": 0,
    "updated": 0
  },
  {
    "id": "9bd641d0-110e-400c-83b6-e40904a163de",
    "data": [
      {
        "text": "unlock ",
        "userDefined": false
      },
      {
        "text": "all",
        "alias": "all",
        "meta": "@all",
        "userDefined": false
      },
      {
        "text": " ",
        "userDefined": false
      },
      {
        "text": "garage",
        "alias": "room",
        "meta": "@room",
        "userDefined": false
      },
      {
        "text": " ",
        "userDefined": false
      },
      {
        "text": "windows",
        "alias": "lock",
        "meta": "@lock",
        "userDefined": false
      }
    ],
    "isTemplate": false,
    "count": 0,
    "updated": 0
  },
  {
    "id": "6b56c2ad-4a32-42dd-9b51-90ea529e8724",
    "data": [
      {
        "text": "unlock ",
        "userDefined": false
      },
      {
        "text": "door",
        "alias": "lock",
        "meta": "@lock",
        "userDefined": false
      },
      {
        "text": " in the ",
        "userDefined": false
      },
      {
        "text": "kitchen",
        "alias": "room",
        "meta": "@room",
        "userDefined": false
      }
    ],
    "isTemplate": false,
    "count": 0,
    "updated": 0
  },
  {
    "id": "3654e0aa-7602-4945-933a-37f33fb55f1a",
    "data": [
      {
        "text": "unlock",
        "meta": "@sys.ignore",
        "userDefined": true
      },
      {
        "text": " ",
        "userDefined": false
      },
      {
        "text": "kitchen",
        "alias": "room",
        "meta": "@room",
        "userDefined": true
      },
      {
        "text": " ",
        "userDefined": false
      },
      {
        "text": "window",
        "alias": "lock",
        "meta": "@lock",
        "userDefined": false
      }
    ],
    "isTemplate": false,
    "count": 0,
    "updated": 0
  }
]