{
  "id": "3793f058-6247-4328-aa75-9d8e8ab933fe",
  "name": "smarthome.lights.brightness.up.implicit",
  "auto": true,
  "contexts": [],
  "responses": [
    {
      "resetContexts": false,
      "action": "smarthome.lights.brightness.up.implicit",
      "affectedContexts": [
        {
          "name": "lights-brightness",
          "parameters": {},
          "lifespan": 5
        },
        {
          "name": "room",
          "parameters": {},
          "lifespan": 3
        }
      ],
      "parameters": [
        {
          "id": "8519ba37-d11c-4a0c-ba60-eb2f267a95ad",
          "required": false,
          "dataType": "@lights",
          "name": "device",
          "value": "$device",
          "promptMessages": [],
          "noMatchPromptMessages": [],
          "noInputPromptMessages": [],
          "outputDialogContexts": [],
          "isList": false
        },
        {
          "id": "80d459e5-3c94-4f63-a43d-acbfa4750568",
          "required": false,
          "dataType": "@room",
          "name": "room",
          "value": "$room",
          "promptMessages": [],
          "noMatchPromptMessages": [],
          "noInputPromptMessages": [],
          "outputDialogContexts": [],
          "isList": false
        },
        {
          "id": "07d2b1e2-6dc9-4245-a8a0-dff287949d8a",
          "required": false,
          "dataType": "@all",
          "name": "all",
          "value": "$all",
          "promptMessages": [],
          "noMatchPromptMessages": [],
          "noInputPromptMessages": [],
          "outputDialogContexts": [],
          "isList": false
        },
        {
          "id": "8323ec26-2236-4249-a783-8222367493be",
          "required": false,
          "dataType": "@color",
          "name": "color",
          "value": "$color",
          "promptMessages": [],
          "noMatchPromptMessages": [],
          "noInputPromptMessages": [],
          "outputDialogContexts": [],
          "isList": false
        }
      ],
      "messages": [
        {
          "type": 0,
          "lang": "en",
          "condition": "",
          "speech": []
        }
      ],
      "defaultResponsePlatforms": {},
      "speech": []
    }
  ],
  "priority": 500000,
  "webhookUsed": false,
  "webhookForSlotFilling": false,
  "fallbackIntent": false,
  "events": [],
  "conditionalResponses": [],
  "condition": "",
  "conditionalFollowupEvents": []
}