{
  "id": "edc4dafe-7f99-4847-8a9d-4f303a279255",
  "name": "smarthome.heating.check",
  "auto": true,
  "contexts": [],
  "responses": [
    {
      "resetContexts": false,
      "action": "smarthome.heating.check",
      "affectedContexts": [
        {
          "name": "heating",
          "parameters": {},
          "lifespan": 5
        }
      ],
      "parameters": [
        {
          "id": "65bcd1f4-0aa6-46ef-9961-08179293b53b",
          "required": false,
          "dataType": "@heating",
          "name": "device",
          "value": "$device",
          "promptMessages": [],
          "noMatchPromptMessages": [],
          "noInputPromptMessages": [],
          "outputDialogContexts": [],
          "isList": false
        },
        {
          "id": "5b0ece22-6c75-4595-abfd-5e30f92056e2",
          "required": false,
          "dataType": "@room",
          "name": "room",
          "value": "$room",
          "promptMessages": [],
          "noMatchPromptMessages": [],
          "noInputPromptMessages": [],
          "outputDialogContexts": [],
          "isList": false
        },
        {
          "id": "7344e69e-0a5a-409f-b417-312b5bfd5fda",
          "required": false,
          "dataType": "@sys.number",
          "name": "value",
          "value": "$value",
          "promptMessages": [],
          "noMatchPromptMessages": [],
          "noInputPromptMessages": [],
          "outputDialogContexts": [],
          "isList": false
        },
        {
          "id": "6388fb58-1b71-4e05-bfda-68db03839524",
          "required": false,
          "dataType": "@all",
          "name": "all",
          "value": "$all",
          "promptMessages": [],
          "noMatchPromptMessages": [],
          "noInputPromptMessages": [],
          "outputDialogContexts": [],
          "isList": false
        }
      ],
      "messages": [
        {
          "type": 0,
          "lang": "en",
          "condition": "",
          "speech": []
        }
      ],
      "defaultResponsePlatforms": {},
      "speech": []
    }
  ],
  "priority": 500000,
  "webhookUsed": false,
  "webhookForSlotFilling": false,
  "fallbackIntent": false,
  "events": [],
  "conditionalResponses": [],
  "condition": "",
  "conditionalFollowupEvents": []
}