[
  {
    "id": "34e291ad-fd20-4fa2-9cd5-1df2d7216423",
    "data": [
      {
        "text": "и также ",
        "userDefined": false
      },
      {
        "text": "Фейсбук",
        "alias": "media",
        "meta": "@media",
        "userDefined": true
      }
    ],
    "isTemplate": false,
    "count": 0,
    "updated": 0
  },
  {
    "id": "911bfc37-2a05-443d-a2c5-a9550f52a138",
    "data": [
      {
        "text": "как насчёт ",
        "userDefined": false
      },
      {
        "text": "Твиттера",
        "alias": "media",
        "meta": "@media",
        "userDefined": true
      }
    ],
    "isTemplate": false,
    "count": 0,
    "updated": 0
  },
  {
    "id": "faea35c4-553b-469d-8b32-a83d3dd022d6",
    "data": [
      {
        "text": "твой ",
        "userDefined": false
      },
      {
        "text": "Инстаграм",
        "alias": "media",
        "meta": "@media",
        "userDefined": true
      }
    ],
    "isTemplate": false,
    "count": 0,
    "updated": 0
  },
  {
    "id": "8ee039cc-52ea-466c-b7ac-8d82dbf0ee4f",
    "data": [
      {
        "text": "твой ",
        "userDefined": false
      },
      {
        "text": "Твиттер",
        "alias": "media",
        "meta": "@media",
        "userDefined": true
      }
    ],
    "isTemplate": false,
    "count": 0,
    "updated": 0
  },
  {
    "id": "61266dd8-b5da-4a8a-b758-4ab5b4c21a6e",
    "data": [
      {
        "text": "мне нужна страница ",
        "userDefined": false
      },
      {
        "text": "Фейсбук",
        "alias": "media",
        "meta": "@media",
        "userDefined": true
      }
    ],
    "isTemplate": false,
    "count": 0,
    "updated": 0
  },
  {
    "id": "681bed32-c971-4c65-8cab-4f37698b9b5e",
    "data": [
      {
        "text": "и ",
        "userDefined": false
      },
      {
        "text": "Фейсбук",
        "alias": "media",
        "meta": "@media",
        "userDefined": true
      },
      {
        "text": " страница",
        "userDefined": false
      }
    ],
    "isTemplate": false,
    "count": 0,
    "updated": 0
  },
  {
    "id": "4782834f-4785-4d31-a7d8-554f727f0b86",
    "data": [
      {
        "text": "и ",
        "userDefined": false
      },
      {
        "text": "Инстаграм",
        "alias": "media",
        "meta": "@media",
        "userDefined": true
      }
    ],
    "isTemplate": false,
    "count": 0,
    "updated": 0
  },
  {
    "id": "fc932281-adad-4e4f-9a73-03e31273f3ca",
    "data": [
      {
        "text": "также ",
        "userDefined": false
      },
      {
        "text": "Твиттер",
        "alias": "media",
        "meta": "@media",
        "userDefined": true
      }
    ],
    "isTemplate": false,
    "count": 0,
    "updated": 0
  },
  {
    "id": "655cde75-6996-4a72-9aed-54c471d11dcf",
    "data": [
      {
        "text": "и ",
        "userDefined": false
      },
      {
        "text": "Твиттер",
        "alias": "media",
        "meta": "@media",
        "userDefined": true
      }
    ],
    "isTemplate": false,
    "count": 0,
    "updated": 0
  },
  {
    "id": "24e6b192-5c34-4f66-98f0-878f510cceed",
    "data": [
      {
        "text": "что насчёт страницы в ",
        "userDefined": false
      },
      {
        "text": "Фейсбук",
        "alias": "media",
        "meta": "@media",
        "userDefined": true
      }
    ],
    "isTemplate": false,
    "count": 0,
    "updated": 0
  },
  {
    "id": "fbe50ca3-7438-4b95-81b7-fbdf2b096a5d",
    "data": [
      {
        "text": "и ещё ",
        "userDefined": false
      },
      {
        "text": "Инстаграм",
        "alias": "media",
        "meta": "@media",
        "userDefined": true
      }
    ],
    "isTemplate": false,
    "count": 0,
    "updated": 0
  },
  {
    "id": "3a5c1ef0-b0ab-42ed-bf21-307c634c523b",
    "data": [
      {
        "text": "ещё ",
        "userDefined": false
      },
      {
        "text": "Фейсбук",
        "alias": "media",
        "meta": "@media",
        "userDefined": true
      }
    ],
    "isTemplate": false,
    "count": 0,
    "updated": 0
  },
  {
    "id": "be464823-49ef-44f5-80c6-0021fcb48914",
    "data": [
      {
        "text": "у них есть страничка в ",
        "userDefined": false
      },
      {
        "text": "Фейсбуке",
        "alias": "media",
        "meta": "@media",
        "userDefined": true
      }
    ],
    "isTemplate": false,
    "count": 0,
    "updated": 0
  },
  {
    "id": "4726810c-e197-4acd-a76b-5ae06ec485e6",
    "data": [
      {
        "text": "и страничка в ",
        "userDefined": false
      },
      {
        "text": "Фейсбук",
        "alias": "media",
        "meta": "@media",
        "userDefined": true
      }
    ],
    "isTemplate": false,
    "count": 0,
    "updated": 0
  }
]