[
  {
    "id": "135d9500-fa34-4867-88c4-9ab727ef684e",
    "data": [
      {
        "text": "fale para os seus desenvolvedores que ",
        "userDefined": false
      },
      {
        "text": "eu amo você",
        "alias": "message",
        "meta": "@sys.any",
        "userDefined": true
      }
    ],
    "isTemplate": false,
    "count": 0,
    "updated": 0
  },
  {
    "id": "2f29d4a2-c41a-4184-bb5f-f4a1ed8d28f5",
    "data": [
      {
        "text": "diga aos seus desenvolvedores que ",
        "userDefined": false
      },
      {
        "text": "eu odeio você",
        "alias": "message",
        "meta": "@sys.any",
        "userDefined": true
      }
    ],
    "isTemplate": false,
    "count": 0,
    "updated": 0
  },
  {
    "id": "1d79be7e-c4b0-48aa-88b9-fceb8a62a4aa",
    "data": [
      {
        "text": "envie uma mensagem para seus criadores ",
        "userDefined": false
      },
      {
        "text": "o app é incrível",
        "alias": "message",
        "meta": "@sys.any",
        "userDefined": true
      }
    ],
    "isTemplate": false,
    "count": 0,
    "updated": 0
  },
  {
    "id": "aef9cb1d-d9bf-4cea-b6db-cbcba9ebe3d5",
    "data": [
      {
        "text": "diga aos seus desenvolvedores que ",
        "userDefined": false
      },
      {
        "text": "eu amo você",
        "alias": "message",
        "meta": "@sys.any",
        "userDefined": true
      }
    ],
    "isTemplate": false,
    "count": 0,
    "updated": 0
  },
  {
    "id": "995d60f9-895c-4e1f-8e26-e1371ba4543a",
    "data": [
      {
        "text": "eu amo você",
        "alias": "message",
        "meta": "@sys.any",
        "userDefined": true
      },
      {
        "text": " diga isso aos seus desenvolvedores",
        "userDefined": false
      }
    ],
    "isTemplate": false,
    "count": 0,
    "updated": 0
  },
  {
    "id": "fe35a146-a470-4b38-bfc0-53c559e56c38",
    "data": [
      {
        "text": "diga ao seus desenvolvedores que ",
        "userDefined": false
      },
      {
        "text": "eu amo você",
        "alias": "message",
        "meta": "@sys.any",
        "userDefined": true
      }
    ],
    "isTemplate": false,
    "count": 0,
    "updated": 0
  },
  {
    "id": "ad0afae1-e0ea-46ea-9a59-5ffc06307dbb",
    "data": [
      {
        "text": "diga aos seus desenvolvedores que ",
        "userDefined": false
      },
      {
        "text": "você é igual à minha mãe",
        "alias": "message",
        "meta": "@sys.any",
        "userDefined": true
      }
    ],
    "isTemplate": false,
    "count": 0,
    "updated": 0
  },
  {
    "id": "0a6f7853-c4ea-44d3-89c2-72e5c4cc54a2",
    "data": [
      {
        "text": "diga aos seus desenvolvedores que ",
        "userDefined": false
      },
      {
        "text": "eu gosto de você",
        "alias": "message",
        "meta": "@sys.any",
        "userDefined": true
      }
    ],
    "isTemplate": false,
    "count": 0,
    "updated": 0
  },
  {
    "id": "244258b9-0e22-4eec-bfe8-50068a547459",
    "data": [
      {
        "text": "diga aos seus desenvolvedores que ",
        "userDefined": false
      },
      {
        "text": "não estão satisfeito",
        "alias": "message",
        "meta": "@sys.any",
        "userDefined": true
      }
    ],
    "isTemplate": false,
    "count": 0,
    "updated": 0
  },
  {
    "id": "d6397e42-9160-40be-be63-80caca6d4d77",
    "data": [
      {
        "text": "diga aos seus criadores que ",
        "userDefined": false
      },
      {
        "text": "quero um reembolso",
        "alias": "message",
        "meta": "@sys.any",
        "userDefined": true
      }
    ],
    "isTemplate": false,
    "count": 0,
    "updated": 0
  },
  {
    "id": "d0466a94-a94a-42e9-ae77-5d1465b8bf35",
    "data": [
      {
        "text": "quero que você diga aos seus desenvolvedores que ",
        "userDefined": false
      },
      {
        "text": "eu gosto de você",
        "alias": "message",
        "meta": "@sys.any",
        "userDefined": true
      }
    ],
    "isTemplate": false,
    "count": 0,
    "updated": 0
  }
]