[
  {
    "id": "be569891-b1db-4cfb-9efa-4c4372d9ec9c",
    "data": [
      {
        "text": "報告錯誤：",
        "userDefined": false
      },
      {
        "text": "無法正常運行！",
        "alias": "message",
        "meta": "@sys.any",
        "userDefined": true
      }
    ],
    "isTemplate": false,
    "count": 1,
    "updated": 0
  },
  {
    "id": "609709a2-5cad-47f3-ac47-e59e7d18afbe",
    "data": [
      {
        "text": "向你的創建者發送錯誤報告",
        "userDefined": false
      }
    ],
    "isTemplate": false,
    "count": 0,
    "updated": 0
  },
  {
    "id": "8d96e2c7-2f48-479b-bd4f-cdb7d9682b54",
    "data": [
      {
        "text": "向開發人員報告錯誤",
        "userDefined": false
      }
    ],
    "isTemplate": false,
    "count": 0,
    "updated": 0
  },
  {
    "id": "2d8fb2f4-ede7-48d6-b14b-9fb07935e71e",
    "data": [
      {
        "text": "我需要報告一下我發現的問題",
        "userDefined": false
      }
    ],
    "isTemplate": false,
    "count": 0,
    "updated": 0
  },
  {
    "id": "1d94bf82-abc7-44ec-8a66-c71f6a2f2bae",
    "data": [
      {
        "text": "向你的開發人員發送錯誤報告",
        "userDefined": false
      },
      {
        "text": "語音激活不起作用",
        "alias": "message",
        "meta": "@sys.any",
        "userDefined": true
      }
    ],
    "isTemplate": false,
    "count": 0,
    "updated": 0
  },
  {
    "id": "f8987fae-8675-4101-8969-ba950f428856",
    "data": [
      {
        "text": "你有臭蟲",
        "userDefined": false
      }
    ],
    "isTemplate": false,
    "count": 0,
    "updated": 0
  },
  {
    "id": "83594604-2e34-4b8f-8d2c-dc3ff9c6441d",
    "data": [
      {
        "text": "發送有關你的問題的報告",
        "userDefined": false
      }
    ],
    "isTemplate": false,
    "count": 0,
    "updated": 0
  },
  {
    "id": "2e5f1922-3dc5-402c-abc2-5799927bcbc9",
    "data": [
      {
        "text": "報告",
        "userDefined": false
      },
      {
        "text": "我有問題",
        "alias": "message",
        "meta": "@sys.any",
        "userDefined": true
      }
    ],
    "isTemplate": false,
    "count": 0,
    "updated": 0
  },
  {
    "id": "0b273450-a10c-435b-b94e-cacecf5ae05e",
    "data": [
      {
        "text": "你理解了我的問題沒有",
        "userDefined": false
      }
    ],
    "isTemplate": false,
    "count": 0,
    "updated": 0
  },
  {
    "id": "06337161-f44d-4f35-9fff-ad3ef4c69f32",
    "data": [
      {
        "text": "我發現了錯誤",
        "userDefined": false
      }
    ],
    "isTemplate": false,
    "count": 0,
    "updated": 0
  },
  {
    "id": "6df26a29-432c-403f-a00c-de07203d278d",
    "data": [
      {
        "text": "告訴你的開發者他們應該修複錯誤",
        "userDefined": false
      }
    ],
    "isTemplate": false,
    "count": 0,
    "updated": 0
  },
  {
    "id": "79ea922d-4291-48da-850d-5d3885b87c9a",
    "data": [
      {
        "text": "有了一個臭蟲",
        "userDefined": false
      }
    ],
    "isTemplate": false,
    "count": 0,
    "updated": 0
  },
  {
    "id": "aac23371-cd12-492e-9fc6-a2d213c8299c",
    "data": [
      {
        "text": "將錯誤信息發送給開發人員",
        "userDefined": false
      }
    ],
    "isTemplate": false,
    "count": 0,
    "updated": 0
  },
  {
    "id": "fa60a797-361a-46dd-b167-2a1272affc2b",
    "data": [
      {
        "text": "告訴你的開發者他們應該解決這個問題",
        "userDefined": false
      }
    ],
    "isTemplate": false,
    "count": 0,
    "updated": 0
  },
  {
    "id": "3818bbd8-5485-4b28-afce-8de9b8508136",
    "data": [
      {
        "text": "報告錯誤",
        "userDefined": false
      }
    ],
    "isTemplate": false,
    "count": 1,
    "updated": 0
  },
  {
    "id": "274e733e-ed00-4be1-8c1b-7523ead87315",
    "data": [
      {
        "text": "我需要報告一個錯誤",
        "userDefined": false
      }
    ],
    "isTemplate": false,
    "count": 0,
    "updated": 0
  },
  {
    "id": "3dbbca46-a374-42e5-806d-1cd0b3b2e67d",
    "data": [
      {
        "text": "告訴你的開發者他們應該修複你",
        "userDefined": false
      }
    ],
    "isTemplate": false,
    "count": 0,
    "updated": 0
  },
  {
    "id": "13e49e7c-8c29-4579-858b-faaf7cbf7e97",
    "data": [
      {
        "text": "你能幫我解決問題嗎",
        "userDefined": false
      }
    ],
    "isTemplate": false,
    "count": 0,
    "updated": 0
  },
  {
    "id": "18914351-3d38-4b09-9f05-227add496082",
    "data": [
      {
        "text": "向你的開發人員發送問題報告",
        "userDefined": false
      }
    ],
    "isTemplate": false,
    "count": 0,
    "updated": 0
  },
  {
    "id": "137a935c-377a-4dc5-8373-550767e8af79",
    "data": [
      {
        "text": "發送錯誤報告",
        "userDefined": false
      }
    ],
    "isTemplate": false,
    "count": 0,
    "updated": 0
  },
  {
    "id": "cc168507-f88d-4619-99bd-6411d464f871",
    "data": [
      {
        "text": "我想向你的開發人員顯示錯誤",
        "userDefined": false
      }
    ],
    "isTemplate": false,
    "count": 0,
    "updated": 0
  },
  {
    "id": "3de278e5-b0ab-46c0-b81b-9f0bf958f88e",
    "data": [
      {
        "text": "告訴你的開發員",
        "userDefined": false
      },
      {
        "text": "我有麥克風的問題",
        "alias": "message",
        "meta": "@sys.any",
        "userDefined": true
      }
    ],
    "isTemplate": false,
    "count": 0,
    "updated": 0
  },
  {
    "id": "a4390e42-ea11-457f-9868-2a633f5d03cb",
    "data": [
      {
        "text": "我有",
        "userDefined": false
      },
      {
        "text": "麥克風",
        "alias": "message",
        "meta": "@sys.any",
        "userDefined": true
      },
      {
        "text": "的問題",
        "userDefined": false
      }
    ],
    "isTemplate": false,
    "count": 0,
    "updated": 0
  },
  {
    "id": "dacdc124-54e8-495e-b462-4e322287ea71",
    "data": [
      {
        "text": "告訴開發人員我有了關錯誤",
        "userDefined": false
      }
    ],
    "isTemplate": false,
    "count": 0,
    "updated": 0
  },
  {
    "id": "bddf00c9-c042-401c-b29f-316a2b961de2",
    "data": [
      {
        "text": "向開發人員發送問題報告",
        "userDefined": false
      }
    ],
    "isTemplate": false,
    "count": 0,
    "updated": 0
  },
  {
    "id": "eee0a9de-fc7c-43bd-bf48-8e76d8aff820",
    "data": [
      {
        "text": "告訴你的開發者有個臭蟲",
        "userDefined": false
      }
    ],
    "isTemplate": false,
    "count": 0,
    "updated": 0
  },
  {
    "id": "8dbaf680-cdd7-4b62-8733-2281d01f057c",
    "data": [
      {
        "text": "我需要報告你的錯誤",
        "userDefined": false
      }
    ],
    "isTemplate": false,
    "count": 0,
    "updated": 0
  },
  {
    "id": "30a0dbc6-76eb-47dc-8e64-95f258274663",
    "data": [
      {
        "text": "你犯了很多錯誤",
        "userDefined": false
      }
    ],
    "isTemplate": false,
    "count": 0,
    "updated": 0
  },
  {
    "id": "10cdf14c-f952-4590-aa6d-0985702838b8",
    "data": [
      {
        "text": "我有關于你的問題",
        "userDefined": false
      }
    ],
    "isTemplate": false,
    "count": 0,
    "updated": 0
  }
]