{
  "id": "36d1d8fc-51c9-48ca-93a4-9fed4c838ac8",
  "name": "support.about.app_name",
  "auto": true,
  "contexts": [],
  "responses": [
    {
      "resetContexts": false,
      "action": "support.about.app_name",
      "affectedContexts": [],
      "parameters": [],
      "messages": [
        {
          "type": 0,
          "lang": "es",
          "condition": "",
          "speech": []
        },
        {
          "type": 0,
          "lang": "zh-cn",
          "condition": "",
          "speech": []
        },
        {
          "type": 0,
          "lang": "fr",
          "condition": "",
          "speech": []
        },
        {
          "type": 0,
          "lang": "it",
          "condition": "",
          "speech": []
        },
        {
          "type": 0,
          "lang": "en",
          "condition": "",
          "speech": []
        },
        {
          "type": 0,
          "lang": "ja",
          "condition": "",
          "speech": []
        },
        {
          "type": 0,
          "lang": "pt-br",
          "condition": "",
          "speech": []
        },
        {
          "type": 0,
          "lang": "zh-tw",
          "condition": "",
          "speech": []
        },
        {
          "type": 0,
          "lang": "zh-hk",
          "condition": "",
          "speech": []
        },
        {
          "type": 0,
          "lang": "pt",
          "condition": "",
          "speech": []
        },
        {
          "type": 0,
          "lang": "ru",
          "condition": "",
          "speech": []
        },
        {
          "type": 0,
          "lang": "de",
          "condition": "",
          "speech": []
        }
      ],
      "defaultResponsePlatforms": {},
      "speech": []
    }
  ],
  "priority": 500000,
  "webhookUsed": false,
  "webhookForSlotFilling": false,
  "fallbackIntent": false,
  "events": [],
  "conditionalResponses": [],
  "condition": "",
  "conditionalFollowupEvents": []
}