[
  {
    "id": "e764247f-c52f-4d62-9791-f2f5c5ad3b83",
    "data": [
      {
        "text": "je t\u0027aime bien",
        "alias": "message",
        "meta": "@sys.any",
        "userDefined": true
      },
      {
        "text": " dis ça à tes créateurs",
        "userDefined": false
      }
    ],
    "isTemplate": false,
    "count": 0,
    "updated": 0
  },
  {
    "id": "120e6b45-3144-49aa-8c99-5663642bd243",
    "data": [
      {
        "text": "je voudrais dire à tes développeurs que ",
        "userDefined": false
      },
      {
        "text": "j\u0027adore leur application",
        "alias": "message",
        "meta": "@sys.any",
        "userDefined": true
      }
    ],
    "isTemplate": false,
    "count": 0,
    "updated": 0
  },
  {
    "id": "538053b6-d331-4ad3-9764-c8d7712f9710",
    "data": [
      {
        "text": "envoie ",
        "userDefined": false
      },
      {
        "text": "un",
        "meta": "@sys.ignore",
        "userDefined": false
      },
      {
        "text": " message à tes concepteurs",
        "userDefined": false
      }
    ],
    "isTemplate": false,
    "count": 0,
    "updated": 0
  },
  {
    "id": "ce7cb549-b62c-43e0-915e-f345879e16ca",
    "data": [
      {
        "text": "pourrais-tu passer ",
        "userDefined": false
      },
      {
        "text": "un",
        "meta": "@sys.ignore",
        "userDefined": false
      },
      {
        "text": " message à tes créateurs",
        "userDefined": false
      }
    ],
    "isTemplate": false,
    "count": 0,
    "updated": 0
  },
  {
    "id": "0c5672f4-00a6-4cf6-a78e-ec521007d51b",
    "data": [
      {
        "text": "je voudrais dire à tes créateurs que ",
        "userDefined": false
      },
      {
        "text": "ton application est très bien",
        "alias": "message",
        "meta": "@sys.any",
        "userDefined": true
      }
    ],
    "isTemplate": false,
    "count": 0,
    "updated": 0
  },
  {
    "id": "c2311980-552f-4244-8d4e-6b7c88ae3f25",
    "data": [
      {
        "text": "je veux partager ",
        "userDefined": false
      },
      {
        "text": "mon",
        "meta": "@sys.ignore",
        "userDefined": false
      },
      {
        "text": " avis avec tes créateurs",
        "userDefined": false
      }
    ],
    "isTemplate": false,
    "count": 0,
    "updated": 0
  },
  {
    "id": "d21694ac-985f-4351-a55a-85364ffa9631",
    "data": [
      {
        "text": "j\u0027ai ",
        "userDefined": false
      },
      {
        "text": "un",
        "meta": "@sys.ignore",
        "userDefined": false
      },
      {
        "text": " message pour tes développeurs",
        "userDefined": false
      }
    ],
    "isTemplate": false,
    "count": 0,
    "updated": 0
  },
  {
    "id": "c3751e8e-4058-46f5-b7f6-12fd8a1a9a7a",
    "data": [
      {
        "text": "envoie ",
        "userDefined": false
      },
      {
        "text": "un",
        "meta": "@sys.ignore",
        "userDefined": false
      },
      {
        "text": " message pour tes développeurs",
        "userDefined": false
      }
    ],
    "isTemplate": false,
    "count": 0,
    "updated": 0
  },
  {
    "id": "66fefe07-d5b0-4fa2-a9e4-46624ac85045",
    "data": [
      {
        "text": "pourras-tu dire à tes concepteurs ",
        "userDefined": false
      },
      {
        "text": "vous avez fait une super appli",
        "alias": "message",
        "meta": "@sys.any",
        "userDefined": true
      }
    ],
    "isTemplate": false,
    "count": 0,
    "updated": 0
  },
  {
    "id": "52222536-c4a0-4ae1-b3f6-53ecb44b805e",
    "data": [
      {
        "text": "je voudrais passer ",
        "userDefined": false
      },
      {
        "text": "un",
        "meta": "@sys.ignore",
        "userDefined": false
      },
      {
        "text": " message à tes créateurs",
        "userDefined": false
      }
    ],
    "isTemplate": false,
    "count": 0,
    "updated": 0
  },
  {
    "id": "c5c060c4-a553-4cbc-898e-b9516248b283",
    "data": [
      {
        "text": "dis",
        "meta": "@sys.ignore",
        "userDefined": false
      },
      {
        "text": " à tes développeurs que ",
        "userDefined": false
      },
      {
        "text": "je t\u0027aime",
        "alias": "message",
        "meta": "@sys.any",
        "userDefined": true
      }
    ],
    "isTemplate": false,
    "count": 0,
    "updated": 0
  },
  {
    "id": "cc7c536e-04c5-4f02-a06b-4adb8cdcda3f",
    "data": [
      {
        "text": "dis à tes créateurs que ",
        "userDefined": false
      },
      {
        "text": "je t\u0027aime",
        "alias": "message",
        "meta": "@sys.any",
        "userDefined": true
      }
    ],
    "isTemplate": false,
    "count": 0,
    "updated": 0
  }
]