[
  {
    "id": "f64045f6-5173-42ea-ac95-3057b9a3aa4c",
    "data": [
      {
        "text": "quero falar com seu criador",
        "userDefined": false
      }
    ],
    "isTemplate": false,
    "count": 0,
    "updated": 0
  },
  {
    "id": "9d995a80-b51a-4c9d-89b7-22e4a06c1aaa",
    "data": [
      {
        "text": "encontre os contatos dos seus criadores",
        "userDefined": false
      }
    ],
    "isTemplate": false,
    "count": 0,
    "updated": 0
  },
  {
    "id": "fae949da-4998-4c46-b50c-c0df5f3d4abd",
    "data": [
      {
        "text": "como faço para falar com seus desenvolvedores",
        "userDefined": false
      }
    ],
    "isTemplate": false,
    "count": 1,
    "updated": 0
  },
  {
    "id": "dba40da1-b86a-400a-957f-f0f3cb652a8f",
    "data": [
      {
        "text": "entre em contato com seus criadores",
        "userDefined": false
      }
    ],
    "isTemplate": false,
    "count": 0,
    "updated": 0
  },
  {
    "id": "7a23796e-7868-4539-ae03-05623c812d93",
    "data": [
      {
        "text": "quais são suas informações de contato",
        "userDefined": false
      }
    ],
    "isTemplate": false,
    "count": 1,
    "updated": 0
  },
  {
    "id": "9c30ea8f-fa39-4fd9-a703-783c9263e02e",
    "data": [
      {
        "text": "me passe os contatos dos seus desenvolvedores",
        "userDefined": false
      }
    ],
    "isTemplate": false,
    "count": 0,
    "updated": 0
  },
  {
    "id": "9bf3aa31-4973-41a8-aae8-0ca5c28cad56",
    "data": [
      {
        "text": "informações de contato dos seus desenvolvedores",
        "userDefined": false
      }
    ],
    "isTemplate": false,
    "count": 0,
    "updated": 0
  },
  {
    "id": "49d18d58-a935-40ac-8998-a44f767b7126",
    "data": [
      {
        "text": "entre em contato com seus desenvolvedores",
        "userDefined": false
      }
    ],
    "isTemplate": false,
    "count": 0,
    "updated": 0
  }
]