[
  {
    "id": "53f9589e-a6ce-4b72-9489-ab4ee1e705c6",
    "data": [
      {
        "text": "測試版本",
        "userDefined": false
      }
    ],
    "isTemplate": false,
    "count": 0,
    "updated": 0
  },
  {
    "id": "2f0b4286-539c-496c-94be-e9fb67c37c7b",
    "data": [
      {
        "text": "你有沒有測試版",
        "userDefined": false
      }
    ],
    "isTemplate": false,
    "count": 0,
    "updated": 0
  },
  {
    "id": "f52c9412-35ff-4883-ba94-53eb989f55e6",
    "data": [
      {
        "text": "我想成爲您的測試人員",
        "userDefined": false
      }
    ],
    "isTemplate": false,
    "count": 0,
    "updated": 0
  },
  {
    "id": "7f004e05-3a92-404c-9dc3-8d58a21c044b",
    "data": [
      {
        "text": "你有測試版嗎",
        "userDefined": false
      }
    ],
    "isTemplate": false,
    "count": 0,
    "updated": 0
  },
  {
    "id": "0384ce68-2627-4af5-9799-8517c75e5246",
    "data": [
      {
        "text": "你有這測試版嗎",
        "userDefined": false
      }
    ],
    "isTemplate": false,
    "count": 0,
    "updated": 0
  },
  {
    "id": "56d0775e-1300-4edc-8f67-8a4567f9b763",
    "data": [
      {
        "text": "如何下載你的測試版",
        "userDefined": false
      }
    ],
    "isTemplate": false,
    "count": 0,
    "updated": 0
  },
  {
    "id": "e1258ea6-d754-457e-85d1-ec07c74aaec0",
    "data": [
      {
        "text": "搜索您的測試版本",
        "userDefined": false
      }
    ],
    "isTemplate": false,
    "count": 0,
    "updated": 0
  },
  {
    "id": "4be6190b-50a1-4419-b671-938d216a9f76",
    "data": [
      {
        "text": "我想測試你的測試版本",
        "userDefined": false
      }
    ],
    "isTemplate": false,
    "count": 0,
    "updated": 0
  },
  {
    "id": "ad124c62-ea2f-4f56-92ce-8361f28ff930",
    "data": [
      {
        "text": "參加你的測試版",
        "userDefined": false
      }
    ],
    "isTemplate": false,
    "count": 0,
    "updated": 0
  },
  {
    "id": "2f612404-72c3-40d3-96dc-0e05deee2d0e",
    "data": [
      {
        "text": "我想參加你的測試版",
        "userDefined": false
      }
    ],
    "isTemplate": false,
    "count": 0,
    "updated": 0
  },
  {
    "id": "a5028d2f-8953-4e32-99ff-96b222df7e4d",
    "data": [
      {
        "text": "你的測試版本",
        "userDefined": false
      }
    ],
    "isTemplate": false,
    "count": 0,
    "updated": 0
  },
  {
    "id": "76b8d072-e2b6-4d4c-a66b-fe6dc4fc5160",
    "data": [
      {
        "text": "我想加入 Beta 版測試組",
        "userDefined": false
      }
    ],
    "isTemplate": false,
    "count": 1,
    "updated": 0
  },
  {
    "id": "0da0e219-f679-471e-a553-c57c673b5902",
    "data": [
      {
        "text": "你有測試版本嗎",
        "userDefined": false
      }
    ],
    "isTemplate": false,
    "count": 0,
    "updated": 0
  },
  {
    "id": "fc29a19f-7e5c-43e9-a4a0-27c4775a9d59",
    "data": [
      {
        "text": "下載捏的測試版",
        "userDefined": false
      }
    ],
    "isTemplate": false,
    "count": 0,
    "updated": 0
  },
  {
    "id": "42446fc3-95fe-49c7-be8f-8adc0b83a0ae",
    "data": [
      {
        "text": "關于測試版",
        "userDefined": false
      }
    ],
    "isTemplate": false,
    "count": 0,
    "updated": 0
  },
  {
    "id": "bef66617-1126-4811-887f-97e6fd17670a",
    "data": [
      {
        "text": "顯示您的測試版本",
        "userDefined": false
      }
    ],
    "isTemplate": false,
    "count": 0,
    "updated": 0
  },
  {
    "id": "2afabe05-0c0e-4c8f-9412-dc528e582fea",
    "data": [
      {
        "text": "測試版本的應用程序",
        "userDefined": false
      }
    ],
    "isTemplate": false,
    "count": 0,
    "updated": 0
  },
  {
    "id": "31f99c2a-f4b4-40b4-a2e5-2f05f3f1dccb",
    "data": [
      {
        "text": "你的測試版",
        "userDefined": false
      }
    ],
    "isTemplate": false,
    "count": 0,
    "updated": 0
  },
  {
    "id": "1e1ade70-ca3a-47f9-af82-3f74bbc02952",
    "data": [
      {
        "text": "你的測試版在哪裏",
        "userDefined": false
      }
    ],
    "isTemplate": false,
    "count": 0,
    "updated": 0
  },
  {
    "id": "ec3ffe94-98d5-4d1b-8108-4b1fafbd9a75",
    "data": [
      {
        "text": "搜索你的測試版",
        "userDefined": false
      }
    ],
    "isTemplate": false,
    "count": 0,
    "updated": 0
  },
  {
    "id": "f8356ce8-64f5-4d53-99f5-24b7677801e1",
    "data": [
      {
        "text": "顯示你的測試版",
        "userDefined": false
      }
    ],
    "isTemplate": false,
    "count": 0,
    "updated": 0
  },
  {
    "id": "4985bd7e-afc7-464a-8394-f143ac6eb45f",
    "data": [
      {
        "text": "在哪裏可以找到你的測試版本",
        "userDefined": false
      }
    ],
    "isTemplate": false,
    "count": 0,
    "updated": 0
  }
]