[
  {
    "id": "dc3f9d55-553e-4dc8-a889-c07980b3d1ab",
    "data": [
      {
        "text": "ora la mail",
        "userDefined": false
      }
    ],
    "isTemplate": false,
    "count": 0,
    "updated": 0
  },
  {
    "id": "e9aa9f78-6662-4f9f-aee6-28c2389e3dd8",
    "data": [
      {
        "text": "sai anche l\u0027indirizzo email",
        "userDefined": false
      }
    ],
    "isTemplate": false,
    "count": 0,
    "updated": 0
  },
  {
    "id": "430de968-e1ab-44fd-9efa-f06e3dc59493",
    "data": [
      {
        "text": "ora la loro email",
        "userDefined": false
      }
    ],
    "isTemplate": false,
    "count": 0,
    "updated": 0
  },
  {
    "id": "151e9514-a914-4478-b661-ba768c5e8511",
    "data": [
      {
        "text": "posso scrivere anche una mail",
        "userDefined": false
      }
    ],
    "isTemplate": false,
    "count": 0,
    "updated": 0
  },
  {
    "id": "48ddad20-7a17-4043-9bee-254e9cf7d29e",
    "data": [
      {
        "text": "posso contattarli anche via mail",
        "userDefined": false
      }
    ],
    "isTemplate": false,
    "count": 0,
    "updated": 0
  },
  {
    "id": "c9de14a7-0066-4f6f-9b39-0bc513fecafa",
    "data": [
      {
        "text": "ora mail",
        "userDefined": false
      }
    ],
    "isTemplate": false,
    "count": 0,
    "updated": 0
  },
  {
    "id": "4c842820-74c3-45d5-ba73-7edb11236999",
    "data": [
      {
        "text": "ora la loro mail",
        "userDefined": false
      }
    ],
    "isTemplate": false,
    "count": 0,
    "updated": 0
  },
  {
    "id": "c89da023-0530-4031-9655-e536fb2101f2",
    "data": [
      {
        "text": "ho bisogno anche della mail",
        "userDefined": false
      }
    ],
    "isTemplate": false,
    "count": 0,
    "updated": 0
  }
]