[
  {
    "id": "0cd346f4-c6ef-4264-a1ce-353ccfef20ff",
    "data": [
      {
        "text": "comunicar erro ",
        "userDefined": false
      },
      {
        "text": "não funciona como suposto",
        "alias": "message",
        "meta": "@sys.any",
        "userDefined": true
      }
    ],
    "isTemplate": false,
    "count": 0,
    "updated": 0
  },
  {
    "id": "18cb0bf1-002e-4249-b816-274f7f49d6c0",
    "data": [
      {
        "text": "tenho um problema com ",
        "userDefined": false
      },
      {
        "text": "o microfone",
        "alias": "message",
        "meta": "@sys.any",
        "userDefined": true
      }
    ],
    "isTemplate": false,
    "count": 0,
    "updated": 0
  },
  {
    "id": "36df3a93-18a5-456b-b417-e83d83d9a9dc",
    "data": [
      {
        "text": "detetei um erro no ",
        "userDefined": false
      },
      {
        "text": "calendário",
        "alias": "message",
        "meta": "@sys.any",
        "userDefined": true
      }
    ],
    "isTemplate": false,
    "count": 0,
    "updated": 0
  },
  {
    "id": "5e1b8e73-5f05-4c81-98bd-ef7faedf9633",
    "data": [
      {
        "text": "comete muitos erros",
        "userDefined": false
      }
    ],
    "isTemplate": false,
    "count": 0,
    "updated": 0
  },
  {
    "id": "0d189170-7bb0-4caf-a125-ffa990b0c950",
    "data": [
      {
        "text": "pode ajudar-me a resolver o problema",
        "userDefined": false
      }
    ],
    "isTemplate": false,
    "count": 0,
    "updated": 0
  },
  {
    "id": "944a2756-f0cf-4038-b4d3-abc710a073b2",
    "data": [
      {
        "text": "informe os seus programadores sobre este erro",
        "userDefined": false
      }
    ],
    "isTemplate": false,
    "count": 0,
    "updated": 0
  },
  {
    "id": "78195e89-0370-4e31-a899-f109776d83d3",
    "data": [
      {
        "text": "comunicar erro ",
        "userDefined": false
      },
      {
        "text": "não está a funcionar",
        "alias": "message",
        "meta": "@sys.any",
        "userDefined": true
      }
    ],
    "isTemplate": false,
    "count": 0,
    "updated": 0
  },
  {
    "id": "90eebda9-39b1-4f36-8f01-1f77932be308",
    "data": [
      {
        "text": "comunicar um problema ",
        "userDefined": false
      },
      {
        "text": "o widget não está a funcionar",
        "alias": "message",
        "meta": "@sys.any",
        "userDefined": true
      }
    ],
    "isTemplate": false,
    "count": 0,
    "updated": 0
  },
  {
    "id": "4fb53a52-b12a-4dd0-9352-1846d8d41302",
    "data": [
      {
        "text": "quero mostrar o erro aos seus programadores",
        "userDefined": false
      }
    ],
    "isTemplate": false,
    "count": 0,
    "updated": 0
  },
  {
    "id": "e24b973c-f37f-4591-a76e-52ba9fdb5e27",
    "data": [
      {
        "text": "enviar um relatório de erro",
        "userDefined": false
      }
    ],
    "isTemplate": false,
    "count": 0,
    "updated": 0
  },
  {
    "id": "4a2dadc7-924a-42fc-ab6d-f93f4c5aed08",
    "data": [
      {
        "text": "enviar um relatório de erro para os seus programadores ",
        "userDefined": false
      },
      {
        "text": "a ativação por voz não funciona",
        "alias": "message",
        "meta": "@sys.any",
        "userDefined": true
      }
    ],
    "isTemplate": false,
    "count": 0,
    "updated": 0
  }
]