[
  {
    "id": "6a1decce-0944-4709-b2cb-d51d38815dd0",
    "data": [
      {
        "text": "parle-moi de toi",
        "userDefined": false
      }
    ],
    "isTemplate": false,
    "count": 0,
    "updated": 0
  },
  {
    "id": "de8f026c-08bf-4b7d-b36b-1a6d691285f4",
    "data": [
      {
        "text": "raconte-moi ce que tes développeurs ont fait",
        "userDefined": false
      }
    ],
    "isTemplate": false,
    "count": 0,
    "updated": 0
  },
  {
    "id": "50de0497-f61e-4cdf-8ca9-599f791cdebf",
    "data": [
      {
        "text": "qu\u0027est-ce que tes développeurs ont créé d\u0027autre",
        "userDefined": false
      }
    ],
    "isTemplate": false,
    "count": 0,
    "updated": 0
  },
  {
    "id": "f00b7e5f-d985-4366-a538-e7c1955d700e",
    "data": [
      {
        "text": "qu\u0027est-ce que ton entreprise fait d\u0027autre",
        "userDefined": false
      }
    ],
    "isTemplate": false,
    "count": 0,
    "updated": 0
  },
  {
    "id": "4d96fea1-4d15-4e1b-a362-b7d7f734df7b",
    "data": [
      {
        "text": "raconte-moi ton entreprise",
        "userDefined": false
      }
    ],
    "isTemplate": false,
    "count": 0,
    "updated": 0
  },
  {
    "id": "b5a4fbcd-205a-4073-9c64-d83cc1bb2709",
    "data": [
      {
        "text": "donne-moi des informations sur l\u0027entreprise qui t\u0027a créé",
        "userDefined": false
      }
    ],
    "isTemplate": false,
    "count": 0,
    "updated": 0
  },
  {
    "id": "c85d6448-704f-4d46-9068-8c3e7d262754",
    "data": [
      {
        "text": "que font tes développeurs",
        "userDefined": false
      }
    ],
    "isTemplate": false,
    "count": 0,
    "updated": 0
  },
  {
    "id": "c75cd0aa-4f49-4015-b78f-6b6d605e1c87",
    "data": [
      {
        "text": "quelles sont les autres activités de ton entreprise",
        "userDefined": false
      }
    ],
    "isTemplate": false,
    "count": 0,
    "updated": 0
  }
]