[
  {
    "id": "be9429da-13b9-41ff-a7cf-d3a09fbae0e6",
    "data": [
      {
        "text": "você tem um website",
        "userDefined": false
      }
    ],
    "isTemplate": false,
    "count": 0,
    "updated": 0
  },
  {
    "id": "88fafc24-a693-4c2d-b9eb-f71d018d5390",
    "data": [
      {
        "text": "abra o site da sua empresa",
        "userDefined": false
      }
    ],
    "isTemplate": false,
    "count": 0,
    "updated": 0
  },
  {
    "id": "6f183b8d-da3f-430c-af98-306356dd96e3",
    "data": [
      {
        "text": "seu website",
        "userDefined": false
      }
    ],
    "isTemplate": false,
    "count": 0,
    "updated": 0
  },
  {
    "id": "450f362a-4546-45c1-8e95-cab60926e566",
    "data": [
      {
        "text": "qual é seu website",
        "userDefined": false
      }
    ],
    "isTemplate": false,
    "count": 0,
    "updated": 0
  },
  {
    "id": "149f20fa-405b-4ad2-81f3-777dd1773e66",
    "data": [
      {
        "text": "como posso acessar seu website",
        "userDefined": false
      }
    ],
    "isTemplate": false,
    "count": 0,
    "updated": 0
  },
  {
    "id": "a23c89a3-f8b3-445b-9ca9-6e1951a7f901",
    "data": [
      {
        "text": "me passe seu website",
        "userDefined": false
      }
    ],
    "isTemplate": false,
    "count": 0,
    "updated": 0
  },
  {
    "id": "09602d46-636e-4d7e-923b-49497dcc3ae7",
    "data": [
      {
        "text": "mostre-me seu website",
        "userDefined": false
      }
    ],
    "isTemplate": false,
    "count": 0,
    "updated": 0
  },
  {
    "id": "8b618217-9e5e-4706-92e7-a7493b0a449b",
    "data": [
      {
        "text": "mostre o website dos seus desenvolvedores",
        "userDefined": false
      }
    ],
    "isTemplate": false,
    "count": 0,
    "updated": 0
  },
  {
    "id": "efc5024a-6069-4ef7-82e9-0d95b0aa8d28",
    "data": [
      {
        "text": "você poderia abrir seu website",
        "userDefined": false
      }
    ],
    "isTemplate": false,
    "count": 0,
    "updated": 0
  },
  {
    "id": "c9a9c516-9c6c-4a1c-9316-09d1ee5015f0",
    "data": [
      {
        "text": "abra seu site para mim",
        "userDefined": false
      }
    ],
    "isTemplate": false,
    "count": 0,
    "updated": 0
  }
]