[
  {
    "id": "714a85cf-c674-447c-b2bc-9584a21c3d7c",
    "data": [
      {
        "text": "你們公司開發什麽",
        "userDefined": false
      }
    ],
    "isTemplate": false,
    "count": 0,
    "updated": 0
  },
  {
    "id": "7e050311-9857-4234-b39a-93f710e8d97c",
    "data": [
      {
        "text": "關于你的開發員",
        "userDefined": false
      }
    ],
    "isTemplate": false,
    "count": 0,
    "updated": 0
  },
  {
    "id": "d9eeb0bd-2ba9-4330-8cc8-e8288e073bc2",
    "data": [
      {
        "text": "你的開發員是誰",
        "userDefined": false
      }
    ],
    "isTemplate": false,
    "count": 0,
    "updated": 0
  },
  {
    "id": "4832043b-6c75-4a35-8142-39bb870e0d19",
    "data": [
      {
        "text": "給我介紹你公司的開發人員",
        "userDefined": false
      }
    ],
    "isTemplate": false,
    "count": 1,
    "updated": 0
  },
  {
    "id": "9561f76f-d61d-475a-bdf7-94d98d97c750",
    "data": [
      {
        "text": "我需要了解貴公司的開發人員",
        "userDefined": false
      }
    ],
    "isTemplate": false,
    "count": 0,
    "updated": 0
  },
  {
    "id": "c06147bf-507b-494e-8e1f-2c49d7334585",
    "data": [
      {
        "text": "關于你的開發員消息",
        "userDefined": false
      }
    ],
    "isTemplate": false,
    "count": 0,
    "updated": 0
  },
  {
    "id": "ce3c98ca-d58b-4ff3-8600-a5291d7b0d96",
    "data": [
      {
        "text": "貴公司是否有其他産品",
        "userDefined": false
      }
    ],
    "isTemplate": false,
    "count": 0,
    "updated": 0
  },
  {
    "id": "6d720fb6-47b8-4f94-90fe-e0afce76d29c",
    "data": [
      {
        "text": "請你給我介紹你公司的開發人員",
        "userDefined": false
      }
    ],
    "isTemplate": false,
    "count": 0,
    "updated": 0
  },
  {
    "id": "8694a492-4544-4848-90e2-8bce98f86401",
    "data": [
      {
        "text": "你的公司團隊在做什麽工作",
        "userDefined": false
      }
    ],
    "isTemplate": false,
    "count": 0,
    "updated": 0
  },
  {
    "id": "067297fc-7548-4974-942d-0a0ed0f84d66",
    "data": [
      {
        "text": "開發人員有關的信息",
        "userDefined": false
      }
    ],
    "isTemplate": false,
    "count": 0,
    "updated": 0
  },
  {
    "id": "e00d52b1-1d5f-4aae-a26a-9fbeab25f918",
    "data": [
      {
        "text": "你的開發員是什麽人",
        "userDefined": false
      }
    ],
    "isTemplate": false,
    "count": 0,
    "updated": 0
  },
  {
    "id": "94e05e81-1419-4dd0-97b3-7efa3d1c44d2",
    "data": [
      {
        "text": "你的開發者有更多的應用程序",
        "userDefined": false
      }
    ],
    "isTemplate": false,
    "count": 0,
    "updated": 0
  },
  {
    "id": "8b59e8bd-28c1-4b0d-a136-213dc5dfdc4a",
    "data": [
      {
        "text": "貴公司是否有更多的應用程式",
        "userDefined": false
      }
    ],
    "isTemplate": false,
    "count": 0,
    "updated": 0
  },
  {
    "id": "1c9f557c-e8bb-4ad6-8cf2-4b0304ae14c0",
    "data": [
      {
        "text": "你的開發者做什麽",
        "userDefined": false
      }
    ],
    "isTemplate": false,
    "count": 0,
    "updated": 0
  },
  {
    "id": "04b19133-42d0-4f74-8d2e-6e5a56b7dc74",
    "data": [
      {
        "text": "你的開發員消息",
        "userDefined": false
      }
    ],
    "isTemplate": false,
    "count": 0,
    "updated": 0
  },
  {
    "id": "5058c7b5-b53d-4712-bbd2-de2201ddcbbc",
    "data": [
      {
        "text": "你的開發人員還有什麽",
        "userDefined": false
      }
    ],
    "isTemplate": false,
    "count": 0,
    "updated": 0
  },
  {
    "id": "63d053b4-ec05-43f7-a8a7-246152ae9cc8",
    "data": [
      {
        "text": "貴公司是否開發任何其他産品",
        "userDefined": false
      }
    ],
    "isTemplate": false,
    "count": 0,
    "updated": 0
  },
  {
    "id": "c78b84dd-1348-483a-bba4-802130d63c1c",
    "data": [
      {
        "text": "你的開發人員創造別的東西嗎",
        "userDefined": false
      }
    ],
    "isTemplate": false,
    "count": 0,
    "updated": 0
  },
  {
    "id": "fce28ee5-bdbf-48b1-8687-e3894c6ab5a6",
    "data": [
      {
        "text": "你公司最暢銷的産品是什麽",
        "userDefined": false
      }
    ],
    "isTemplate": false,
    "count": 0,
    "updated": 0
  },
  {
    "id": "c6faa3c3-ddcc-457b-bec7-328b7783c7fc",
    "data": [
      {
        "text": "給我介紹你",
        "userDefined": false
      },
      {
        "text": "的開發人員",
        "meta": "@sys.ignore",
        "userDefined": false
      }
    ],
    "isTemplate": false,
    "count": 0,
    "updated": 0
  }
]