[
  {
    "id": "a2cf14e5-3112-47ba-ad2d-53e7766cc7af",
    "data": [
      {
        "text": "你有沒有測試版",
        "userDefined": false
      }
    ],
    "isTemplate": false,
    "count": 0,
    "updated": 0
  },
  {
    "id": "a0bb161f-3ab1-48c0-8e09-fc0dd9e56483",
    "data": [
      {
        "text": "下載捏的測試版",
        "userDefined": false
      }
    ],
    "isTemplate": false,
    "count": 0,
    "updated": 0
  },
  {
    "id": "04d60341-e7aa-4187-8663-c0c192e9da88",
    "data": [
      {
        "text": "在哪裏可以找到你的測試版本",
        "userDefined": false
      }
    ],
    "isTemplate": false,
    "count": 0,
    "updated": 0
  },
  {
    "id": "f39feec5-3a4a-4f80-bca8-512c80496aba",
    "data": [
      {
        "text": "顯示您的測試版本",
        "userDefined": false
      }
    ],
    "isTemplate": false,
    "count": 0,
    "updated": 0
  },
  {
    "id": "87f59f51-73c3-4b95-9ffb-a4f16b70f86d",
    "data": [
      {
        "text": "你的測試版在哪裏",
        "userDefined": false
      }
    ],
    "isTemplate": false,
    "count": 0,
    "updated": 0
  },
  {
    "id": "4e8ec6e4-b236-44cd-95d7-86dc668e0ede",
    "data": [
      {
        "text": "參加你的測試版",
        "userDefined": false
      }
    ],
    "isTemplate": false,
    "count": 0,
    "updated": 0
  },
  {
    "id": "4757d8cc-892c-418f-a23e-c19ca0c544aa",
    "data": [
      {
        "text": "你有測試版嗎",
        "userDefined": false
      }
    ],
    "isTemplate": false,
    "count": 0,
    "updated": 0
  },
  {
    "id": "913c3846-1234-4810-aecb-698152aef140",
    "data": [
      {
        "text": "如何下載你的測試版",
        "userDefined": false
      }
    ],
    "isTemplate": false,
    "count": 0,
    "updated": 0
  },
  {
    "id": "d052e76b-8d59-453d-99bf-85b8a482ad38",
    "data": [
      {
        "text": "你有這測試版嗎",
        "userDefined": false
      }
    ],
    "isTemplate": false,
    "count": 0,
    "updated": 0
  },
  {
    "id": "4bf5e229-f92b-4b32-96c8-019604caaeec",
    "data": [
      {
        "text": "搜索您的測試版本",
        "userDefined": false
      }
    ],
    "isTemplate": false,
    "count": 0,
    "updated": 0
  },
  {
    "id": "514d5495-d9d5-42ba-aa89-5e388036b258",
    "data": [
      {
        "text": "我想成爲您的測試人員",
        "userDefined": false
      }
    ],
    "isTemplate": false,
    "count": 0,
    "updated": 0
  },
  {
    "id": "40a96300-fa70-4e92-aaff-89689406a8e5",
    "data": [
      {
        "text": "我想加入 Beta 版測試組",
        "userDefined": false
      }
    ],
    "isTemplate": false,
    "count": 1,
    "updated": 0
  },
  {
    "id": "da670ba7-eeb6-4e13-838e-70e79b4b3610",
    "data": [
      {
        "text": "你的測試版",
        "userDefined": false
      }
    ],
    "isTemplate": false,
    "count": 0,
    "updated": 0
  },
  {
    "id": "e6ef4658-1247-4001-a025-13746cfa5258",
    "data": [
      {
        "text": "我想參加你的測試版",
        "userDefined": false
      }
    ],
    "isTemplate": false,
    "count": 0,
    "updated": 0
  },
  {
    "id": "6a672d43-189a-4a7a-a6f0-0d6528df96e8",
    "data": [
      {
        "text": "你有測試版本嗎",
        "userDefined": false
      }
    ],
    "isTemplate": false,
    "count": 0,
    "updated": 0
  },
  {
    "id": "e309d343-6510-4a25-b926-2ef571b1f424",
    "data": [
      {
        "text": "測試版本的應用程序",
        "userDefined": false
      }
    ],
    "isTemplate": false,
    "count": 0,
    "updated": 0
  },
  {
    "id": "da438f87-834c-4f5f-bddb-2ee8ea7ac274",
    "data": [
      {
        "text": "關于測試版",
        "userDefined": false
      }
    ],
    "isTemplate": false,
    "count": 0,
    "updated": 0
  },
  {
    "id": "27e8ed39-4efc-4d26-b25c-43335368be0e",
    "data": [
      {
        "text": "我想測試你的測試版本",
        "userDefined": false
      }
    ],
    "isTemplate": false,
    "count": 0,
    "updated": 0
  },
  {
    "id": "6e94d468-115e-4c80-a8e7-bfd87f92e31b",
    "data": [
      {
        "text": "你的測試版本",
        "userDefined": false
      }
    ],
    "isTemplate": false,
    "count": 0,
    "updated": 0
  },
  {
    "id": "14306e37-e01e-46bd-92d8-ff5158169319",
    "data": [
      {
        "text": "搜索你的測試版",
        "userDefined": false
      }
    ],
    "isTemplate": false,
    "count": 0,
    "updated": 0
  },
  {
    "id": "59a79563-82d0-4ad1-916a-b6dc44726420",
    "data": [
      {
        "text": "測試版本",
        "userDefined": false
      }
    ],
    "isTemplate": false,
    "count": 0,
    "updated": 0
  },
  {
    "id": "a8c9c1d7-c23d-45bf-9702-4379ccbcce49",
    "data": [
      {
        "text": "顯示你的測試版",
        "userDefined": false
      }
    ],
    "isTemplate": false,
    "count": 0,
    "updated": 0
  }
]