[
  {
    "id": "7405dce5-5ae0-4b9a-af1b-c0b837870f51",
    "data": [
      {
        "text": "e agora o email",
        "userDefined": false
      }
    ],
    "isTemplate": false,
    "count": 0,
    "updated": 0
  },
  {
    "id": "69387aab-fdfe-4679-9483-e69dcf4e06fc",
    "data": [
      {
        "text": "agora o email deles",
        "userDefined": false
      }
    ],
    "isTemplate": false,
    "count": 0,
    "updated": 0
  },
  {
    "id": "d86f902e-94a9-4147-bbe5-b0e2b690f5b2",
    "data": [
      {
        "text": "um email também",
        "userDefined": false
      }
    ],
    "isTemplate": false,
    "count": 2,
    "updated": 0
  },
  {
    "id": "b214294f-e797-4251-b463-0c84ace79bda",
    "data": [
      {
        "text": "e email",
        "userDefined": false
      }
    ],
    "isTemplate": false,
    "count": 0,
    "updated": 0
  },
  {
    "id": "8fe0b8ce-2b47-41ed-8636-14e5a35168d1",
    "data": [
      {
        "text": "e o endereço de email deles",
        "userDefined": false
      }
    ],
    "isTemplate": false,
    "count": 0,
    "updated": 0
  },
  {
    "id": "13ac9176-3849-41b9-af03-325af25d7cd5",
    "data": [
      {
        "text": "sabe qual é o endereço de email deles",
        "userDefined": false
      }
    ],
    "isTemplate": false,
    "count": 0,
    "updated": 0
  },
  {
    "id": "6fd43815-59bc-47bf-a31a-5e0a30e2c44a",
    "data": [
      {
        "text": "e o email",
        "userDefined": false
      }
    ],
    "isTemplate": false,
    "count": 0,
    "updated": 0
  },
  {
    "id": "6f5c10ad-705e-4d15-8ae4-63259d9fcc88",
    "data": [
      {
        "text": "e o email deles",
        "userDefined": false
      }
    ],
    "isTemplate": false,
    "count": 0,
    "updated": 0
  }
]