[
  {
    "id": "f9335ad1-6113-488d-8a1a-e370a31ac1f8",
    "data": [
      {
        "text": "我想知道您的應用程序的名稱",
        "userDefined": false
      }
    ],
    "isTemplate": false,
    "count": 0,
    "updated": 0
  },
  {
    "id": "122b1b3c-008e-48e9-aac3-9bd463cb97e1",
    "data": [
      {
        "text": "程序的",
        "userDefined": false
      },
      {
        "text": "名字",
        "meta": "@sys.ignore",
        "userDefined": true
      }
    ],
    "isTemplate": false,
    "count": 0,
    "updated": 0
  },
  {
    "id": "cdf4dbe4-666f-4b95-8693-da50801797e5",
    "data": [
      {
        "text": "程序",
        "userDefined": false
      },
      {
        "text": "名字",
        "meta": "@sys.ignore",
        "userDefined": true
      }
    ],
    "isTemplate": false,
    "count": 0,
    "updated": 0
  },
  {
    "id": "ac7609e4-143d-47d5-95ca-6d06155cad46",
    "data": [
      {
        "text": "你的應用程序怎麽叫",
        "userDefined": false
      }
    ],
    "isTemplate": false,
    "count": 1,
    "updated": 0
  },
  {
    "id": "018accbf-cf3b-4caa-8ff2-4c4a45aa479d",
    "data": [
      {
        "text": "告訴我你的應用程序名稱",
        "userDefined": false
      }
    ],
    "isTemplate": false,
    "count": 1,
    "updated": 0
  },
  {
    "id": "e2c67259-76f9-4f8d-a024-12298c97993f",
    "data": [
      {
        "text": "你的應用程序的名稱是什麽",
        "userDefined": false
      }
    ],
    "isTemplate": false,
    "count": 0,
    "updated": 0
  },
  {
    "id": "46bbf354-28af-4d56-94c1-6d5027219648",
    "data": [
      {
        "text": "你程序的",
        "userDefined": false
      },
      {
        "text": "名字",
        "meta": "@sys.ignore",
        "userDefined": true
      }
    ],
    "isTemplate": false,
    "count": 0,
    "updated": 0
  },
  {
    "id": "334f7eab-19f4-466f-96c0-88fcf1ec1cc1",
    "data": [
      {
        "text": "我怎麽知道您的應用程序的名稱",
        "userDefined": false
      }
    ],
    "isTemplate": false,
    "count": 1,
    "updated": 0
  },
  {
    "id": "a2663b45-a2f9-45da-a284-9acb64dc62e4",
    "data": [
      {
        "text": "應用程式的名稱是什麽",
        "userDefined": false
      }
    ],
    "isTemplate": false,
    "count": 0,
    "updated": 0
  },
  {
    "id": "1938afcb-2321-472e-9df8-6d4855741de3",
    "data": [
      {
        "text": "應用程式名稱",
        "userDefined": false
      }
    ],
    "isTemplate": false,
    "count": 0,
    "updated": 0
  },
  {
    "id": "5ad46efc-ca0c-480c-bd7d-a31e905594fd",
    "data": [
      {
        "text": "你的應用程序名稱是什麽",
        "userDefined": false
      }
    ],
    "isTemplate": false,
    "count": 0,
    "updated": 0
  }
]