[
  {
    "id": "108a9940-b2cc-42df-bf4e-176a7ea95c57",
    "data": [
      {
        "text": "segnala il bug",
        "userDefined": false
      }
    ],
    "isTemplate": false,
    "count": 0,
    "updated": 0
  },
  {
    "id": "6475b558-88c7-4fef-bded-15ecea2aef89",
    "data": [
      {
        "text": "segnala bug",
        "userDefined": false
      }
    ],
    "isTemplate": false,
    "count": 0,
    "updated": 0
  },
  {
    "id": "b3467cd5-ee9a-4b8a-a92a-6f61bf004ec2",
    "data": [
      {
        "text": "ho un problema con l\u0027app",
        "userDefined": false
      }
    ],
    "isTemplate": false,
    "count": 0,
    "updated": 0
  },
  {
    "id": "c0170339-9f82-4806-86d0-f661e984eb78",
    "data": [
      {
        "text": "bug non funziona niente",
        "userDefined": false
      }
    ],
    "isTemplate": false,
    "count": 0,
    "updated": 0
  },
  {
    "id": "107e2e4f-38f5-490d-b3fc-a05e1395324b",
    "data": [
      {
        "text": "problema con ",
        "userDefined": false
      },
      {
        "text": "microfono",
        "alias": "message",
        "meta": "@sys.any",
        "userDefined": true
      }
    ],
    "isTemplate": false,
    "count": 0,
    "updated": 0
  },
  {
    "id": "dce22b49-aab3-4121-9e89-cec1b05ae291",
    "data": [
      {
        "text": "bug",
        "userDefined": false
      }
    ],
    "isTemplate": false,
    "count": 0,
    "updated": 0
  },
  {
    "id": "672e64e1-88f0-47d5-b8c9-53dbf22a303a",
    "data": [
      {
        "text": "segnala bug ",
        "userDefined": false
      },
      {
        "text": "non funziona",
        "alias": "message",
        "meta": "@sys.any",
        "userDefined": true
      }
    ],
    "isTemplate": false,
    "count": 0,
    "updated": 0
  },
  {
    "id": "2a53b6ef-d7e1-40ad-8abb-85fab109e8d2",
    "data": [
      {
        "text": "il ",
        "userDefined": false
      },
      {
        "text": "microfono",
        "alias": "message",
        "meta": "@sys.any",
        "userDefined": true
      },
      {
        "text": " ha un bug",
        "userDefined": false
      }
    ],
    "isTemplate": false,
    "count": 1,
    "updated": 0
  },
  {
    "id": "7ff23683-b838-4b4a-a25f-592e2b88272e",
    "data": [
      {
        "text": "c\u0027è un bug",
        "userDefined": false
      }
    ],
    "isTemplate": false,
    "count": 0,
    "updated": 0
  },
  {
    "id": "4c5bcef6-6971-4bd2-ae28-3d33dae76f60",
    "data": [
      {
        "text": "ho un problema",
        "userDefined": false
      }
    ],
    "isTemplate": false,
    "count": 0,
    "updated": 0
  },
  {
    "id": "03d25f32-9e76-4d22-bea2-64090f67a4c0",
    "data": [
      {
        "text": "problema",
        "userDefined": false
      }
    ],
    "isTemplate": false,
    "count": 0,
    "updated": 0
  }
]