[
  {
    "id": "fa269625-5854-457f-8978-2371a965da28",
    "data": [
      {
        "text": "補充說",
        "userDefined": false
      },
      {
        "text": "我需要一個離線模式",
        "alias": "message",
        "meta": "@sys.any",
        "userDefined": true
      }
    ],
    "isTemplate": false,
    "count": 0,
    "updated": 0
  },
  {
    "id": "6ea7c10c-cfeb-426d-b1ea-a0e04e2379aa",
    "data": [
      {
        "text": "並且",
        "userDefined": false
      },
      {
        "text": "來電顯示不工作",
        "alias": "message",
        "meta": "@sys.any",
        "userDefined": true
      }
    ],
    "isTemplate": false,
    "count": 0,
    "updated": 0
  },
  {
    "id": "41602ad1-8562-4c43-b48d-ec5cd4382398",
    "data": [
      {
        "text": "麥克風",
        "alias": "message",
        "meta": "@sys.any",
        "userDefined": true
      },
      {
        "text": "也不行",
        "userDefined": false
      }
    ],
    "isTemplate": false,
    "count": 0,
    "updated": 0
  },
  {
    "id": "8fd733cf-052f-4890-8611-4814e534bbec",
    "data": [
      {
        "text": "添加",
        "userDefined": false
      },
      {
        "text": "不能脫機工作",
        "alias": "message",
        "meta": "@sys.any",
        "userDefined": true
      }
    ],
    "isTemplate": false,
    "count": 0,
    "updated": 0
  },
  {
    "id": "961dfb3d-ec70-4d48-bd0d-d069d9633cfa",
    "data": [
      {
        "text": "而且",
        "userDefined": false
      },
      {
        "text": "你只能在線工作",
        "alias": "message",
        "meta": "@sys.any",
        "userDefined": true
      }
    ],
    "isTemplate": false,
    "count": 0,
    "updated": 0
  },
  {
    "id": "7bfde187-d34a-4edc-a7f4-f0844650cffd",
    "data": [
      {
        "text": "並且",
        "userDefined": false
      },
      {
        "text": "沒有離線模式",
        "alias": "message",
        "meta": "@sys.any",
        "userDefined": true
      }
    ],
    "isTemplate": false,
    "count": 0,
    "updated": 0
  },
  {
    "id": "2d260bb7-e4df-45b9-a06c-e4372fd87d37",
    "data": [
      {
        "text": "和",
        "userDefined": false
      },
      {
        "text": "麥克風問題",
        "alias": "message",
        "meta": "@sys.any",
        "userDefined": true
      }
    ],
    "isTemplate": false,
    "count": 0,
    "updated": 0
  },
  {
    "id": "52392e8b-4e2a-428f-a458-ac1ce229cad9",
    "data": [
      {
        "text": "並且",
        "userDefined": false
      },
      {
        "text": "我有問題",
        "meta": "@sys.ignore",
        "userDefined": true
      }
    ],
    "isTemplate": false,
    "count": 0,
    "updated": 0
  },
  {
    "id": "05d847ab-4a08-4088-80a7-517d534c2f0d",
    "data": [
      {
        "text": "麥克風也不起作用",
        "userDefined": false
      }
    ],
    "isTemplate": false,
    "count": 0,
    "updated": 0
  },
  {
    "id": "55e58d50-7f40-47cc-8840-18dffd90508b",
    "data": [
      {
        "text": "還有",
        "userDefined": false
      },
      {
        "text": "麥克風問題",
        "alias": "message",
        "meta": "@sys.any",
        "userDefined": true
      }
    ],
    "isTemplate": false,
    "count": 0,
    "updated": 0
  }
]