{
  "id": "eff9a0d7-6561-4eb7-8ac7-990f5369f71e",
  "name": "support.problem - context:support-problem",
  "auto": true,
  "contexts": [
    "support-problem"
  ],
  "responses": [
    {
      "resetContexts": false,
      "action": "support.problem",
      "affectedContexts": [
        {
          "name": "support-problem",
          "parameters": {},
          "lifespan": 2
        }
      ],
      "parameters": [
        {
          "id": "fa85ffca-2722-4066-af30-c03d769979a7",
          "required": false,
          "dataType": "@sys.any",
          "name": "message",
          "value": "$message",
          "promptMessages": [],
          "noMatchPromptMessages": [],
          "noInputPromptMessages": [],
          "outputDialogContexts": [],
          "isList": false
        }
      ],
      "messages": [
        {
          "type": 0,
          "lang": "es",
          "condition": "",
          "speech": []
        },
        {
          "type": 0,
          "lang": "zh-cn",
          "condition": "",
          "speech": []
        },
        {
          "type": 0,
          "lang": "fr",
          "condition": "",
          "speech": []
        },
        {
          "type": 0,
          "lang": "it",
          "condition": "",
          "speech": []
        },
        {
          "type": 0,
          "lang": "en",
          "condition": "",
          "speech": []
        },
        {
          "type": 0,
          "lang": "ja",
          "condition": "",
          "speech": []
        },
        {
          "type": 0,
          "lang": "pt-br",
          "condition": "",
          "speech": []
        },
        {
          "type": 0,
          "lang": "zh-tw",
          "condition": "",
          "speech": []
        },
        {
          "type": 0,
          "lang": "zh-hk",
          "condition": "",
          "speech": []
        },
        {
          "type": 0,
          "lang": "pt",
          "condition": "",
          "speech": []
        },
        {
          "type": 0,
          "lang": "ru",
          "condition": "",
          "speech": []
        },
        {
          "type": 0,
          "lang": "de",
          "condition": "",
          "speech": []
        }
      ],
      "defaultResponsePlatforms": {},
      "speech": []
    }
  ],
  "priority": 500000,
  "webhookUsed": false,
  "webhookForSlotFilling": false,
  "fallbackIntent": false,
  "events": [],
  "conditionalResponses": [],
  "condition": "",
  "conditionalFollowupEvents": []
}