[
  {
    "id": "ba55eacc-c2ee-4f00-8ac3-e8313346df3c",
    "data": [
      {
        "text": "tienes una versión beta",
        "userDefined": false
      }
    ],
    "isTemplate": false,
    "count": 0,
    "updated": 0
  },
  {
    "id": "e36385fa-a5a2-49dc-b3b0-8cfdd5ef1078",
    "data": [
      {
        "text": "quisiera saber si tienes una versión beta",
        "userDefined": false
      }
    ],
    "isTemplate": false,
    "count": 0,
    "updated": 0
  },
  {
    "id": "e0716047-f574-47ec-8859-2e44da0f841e",
    "data": [
      {
        "text": "quiero participar en el grupo de prueba beta",
        "userDefined": false
      }
    ],
    "isTemplate": false,
    "count": 0,
    "updated": 0
  },
  {
    "id": "e6a7ba85-5164-481f-ad1c-b11b75ae1b43",
    "data": [
      {
        "text": "versión beta",
        "userDefined": false
      }
    ],
    "isTemplate": false,
    "count": 0,
    "updated": 0
  },
  {
    "id": "2da7bf08-ee25-48b7-8005-dbc5237f9cd3",
    "data": [
      {
        "text": "dime si tienes una versión beta",
        "userDefined": false
      }
    ],
    "isTemplate": false,
    "count": 0,
    "updated": 0
  },
  {
    "id": "76adb9f6-dcd4-40bd-b56d-a05c30bb5953",
    "data": [
      {
        "text": "quiero que me digas si tienes una versión beta",
        "userDefined": false
      }
    ],
    "isTemplate": false,
    "count": 0,
    "updated": 0
  },
  {
    "id": "b52b9740-05dc-4863-999b-cd075f0bf6ad",
    "data": [
      {
        "text": "me gustaría saber si tienes una versión beta",
        "userDefined": false
      }
    ],
    "isTemplate": false,
    "count": 0,
    "updated": 0
  },
  {
    "id": "e0354abc-50d7-4a8a-a029-05db181510a4",
    "data": [
      {
        "text": "no tienes una versión beta",
        "userDefined": false
      }
    ],
    "isTemplate": false,
    "count": 0,
    "updated": 0
  },
  {
    "id": "1150e65a-f92e-4db2-9cba-9d9961289f3b",
    "data": [
      {
        "text": "dónde puedo encontrar la versión beta de tu aplicación",
        "userDefined": false
      }
    ],
    "isTemplate": false,
    "count": 0,
    "updated": 0
  },
  {
    "id": "cf10965f-ed1f-4dfb-b9f4-4d8c9f895e59",
    "data": [
      {
        "text": "me podrías decir si tienes una versión beta",
        "userDefined": false
      }
    ],
    "isTemplate": false,
    "count": 0,
    "updated": 0
  },
  {
    "id": "ed6f3477-38d4-4fdc-aee1-364d289a1cf6",
    "data": [
      {
        "text": "cómo descargo tu versión beta",
        "userDefined": false
      }
    ],
    "isTemplate": false,
    "count": 0,
    "updated": 0
  },
  {
    "id": "18777b86-fc49-4bff-9e8b-f4430783b957",
    "data": [
      {
        "text": "versión beta de tu aplicación",
        "userDefined": false
      }
    ],
    "isTemplate": false,
    "count": 0,
    "updated": 0
  }
]