[
  {
    "id": "146e258f-4cc7-44c7-b4fa-db83c781f143",
    "data": [
      {
        "text": "アプリの名前は何ですか",
        "userDefined": false
      }
    ],
    "isTemplate": false,
    "count": 1,
    "updated": 0
  },
  {
    "id": "a60664f6-b5fd-4b39-be5a-5520ec52c7f7",
    "data": [
      {
        "text": "アプリの名前を教えてください",
        "userDefined": false
      }
    ],
    "isTemplate": false,
    "count": 0,
    "updated": 0
  },
  {
    "id": "8119e8eb-e64d-4a6e-abf4-f7b350fedc17",
    "data": [
      {
        "text": "アプリケーション名は何ですか",
        "userDefined": false
      }
    ],
    "isTemplate": false,
    "count": 2,
    "updated": 0
  },
  {
    "id": "0289eb83-5a81-4910-9833-4c7d75f85768",
    "data": [
      {
        "text": "アプリの名前を知るにはどうすればよいですか",
        "userDefined": false
      }
    ],
    "isTemplate": false,
    "count": 1,
    "updated": 0
  },
  {
    "id": "e898e5bc-0d8d-458a-8773-087fb84371f1",
    "data": [
      {
        "text": "アプリ名をお知らせください",
        "userDefined": false
      }
    ],
    "isTemplate": false,
    "count": 0,
    "updated": 0
  },
  {
    "id": "e6c93fd1-34f4-48c3-9d71-4b985605cda7",
    "data": [
      {
        "text": "アプリの名称",
        "userDefined": false
      }
    ],
    "isTemplate": false,
    "count": 0,
    "updated": 0
  },
  {
    "id": "72e66bae-ca57-4cf6-84a6-e024595f1a58",
    "data": [
      {
        "text": "アプリの名前",
        "userDefined": false
      }
    ],
    "isTemplate": false,
    "count": 1,
    "updated": 0
  },
  {
    "id": "e7656736-b7a5-436d-874e-53f38685551f",
    "data": [
      {
        "text": "アプリ名",
        "userDefined": false
      }
    ],
    "isTemplate": false,
    "count": 0,
    "updated": 0
  },
  {
    "id": "40fa2640-4c70-4072-829f-356d821d9f81",
    "data": [
      {
        "text": "アプリの呼び名",
        "userDefined": false
      }
    ],
    "isTemplate": false,
    "count": 0,
    "updated": 0
  },
  {
    "id": "f0f14cf9-3a7f-47e2-8ac6-aa8f0262dee4",
    "data": [
      {
        "text": "アプリケーションの名前は何ですか",
        "userDefined": false
      }
    ],
    "isTemplate": false,
    "count": 0,
    "updated": 0
  }
]