[
  {
    "id": "6be10bf5-f2bd-4f46-b9ca-baef6d5a9160",
    "data": [
      {
        "text": "デベロッパーの住所をお知らせください",
        "userDefined": false
      }
    ],
    "isTemplate": false,
    "count": 0,
    "updated": 0
  },
  {
    "id": "e74673ec-f185-4258-8a0f-3737c77cbfb0",
    "data": [
      {
        "text": "デベロッパーの勤務先はどこですか",
        "userDefined": false
      }
    ],
    "isTemplate": false,
    "count": 1,
    "updated": 0
  },
  {
    "id": "c3ac7c45-d160-40f6-b5d6-284789333da2",
    "data": [
      {
        "text": "デベロッパーの住所を教えてください",
        "userDefined": false
      }
    ],
    "isTemplate": false,
    "count": 1,
    "updated": 0
  },
  {
    "id": "df04d065-35c5-4a45-909b-92a2172ac733",
    "data": [
      {
        "text": "デベロッパーのオフィスの場所を教えてください",
        "userDefined": false
      }
    ],
    "isTemplate": false,
    "count": 1,
    "updated": 0
  },
  {
    "id": "d5060ac2-cf80-4aad-83d8-c30c75a55950",
    "data": [
      {
        "text": "あなたの会社の住所が必要です",
        "userDefined": false
      }
    ],
    "isTemplate": false,
    "count": 0,
    "updated": 0
  },
  {
    "id": "ad1955ce-8c84-4164-b60a-5c97f06dfc88",
    "data": [
      {
        "text": "デベロッパーの住所を提供してください",
        "userDefined": false
      }
    ],
    "isTemplate": false,
    "count": 1,
    "updated": 0
  },
  {
    "id": "318ccf4f-f7b9-4af0-b017-73db267e2fc6",
    "data": [
      {
        "text": "デベロッパーのオフィスの住所",
        "userDefined": false
      }
    ],
    "isTemplate": false,
    "count": 1,
    "updated": 0
  },
  {
    "id": "d60010a5-87c3-41e1-b2f4-7be327550c7d",
    "data": [
      {
        "text": "デベロッパーの住所を教えていただけますか",
        "userDefined": false
      }
    ],
    "isTemplate": false,
    "count": 0,
    "updated": 0
  },
  {
    "id": "ec63bfbd-ea90-4615-9f77-7c2ea6f27684",
    "data": [
      {
        "text": "あなたの会社の本社がある場所を知りたいのですが",
        "userDefined": false
      }
    ],
    "isTemplate": false,
    "count": 0,
    "updated": 0
  },
  {
    "id": "a53a9c1f-a58a-4146-a287-7574227e47d5",
    "data": [
      {
        "text": "あなたの会社の住所はどこで見つけられますか",
        "userDefined": false
      }
    ],
    "isTemplate": false,
    "count": 0,
    "updated": 0
  }
]