[
  {
    "id": "f74ede34-530a-45ea-8b1c-5be9f982bcae",
    "data": [
      {
        "text": "あなたの",
        "userDefined": false
      },
      {
        "text": "Twitter",
        "alias": "media",
        "meta": "@media",
        "userDefined": false
      },
      {
        "text": "ページを見せて",
        "userDefined": false
      }
    ],
    "isTemplate": false,
    "count": 0,
    "updated": 0
  },
  {
    "id": "04dddb9a-f02e-445a-ad43-751df8f26ce4",
    "data": [
      {
        "text": "あなたの",
        "userDefined": false
      },
      {
        "text": "Facebook",
        "alias": "media",
        "meta": "@media",
        "userDefined": true
      },
      {
        "text": "ページはどこにありますか",
        "userDefined": false
      }
    ],
    "isTemplate": false,
    "count": 1,
    "updated": 0
  },
  {
    "id": "4e8f07ca-55fc-4312-93d2-d5fd9e9dbc28",
    "data": [
      {
        "text": "あなたの",
        "userDefined": false
      },
      {
        "text": "Instagram",
        "alias": "media",
        "meta": "@media",
        "userDefined": true
      },
      {
        "text": "を見てみたいです",
        "userDefined": false
      }
    ],
    "isTemplate": false,
    "count": 0,
    "updated": 0
  },
  {
    "id": "db5b79f7-7910-4eee-8ae5-06f7529d1dfc",
    "data": [
      {
        "text": "ツイッター",
        "alias": "media",
        "meta": "@media",
        "userDefined": true
      },
      {
        "text": "を使っていますか",
        "userDefined": false
      }
    ],
    "isTemplate": false,
    "count": 0,
    "updated": 0
  },
  {
    "id": "e8eaa12f-92e0-48df-b5a0-f5b03832e113",
    "data": [
      {
        "text": "あなたの",
        "userDefined": false
      },
      {
        "text": "Facebook",
        "alias": "media",
        "meta": "@media",
        "userDefined": true
      },
      {
        "text": "はどんなページですか",
        "userDefined": false
      }
    ],
    "isTemplate": false,
    "count": 1,
    "updated": 0
  },
  {
    "id": "8ca94e5f-9717-40aa-a60f-6563ea805f6b",
    "data": [
      {
        "text": "インスタグラーム",
        "alias": "media",
        "meta": "@media",
        "userDefined": true
      },
      {
        "text": "アカウントをお持ちですか",
        "userDefined": false
      }
    ],
    "isTemplate": false,
    "count": 0,
    "updated": 0
  },
  {
    "id": "3c76310a-6aa5-437d-bce9-796475d2063d",
    "data": [
      {
        "text": "あなたの",
        "userDefined": false
      },
      {
        "text": "フェイスブック",
        "alias": "media",
        "meta": "@media",
        "userDefined": true
      },
      {
        "text": "ページはありますか",
        "userDefined": false
      }
    ],
    "isTemplate": false,
    "count": 0,
    "updated": 0
  },
  {
    "id": "ef0bf660-11bc-4df5-a640-c7eba7489d57",
    "data": [
      {
        "text": "あなたの",
        "userDefined": false
      },
      {
        "text": "FB",
        "alias": "media",
        "meta": "@media",
        "userDefined": true
      },
      {
        "text": "ページを開いてください",
        "userDefined": false
      }
    ],
    "isTemplate": false,
    "count": 2,
    "updated": 0
  },
  {
    "id": "118721ed-9234-429a-bb55-663d3131271f",
    "data": [
      {
        "text": "ようつべ",
        "alias": "media",
        "meta": "@media",
        "userDefined": true
      },
      {
        "text": "アカウントがあるの",
        "userDefined": false
      }
    ],
    "isTemplate": false,
    "count": 1,
    "updated": 0
  },
  {
    "id": "71413f51-2f5b-4cb9-a731-365dfa5055d6",
    "data": [
      {
        "text": "あなたのソーシャルメディアを教えてください",
        "userDefined": false
      }
    ],
    "isTemplate": false,
    "count": 2,
    "updated": 0
  }
]