[
  {
    "id": "f0c21fe0-51de-4edc-9edf-4e53281095dd",
    "data": [
      {
        "text": "je veux devenir ton testeur bêta",
        "userDefined": false
      }
    ],
    "isTemplate": false,
    "count": 0,
    "updated": 0
  },
  {
    "id": "37b64747-e662-4bf4-9302-71b82009b384",
    "data": [
      {
        "text": "qu\u0027est-ce que je dois faire pour avoir ta version bêta",
        "userDefined": false
      }
    ],
    "isTemplate": false,
    "count": 0,
    "updated": 0
  },
  {
    "id": "a0d6b8a8-88c4-480c-ac01-5478713d4b71",
    "data": [
      {
        "text": "ta version bêta",
        "userDefined": false
      }
    ],
    "isTemplate": false,
    "count": 0,
    "updated": 0
  },
  {
    "id": "55011a1b-05b7-488c-a61d-7d5033edc93c",
    "data": [
      {
        "text": "je veux rejoindre le groupe de test bêta",
        "userDefined": false
      }
    ],
    "isTemplate": false,
    "count": 0,
    "updated": 0
  },
  {
    "id": "250a46ba-0ef9-420d-a3e7-15a803e29b5e",
    "data": [
      {
        "text": "la version bêta de ton appli",
        "userDefined": false
      }
    ],
    "isTemplate": false,
    "count": 0,
    "updated": 0
  },
  {
    "id": "e4b77e68-06ae-4a91-8078-7d68f87b0de8",
    "data": [
      {
        "text": "donne-moi ta version bêta",
        "userDefined": false
      }
    ],
    "isTemplate": false,
    "count": 0,
    "updated": 0
  },
  {
    "id": "6d7ef17f-ba83-4806-be3b-f83323ebf7a6",
    "data": [
      {
        "text": "je veux avoir ta version bêta",
        "userDefined": false
      }
    ],
    "isTemplate": false,
    "count": 0,
    "updated": 0
  },
  {
    "id": "8765fb46-6c28-470a-b127-8f56f167e45f",
    "data": [
      {
        "text": "comment faire pour tester ta version bêta",
        "userDefined": false
      }
    ],
    "isTemplate": false,
    "count": 0,
    "updated": 0
  },
  {
    "id": "fd7c2718-f8d5-47b8-8d7c-8d13065cd9ef",
    "data": [
      {
        "text": "où trouver ta version bêta",
        "userDefined": false
      }
    ],
    "isTemplate": false,
    "count": 0,
    "updated": 0
  },
  {
    "id": "800a82e4-a071-4879-9764-55d8340ecd31",
    "data": [
      {
        "text": "as-tu ",
        "userDefined": false
      },
      {
        "text": "une",
        "meta": "@sys.ignore",
        "userDefined": false
      },
      {
        "text": " version bêta",
        "userDefined": false
      }
    ],
    "isTemplate": false,
    "count": 0,
    "updated": 0
  },
  {
    "id": "61d6cdb8-a3a5-4617-b609-0c164f6c696a",
    "data": [
      {
        "text": "puis-je avoir ta version bêta",
        "userDefined": false
      }
    ],
    "isTemplate": false,
    "count": 0,
    "updated": 0
  },
  {
    "id": "7909794c-24dc-47da-b6e0-ab7a30c47460",
    "data": [
      {
        "text": "version",
        "meta": "@sys.ignore",
        "userDefined": false
      },
      {
        "text": " bêta",
        "userDefined": false
      }
    ],
    "isTemplate": false,
    "count": 0,
    "updated": 0
  }
]