[
  {
    "id": "ced0084a-d73f-401e-b44f-31127dd729ec",
    "data": [
      {
        "text": "chi sono i tuoi genitori",
        "userDefined": false
      }
    ],
    "isTemplate": false,
    "count": 0,
    "updated": 0
  },
  {
    "id": "8917c57f-b445-47d7-8466-64218e7cd200",
    "data": [
      {
        "text": "chi è il tuo insegnante",
        "userDefined": false
      }
    ],
    "isTemplate": false,
    "count": 0,
    "updated": 0
  },
  {
    "id": "fa14b0b1-0548-4bfd-944d-ce38b3fc2709",
    "data": [
      {
        "text": "chi è tua madre",
        "userDefined": false
      }
    ],
    "isTemplate": false,
    "count": 0,
    "updated": 0
  },
  {
    "id": "fc389fa7-1a3e-4c47-a5d8-bf9488a91538",
    "data": [
      {
        "text": "chi è tuo padre",
        "userDefined": false
      }
    ],
    "isTemplate": false,
    "count": 0,
    "updated": 0
  },
  {
    "id": "e1eab725-d15a-42ab-9cbf-ae18afc58e5e",
    "data": [
      {
        "text": "chi è tuo papà",
        "userDefined": false
      }
    ],
    "isTemplate": false,
    "count": 0,
    "updated": 0
  },
  {
    "id": "c7b76c7a-d794-4f96-92c9-5c0f66ca77ce",
    "data": [
      {
        "text": "chi ti ha creato",
        "userDefined": false
      }
    ],
    "isTemplate": false,
    "count": 1,
    "updated": 0
  },
  {
    "id": "04dc4d81-e6a3-48a3-833b-36bc9981bcdf",
    "data": [
      {
        "text": "chi è il tuo inventore",
        "userDefined": false
      }
    ],
    "isTemplate": false,
    "count": 1,
    "updated": 0
  },
  {
    "id": "f9981e52-1c29-4568-9fd7-557564f9ec02",
    "data": [
      {
        "text": "chi è tua mamma",
        "userDefined": false
      }
    ],
    "isTemplate": false,
    "count": 0,
    "updated": 0
  }
]