[
  {
    "id": "0c66fbfc-850c-4cfc-8f52-19938cde9af8",
    "data": [
      {
        "text": "você sabe quem criou você",
        "userDefined": false
      }
    ],
    "isTemplate": false,
    "count": 0,
    "updated": 0
  },
  {
    "id": "52b8f9b1-f5f0-44f2-aaa7-e73d1dc44575",
    "data": [
      {
        "text": "eu perguntei quem criou você me conte",
        "userDefined": false
      }
    ],
    "isTemplate": false,
    "count": 0,
    "updated": 0
  },
  {
    "id": "6243ff92-fd52-4f79-a07d-221902ee1bca",
    "data": [
      {
        "text": "quem é seu programador",
        "userDefined": false
      }
    ],
    "isTemplate": false,
    "count": 0,
    "updated": 0
  },
  {
    "id": "f22eb9b6-6bb4-4dc0-9489-a18faf89b6e6",
    "data": [
      {
        "text": "qual é o nome do seu criador",
        "userDefined": false
      }
    ],
    "isTemplate": false,
    "count": 0,
    "updated": 0
  },
  {
    "id": "50fd6563-c25e-47b9-b07e-5c9c5afc4840",
    "data": [
      {
        "text": "qual é o nome do seu desenvolvedor",
        "userDefined": false
      }
    ],
    "isTemplate": false,
    "count": 1,
    "updated": 0
  },
  {
    "id": "3e3b5743-2097-436b-b540-fb46a2a38dc6",
    "data": [
      {
        "text": "você pode me dizer quem criou você",
        "userDefined": false
      }
    ],
    "isTemplate": false,
    "count": 0,
    "updated": 0
  },
  {
    "id": "80946716-7ae8-486b-98e7-263e7ef988c5",
    "data": [
      {
        "text": "quem é seu professor",
        "userDefined": false
      }
    ],
    "isTemplate": false,
    "count": 0,
    "updated": 0
  },
  {
    "id": "079a1389-8395-4412-bb5a-44842f0e33e4",
    "data": [
      {
        "text": "quem criou você",
        "userDefined": false
      }
    ],
    "isTemplate": false,
    "count": 0,
    "updated": 0
  },
  {
    "id": "8df3b3a9-2746-43ee-a81b-cf8fa0f8a950",
    "data": [
      {
        "text": "quem foram seus criadores",
        "userDefined": false
      }
    ],
    "isTemplate": false,
    "count": 0,
    "updated": 0
  },
  {
    "id": "fa492e34-f61f-493a-aa2e-0be972792ba4",
    "data": [
      {
        "text": "você pode me contar algo sobre seus criadores",
        "userDefined": false
      }
    ],
    "isTemplate": false,
    "count": 0,
    "updated": 0
  }
]