[
  {
    "id": "98c99161-2ac1-48ac-9796-a7d05a0aea04",
    "data": [
      {
        "text": "e il tuo sito",
        "userDefined": false
      }
    ],
    "isTemplate": false,
    "count": 1,
    "updated": 0
  },
  {
    "id": "85c25862-3660-432b-8224-dec47c6ba6a7",
    "data": [
      {
        "text": "mostra il tuo sito",
        "userDefined": false
      }
    ],
    "isTemplate": false,
    "count": 0,
    "updated": 0
  },
  {
    "id": "ad6e5484-061c-499d-97d1-7641e8f03019",
    "data": [
      {
        "text": "ha anche un sito",
        "userDefined": false
      }
    ],
    "isTemplate": false,
    "count": 0,
    "updated": 0
  },
  {
    "id": "6adf38a6-52dc-4962-9f4a-be0dcf242b0b",
    "data": [
      {
        "text": "e la tua pagina web",
        "userDefined": false
      }
    ],
    "isTemplate": false,
    "count": 0,
    "updated": 0
  },
  {
    "id": "5d23cd83-f127-4bfa-9116-f63ebc3265c2",
    "data": [
      {
        "text": "hanno anche il sito",
        "userDefined": false
      }
    ],
    "isTemplate": false,
    "count": 0,
    "updated": 0
  },
  {
    "id": "b3aa26f9-3d97-4a10-b143-ab38b7b8b1fa",
    "data": [
      {
        "text": "anche il sito",
        "userDefined": false
      }
    ],
    "isTemplate": false,
    "count": 0,
    "updated": 0
  },
  {
    "id": "50bc47e2-221e-4743-93c8-98eea1f9da6e",
    "data": [
      {
        "text": "anche il tuo sito",
        "userDefined": false
      }
    ],
    "isTemplate": false,
    "count": 0,
    "updated": 0
  },
  {
    "id": "a92baf7f-fcfe-4f1e-b101-1d7b3fc68da5",
    "data": [
      {
        "text": "mostrami il tuo sito",
        "userDefined": false
      }
    ],
    "isTemplate": false,
    "count": 0,
    "updated": 0
  }
]