[
  {
    "id": "6dd9cc3b-df44-4e22-8a56-2e3643881706",
    "data": [
      {
        "text": "как насчёт номера телефона",
        "userDefined": false
      }
    ],
    "isTemplate": false,
    "count": 0,
    "updated": 0
  },
  {
    "id": "af655d93-0230-4de7-aa6c-e4471b57474a",
    "data": [
      {
        "text": "ещё мне нужен их телефон",
        "userDefined": false
      }
    ],
    "isTemplate": false,
    "count": 0,
    "updated": 0
  },
  {
    "id": "cab443f9-6564-4fc2-a25b-a578286f8c0a",
    "data": [
      {
        "text": "и телефон",
        "userDefined": false
      }
    ],
    "isTemplate": false,
    "count": 0,
    "updated": 0
  },
  {
    "id": "290c1d03-152a-4465-8ce4-2a9aba975016",
    "data": [
      {
        "text": "номер телефона",
        "userDefined": false
      }
    ],
    "isTemplate": false,
    "count": 0,
    "updated": 0
  },
  {
    "id": "ab7dfd50-9467-41e3-977a-f8f5e3bf7ca5",
    "data": [
      {
        "text": "можно мне им позвонить",
        "userDefined": false
      }
    ],
    "isTemplate": false,
    "count": 0,
    "updated": 0
  },
  {
    "id": "6284295d-c9c6-497e-8875-b929fc7eb414",
    "data": [
      {
        "text": "теперь номер телефона",
        "userDefined": false
      }
    ],
    "isTemplate": false,
    "count": 0,
    "updated": 0
  },
  {
    "id": "0acba8bf-bc7a-44a7-8131-66eac0fe8483",
    "data": [
      {
        "text": "также телефон",
        "userDefined": false
      }
    ],
    "isTemplate": false,
    "count": 0,
    "updated": 0
  },
  {
    "id": "ff5753ff-06c9-420b-9deb-6000dc42778d",
    "data": [
      {
        "text": "и контактный номер",
        "userDefined": false
      }
    ],
    "isTemplate": false,
    "count": 0,
    "updated": 0
  },
  {
    "id": "ea70511c-c3d3-42d0-8f86-d3c8c264dd58",
    "data": [
      {
        "text": "что насчёт контактного номера",
        "userDefined": false
      }
    ],
    "isTemplate": false,
    "count": 0,
    "updated": 0
  },
  {
    "id": "ebf34b66-7aa8-4232-88fd-1fe8baed0ad4",
    "data": [
      {
        "text": "и их телефон",
        "userDefined": false
      }
    ],
    "isTemplate": false,
    "count": 0,
    "updated": 0
  },
  {
    "id": "31274fae-7f5d-4fec-90fe-e88b40f940fe",
    "data": [
      {
        "text": "что насчёт номера телефона",
        "userDefined": false
      }
    ],
    "isTemplate": false,
    "count": 0,
    "updated": 0
  },
  {
    "id": "6c76a6de-1f38-4f03-a68d-8afe0058a5da",
    "data": [
      {
        "text": "как им позвонить",
        "userDefined": false
      }
    ],
    "isTemplate": false,
    "count": 0,
    "updated": 0
  },
  {
    "id": "089ea874-fda3-415f-bc97-acd13bdfa190",
    "data": [
      {
        "text": "их номер",
        "userDefined": false
      }
    ],
    "isTemplate": false,
    "count": 0,
    "updated": 0
  }
]