[
  {
    "id": "ccc9b40e-9d7b-415c-9787-887480696d41",
    "data": [
      {
        "text": "also that ",
        "userDefined": false
      },
      {
        "text": "there are some problems",
        "alias": "message",
        "meta": "@sys.any",
        "userDefined": true
      }
    ],
    "isTemplate": false,
    "count": 0,
    "updated": 0
  },
  {
    "id": "8d6cee32-d108-44b4-8d39-962418b2bd45",
    "data": [
      {
        "text": "and ",
        "userDefined": false
      },
      {
        "text": "the app crushes all the time",
        "alias": "message",
        "meta": "@sys.any",
        "userDefined": true
      }
    ],
    "isTemplate": false,
    "count": 0,
    "updated": 0
  },
  {
    "id": "0615370a-3a86-448c-bb70-b15285b31679",
    "data": [
      {
        "text": "also that ",
        "userDefined": false
      },
      {
        "text": "I have a problem",
        "alias": "message",
        "meta": "@sys.any",
        "userDefined": true
      }
    ],
    "isTemplate": false,
    "count": 0,
    "updated": 0
  },
  {
    "id": "c4bb0b1b-df88-4bc8-8030-0e3b6e7bcbab",
    "data": [
      {
        "text": "please add that ",
        "userDefined": false
      },
      {
        "text": "I don\u0027t like it",
        "alias": "message",
        "meta": "@sys.any",
        "userDefined": true
      }
    ],
    "isTemplate": false,
    "count": 0,
    "updated": 0
  },
  {
    "id": "8fd7170d-18b3-4f1b-926d-58ee1d40323a",
    "data": [
      {
        "text": "and that ",
        "userDefined": false
      },
      {
        "text": "mic is not working",
        "alias": "message",
        "meta": "@sys.any",
        "userDefined": true
      }
    ],
    "isTemplate": false,
    "count": 0,
    "updated": 0
  },
  {
    "id": "c41c3c0b-009c-4ee6-aca8-0aba0affa1fe",
    "data": [
      {
        "text": "also that ",
        "userDefined": false
      },
      {
        "text": "the mic does not work",
        "alias": "message",
        "meta": "@sys.any",
        "userDefined": true
      }
    ],
    "isTemplate": false,
    "count": 0,
    "updated": 0
  },
  {
    "id": "10b26de7-6cf9-4e1f-abc0-e932c3d256df",
    "data": [
      {
        "text": "also ",
        "userDefined": false
      },
      {
        "text": "voice recognition is not accurate",
        "alias": "message",
        "meta": "@sys.any",
        "userDefined": true
      }
    ],
    "isTemplate": false,
    "count": 0,
    "updated": 0
  },
  {
    "id": "e4aa3fda-3923-42fd-bf51-ced92e6d416f",
    "data": [
      {
        "text": "and add that ",
        "userDefined": false
      },
      {
        "text": "the mic works bad",
        "alias": "message",
        "meta": "@sys.any",
        "userDefined": true
      }
    ],
    "isTemplate": false,
    "count": 0,
    "updated": 0
  },
  {
    "id": "c38e77f2-1a1a-4882-a182-9234d62040c3",
    "data": [
      {
        "text": "and that ",
        "userDefined": false
      },
      {
        "text": "there is a mic  problem",
        "alias": "message",
        "meta": "@sys.any",
        "userDefined": true
      }
    ],
    "isTemplate": false,
    "count": 0,
    "updated": 0
  }
]