[
  {
    "id": "50dcf979-ce13-4e60-94eb-71634264888f",
    "data": [
      {
        "text": "デベロッパーのメールアドレスを教えてください",
        "userDefined": false
      }
    ],
    "isTemplate": false,
    "count": 0,
    "updated": 0
  },
  {
    "id": "9eb55391-f79e-42b6-b271-f0496d158415",
    "data": [
      {
        "text": "デベロッパーのメールアドレスを教えて",
        "userDefined": false
      }
    ],
    "isTemplate": false,
    "count": 0,
    "updated": 0
  },
  {
    "id": "025bfdc3-0faf-4a2f-81f1-4204b3517cd5",
    "data": [
      {
        "text": "デベロッパーにメールを送信してもいいですか",
        "userDefined": false
      }
    ],
    "isTemplate": false,
    "count": 0,
    "updated": 0
  },
  {
    "id": "31a4f6c7-0bfc-499a-9108-42455c4102f0",
    "data": [
      {
        "text": "開発者のメールアドレスは何ですか",
        "userDefined": false
      }
    ],
    "isTemplate": false,
    "count": 0,
    "updated": 0
  },
  {
    "id": "2de6098b-7559-4ecc-bf20-ad45886fb8c7",
    "data": [
      {
        "text": "デベロッパーのメールアドレスを教えていただけますか",
        "userDefined": false
      }
    ],
    "isTemplate": false,
    "count": 0,
    "updated": 0
  },
  {
    "id": "d6d2a2ea-43e9-4a81-a75e-ff99c34e944e",
    "data": [
      {
        "text": "デベロッパーのメールアドレスを知らせて",
        "userDefined": false
      }
    ],
    "isTemplate": false,
    "count": 0,
    "updated": 0
  },
  {
    "id": "be8ef909-b521-43d4-8b57-1dde66956d8f",
    "data": [
      {
        "text": "デベロッパーに連絡をとりたいのでメールアドレスを教えて",
        "userDefined": false
      }
    ],
    "isTemplate": false,
    "count": 0,
    "updated": 0
  },
  {
    "id": "08130362-7824-4c5e-92ad-fc0a4eefffb3",
    "data": [
      {
        "text": "あなたの作成者にメールする方法",
        "userDefined": false
      }
    ],
    "isTemplate": false,
    "count": 0,
    "updated": 0
  },
  {
    "id": "429a75ed-7fa3-4e95-abbf-08088ed73e24",
    "data": [
      {
        "text": "デベロッパー宛てにメールを書きたい",
        "userDefined": false
      }
    ],
    "isTemplate": false,
    "count": 0,
    "updated": 0
  },
  {
    "id": "f1176be3-211a-4e9d-8016-587efd72f405",
    "data": [
      {
        "text": "デベロッパーに問い合わせたいのでメールアドレスを教えてください",
        "userDefined": false
      }
    ],
    "isTemplate": false,
    "count": 1,
    "updated": 0
  }
]