{
  "id": "c703f106-f8ef-4d6a-b70f-2c1783c33293",
  "name": "time.set",
  "auto": true,
  "contexts": [],
  "responses": [
    {
      "resetContexts": false,
      "action": "time.set",
      "affectedContexts": [],
      "parameters": [
        {
          "id": "03fa4da2-e555-4d40-a437-a7a95a3ae564",
          "required": false,
          "dataType": "@sys.time",
          "name": "time",
          "value": "$time",
          "promptMessages": [],
          "noMatchPromptMessages": [],
          "noInputPromptMessages": [],
          "outputDialogContexts": [],
          "isList": false
        }
      ],
      "messages": [
        {
          "type": 0,
          "lang": "en",
          "condition": "",
          "speech": []
        }
      ],
      "defaultResponsePlatforms": {},
      "speech": []
    }
  ],
  "priority": 500000,
  "webhookUsed": false,
  "webhookForSlotFilling": false,
  "fallbackIntent": false,
  "events": [],
  "conditionalResponses": [],
  "condition": "",
  "conditionalFollowupEvents": []
}