{
  "id": "d0e3487b-8750-419b-b2ee-1b4b5691f2f5",
  "name": "time.convert - context:convert-time - comment: time",
  "auto": true,
  "contexts": [
    "convert-time"
  ],
  "responses": [
    {
      "resetContexts": false,
      "action": "time.convert",
      "affectedContexts": [],
      "parameters": [
        {
          "id": "ed937403-e84e-4835-905e-da202619dfc5",
          "required": false,
          "dataType": "@sys.time",
          "name": "time-from",
          "value": "$time-from",
          "promptMessages": [],
          "noMatchPromptMessages": [],
          "noInputPromptMessages": [],
          "outputDialogContexts": [],
          "isList": false
        }
      ],
      "messages": [
        {
          "type": 0,
          "lang": "en",
          "condition": "",
          "speech": []
        }
      ],
      "defaultResponsePlatforms": {},
      "speech": []
    }
  ],
  "priority": 500000,
  "webhookUsed": false,
  "webhookForSlotFilling": false,
  "fallbackIntent": false,
  "events": [],
  "conditionalResponses": [],
  "condition": "",
  "conditionalFollowupEvents": []
}