{
  "id": "e5843bca-3223-42c6-ab2d-4f5901767705",
  "name": "traffic.route.get",
  "auto": true,
  "contexts": [],
  "responses": [
    {
      "resetContexts": false,
      "action": "traffic.route.get",
      "affectedContexts": [
        {
          "name": "traffic",
          "parameters": {},
          "lifespan": 3
        }
      ],
      "parameters": [
        {
          "id": "0c1bcf93-60c8-4edc-bd29-c635e6b01ca2",
          "required": false,
          "dataType": "@traffic-event",
          "name": "event",
          "value": "$event",
          "promptMessages": [],
          "noMatchPromptMessages": [],
          "noInputPromptMessages": [],
          "outputDialogContexts": [],
          "isList": false
        },
        {
          "id": "b8a06da8-5e64-42ef-86a7-4e7a8b9acf1c",
          "required": false,
          "dataType": "@sys.location",
          "name": "address-to",
          "value": "$address-to",
          "promptMessages": [],
          "noMatchPromptMessages": [],
          "noInputPromptMessages": [],
          "outputDialogContexts": [],
          "isList": false
        },
        {
          "id": "a47b4fef-1bdc-4f57-9517-d2c15b210f08",
          "required": false,
          "dataType": "@sys.location",
          "name": "address-from",
          "value": "$address-from",
          "promptMessages": [],
          "noMatchPromptMessages": [],
          "noInputPromptMessages": [],
          "outputDialogContexts": [],
          "isList": false
        }
      ],
      "messages": [
        {
          "type": 0,
          "lang": "en",
          "condition": "",
          "speech": []
        }
      ],
      "defaultResponsePlatforms": {},
      "speech": []
    }
  ],
  "priority": 500000,
  "webhookUsed": false,
  "webhookForSlotFilling": false,
  "fallbackIntent": false,
  "events": [],
  "conditionalResponses": [],
  "condition": "",
  "conditionalFollowupEvents": []
}