[
  {
    "id": "9a9d4060-461f-4ea9-becd-42cc13c77651",
    "data": [
      {
        "text": "ora ",
        "userDefined": false
      },
      {
        "text": "sto bene",
        "alias": "text",
        "meta": "@sys.any",
        "userDefined": true
      },
      {
        "text": " dall\u0027",
        "userDefined": false
      },
      {
        "text": "inglese",
        "alias": "lang-from",
        "meta": "@sys.language",
        "userDefined": true
      }
    ],
    "isTemplate": false,
    "count": 0,
    "updated": 0
  },
  {
    "id": "4358f040-e5f9-4e84-b02e-ed1459d05ee3",
    "data": [
      {
        "text": "ora ",
        "userDefined": false
      },
      {
        "text": "lo stesso",
        "meta": "@sys.ignore",
        "userDefined": true
      },
      {
        "text": " dallo ",
        "userDefined": false
      },
      {
        "text": "spagnolo",
        "alias": "lang-from",
        "meta": "@sys.language",
        "userDefined": true
      }
    ],
    "isTemplate": false,
    "count": 0,
    "updated": 0
  },
  {
    "id": "16ec6ae2-412b-45f8-9960-907fa5834754",
    "data": [
      {
        "text": "anche dall\u0027",
        "userDefined": false
      },
      {
        "text": "italiano",
        "alias": "lang-from",
        "meta": "@sys.language",
        "userDefined": true
      }
    ],
    "isTemplate": false,
    "count": 0,
    "updated": 0
  }
]