[
  {
    "id": "901d0483-96e8-4826-a85b-47a4b8aa54e8",
    "data": [
      {
        "text": "and to ",
        "userDefined": false
      },
      {
        "text": "Spanish",
        "alias": "lang-to",
        "meta": "@sys.language",
        "userDefined": false
      },
      {
        "text": " ",
        "userDefined": false
      },
      {
        "text": "now",
        "meta": "@sys.ignore",
        "userDefined": false
      }
    ],
    "isTemplate": false,
    "count": 0,
    "updated": 0
  },
  {
    "id": "404dd374-66f1-42a3-9eae-aa046fb1cc1a",
    "data": [
      {
        "text": "now",
        "meta": "@sys.ignore",
        "userDefined": false
      },
      {
        "text": " ",
        "userDefined": false
      },
      {
        "text": "hello",
        "alias": "text",
        "meta": "@sys.any",
        "userDefined": true
      },
      {
        "text": " in ",
        "userDefined": false
      },
      {
        "text": "French",
        "alias": "lang-to",
        "meta": "@sys.language",
        "userDefined": false
      }
    ],
    "isTemplate": false,
    "count": 0,
    "updated": 0
  },
  {
    "id": "cb0b529c-ccb0-4cd0-9d01-421bb3da8a72",
    "data": [
      {
        "text": "hello",
        "alias": "text",
        "meta": "@sys.any",
        "userDefined": true
      },
      {
        "text": " into ",
        "userDefined": false
      },
      {
        "text": "Russian",
        "alias": "lang-to",
        "meta": "@sys.language",
        "userDefined": false
      }
    ],
    "isTemplate": false,
    "count": 0,
    "updated": 0
  },
  {
    "id": "c871a160-f0bc-4811-8bc8-686d0701e860",
    "data": [
      {
        "text": "how about ",
        "userDefined": false
      },
      {
        "text": "hello",
        "alias": "text",
        "meta": "@sys.any",
        "userDefined": true
      },
      {
        "text": " in ",
        "userDefined": false
      },
      {
        "text": "French",
        "alias": "lang-to",
        "meta": "@sys.language",
        "userDefined": false
      }
    ],
    "isTemplate": false,
    "count": 0,
    "updated": 0
  },
  {
    "id": "aea7b989-7f11-4c52-abe0-ff200f103194",
    "data": [
      {
        "text": "now into ",
        "userDefined": false
      },
      {
        "text": "German",
        "alias": "lang-to",
        "meta": "@sys.language",
        "userDefined": true
      }
    ],
    "isTemplate": false,
    "count": 0,
    "updated": 0
  },
  {
    "id": "d235e7a6-ffac-47ba-9fb4-e80afeee5f01",
    "data": [
      {
        "text": "and ",
        "userDefined": false
      },
      {
        "text": "how are you",
        "alias": "text",
        "meta": "@sys.any",
        "userDefined": true
      },
      {
        "text": " in ",
        "userDefined": false
      },
      {
        "text": "Spanish",
        "alias": "lang-to",
        "meta": "@sys.language",
        "userDefined": false
      }
    ],
    "isTemplate": false,
    "count": 0,
    "updated": 0
  },
  {
    "id": "e19e6345-54f7-4078-9a52-8196f0216ac0",
    "data": [
      {
        "text": "and ",
        "userDefined": false
      },
      {
        "text": "now",
        "meta": "@sys.ignore",
        "userDefined": false
      },
      {
        "text": " into ",
        "userDefined": false
      },
      {
        "text": "Italian",
        "alias": "lang-to",
        "meta": "@sys.language",
        "userDefined": false
      }
    ],
    "isTemplate": false,
    "count": 0,
    "updated": 0
  },
  {
    "id": "ac944ffe-9f0a-4f84-b211-1d803a7e94d6",
    "data": [
      {
        "text": "how about ",
        "userDefined": false
      },
      {
        "text": "ciao",
        "alias": "text",
        "meta": "@sys.any",
        "userDefined": true
      },
      {
        "text": " to ",
        "userDefined": false
      },
      {
        "text": "French",
        "alias": "lang-to",
        "meta": "@sys.language",
        "userDefined": true
      }
    ],
    "isTemplate": false,
    "count": 0,
    "updated": 0
  },
  {
    "id": "e5dea960-97a2-4b5d-8e38-0df833ac56f8",
    "data": [
      {
        "text": "Spanish",
        "alias": "lang-to",
        "meta": "@sys.language",
        "userDefined": false
      }
    ],
    "isTemplate": false,
    "count": 0,
    "updated": 0
  },
  {
    "id": "8b97edc3-fd36-482f-b6c6-b25517851fa0",
    "data": [
      {
        "text": "how about ",
        "userDefined": false
      },
      {
        "text": "French",
        "alias": "lang-to",
        "meta": "@sys.language",
        "userDefined": false
      }
    ],
    "isTemplate": false,
    "count": 0,
    "updated": 0
  },
  {
    "id": "db1b1042-542d-4918-b048-72be4f060fda",
    "data": [
      {
        "text": "and in ",
        "userDefined": false
      },
      {
        "text": "French",
        "alias": "lang-to",
        "meta": "@sys.language",
        "userDefined": false
      }
    ],
    "isTemplate": false,
    "count": 0,
    "updated": 0
  },
  {
    "id": "e9033483-6ffe-4d6a-8e54-d156ddcf8ea2",
    "data": [
      {
        "text": "and ",
        "userDefined": false
      },
      {
        "text": "nice",
        "alias": "text",
        "meta": "@sys.any",
        "userDefined": true
      },
      {
        "text": " to ",
        "userDefined": false
      },
      {
        "text": "Spanish",
        "alias": "lang-to",
        "meta": "@sys.language",
        "userDefined": true
      }
    ],
    "isTemplate": false,
    "count": 0,
    "updated": 0
  },
  {
    "id": "e58b40f1-ed65-4f3c-b8ae-0eb737839d30",
    "data": [
      {
        "text": "now",
        "meta": "@sys.ignore",
        "userDefined": false
      },
      {
        "text": " to ",
        "userDefined": false
      },
      {
        "text": "Russian",
        "alias": "lang-to",
        "meta": "@sys.language",
        "userDefined": false
      }
    ],
    "isTemplate": false,
    "count": 0,
    "updated": 0
  },
  {
    "id": "058cc29b-e92a-4957-b450-fcc9f894bd78",
    "data": [
      {
        "text": "into ",
        "userDefined": false
      },
      {
        "text": "Russian",
        "alias": "lang-to",
        "meta": "@sys.language",
        "userDefined": true
      }
    ],
    "isTemplate": false,
    "count": 0,
    "updated": 0
  },
  {
    "id": "e3464381-fadf-4e99-9efa-8a2a4ccf56b1",
    "data": [
      {
        "text": "hello",
        "alias": "text",
        "meta": "@sys.any",
        "userDefined": true
      },
      {
        "text": " into ",
        "userDefined": false
      },
      {
        "text": "Spanish",
        "alias": "lang-to",
        "meta": "@sys.language",
        "userDefined": false
      }
    ],
    "isTemplate": false,
    "count": 0,
    "updated": 0
  },
  {
    "id": "7e393499-a48f-4f3f-80a3-034f49cdba6c",
    "data": [
      {
        "text": "and into ",
        "userDefined": false
      },
      {
        "text": "Italian",
        "alias": "lang-to",
        "meta": "@sys.language",
        "userDefined": true
      }
    ],
    "isTemplate": false,
    "count": 0,
    "updated": 0
  },
  {
    "id": "c73b4a01-e542-405f-9065-4a2d0049a346",
    "data": [
      {
        "text": "how about ",
        "userDefined": false
      },
      {
        "text": "German",
        "alias": "lang-to",
        "meta": "@sys.language",
        "userDefined": true
      }
    ],
    "isTemplate": false,
    "count": 0,
    "updated": 0
  },
  {
    "id": "5fff449e-2597-44ac-b914-6c030e09226a",
    "data": [
      {
        "text": "in ",
        "userDefined": false
      },
      {
        "text": "French",
        "alias": "lang-to",
        "meta": "@sys.language",
        "userDefined": true
      },
      {
        "text": " too",
        "userDefined": false
      }
    ],
    "isTemplate": false,
    "count": 0,
    "updated": 0
  },
  {
    "id": "fe34538e-a1ee-4d83-b5ee-88c15fddd135",
    "data": [
      {
        "text": "into ",
        "userDefined": false
      },
      {
        "text": "Japanese",
        "alias": "lang-to",
        "meta": "@sys.language",
        "userDefined": true
      },
      {
        "text": " as well",
        "userDefined": false
      }
    ],
    "isTemplate": false,
    "count": 0,
    "updated": 0
  }
]