[
  {
    "id": "9bcee5e3-8c7e-4c78-b50e-cb01cb11216a",
    "data": [
      {
        "text": "還需要",
        "userDefined": false
      },
      {
        "text": "再見",
        "alias": "text",
        "meta": "@sys.any",
        "userDefined": true
      },
      {
        "text": "爲韓語",
        "userDefined": false
      }
    ],
    "isTemplate": false,
    "count": 0,
    "updated": 0
  },
  {
    "id": "16fd0f59-93c8-4be2-83e3-978572d5e90d",
    "data": [
      {
        "text": "關于",
        "userDefined": false
      },
      {
        "text": "雨傘",
        "alias": "text",
        "meta": "@sys.any",
        "userDefined": true
      },
      {
        "text": "爲",
        "userDefined": false
      },
      {
        "text": "日語",
        "alias": "lang-to",
        "meta": "@sys.language",
        "userDefined": false
      }
    ],
    "isTemplate": false,
    "count": 0,
    "updated": 0
  },
  {
    "id": "3e45da90-bd73-4c8b-a66c-204c616eb557",
    "data": [
      {
        "text": "能不能翻譯",
        "userDefined": false
      },
      {
        "text": "我愛你",
        "alias": "text",
        "meta": "@sys.any",
        "userDefined": true
      },
      {
        "text": "子爲",
        "userDefined": false
      },
      {
        "text": "意大利語",
        "alias": "lang-to",
        "meta": "@sys.language",
        "userDefined": false
      }
    ],
    "isTemplate": false,
    "count": 0,
    "updated": 0
  },
  {
    "id": "d0593875-d077-40d8-ad4c-25f6b01e3597",
    "data": [
      {
        "text": "怎麽能翻譯你好爲",
        "userDefined": false
      },
      {
        "text": "俄語",
        "alias": "lang-to",
        "meta": "@sys.language",
        "userDefined": false
      }
    ],
    "isTemplate": false,
    "count": 0,
    "updated": 0
  },
  {
    "id": "5e033344-795e-416d-8ad4-529cab6a7ee1",
    "data": [
      {
        "text": "我還要翻譯爲",
        "userDefined": false
      },
      {
        "text": "英語",
        "alias": "lang-to",
        "meta": "@sys.language",
        "userDefined": false
      }
    ],
    "isTemplate": false,
    "count": 0,
    "updated": 0
  },
  {
    "id": "32ecbba8-b196-4f49-af0a-b4f7a1d74c44",
    "data": [
      {
        "text": "你好",
        "alias": "text",
        "meta": "@sys.any",
        "userDefined": true
      },
      {
        "text": "到",
        "userDefined": false
      },
      {
        "text": "英文",
        "alias": "lang-to",
        "meta": "@sys.language",
        "userDefined": true
      }
    ],
    "isTemplate": false,
    "count": 0,
    "updated": 0
  },
  {
    "id": "c8840ae2-6052-4522-b198-ebdd4c208bc3",
    "data": [
      {
        "text": "你好",
        "alias": "text",
        "meta": "@sys.any",
        "userDefined": true
      },
      {
        "text": "翻譯成",
        "userDefined": false
      },
      {
        "text": "中文",
        "alias": "lang-to",
        "meta": "@sys.language",
        "userDefined": true
      }
    ],
    "isTemplate": false,
    "count": 0,
    "updated": 0
  },
  {
    "id": "bb38eba4-8285-43fd-ae09-4b3e727f7ab4",
    "data": [
      {
        "text": "會不會翻譯成",
        "userDefined": false
      },
      {
        "text": "日文",
        "alias": "lang-to",
        "meta": "@sys.language",
        "userDefined": true
      }
    ],
    "isTemplate": false,
    "count": 0,
    "updated": 0
  },
  {
    "id": "6172dbd2-a52f-45bd-890c-90c062cf4b41",
    "data": [
      {
        "text": "現在",
        "userDefined": false
      },
      {
        "text": "你好",
        "alias": "text",
        "meta": "@sys.any",
        "userDefined": true
      },
      {
        "text": "爲了",
        "userDefined": false
      },
      {
        "text": "阿拉伯語",
        "alias": "lang-to",
        "meta": "@sys.language",
        "userDefined": false
      }
    ],
    "isTemplate": false,
    "count": 0,
    "updated": 0
  },
  {
    "id": "0abf4deb-6b12-4f99-93ba-78aa16d0d6e8",
    "data": [
      {
        "text": "還要",
        "userDefined": false
      },
      {
        "text": "句子",
        "alias": "text",
        "meta": "@sys.any",
        "userDefined": true
      },
      {
        "text": "爲",
        "userDefined": false
      },
      {
        "text": "法語",
        "alias": "lang-to",
        "meta": "@sys.language",
        "userDefined": false
      }
    ],
    "isTemplate": false,
    "count": 0,
    "updated": 0
  }
]