[
  {
    "id": "d48f6f6b-58a3-4a54-9c2f-6eb15d4941b8",
    "data": [
      {
        "text": "帮我翻译",
        "userDefined": false
      },
      {
        "text": "我爱你",
        "alias": "text",
        "meta": "@sys.any",
        "userDefined": true
      }
    ],
    "isTemplate": false,
    "count": 0,
    "updated": 0
  },
  {
    "id": "4e1a992d-a85d-47f3-bed2-68b2f6900a34",
    "data": [
      {
        "text": "你可以做我的翻译吗",
        "userDefined": false
      }
    ],
    "isTemplate": false,
    "count": 0,
    "updated": 0
  },
  {
    "id": "2cbddcfc-5c68-4d61-a35f-5f2d84559a9b",
    "data": [
      {
        "text": "我爱你",
        "alias": "text",
        "meta": "@sys.any",
        "userDefined": true
      },
      {
        "text": "翻译成",
        "userDefined": false
      },
      {
        "text": "德语",
        "alias": "lang-to",
        "meta": "@sys.language",
        "userDefined": false
      }
    ],
    "isTemplate": false,
    "count": 0,
    "updated": 0
  },
  {
    "id": "e573ab94-0ccf-407f-b41e-6561018cd133",
    "data": [
      {
        "text": "你好",
        "alias": "text",
        "meta": "@sys.any",
        "userDefined": true
      },
      {
        "text": "从",
        "userDefined": false
      },
      {
        "text": "中文",
        "alias": "lang-from",
        "meta": "@sys.language",
        "userDefined": true
      },
      {
        "text": "翻译",
        "meta": "@sys.ignore",
        "userDefined": false
      },
      {
        "text": "成",
        "meta": "@sys.ignore",
        "userDefined": false
      },
      {
        "text": "英文",
        "alias": "lang-to",
        "meta": "@sys.language",
        "userDefined": true
      }
    ],
    "isTemplate": false,
    "count": 0,
    "updated": 0
  },
  {
    "id": "9a029d42-d926-47d5-a82c-690d51e0d0be",
    "data": [
      {
        "text": "翻译成",
        "userDefined": false
      },
      {
        "text": "英语",
        "alias": "lang-from",
        "meta": "@sys.language",
        "userDefined": false
      }
    ],
    "isTemplate": false,
    "count": 0,
    "updated": 0
  },
  {
    "id": "5aab4554-941b-4496-a3c9-562ce7da879b",
    "data": [
      {
        "text": "能帮我翻译吗",
        "userDefined": false
      }
    ],
    "isTemplate": false,
    "count": 0,
    "updated": 0
  },
  {
    "id": "87449b33-0d21-47c1-a364-392a02f9db1c",
    "data": [
      {
        "text": "在线翻译",
        "userDefined": false
      }
    ],
    "isTemplate": false,
    "count": 0,
    "updated": 0
  },
  {
    "id": "5e8fd567-821a-4df6-9b22-b6be301cf9ba",
    "data": [
      {
        "text": "语言翻译",
        "userDefined": false
      }
    ],
    "isTemplate": false,
    "count": 0,
    "updated": 0
  },
  {
    "id": "51db78a9-c4a3-44ca-9ba8-1b1f948a3dbb",
    "data": [
      {
        "text": "你好",
        "alias": "text",
        "meta": "@sys.any",
        "userDefined": true
      },
      {
        "text": "日语",
        "alias": "lang-to",
        "meta": "@sys.language",
        "userDefined": true
      },
      {
        "text": "翻译",
        "userDefined": false
      }
    ],
    "isTemplate": false,
    "count": 0,
    "updated": 0
  },
  {
    "id": "2cffaef7-fe5c-448d-8ec3-7a51f0cc5b41",
    "data": [
      {
        "text": "将“",
        "userDefined": false
      },
      {
        "text": "我爱你",
        "alias": "text",
        "meta": "@sys.any",
        "userDefined": true
      },
      {
        "text": "”翻译成",
        "userDefined": false
      },
      {
        "text": "法语",
        "alias": "lang-to",
        "meta": "@sys.language",
        "userDefined": false
      }
    ],
    "isTemplate": false,
    "count": 1,
    "updated": 0
  },
  {
    "id": "e4a00ed2-1459-4ae6-aa35-f25a6f022146",
    "data": [
      {
        "text": "我怎么翻译",
        "userDefined": false
      }
    ],
    "isTemplate": false,
    "count": 0,
    "updated": 0
  },
  {
    "id": "f703a26d-a884-42cd-a223-27a06bc40631",
    "data": [
      {
        "text": "翻译从",
        "userDefined": false
      },
      {
        "text": "法语",
        "alias": "lang-from",
        "meta": "@sys.language",
        "userDefined": false
      }
    ],
    "isTemplate": false,
    "count": 0,
    "updated": 0
  },
  {
    "id": "1a731a91-dc3d-4ee7-bd87-5521c7f7af60",
    "data": [
      {
        "text": "“",
        "userDefined": false
      },
      {
        "text": "早餐",
        "alias": "text",
        "meta": "@sys.any",
        "userDefined": true
      },
      {
        "text": "”对应的",
        "userDefined": false
      },
      {
        "text": "德语",
        "alias": "lang-to",
        "meta": "@sys.language",
        "userDefined": true
      },
      {
        "text": "单词是什么",
        "userDefined": false
      }
    ],
    "isTemplate": false,
    "count": 1,
    "updated": 0
  },
  {
    "id": "21d58546-6dc6-4bc2-9fcf-534d07eccd1d",
    "data": [
      {
        "text": "翻译成",
        "userDefined": false
      },
      {
        "text": "韩文",
        "alias": "lang-to",
        "meta": "@sys.language",
        "userDefined": true
      }
    ],
    "isTemplate": false,
    "count": 0,
    "updated": 0
  },
  {
    "id": "11ce87fc-549e-4672-8cec-3643ac598c38",
    "data": [
      {
        "text": "你可以帮我翻译吗",
        "userDefined": false
      }
    ],
    "isTemplate": false,
    "count": 0,
    "updated": 0
  },
  {
    "id": "f1bdeee9-bab2-408d-98af-3f93bd6fd17d",
    "data": [
      {
        "text": "从",
        "userDefined": false
      },
      {
        "text": "日语",
        "alias": "lang-from",
        "meta": "@sys.language",
        "userDefined": false
      },
      {
        "text": "到",
        "userDefined": false
      },
      {
        "text": "法语",
        "alias": "lang-to",
        "meta": "@sys.language",
        "userDefined": false
      },
      {
        "text": "翻译",
        "userDefined": false
      },
      {
        "text": "你好",
        "alias": "text",
        "meta": "@sys.any",
        "userDefined": true
      }
    ],
    "isTemplate": false,
    "count": 0,
    "updated": 0
  },
  {
    "id": "329b86a4-9383-4a85-aff0-4cc07a791200",
    "data": [
      {
        "text": "“",
        "userDefined": false
      },
      {
        "text": "圣诞老人",
        "alias": "text",
        "meta": "@sys.any",
        "userDefined": true
      },
      {
        "text": "”用",
        "userDefined": false
      },
      {
        "text": "芬兰语",
        "alias": "lang-to",
        "meta": "@sys.language",
        "userDefined": true
      },
      {
        "text": "怎么说",
        "userDefined": false
      }
    ],
    "isTemplate": false,
    "count": 1,
    "updated": 0
  },
  {
    "id": "ca26534a-059c-4d66-bfc7-858dac0ee683",
    "data": [
      {
        "text": "请你告诉我怎么翻译",
        "userDefined": false
      }
    ],
    "isTemplate": false,
    "count": 0,
    "updated": 0
  },
  {
    "id": "5d42984d-315e-439b-aef5-2efd81852e7a",
    "data": [
      {
        "text": "从",
        "userDefined": false
      },
      {
        "text": "英文",
        "alias": "lang-from",
        "meta": "@sys.language",
        "userDefined": true
      },
      {
        "text": "翻译",
        "meta": "@sys.ignore",
        "userDefined": false
      },
      {
        "text": "成",
        "meta": "@sys.ignore",
        "userDefined": false
      },
      {
        "text": "中文",
        "alias": "lang-to",
        "meta": "@sys.language",
        "userDefined": true
      }
    ],
    "isTemplate": false,
    "count": 0,
    "updated": 0
  },
  {
    "id": "168da47b-7627-4f26-a6e8-41e648e6a26a",
    "data": [
      {
        "text": "翻译",
        "userDefined": false
      }
    ],
    "isTemplate": false,
    "count": 0,
    "updated": 0
  }
]