{
  "id": "f818ef3a-be42-4b90-a481-72a7462aaa3a",
  "name": "tv_channel.switch - context:tv-switch - comment:channel",
  "auto": true,
  "contexts": [
    "tv-switch"
  ],
  "responses": [
    {
      "resetContexts": false,
      "action": "tv_channel.switch",
      "affectedContexts": [],
      "parameters": [
        {
          "id": "8843200e-da50-42d6-8a40-414ef3ae6fef",
          "required": false,
          "dataType": "@tv-channel",
          "name": "channel",
          "value": "$channel",
          "promptMessages": [],
          "noMatchPromptMessages": [],
          "noInputPromptMessages": [],
          "outputDialogContexts": [],
          "isList": false
        }
      ],
      "messages": [
        {
          "type": 0,
          "lang": "en",
          "condition": "",
          "speech": []
        }
      ],
      "defaultResponsePlatforms": {},
      "speech": []
    }
  ],
  "priority": 500000,
  "webhookUsed": false,
  "webhookForSlotFilling": false,
  "fallbackIntent": false,
  "events": [],
  "conditionalResponses": [],
  "condition": "",
  "conditionalFollowupEvents": []
}