{
  "id": "fafbefd2-cda6-4509-8fbe-ce0a90e0f3b6",
  "name": "tv_listings.search - context:tv-search - comment:person",
  "auto": true,
  "contexts": [
    "tv-search"
  ],
  "responses": [
    {
      "resetContexts": false,
      "action": "tv_listings.search",
      "affectedContexts": [],
      "parameters": [
        {
          "id": "dff8984b-1416-40ba-a400-d6e91a02216c",
          "required": false,
          "dataType": "@person",
          "name": "person",
          "value": "$person",
          "promptMessages": [],
          "noMatchPromptMessages": [],
          "noInputPromptMessages": [],
          "outputDialogContexts": [],
          "isList": false
        }
      ],
      "messages": [
        {
          "type": 0,
          "lang": "en",
          "condition": "",
          "speech": []
        }
      ],
      "defaultResponsePlatforms": {},
      "speech": []
    }
  ],
  "priority": 500000,
  "webhookUsed": false,
  "webhookForSlotFilling": false,
  "fallbackIntent": false,
  "events": [],
  "conditionalResponses": [],
  "condition": "",
  "conditionalFollowupEvents": []
}