[
  {
    "id": "2903d41f-fdbc-4456-a9f8-05dbd9b8c205",
    "data": [
      {
        "text": "and ",
        "userDefined": false
      },
      {
        "text": "now",
        "meta": "@sys.ignore",
        "userDefined": false
      },
      {
        "text": " ",
        "userDefined": false
      },
      {
        "text": "Hunger games",
        "alias": "movie",
        "meta": "@movie",
        "userDefined": false
      }
    ],
    "isTemplate": false,
    "count": 0,
    "updated": 0
  },
  {
    "id": "a6d737e4-a99c-4b1e-baf2-b656452d64de",
    "data": [
      {
        "text": "and ",
        "userDefined": false
      },
      {
        "text": "Jurassic Park",
        "alias": "movie",
        "meta": "@movie",
        "userDefined": false
      }
    ],
    "isTemplate": false,
    "count": 0,
    "updated": 0
  },
  {
    "id": "17577f5a-9214-42f5-af8e-129b0dc329dd",
    "data": [
      {
        "text": "Jurassic Park",
        "alias": "movie",
        "meta": "@movie",
        "userDefined": false
      },
      {
        "text": " ",
        "userDefined": false
      },
      {
        "text": "now",
        "meta": "@sys.ignore",
        "userDefined": false
      }
    ],
    "isTemplate": false,
    "count": 0,
    "updated": 0
  },
  {
    "id": "9e6a70fd-c295-43c7-b259-e475a301fd42",
    "data": [
      {
        "text": "Jurassic Park",
        "alias": "movie",
        "meta": "@movie",
        "userDefined": false
      },
      {
        "text": " also",
        "userDefined": false
      }
    ],
    "isTemplate": false,
    "count": 0,
    "updated": 0
  },
  {
    "id": "af02d12d-1153-4002-839d-055ca06f2d72",
    "data": [
      {
        "text": "The Revenant",
        "alias": "movie",
        "meta": "@movie",
        "userDefined": true
      },
      {
        "text": " as ",
        "userDefined": false
      },
      {
        "text": "well",
        "meta": "@sys.ignore",
        "userDefined": false
      }
    ],
    "isTemplate": false,
    "count": 0,
    "updated": 0
  },
  {
    "id": "e656f091-09e9-4e90-9a76-e1971728eb36",
    "data": [
      {
        "text": "also ",
        "userDefined": false
      },
      {
        "text": "Avatar",
        "alias": "movie",
        "meta": "@movie",
        "userDefined": false
      }
    ],
    "isTemplate": false,
    "count": 0,
    "updated": 0
  },
  {
    "id": "695627a1-285f-4f10-b13f-81b9ddbc04c4",
    "data": [
      {
        "text": "now",
        "meta": "@sys.ignore",
        "userDefined": false
      },
      {
        "text": " ",
        "userDefined": false
      },
      {
        "text": "The Shawshank Redemption",
        "alias": "movie",
        "meta": "@movie",
        "userDefined": true
      },
      {
        "text": " please",
        "userDefined": false
      }
    ],
    "isTemplate": false,
    "count": 0,
    "updated": 0
  },
  {
    "id": "62f8b4d0-60d6-4be0-af18-701d306ef232",
    "data": [
      {
        "text": "and ",
        "userDefined": false
      },
      {
        "text": "A Beautiful Mind",
        "alias": "movie",
        "meta": "@movie",
        "userDefined": false
      }
    ],
    "isTemplate": false,
    "count": 0,
    "updated": 0
  },
  {
    "id": "a6fa0e2d-26c9-4799-9416-a7eeb00545ab",
    "data": [
      {
        "text": "how about ",
        "userDefined": false
      },
      {
        "text": "Avatar",
        "alias": "movie",
        "meta": "@movie",
        "userDefined": true
      }
    ],
    "isTemplate": false,
    "count": 0,
    "updated": 0
  },
  {
    "id": "28704024-d1ea-4bf7-8d82-00ed4fb8bbae",
    "data": [
      {
        "text": "now",
        "meta": "@sys.ignore",
        "userDefined": false
      },
      {
        "text": " ",
        "userDefined": false
      },
      {
        "text": "Titanic",
        "alias": "movie",
        "meta": "@movie",
        "userDefined": false
      }
    ],
    "isTemplate": false,
    "count": 0,
    "updated": 0
  },
  {
    "id": "3e4957d5-b597-4ccf-b999-cdead8e90704",
    "data": [
      {
        "text": "what about ",
        "userDefined": false
      },
      {
        "text": "Jurassic Park",
        "alias": "movie",
        "meta": "@movie",
        "userDefined": false
      }
    ],
    "isTemplate": false,
    "count": 0,
    "updated": 0
  }
]