{
  "id": "bc38fe7d-47a2-411c-a8d4-f68e52fb66b2",
  "name": "units.convert",
  "auto": true,
  "contexts": [],
  "responses": [
    {
      "resetContexts": false,
      "action": "units.convert",
      "affectedContexts": [
        {
          "name": "convert-units",
          "parameters": {},
          "lifespan": 5
        }
      ],
      "parameters": [
        {
          "id": "203998bb-fe2a-4474-926c-847bdaed87ea",
          "required": false,
          "dataType": "@sys.number",
          "name": "amount",
          "value": "$amount",
          "promptMessages": [],
          "noMatchPromptMessages": [],
          "noInputPromptMessages": [],
          "outputDialogContexts": [],
          "isList": false
        },
        {
          "id": "203d4fe8-7f6e-4eca-b0cf-2308ef934ef2",
          "required": false,
          "dataType": "@unit",
          "name": "unit-from",
          "value": "$unit-from",
          "promptMessages": [],
          "noMatchPromptMessages": [],
          "noInputPromptMessages": [],
          "outputDialogContexts": [],
          "isList": false
        },
        {
          "id": "88c2888a-a54d-4d2e-bca1-57c7dad6a233",
          "required": false,
          "dataType": "@unit",
          "name": "unit-to",
          "value": "$unit-to",
          "promptMessages": [],
          "noMatchPromptMessages": [],
          "noInputPromptMessages": [],
          "outputDialogContexts": [],
          "isList": false
        }
      ],
      "messages": [
        {
          "type": 0,
          "lang": "en",
          "condition": "",
          "speech": []
        }
      ],
      "defaultResponsePlatforms": {},
      "speech": []
    }
  ],
  "priority": 500000,
  "webhookUsed": false,
  "webhookForSlotFilling": false,
  "fallbackIntent": false,
  "events": [],
  "conditionalResponses": [],
  "condition": "",
  "conditionalFollowupEvents": []
}