{
  "id": "ea3a691f-902a-4766-8131-dff92fc03b49",
  "name": "venues.tourist_attractions.search",
  "auto": true,
  "contexts": [],
  "responses": [
    {
      "resetContexts": false,
      "action": "venues.tourist_attractions.search",
      "affectedContexts": [
        {
          "name": "venuestourist_attractionssearch-followup",
          "parameters": {},
          "lifespan": 2
        },
        {
          "name": "venues",
          "parameters": {},
          "lifespan": 2
        }
      ],
      "parameters": [
        {
          "id": "74855e04-3599-41a6-baaa-841a27cabe56",
          "required": false,
          "dataType": "@venue-tourist-attraction-title",
          "name": "venue-title",
          "value": "$venue-title",
          "promptMessages": [],
          "noMatchPromptMessages": [],
          "noInputPromptMessages": [],
          "outputDialogContexts": [],
          "isList": false
        },
        {
          "id": "fdf5100b-87d9-47db-86f3-f135aa85897c",
          "required": false,
          "dataType": "@sys.location",
          "name": "location",
          "value": "$location",
          "promptMessages": [],
          "noMatchPromptMessages": [],
          "noInputPromptMessages": [],
          "outputDialogContexts": [],
          "isList": false
        },
        {
          "id": "7571d550-c18e-45ce-b9f9-de6b55865777",
          "required": false,
          "dataType": "@map-sort",
          "name": "sort",
          "value": "$sort",
          "promptMessages": [],
          "noMatchPromptMessages": [],
          "noInputPromptMessages": [],
          "outputDialogContexts": [],
          "isList": true
        },
        {
          "id": "dde9aa7f-89da-46f9-9cba-e163c1486d37",
          "required": false,
          "dataType": "@open",
          "name": "open",
          "value": "$open",
          "promptMessages": [],
          "noMatchPromptMessages": [],
          "noInputPromptMessages": [],
          "outputDialogContexts": [],
          "isList": false
        },
        {
          "id": "8e1efe23-7c1d-435e-8e4a-8c7462377271",
          "required": false,
          "dataType": "@venue-facility",
          "name": "venue-facility",
          "value": "$venue-facility",
          "promptMessages": [],
          "noMatchPromptMessages": [],
          "noInputPromptMessages": [],
          "outputDialogContexts": [],
          "isList": false
        },
        {
          "id": "816bf9c4-d8aa-4112-9919-15a6f6d03c19",
          "required": false,
          "dataType": "@rating",
          "name": "rating",
          "value": "$rating",
          "promptMessages": [],
          "noMatchPromptMessages": [],
          "noInputPromptMessages": [],
          "outputDialogContexts": [],
          "isList": false
        }
      ],
      "messages": [
        {
          "type": 0,
          "lang": "en",
          "condition": "",
          "speech": []
        }
      ],
      "defaultResponsePlatforms": {},
      "speech": []
    }
  ],
  "priority": 500000,
  "webhookUsed": false,
  "webhookForSlotFilling": false,
  "fallbackIntent": false,
  "events": [],
  "conditionalResponses": [],
  "condition": "",
  "conditionalFollowupEvents": []
}