{
  "id": "62b61bb6-d10b-4129-8aa5-f0edebc75645",
  "name": "venues.travel.search",
  "auto": true,
  "contexts": [],
  "responses": [
    {
      "resetContexts": false,
      "action": "venues.travel.search",
      "affectedContexts": [
        {
          "name": "venuestravelsearch-followup",
          "parameters": {},
          "lifespan": 2
        },
        {
          "name": "venues",
          "parameters": {},
          "lifespan": 2
        }
      ],
      "parameters": [
        {
          "id": "044affd6-262b-4ab8-8874-52f35b3d81a0",
          "required": false,
          "dataType": "@venue-travel-type",
          "name": "venue-type",
          "value": "$venue-type",
          "promptMessages": [],
          "noMatchPromptMessages": [],
          "noInputPromptMessages": [],
          "outputDialogContexts": [],
          "isList": false
        },
        {
          "id": "86173666-ad9d-4991-9355-34added60357",
          "required": false,
          "dataType": "@venue-travel-title",
          "name": "venue-title",
          "value": "$venue-title",
          "promptMessages": [],
          "noMatchPromptMessages": [],
          "noInputPromptMessages": [],
          "outputDialogContexts": [],
          "isList": false
        },
        {
          "id": "9c3627cc-cc50-46f2-8ae4-d67fac4c2820",
          "required": false,
          "dataType": "@venue-travel-chain",
          "name": "venue-chain",
          "value": "$venue-chain",
          "promptMessages": [],
          "noMatchPromptMessages": [],
          "noInputPromptMessages": [],
          "outputDialogContexts": [],
          "isList": false
        },
        {
          "id": "d2519f8d-c257-4df5-a9c6-bec2c14e90a4",
          "required": false,
          "dataType": "@venue-facility",
          "name": "venue-facility",
          "value": "$venue-facility",
          "promptMessages": [],
          "noMatchPromptMessages": [],
          "noInputPromptMessages": [],
          "outputDialogContexts": [],
          "isList": true
        },
        {
          "id": "4889b1d0-1071-4679-ada3-f4b9f67bdf70",
          "required": false,
          "dataType": "@sys.location",
          "name": "location",
          "value": "$location",
          "promptMessages": [],
          "noMatchPromptMessages": [],
          "noInputPromptMessages": [],
          "outputDialogContexts": [],
          "isList": false
        },
        {
          "id": "c940e908-08de-4d8f-9313-d54eb636e3dc",
          "required": false,
          "dataType": "@map-sort",
          "name": "sort",
          "value": "$sort",
          "promptMessages": [],
          "noMatchPromptMessages": [],
          "noInputPromptMessages": [],
          "outputDialogContexts": [],
          "isList": true
        },
        {
          "id": "199e9718-c8fe-41f6-86ef-dd792e966e12",
          "required": false,
          "dataType": "@open",
          "name": "open",
          "value": "$open",
          "promptMessages": [],
          "noMatchPromptMessages": [],
          "noInputPromptMessages": [],
          "outputDialogContexts": [],
          "isList": false
        }
      ],
      "messages": [
        {
          "type": 0,
          "lang": "en",
          "condition": "",
          "speech": []
        }
      ],
      "defaultResponsePlatforms": {},
      "speech": []
    }
  ],
  "priority": 500000,
  "webhookUsed": false,
  "webhookForSlotFilling": false,
  "fallbackIntent": false,
  "events": [],
  "conditionalResponses": [],
  "condition": "",
  "conditionalFollowupEvents": []
}