[
  {
    "id": "f981f8e2-8191-4890-a6df-6e5b068b744a",
    "data": [
      {
        "text": "where is ",
        "userDefined": false
      },
      {
        "text": "Olympic National Park",
        "alias": "venue-title",
        "meta": "@venue-outdoor-title",
        "userDefined": true
      }
    ],
    "isTemplate": false,
    "count": 0,
    "updated": 0
  },
  {
    "id": "06cc62bc-2464-425d-95f7-9d69755b8975",
    "data": [
      {
        "text": "find ",
        "userDefined": false
      },
      {
        "text": "Brean Leisure Park",
        "alias": "venue-title",
        "meta": "@venue-outdoor-title",
        "userDefined": false
      }
    ],
    "isTemplate": false,
    "count": 0,
    "updated": 0
  },
  {
    "id": "aff4745a-10fc-4c0a-82ea-29b6fd79f838",
    "data": [
      {
        "text": "find ",
        "userDefined": false
      },
      {
        "text": "zoo",
        "alias": "venue-type",
        "meta": "@venue-outdoor-type",
        "userDefined": false
      },
      {
        "text": " that is ",
        "userDefined": false
      },
      {
        "text": "opened",
        "alias": "open",
        "meta": "@open",
        "userDefined": false
      }
    ],
    "isTemplate": false,
    "count": 0,
    "updated": 0
  },
  {
    "id": "6f3303d5-3f1b-4789-b992-f86b9bc1d40c",
    "data": [
      {
        "text": "5",
        "alias": "stars",
        "meta": "@sys.number",
        "userDefined": false
      },
      {
        "text": " stars ",
        "userDefined": false
      },
      {
        "text": "national park",
        "alias": "location",
        "meta": "@sys.location",
        "userDefined": false
      }
    ],
    "isTemplate": false,
    "count": 0,
    "updated": 0
  },
  {
    "id": "87b7134c-477d-45e7-bc11-0253a05b9858",
    "data": [
      {
        "text": "show ",
        "userDefined": false
      },
      {
        "text": "good",
        "alias": "sort",
        "meta": "@map-sort",
        "userDefined": true
      },
      {
        "text": " ",
        "userDefined": false
      },
      {
        "text": "bike trail",
        "alias": "venue-type",
        "meta": "@venue-outdoor-type",
        "userDefined": true
      },
      {
        "text": " in ",
        "userDefined": false
      },
      {
        "text": "Berlin",
        "alias": "location",
        "meta": "@sys.location",
        "userDefined": true
      }
    ],
    "isTemplate": false,
    "count": 0,
    "updated": 0
  },
  {
    "id": "109d777c-27f1-4662-a6a3-8ed84d524107",
    "data": [
      {
        "text": "find ",
        "userDefined": false
      },
      {
        "text": "Disney Land",
        "alias": "venue-title",
        "meta": "@venue-outdoor-title",
        "userDefined": false
      }
    ],
    "isTemplate": false,
    "count": 0,
    "updated": 0
  },
  {
    "id": "46800aa0-7a97-4bb9-8174-02e490efe4c3",
    "data": [
      {
        "text": "find ",
        "userDefined": false
      },
      {
        "text": "opened",
        "alias": "open",
        "meta": "@open",
        "userDefined": false
      },
      {
        "text": " ",
        "userDefined": false
      },
      {
        "text": "zoo",
        "alias": "venue-type",
        "meta": "@venue-outdoor-type",
        "userDefined": false
      }
    ],
    "isTemplate": false,
    "count": 0,
    "updated": 0
  },
  {
    "id": "20ea55d1-9ac3-4c9e-8093-8b1db3405bec",
    "data": [
      {
        "text": "the ",
        "userDefined": false
      },
      {
        "text": "closest",
        "alias": "sort",
        "meta": "@map-sort",
        "userDefined": false
      },
      {
        "text": " ",
        "userDefined": false
      },
      {
        "text": "water park",
        "alias": "venue-type",
        "meta": "@venue-outdoor-type",
        "userDefined": false
      }
    ],
    "isTemplate": false,
    "count": 0,
    "updated": 0
  },
  {
    "id": "d28c48f0-61d7-43c8-97cf-a78971eeeab0",
    "data": [
      {
        "text": "find ",
        "userDefined": false
      },
      {
        "text": "best",
        "alias": "sort",
        "meta": "@map-sort",
        "userDefined": true
      },
      {
        "text": " ",
        "userDefined": false
      },
      {
        "text": "zoo",
        "alias": "venue-type",
        "meta": "@venue-outdoor-type",
        "userDefined": false
      },
      {
        "text": " that is ",
        "userDefined": false
      },
      {
        "text": "open",
        "alias": "open",
        "meta": "@open",
        "userDefined": false
      },
      {
        "text": " ",
        "userDefined": false
      },
      {
        "text": "nearby",
        "alias": "sort",
        "meta": "@map-sort",
        "userDefined": true
      }
    ],
    "isTemplate": false,
    "count": 0,
    "updated": 0
  },
  {
    "id": "f71910be-8f20-463d-9ea0-cfa027dd5d8f",
    "data": [
      {
        "text": "dog park",
        "alias": "venue-type",
        "meta": "@venue-outdoor-type",
        "userDefined": false
      },
      {
        "text": " ",
        "userDefined": false
      },
      {
        "text": "nearby",
        "alias": "sort",
        "meta": "@map-sort",
        "userDefined": false
      }
    ],
    "isTemplate": false,
    "count": 0,
    "updated": 0
  },
  {
    "id": "e392e01a-13a7-48cf-a4c3-35846f769f3a",
    "data": [
      {
        "text": "show ",
        "userDefined": false
      },
      {
        "text": "dog park",
        "alias": "venue-type",
        "meta": "@venue-outdoor-type",
        "userDefined": false
      },
      {
        "text": " ",
        "userDefined": false
      },
      {
        "text": "nearby",
        "alias": "sort",
        "meta": "@map-sort",
        "userDefined": false
      }
    ],
    "isTemplate": false,
    "count": 0,
    "updated": 0
  },
  {
    "id": "4e8b2ee3-ca74-40be-a285-e5f423d799bc",
    "data": [
      {
        "text": "find a ",
        "userDefined": false
      },
      {
        "text": "national park",
        "alias": "venue-type",
        "meta": "@venue-outdoor-type",
        "userDefined": true
      }
    ],
    "isTemplate": false,
    "count": 0,
    "updated": 0
  },
  {
    "id": "1bc741b5-c6e8-45b8-ae00-be3b9eac324a",
    "data": [
      {
        "text": "Olympic National Park",
        "alias": "venue-title",
        "meta": "@venue-outdoor-title",
        "userDefined": true
      }
    ],
    "isTemplate": false,
    "count": 0,
    "updated": 0
  },
  {
    "id": "b12ac4d3-7472-4ac0-844b-c9690ea5c969",
    "data": [
      {
        "text": "can you ",
        "userDefined": false
      },
      {
        "text": "recommend",
        "alias": "rating",
        "meta": "@rating",
        "userDefined": false
      },
      {
        "text": " me the ",
        "userDefined": false
      },
      {
        "text": "best",
        "alias": "sort",
        "meta": "@map-sort",
        "userDefined": true
      },
      {
        "text": " ",
        "userDefined": false
      },
      {
        "text": "park",
        "alias": "venue-type",
        "meta": "@venue-outdoor-type",
        "userDefined": false
      },
      {
        "text": " ",
        "userDefined": false
      },
      {
        "text": "nearby",
        "alias": "sort",
        "meta": "@map-sort",
        "userDefined": false
      }
    ],
    "isTemplate": false,
    "count": 0,
    "updated": 0
  },
  {
    "id": "d855ff5f-c250-4038-88ee-3d177098a301",
    "data": [
      {
        "text": "search for ",
        "userDefined": false
      },
      {
        "text": "national parks",
        "alias": "venue-type",
        "meta": "@venue-outdoor-type",
        "userDefined": true
      },
      {
        "text": " in ",
        "userDefined": false
      },
      {
        "text": "London",
        "alias": "location",
        "meta": "@sys.location",
        "userDefined": true
      }
    ],
    "isTemplate": false,
    "count": 0,
    "updated": 0
  },
  {
    "id": "25b602f0-d63b-4e89-8439-20111d568dfd",
    "data": [
      {
        "text": "find ",
        "userDefined": false
      },
      {
        "text": "Dolores park",
        "alias": "venue-title",
        "meta": "@venue-outdoor-title",
        "userDefined": false
      }
    ],
    "isTemplate": false,
    "count": 0,
    "updated": 0
  },
  {
    "id": "9920a0ae-d3aa-442b-aee6-5d494723c394",
    "data": [
      {
        "text": "find ",
        "userDefined": false
      },
      {
        "text": "Canyonlands national park",
        "alias": "venue-title",
        "meta": "@venue-outdoor-title",
        "userDefined": false
      }
    ],
    "isTemplate": false,
    "count": 0,
    "updated": 0
  },
  {
    "id": "dcd2f017-41ba-454d-a472-098c3de16888",
    "data": [
      {
        "text": "national parks",
        "alias": "venue-type",
        "meta": "@venue-outdoor-type",
        "userDefined": true
      },
      {
        "text": " in ",
        "userDefined": false
      },
      {
        "text": "Paris",
        "alias": "location",
        "meta": "@sys.location",
        "userDefined": true
      }
    ],
    "isTemplate": false,
    "count": 0,
    "updated": 0
  },
  {
    "id": "0b68ff25-6210-46cb-a8e5-c55f3e55ea4a",
    "data": [
      {
        "text": "find ",
        "userDefined": false
      },
      {
        "text": "Mission Peak Regional Park",
        "alias": "venue-title",
        "meta": "@venue-outdoor-title",
        "userDefined": false
      }
    ],
    "isTemplate": false,
    "count": 0,
    "updated": 0
  },
  {
    "id": "ec97d6a7-85ec-452a-b755-6f225cbc8815",
    "data": [
      {
        "text": "search for ",
        "userDefined": false
      },
      {
        "text": "park",
        "alias": "venue-type",
        "meta": "@venue-outdoor-type",
        "userDefined": false
      },
      {
        "text": " with ",
        "userDefined": false
      },
      {
        "text": "5",
        "alias": "stars",
        "meta": "@sys.number",
        "userDefined": false
      },
      {
        "text": " stars",
        "userDefined": false
      }
    ],
    "isTemplate": false,
    "count": 0,
    "updated": 0
  },
  {
    "id": "003b6fb9-53f0-47e5-9b69-467bc54d1deb",
    "data": [
      {
        "text": "find ",
        "userDefined": false
      },
      {
        "text": "Peak District national park",
        "alias": "venue-title",
        "meta": "@venue-outdoor-title",
        "userDefined": false
      }
    ],
    "isTemplate": false,
    "count": 0,
    "updated": 0
  },
  {
    "id": "acbbbedc-f150-497b-b75e-3c08975c46d8",
    "data": [
      {
        "text": "find ",
        "userDefined": false
      },
      {
        "text": "Dartmoor national park",
        "alias": "venue-title",
        "meta": "@venue-outdoor-title",
        "userDefined": false
      }
    ],
    "isTemplate": false,
    "count": 0,
    "updated": 0
  },
  {
    "id": "1b7e7e2c-a6ea-4365-b7aa-817f5f77d87d",
    "data": [
      {
        "text": "find ",
        "userDefined": false
      },
      {
        "text": "Flamingo Land Resort",
        "alias": "venue-title",
        "meta": "@venue-outdoor-title",
        "userDefined": false
      }
    ],
    "isTemplate": false,
    "count": 0,
    "updated": 0
  },
  {
    "id": "80770e5e-dbfd-4c77-989a-799432bbd45c",
    "data": [
      {
        "text": "search for ",
        "userDefined": false
      },
      {
        "text": "camping",
        "alias": "venue-type",
        "meta": "@venue-outdoor-type",
        "userDefined": false
      },
      {
        "text": " with ",
        "userDefined": false
      },
      {
        "text": "free parking",
        "alias": "venue-facility",
        "meta": "@venue-facility",
        "userDefined": false
      }
    ],
    "isTemplate": false,
    "count": 0,
    "updated": 0
  },
  {
    "id": "398e3766-b55b-4d8b-a254-12d4bd1474dd",
    "data": [
      {
        "text": "find ",
        "userDefined": false
      },
      {
        "text": "Crealy Great Adventure Parks",
        "alias": "venue-title",
        "meta": "@venue-outdoor-title",
        "userDefined": false
      }
    ],
    "isTemplate": false,
    "count": 0,
    "updated": 0
  },
  {
    "id": "6125c6c8-d5fd-4c41-8403-bed165b313eb",
    "data": [
      {
        "text": "find ",
        "userDefined": false
      },
      {
        "text": "park",
        "alias": "venue-type",
        "meta": "@venue-outdoor-type",
        "userDefined": false
      }
    ],
    "isTemplate": false,
    "count": 0,
    "updated": 0
  },
  {
    "id": "853b64bd-c459-460f-8668-d4093e343f10",
    "data": [
      {
        "text": "search ",
        "userDefined": false
      },
      {
        "text": "cheap",
        "alias": "sort",
        "meta": "@map-sort",
        "userDefined": true
      },
      {
        "text": " ",
        "userDefined": false
      },
      {
        "text": "water park",
        "alias": "venue-type",
        "meta": "@venue-outdoor-type",
        "userDefined": true
      }
    ],
    "isTemplate": false,
    "count": 0,
    "updated": 0
  },
  {
    "id": "2d4ed76e-bf9e-460f-bb02-d2560667b343",
    "data": [
      {
        "text": "park",
        "alias": "venue-type",
        "meta": "@venue-outdoor-type",
        "userDefined": false
      },
      {
        "text": " with ",
        "userDefined": false
      },
      {
        "text": "Wi-Fi",
        "alias": "venue-facility",
        "meta": "@venue-facility",
        "userDefined": false
      }
    ],
    "isTemplate": false,
    "count": 0,
    "updated": 0
  },
  {
    "id": "5af649d0-45f1-42bd-ba8d-979fab38755a",
    "data": [
      {
        "text": "find ",
        "userDefined": false
      },
      {
        "text": "Coyote Hills Regional Park",
        "alias": "venue-title",
        "meta": "@venue-outdoor-title",
        "userDefined": false
      }
    ],
    "isTemplate": false,
    "count": 0,
    "updated": 0
  },
  {
    "id": "e8bccd4c-46a7-4ee6-9aab-ede7cff747df",
    "data": [
      {
        "text": "find ",
        "userDefined": false
      },
      {
        "text": "skate park",
        "alias": "venue-type",
        "meta": "@venue-outdoor-type",
        "userDefined": false
      }
    ],
    "isTemplate": false,
    "count": 0,
    "updated": 0
  },
  {
    "id": "dd7673e6-4462-47e1-9291-5dcb3623dec8",
    "data": [
      {
        "text": "best",
        "alias": "sort",
        "meta": "@map-sort",
        "userDefined": true
      },
      {
        "text": " ",
        "userDefined": false
      },
      {
        "text": "camping",
        "alias": "venue-type",
        "meta": "@venue-outdoor-type",
        "userDefined": true
      }
    ],
    "isTemplate": false,
    "count": 0,
    "updated": 0
  },
  {
    "id": "c3c03ea1-a47f-4e16-9b4f-f726a4cc2e7f",
    "data": [
      {
        "text": "best",
        "alias": "sort",
        "meta": "@map-sort",
        "userDefined": true
      },
      {
        "text": " ",
        "userDefined": false
      },
      {
        "text": "camping",
        "alias": "venue-type",
        "meta": "@venue-outdoor-type",
        "userDefined": true
      },
      {
        "text": " ",
        "userDefined": false
      },
      {
        "text": "nearby",
        "alias": "sort",
        "meta": "@map-sort",
        "userDefined": true
      }
    ],
    "isTemplate": false,
    "count": 0,
    "updated": 0
  },
  {
    "id": "30c3b12a-1faf-48b9-b86d-64a9044b4907",
    "data": [
      {
        "text": "is there a ",
        "userDefined": false
      },
      {
        "text": "dog park",
        "alias": "venue-type",
        "meta": "@venue-outdoor-type",
        "userDefined": false
      }
    ],
    "isTemplate": false,
    "count": 0,
    "updated": 0
  },
  {
    "id": "9fde6c62-ad5d-4397-b494-722486c2485a",
    "data": [
      {
        "text": "parks",
        "alias": "venue-type",
        "meta": "@venue-outdoor-type",
        "userDefined": true
      }
    ],
    "isTemplate": false,
    "count": 0,
    "updated": 0
  },
  {
    "id": "6007b920-517d-49ae-9089-263714450021",
    "data": [
      {
        "text": "playground",
        "alias": "venue-type",
        "meta": "@venue-outdoor-type",
        "userDefined": false
      },
      {
        "text": " ",
        "userDefined": false
      },
      {
        "text": "nearby",
        "alias": "sort",
        "meta": "@map-sort",
        "userDefined": false
      }
    ],
    "isTemplate": false,
    "count": 0,
    "updated": 0
  },
  {
    "id": "f585659c-5ad5-4265-a769-277487bb2935",
    "data": [
      {
        "text": "show me where is ",
        "userDefined": false
      },
      {
        "text": "Olympic National Park",
        "alias": "venue-title",
        "meta": "@venue-outdoor-title",
        "userDefined": true
      },
      {
        "text": " located",
        "userDefined": false
      }
    ],
    "isTemplate": false,
    "count": 0,
    "updated": 0
  },
  {
    "id": "7a148396-c465-490b-92d3-11b5afd20467",
    "data": [
      {
        "text": "good",
        "alias": "sort",
        "meta": "@map-sort",
        "userDefined": true
      },
      {
        "text": " ",
        "userDefined": false
      },
      {
        "text": "bike trail",
        "alias": "venue-type",
        "meta": "@venue-outdoor-type",
        "userDefined": true
      },
      {
        "text": " in ",
        "userDefined": false
      },
      {
        "text": "Geneva",
        "alias": "location",
        "meta": "@sys.location",
        "userDefined": true
      }
    ],
    "isTemplate": false,
    "count": 0,
    "updated": 0
  }
]