[
  {
    "id": "d246a597-02a8-4d54-9ce8-03ef4296caf9",
    "data": [
      {
        "text": "find ",
        "userDefined": false
      },
      {
        "text": "Drayton Manor theme park",
        "alias": "venue-title",
        "meta": "@venue-tourist-attraction-title",
        "userDefined": true
      }
    ],
    "isTemplate": false,
    "count": 0,
    "updated": 0
  },
  {
    "id": "8e924ed3-be14-4086-87fc-ae22f91cd409",
    "data": [
      {
        "text": "can",
        "meta": "@sys.ignore",
        "userDefined": false
      },
      {
        "text": " I see the tourist places in ",
        "userDefined": false
      },
      {
        "text": "Iran",
        "alias": "location",
        "meta": "@sys.location",
        "userDefined": false
      }
    ],
    "isTemplate": false,
    "count": 0,
    "updated": 0
  },
  {
    "id": "991ed800-d2ca-4ab5-9de2-10b67179b59e",
    "data": [
      {
        "text": "find ",
        "userDefined": false
      },
      {
        "text": "Golden Gate Bridge",
        "alias": "venue-title",
        "meta": "@venue-tourist-attraction-title",
        "userDefined": false
      }
    ],
    "isTemplate": false,
    "count": 1,
    "updated": 0
  },
  {
    "id": "97491288-e7fe-4672-bff1-c9393fc93e88",
    "data": [
      {
        "text": "okay sightseeing",
        "userDefined": false
      }
    ],
    "isTemplate": false,
    "count": 1,
    "updated": 0
  },
  {
    "id": "a5fbedbb-3fbe-4a09-b61a-3eeef4710820",
    "data": [
      {
        "text": "tourist places in ",
        "userDefined": false
      },
      {
        "text": "India",
        "alias": "location",
        "meta": "@sys.location",
        "userDefined": false
      }
    ],
    "isTemplate": false,
    "count": 0,
    "updated": 0
  },
  {
    "id": "0db56f56-fe7f-4d09-9de2-d64265ef3927",
    "data": [
      {
        "text": "find ",
        "userDefined": false
      },
      {
        "text": "Buckingham Palace",
        "alias": "venue-title",
        "meta": "@venue-tourist-attraction-title",
        "userDefined": false
      }
    ],
    "isTemplate": false,
    "count": 1,
    "updated": 0
  },
  {
    "id": "1aeb6896-d6d6-4590-9e99-7c933eaef4f5",
    "data": [
      {
        "text": "where is ",
        "userDefined": false
      },
      {
        "text": "Big Ben",
        "alias": "venue-title",
        "meta": "@venue-tourist-attraction-title",
        "userDefined": true
      }
    ],
    "isTemplate": false,
    "count": 1,
    "updated": 0
  },
  {
    "id": "b6542d47-a661-43d8-ba0f-70ef7d835b62",
    "data": [
      {
        "text": "I want to visit ",
        "userDefined": false
      },
      {
        "text": "Red Square",
        "alias": "venue-title",
        "meta": "@venue-tourist-attraction-title",
        "userDefined": true
      },
      {
        "text": " in ",
        "userDefined": false
      },
      {
        "text": "Moscow",
        "alias": "location",
        "meta": "@sys.location",
        "userDefined": true
      }
    ],
    "isTemplate": false,
    "count": 0,
    "updated": 0
  },
  {
    "id": "58380162-fa60-43e7-9a73-140ef802f1df",
    "data": [
      {
        "text": "show me the ",
        "userDefined": false
      },
      {
        "text": "map",
        "meta": "@sys.ignore",
        "userDefined": false
      },
      {
        "text": " ",
        "userDefined": false
      },
      {
        "text": "of",
        "meta": "@sys.ignore",
        "userDefined": false
      },
      {
        "text": " tourist places in ",
        "userDefined": false
      },
      {
        "text": "Chennai",
        "alias": "location",
        "meta": "@sys.location",
        "userDefined": false
      }
    ],
    "isTemplate": false,
    "count": 0,
    "updated": 0
  },
  {
    "id": "49718acd-51e4-4ccf-92c1-7ebcd23f2271",
    "data": [
      {
        "text": "Tower of Eiffel",
        "alias": "venue-title",
        "meta": "@venue-tourist-attraction-title",
        "userDefined": true
      }
    ],
    "isTemplate": false,
    "count": 0,
    "updated": 0
  },
  {
    "id": "bf02ec1a-9bdc-47a2-9ecb-1840cd7e578a",
    "data": [
      {
        "text": "show the tourist places ",
        "userDefined": false
      },
      {
        "text": "of",
        "meta": "@sys.ignore",
        "userDefined": false
      },
      {
        "text": " ",
        "userDefined": false
      },
      {
        "text": "Delhi",
        "alias": "location",
        "meta": "@sys.location",
        "userDefined": false
      }
    ],
    "isTemplate": false,
    "count": 0,
    "updated": 0
  },
  {
    "id": "37c4add6-805b-4a06-aab0-1629d4c1d395",
    "data": [
      {
        "text": "tourist places ",
        "userDefined": false
      },
      {
        "text": "India",
        "alias": "location",
        "meta": "@sys.location",
        "userDefined": false
      }
    ],
    "isTemplate": false,
    "count": 0,
    "updated": 0
  },
  {
    "id": "ce76c06f-0356-4558-802e-724375c6285b",
    "data": [
      {
        "text": "I want to visit ",
        "userDefined": false
      },
      {
        "text": "Tower of London",
        "alias": "venue-title",
        "meta": "@venue-tourist-attraction-title",
        "userDefined": true
      }
    ],
    "isTemplate": false,
    "count": 0,
    "updated": 0
  },
  {
    "id": "38a87a78-7c6b-4f63-9a97-b63a70d4b440",
    "data": [
      {
        "text": "I want to go",
        "meta": "@sys.ignore",
        "userDefined": false
      },
      {
        "text": " for sightseeing",
        "userDefined": false
      }
    ],
    "isTemplate": false,
    "count": 0,
    "updated": 0
  },
  {
    "id": "4dae2d47-1c0e-4239-bb04-71ec8eed6f06",
    "data": [
      {
        "text": "tourist attractions in ",
        "userDefined": false
      },
      {
        "text": "Auckland",
        "alias": "location",
        "meta": "@sys.location",
        "userDefined": false
      }
    ],
    "isTemplate": false,
    "count": 0,
    "updated": 0
  },
  {
    "id": "7857ccae-74d2-47ea-bb04-002ffde7ea67",
    "data": [
      {
        "text": "find ",
        "userDefined": false
      },
      {
        "text": "Blue diamond park",
        "alias": "venue-title",
        "meta": "@venue-tourist-attraction-title",
        "userDefined": true
      }
    ],
    "isTemplate": false,
    "count": 1,
    "updated": 0
  },
  {
    "id": "746245c1-95c8-46f3-9f5f-95726141261b",
    "data": [
      {
        "text": "sightseeing in ",
        "userDefined": false
      },
      {
        "text": "Milan Italy",
        "alias": "location",
        "meta": "@sys.location",
        "userDefined": false
      }
    ],
    "isTemplate": false,
    "count": 0,
    "updated": 0
  },
  {
    "id": "42b97fa1-4e83-40f2-990a-6dfe0352b775",
    "data": [
      {
        "text": "so the tourist places in ",
        "userDefined": false
      },
      {
        "text": "Delhi",
        "alias": "location",
        "meta": "@sys.location",
        "userDefined": false
      }
    ],
    "isTemplate": false,
    "count": 0,
    "updated": 0
  },
  {
    "id": "2b9fa521-2b74-4183-b6f2-ed6a12777260",
    "data": [
      {
        "text": "tell me some tourist places",
        "userDefined": false
      }
    ],
    "isTemplate": false,
    "count": 0,
    "updated": 0
  },
  {
    "id": "53b37627-1710-4ea7-a107-7058c936d62f",
    "data": [
      {
        "text": "find ",
        "userDefined": false
      },
      {
        "text": "Laguna Seca",
        "alias": "venue-title",
        "meta": "@venue-tourist-attraction-title",
        "userDefined": false
      }
    ],
    "isTemplate": false,
    "count": 0,
    "updated": 0
  },
  {
    "id": "f3c209b1-3ada-4f79-af41-92a69c261a5b",
    "data": [
      {
        "text": "find the ",
        "userDefined": false
      },
      {
        "text": "Grand Canyon",
        "alias": "venue-title",
        "meta": "@venue-tourist-attraction-title",
        "userDefined": false
      }
    ],
    "isTemplate": false,
    "count": 0,
    "updated": 0
  },
  {
    "id": "1d3c188e-598e-4f68-bfce-0c2bcf602d2a",
    "data": [
      {
        "text": "find ",
        "userDefined": false
      },
      {
        "text": "Brean leisure park",
        "alias": "venue-title",
        "meta": "@venue-tourist-attraction-title",
        "userDefined": true
      }
    ],
    "isTemplate": false,
    "count": 0,
    "updated": 0
  },
  {
    "id": "d511e15f-a943-4b13-9c00-8e4cab178d4d",
    "data": [
      {
        "text": "sightseeing",
        "userDefined": false
      }
    ],
    "isTemplate": false,
    "count": 0,
    "updated": 0
  },
  {
    "id": "8f452d40-d134-4fd0-9363-fc7075516f0e",
    "data": [
      {
        "text": "tourist places ",
        "userDefined": false
      },
      {
        "text": "near",
        "alias": "sort",
        "meta": "@map-sort",
        "userDefined": true
      }
    ],
    "isTemplate": false,
    "count": 0,
    "updated": 0
  },
  {
    "id": "12629aaf-e955-4d2e-a769-3801c95455f4",
    "data": [
      {
        "text": "England",
        "alias": "location",
        "meta": "@sys.location",
        "userDefined": true
      },
      {
        "text": " sightseeing",
        "userDefined": false
      }
    ],
    "isTemplate": false,
    "count": 0,
    "updated": 0
  },
  {
    "id": "707f4679-486f-45bd-9303-6a76ca68c96c",
    "data": [
      {
        "text": "Milan Italy",
        "alias": "location",
        "meta": "@sys.location",
        "userDefined": false
      },
      {
        "text": " sightseeing locations",
        "userDefined": false
      }
    ],
    "isTemplate": false,
    "count": 0,
    "updated": 0
  },
  {
    "id": "f898ddbe-5691-43ea-9ef7-ca814354e08c",
    "data": [
      {
        "text": "find the ",
        "userDefined": false
      },
      {
        "text": "Trevi Fountain",
        "alias": "venue-title",
        "meta": "@venue-tourist-attraction-title",
        "userDefined": false
      }
    ],
    "isTemplate": false,
    "count": 0,
    "updated": 0
  },
  {
    "id": "21ee0524-d660-491d-b54e-4c2fcaa83132",
    "data": [
      {
        "text": "find ",
        "userDefined": false
      },
      {
        "text": "Windsor Castle",
        "alias": "venue-title",
        "meta": "@venue-tourist-attraction-title",
        "userDefined": false
      }
    ],
    "isTemplate": false,
    "count": 1,
    "updated": 0
  },
  {
    "id": "e24a1908-3f1a-43ed-8a98-baa64ae14464",
    "data": [
      {
        "text": "please research about sightseeing in ",
        "userDefined": false
      },
      {
        "text": "Japan",
        "alias": "location",
        "meta": "@sys.location",
        "userDefined": false
      }
    ],
    "isTemplate": false,
    "count": 0,
    "updated": 0
  },
  {
    "id": "850d183d-133d-4515-a6a4-f776e7151c6e",
    "data": [
      {
        "text": "best",
        "alias": "sort",
        "meta": "@map-sort",
        "userDefined": true
      },
      {
        "text": " tourist places ",
        "userDefined": false
      },
      {
        "text": "nearby",
        "alias": "sort",
        "meta": "@map-sort",
        "userDefined": true
      }
    ],
    "isTemplate": false,
    "count": 0,
    "updated": 0
  },
  {
    "id": "f9b90e6c-c15e-4b22-b6bb-9cb892ef24b2",
    "data": [
      {
        "text": "find ",
        "userDefined": false
      },
      {
        "text": "nearby",
        "alias": "sort",
        "meta": "@map-sort",
        "userDefined": true
      },
      {
        "text": " tourist places",
        "userDefined": false
      }
    ],
    "isTemplate": false,
    "count": 0,
    "updated": 0
  },
  {
    "id": "245c13d0-ba58-4e29-9c6b-a8d535009c55",
    "data": [
      {
        "text": "what ",
        "userDefined": false
      },
      {
        "text": "are",
        "meta": "@sys.ignore",
        "userDefined": false
      },
      {
        "text": " the tourist attractions",
        "userDefined": false
      }
    ],
    "isTemplate": false,
    "count": 0,
    "updated": 0
  },
  {
    "id": "220b5738-cf81-4b50-a947-b43f8043b61f",
    "data": [
      {
        "text": "where is ",
        "userDefined": false
      },
      {
        "text": "Tower of Eiffel",
        "alias": "venue-title",
        "meta": "@venue-tourist-attraction-title",
        "userDefined": true
      }
    ],
    "isTemplate": false,
    "count": 0,
    "updated": 0
  },
  {
    "id": "93d336cb-9996-492e-8da2-dfd96ed82125",
    "data": [
      {
        "text": "show me the ",
        "userDefined": false
      },
      {
        "text": "top",
        "alias": "sort",
        "meta": "@map-sort",
        "userDefined": false
      },
      {
        "text": " sights in ",
        "userDefined": false
      },
      {
        "text": "Berlin",
        "alias": "location",
        "meta": "@sys.location",
        "userDefined": false
      },
      {
        "text": " that are ",
        "userDefined": false
      },
      {
        "text": "open",
        "alias": "open",
        "meta": "@open",
        "userDefined": false
      },
      {
        "text": " now",
        "userDefined": false
      }
    ],
    "isTemplate": false,
    "count": 0,
    "updated": 0
  },
  {
    "id": "53526b97-fb64-49ba-b24a-5a094e99b905",
    "data": [
      {
        "text": "look ",
        "userDefined": false
      },
      {
        "text": "up",
        "meta": "@sys.ignore",
        "userDefined": false
      },
      {
        "text": " ",
        "userDefined": false
      },
      {
        "text": "top",
        "alias": "sort",
        "meta": "@map-sort",
        "userDefined": false
      },
      {
        "text": " tourist attractions",
        "userDefined": false
      }
    ],
    "isTemplate": false,
    "count": 0,
    "updated": 0
  },
  {
    "id": "1932e24d-9fcb-48d7-ab0a-52d89c936b4d",
    "data": [
      {
        "text": "tourist places ",
        "userDefined": false
      },
      {
        "text": "near",
        "alias": "sort",
        "meta": "@map-sort",
        "userDefined": true
      },
      {
        "text": " where I ",
        "userDefined": false
      },
      {
        "text": "am",
        "meta": "@sys.ignore",
        "userDefined": true
      }
    ],
    "isTemplate": false,
    "count": 0,
    "updated": 0
  },
  {
    "id": "4cec52f8-108b-4086-a6a8-a250a8b061f4",
    "data": [
      {
        "text": "tourist places ",
        "userDefined": false
      },
      {
        "text": "nearby",
        "alias": "sort",
        "meta": "@map-sort",
        "userDefined": true
      },
      {
        "text": " tourist attraction",
        "userDefined": false
      }
    ],
    "isTemplate": false,
    "count": 0,
    "updated": 0
  },
  {
    "id": "b19da9ba-1a11-4762-b186-ccb404f19f4f",
    "data": [
      {
        "text": "tourist places ",
        "userDefined": false
      },
      {
        "text": "of",
        "meta": "@sys.ignore",
        "userDefined": false
      },
      {
        "text": " ",
        "userDefined": false
      },
      {
        "text": "Europe",
        "alias": "location",
        "meta": "@sys.location",
        "userDefined": false
      }
    ],
    "isTemplate": false,
    "count": 0,
    "updated": 0
  },
  {
    "id": "e56770f8-5746-47e5-a115-a727f14dac50",
    "data": [
      {
        "text": "real tourist places ",
        "userDefined": false
      },
      {
        "text": "of",
        "meta": "@sys.ignore",
        "userDefined": false
      },
      {
        "text": " ",
        "userDefined": false
      },
      {
        "text": "Delhi",
        "alias": "location",
        "meta": "@sys.location",
        "userDefined": false
      }
    ],
    "isTemplate": false,
    "count": 0,
    "updated": 0
  },
  {
    "id": "4ffd3b64-f465-478a-a37d-d959e8185b51",
    "data": [
      {
        "text": "sightseeing at ",
        "userDefined": false
      },
      {
        "text": "Budapest",
        "alias": "location",
        "meta": "@sys.location",
        "userDefined": false
      }
    ],
    "isTemplate": false,
    "count": 0,
    "updated": 0
  },
  {
    "id": "b09f56cf-3f7f-4927-8bcf-06bffcc8a1e1",
    "data": [
      {
        "text": "tourist attractions",
        "userDefined": false
      }
    ],
    "isTemplate": false,
    "count": 0,
    "updated": 0
  },
  {
    "id": "9f6a9e03-74a4-462e-ae21-d66e221740a6",
    "data": [
      {
        "text": "find ",
        "userDefined": false
      },
      {
        "text": "Sagrada Familia",
        "alias": "venue-title",
        "meta": "@venue-tourist-attraction-title",
        "userDefined": true
      }
    ],
    "isTemplate": false,
    "count": 0,
    "updated": 0
  },
  {
    "id": "ff13945b-3631-4430-a25e-5484b5f060a3",
    "data": [
      {
        "text": "show me the ",
        "userDefined": false
      },
      {
        "text": "best",
        "alias": "sort",
        "meta": "@map-sort",
        "userDefined": false
      },
      {
        "text": " sights in ",
        "userDefined": false
      },
      {
        "text": "California",
        "alias": "location",
        "meta": "@sys.location",
        "userDefined": false
      },
      {
        "text": " that have ",
        "userDefined": false
      },
      {
        "text": "parking",
        "alias": "venue-facility",
        "meta": "@venue-facility",
        "userDefined": false
      },
      {
        "text": " and ",
        "userDefined": false
      },
      {
        "text": "good reviews",
        "alias": "rating",
        "meta": "@rating",
        "userDefined": false
      }
    ],
    "isTemplate": false,
    "count": 0,
    "updated": 0
  },
  {
    "id": "371eb534-e476-49bc-8ee3-fcf0cb5f6d78",
    "data": [
      {
        "text": "can",
        "meta": "@sys.ignore",
        "userDefined": false
      },
      {
        "text": " I see that tourist places",
        "userDefined": false
      }
    ],
    "isTemplate": false,
    "count": 0,
    "updated": 0
  },
  {
    "id": "009a3efd-c88e-4c67-9010-cd1a2bcf8445",
    "data": [
      {
        "text": "sightseeing at the ",
        "userDefined": false
      },
      {
        "text": "Budapest",
        "alias": "location",
        "meta": "@sys.location",
        "userDefined": false
      }
    ],
    "isTemplate": false,
    "count": 0,
    "updated": 0
  },
  {
    "id": "0f9f5232-5b51-499c-908e-90a00bf288df",
    "data": [
      {
        "text": "what are some attractions around ",
        "userDefined": false
      },
      {
        "text": "here",
        "alias": "sort",
        "meta": "@map-sort",
        "userDefined": true
      }
    ],
    "isTemplate": false,
    "count": 0,
    "updated": 0
  },
  {
    "id": "2b727c20-90e0-4175-af19-1a06a36d3361",
    "data": [
      {
        "text": "find ",
        "userDefined": false
      },
      {
        "text": "Musée d\u0027Orsay",
        "alias": "venue-title",
        "meta": "@venue-tourist-attraction-title",
        "userDefined": true
      }
    ],
    "isTemplate": false,
    "count": 0,
    "updated": 0
  },
  {
    "id": "3017deaa-c21b-42bc-af5e-c8a8362fe0e3",
    "data": [
      {
        "text": "find ",
        "userDefined": false
      },
      {
        "text": "Yellowstone park",
        "alias": "venue-title",
        "meta": "@venue-tourist-attraction-title",
        "userDefined": false
      }
    ],
    "isTemplate": false,
    "count": 0,
    "updated": 0
  },
  {
    "id": "8bff0fb7-1b39-4e69-8c95-ed4cb2f96f63",
    "data": [
      {
        "text": "I want to go",
        "meta": "@sys.ignore",
        "userDefined": true
      },
      {
        "text": " to ",
        "userDefined": false
      },
      {
        "text": "Tower of London",
        "alias": "venue-title",
        "meta": "@venue-tourist-attraction-title",
        "userDefined": true
      }
    ],
    "isTemplate": false,
    "count": 0,
    "updated": 0
  },
  {
    "id": "9b6a816f-1613-4f55-9689-4ad41aa4ea99",
    "data": [
      {
        "text": "wanna go to ",
        "userDefined": false
      },
      {
        "text": "Tower of London",
        "alias": "venue-title",
        "meta": "@venue-tourist-attraction-title",
        "userDefined": true
      }
    ],
    "isTemplate": false,
    "count": 0,
    "updated": 0
  },
  {
    "id": "0ee85535-f343-4406-a44b-110b893efc9a",
    "data": [
      {
        "text": "show ",
        "userDefined": false
      },
      {
        "text": "Tower of Eiffel",
        "alias": "venue-title",
        "meta": "@venue-tourist-attraction-title",
        "userDefined": true
      },
      {
        "text": " in ",
        "userDefined": false
      },
      {
        "text": "Paris",
        "alias": "location",
        "meta": "@sys.location",
        "userDefined": true
      }
    ],
    "isTemplate": false,
    "count": 1,
    "updated": 0
  },
  {
    "id": "177a5a05-7be9-4fbc-b7eb-559f99ec235b",
    "data": [
      {
        "text": "famous tourist places",
        "userDefined": false
      }
    ],
    "isTemplate": false,
    "count": 0,
    "updated": 0
  },
  {
    "id": "948f7395-ff83-45e7-80a4-a656be7070c1",
    "data": [
      {
        "text": "so tourist places in ",
        "userDefined": false
      },
      {
        "text": "Delhi",
        "alias": "location",
        "meta": "@sys.location",
        "userDefined": false
      }
    ],
    "isTemplate": false,
    "count": 0,
    "updated": 0
  },
  {
    "id": "650c3862-d3a0-4486-9762-6f867cd45b51",
    "data": [
      {
        "text": "tourist places ",
        "userDefined": false
      },
      {
        "text": "nearby",
        "alias": "sort",
        "meta": "@map-sort",
        "userDefined": false
      }
    ],
    "isTemplate": false,
    "count": 0,
    "updated": 0
  },
  {
    "id": "a9d3a87f-f696-4e94-ba1d-0f501ffc3cf2",
    "data": [
      {
        "text": "show me the ",
        "userDefined": false
      },
      {
        "text": "best",
        "alias": "sort",
        "meta": "@map-sort",
        "userDefined": false
      },
      {
        "text": " tourist places ",
        "userDefined": false
      },
      {
        "text": "nearby",
        "alias": "sort",
        "meta": "@map-sort",
        "userDefined": false
      }
    ],
    "isTemplate": false,
    "count": 0,
    "updated": 0
  },
  {
    "id": "30f9df2f-e025-44e9-9375-0874eb80c5ca",
    "data": [
      {
        "text": "is the ",
        "userDefined": false
      },
      {
        "text": "Central Park",
        "alias": "venue-title",
        "meta": "@venue-tourist-attraction-title",
        "userDefined": true
      },
      {
        "text": " ",
        "userDefined": false
      },
      {
        "text": "open",
        "alias": "open",
        "meta": "@open",
        "userDefined": true
      },
      {
        "text": " now",
        "userDefined": false
      }
    ],
    "isTemplate": false,
    "count": 1,
    "updated": 0
  },
  {
    "id": "62821554-a5e3-4c13-a080-443003475865",
    "data": [
      {
        "text": "tourist places",
        "userDefined": false
      }
    ],
    "isTemplate": false,
    "count": 0,
    "updated": 0
  },
  {
    "id": "9591f2f9-1f9f-4880-bb0e-142b00d5f725",
    "data": [
      {
        "text": "tourist places ",
        "userDefined": false
      },
      {
        "text": "near",
        "alias": "sort",
        "meta": "@map-sort",
        "userDefined": true
      },
      {
        "text": " ",
        "userDefined": false
      },
      {
        "text": "my place",
        "meta": "@sys.ignore",
        "userDefined": true
      }
    ],
    "isTemplate": false,
    "count": 0,
    "updated": 0
  },
  {
    "id": "07723e7e-6e81-4921-af57-7b526c5d7a14",
    "data": [
      {
        "text": "tourist places ",
        "userDefined": false
      },
      {
        "text": "of",
        "meta": "@sys.ignore",
        "userDefined": true
      },
      {
        "text": " ",
        "userDefined": false
      },
      {
        "text": "US",
        "alias": "location",
        "meta": "@sys.location",
        "userDefined": true
      }
    ],
    "isTemplate": false,
    "count": 0,
    "updated": 0
  },
  {
    "id": "94e95a00-61d7-4a4c-8b0c-3aa21439c6e0",
    "data": [
      {
        "text": "cool",
        "meta": "@sys.ignore",
        "userDefined": false
      },
      {
        "text": " tourist places in ",
        "userDefined": false
      },
      {
        "text": "Delhi",
        "alias": "location",
        "meta": "@sys.location",
        "userDefined": false
      }
    ],
    "isTemplate": false,
    "count": 1,
    "updated": 0
  },
  {
    "id": "7a132f65-87c4-4e50-b79c-1c7aecb1dbed",
    "data": [
      {
        "text": "I\u0027m looking for tourist attractions with ",
        "userDefined": false
      },
      {
        "text": "sea view",
        "alias": "venue-facility",
        "meta": "@venue-facility",
        "userDefined": false
      },
      {
        "text": " that are ",
        "userDefined": false
      },
      {
        "text": "open",
        "alias": "open",
        "meta": "@open",
        "userDefined": false
      }
    ],
    "isTemplate": false,
    "count": 0,
    "updated": 0
  },
  {
    "id": "4bde2ea5-3fe5-4caa-b895-0a103071f320",
    "data": [
      {
        "text": "name some tourist places ",
        "userDefined": false
      },
      {
        "text": "of",
        "meta": "@sys.ignore",
        "userDefined": false
      },
      {
        "text": " ",
        "userDefined": false
      },
      {
        "text": "Europe",
        "alias": "location",
        "meta": "@sys.location",
        "userDefined": false
      }
    ],
    "isTemplate": false,
    "count": 0,
    "updated": 0
  },
  {
    "id": "f102b5c3-788d-4294-9d4d-a34376c24a8e",
    "data": [
      {
        "text": "okay show me sightseeing in ",
        "userDefined": false
      },
      {
        "text": "India",
        "alias": "location",
        "meta": "@sys.location",
        "userDefined": false
      }
    ],
    "isTemplate": false,
    "count": 0,
    "updated": 0
  }
]