[
  {
    "id": "687ba71f-37a3-4c81-a587-f336a9cf945e",
    "data": [
      {
        "text": "now ",
        "userDefined": false
      },
      {
        "text": "cosmetics shop",
        "alias": "venue-type",
        "meta": "@venue-shopping-type",
        "userDefined": false
      }
    ],
    "isTemplate": false,
    "count": 0,
    "updated": 0
  },
  {
    "id": "d0e323c4-75d5-481c-bab8-008b265fc8be",
    "data": [
      {
        "text": "and a ",
        "userDefined": false
      },
      {
        "text": "grocery store",
        "alias": "venue-type",
        "meta": "@venue-shopping-type",
        "userDefined": false
      }
    ],
    "isTemplate": false,
    "count": 0,
    "updated": 0
  },
  {
    "id": "41411d17-2de8-445f-bcd5-d91fd24119a3",
    "data": [
      {
        "text": "search for ",
        "userDefined": false
      },
      {
        "text": "supermarkets",
        "alias": "venue-type",
        "meta": "@venue-shopping-type",
        "userDefined": false
      },
      {
        "text": " now please",
        "userDefined": false
      }
    ],
    "isTemplate": false,
    "count": 0,
    "updated": 0
  },
  {
    "id": "1cc4476f-bd0b-49d8-abb9-30503111f8b2",
    "data": [
      {
        "text": "I need ",
        "userDefined": false
      },
      {
        "text": "supermarket",
        "alias": "venue-type",
        "meta": "@venue-shopping-type",
        "userDefined": false
      },
      {
        "text": " also",
        "userDefined": false
      }
    ],
    "isTemplate": false,
    "count": 0,
    "updated": 0
  },
  {
    "id": "6ce6cea1-c3cc-41c8-95ed-391a3e4d2517",
    "data": [
      {
        "text": "are there ",
        "userDefined": false
      },
      {
        "text": "grocery stores",
        "alias": "venue-type",
        "meta": "@venue-shopping-type",
        "userDefined": false
      }
    ],
    "isTemplate": false,
    "count": 0,
    "updated": 0
  },
  {
    "id": "1a9a558a-6dd8-4a19-a529-4522f5a740cd",
    "data": [
      {
        "text": "book store",
        "alias": "venue-type",
        "meta": "@venue-shopping-type",
        "userDefined": false
      }
    ],
    "isTemplate": false,
    "count": 0,
    "updated": 0
  },
  {
    "id": "0fd1d80d-2d6e-468c-a691-fde97f3a7a40",
    "data": [
      {
        "text": "and what about ",
        "userDefined": false
      },
      {
        "text": "grocery",
        "alias": "venue-type",
        "meta": "@venue-shopping-type",
        "userDefined": false
      },
      {
        "text": " there",
        "userDefined": false
      }
    ],
    "isTemplate": false,
    "count": 0,
    "updated": 0
  },
  {
    "id": "c3b10e3c-def2-4d99-9341-23e8a7182031",
    "data": [
      {
        "text": "book store",
        "alias": "venue-type",
        "meta": "@venue-shopping-type",
        "userDefined": false
      },
      {
        "text": " please",
        "userDefined": false
      }
    ],
    "isTemplate": false,
    "count": 0,
    "updated": 0
  },
  {
    "id": "9ecb3d2c-a14a-464a-8232-53381084d5cb",
    "data": [
      {
        "text": "and what about ",
        "userDefined": false
      },
      {
        "text": "grocery",
        "alias": "venue-type",
        "meta": "@venue-shopping-type",
        "userDefined": false
      }
    ],
    "isTemplate": false,
    "count": 0,
    "updated": 0
  }
]