[
  {
    "id": "dac0f8fc-e87f-4e7a-a52c-b0983fe4048c",
    "data": [
      {
        "text": "pedicure",
        "alias": "venue-type",
        "meta": "@venue-beauty-type",
        "userDefined": false
      }
    ],
    "isTemplate": false,
    "count": 0,
    "updated": 0
  },
  {
    "id": "ab200f3a-97e5-459b-8311-5fb8f4caccd2",
    "data": [
      {
        "text": "and ",
        "userDefined": false
      },
      {
        "text": "pedicure",
        "alias": "venue-type",
        "meta": "@venue-beauty-type",
        "userDefined": false
      }
    ],
    "isTemplate": false,
    "count": 0,
    "updated": 0
  },
  {
    "id": "1ea4230f-1212-4cd9-9de3-f51b02d27831",
    "data": [
      {
        "text": "what about a ",
        "userDefined": false
      },
      {
        "text": "manicure",
        "alias": "venue-type",
        "meta": "@venue-beauty-type",
        "userDefined": false
      }
    ],
    "isTemplate": false,
    "count": 0,
    "updated": 0
  },
  {
    "id": "a9f80e64-2a52-415a-ae05-ab9c2ce4a5d1",
    "data": [
      {
        "text": "now ",
        "userDefined": false
      },
      {
        "text": "spa salon",
        "alias": "venue-type",
        "meta": "@venue-beauty-type",
        "userDefined": false
      }
    ],
    "isTemplate": false,
    "count": 0,
    "updated": 0
  },
  {
    "id": "cf6dfeeb-5984-4856-a407-526d863984d7",
    "data": [
      {
        "text": "how about ",
        "userDefined": false
      },
      {
        "text": "spa",
        "alias": "venue-type",
        "meta": "@venue-beauty-type",
        "userDefined": false
      }
    ],
    "isTemplate": false,
    "count": 0,
    "updated": 0
  },
  {
    "id": "3213b78c-4ab9-405d-9134-0e42b5879353",
    "data": [
      {
        "text": "spa salon",
        "alias": "venue-type",
        "meta": "@venue-beauty-type",
        "userDefined": false
      },
      {
        "text": " also",
        "userDefined": false
      }
    ],
    "isTemplate": false,
    "count": 0,
    "updated": 0
  },
  {
    "id": "4db665e8-2980-48a1-9bcd-07d7729c8553",
    "data": [
      {
        "text": "how about ",
        "userDefined": false
      },
      {
        "text": "beauty salon",
        "alias": "venue-type",
        "meta": "@venue-beauty-type",
        "userDefined": false
      }
    ],
    "isTemplate": false,
    "count": 0,
    "updated": 0
  },
  {
    "id": "527ce3d7-9e21-43aa-b5ed-cf9a3ff1f0e5",
    "data": [
      {
        "text": "I also need a ",
        "userDefined": false
      },
      {
        "text": "haircut",
        "alias": "venue-type",
        "meta": "@venue-beauty-type",
        "userDefined": false
      }
    ],
    "isTemplate": false,
    "count": 0,
    "updated": 0
  }
]