{
  "id": "6935ad17-9fbc-4743-812e-d166315d6a45",
  "name": "volume - context:device-volume - comment:up",
  "auto": true,
  "contexts": [
    "device-volume"
  ],
  "responses": [
    {
      "resetContexts": false,
      "action": "volume.up",
      "affectedContexts": [],
      "parameters": [],
      "messages": [
        {
          "type": 0,
          "lang": "en",
          "condition": "",
          "speech": []
        }
      ],
      "defaultResponsePlatforms": {},
      "speech": []
    }
  ],
  "priority": 500000,
  "webhookUsed": false,
  "webhookForSlotFilling": false,
  "fallbackIntent": false,
  "events": [],
  "conditionalResponses": [],
  "condition": "",
  "conditionalFollowupEvents": []
}