[
  {
    "id": "1acbf5c2-fc9a-43bf-8420-4b4264074662",
    "data": [
      {
        "text": "sound volume level",
        "userDefined": false
      }
    ],
    "isTemplate": false,
    "count": 0,
    "updated": 0
  },
  {
    "id": "159bdf0f-7f36-4440-9591-f93ce8e648eb",
    "data": [
      {
        "text": "could you check the ",
        "userDefined": false
      },
      {
        "text": "volume",
        "meta": "@sys.ignore",
        "userDefined": true
      }
    ],
    "isTemplate": false,
    "count": 0,
    "updated": 0
  },
  {
    "id": "991e4945-ec35-4bb8-b3be-69da83ca542d",
    "data": [
      {
        "text": "I\u0027d like to check volume level",
        "userDefined": false
      }
    ],
    "isTemplate": false,
    "count": 0,
    "updated": 0
  },
  {
    "id": "5cdd18b5-03e7-4105-8a08-ab5b592bdc74",
    "data": [
      {
        "text": "volume level",
        "userDefined": false
      }
    ],
    "isTemplate": false,
    "count": 0,
    "updated": 0
  },
  {
    "id": "2ec88f43-52c1-4de0-a0fb-102565c1fa19",
    "data": [
      {
        "text": "check volume",
        "userDefined": false
      }
    ],
    "isTemplate": false,
    "count": 0,
    "updated": 0
  },
  {
    "id": "d974354c-27a9-4da0-a21a-e6ee1577c8ea",
    "data": [
      {
        "text": "how can I check the volume level",
        "userDefined": false
      }
    ],
    "isTemplate": false,
    "count": 0,
    "updated": 0
  },
  {
    "id": "1007531b-4580-4cbc-9e87-f5fce0bab365",
    "data": [
      {
        "text": "what\u0027s the volume level",
        "userDefined": false
      }
    ],
    "isTemplate": false,
    "count": 0,
    "updated": 0
  }
]