{
  "id": "8dbf28fe-83dc-4a6e-9f02-588d7ed779dc",
  "name": "volume.up",
  "auto": true,
  "contexts": [],
  "responses": [
    {
      "resetContexts": false,
      "action": "volume.up",
      "affectedContexts": [
        {
          "name": "device-volume",
          "parameters": {},
          "lifespan": 5
        }
      ],
      "parameters": [
        {
          "id": "08832d2a-ab1a-4329-b1dd-490159f22efd",
          "required": false,
          "dataType": "@sys.number",
          "name": "change-value",
          "value": "$change-value",
          "promptMessages": [],
          "noMatchPromptMessages": [],
          "noInputPromptMessages": [],
          "outputDialogContexts": [],
          "isList": false
        },
        {
          "id": "6d69216c-8d6e-4c9a-ac0b-514db981637d",
          "required": false,
          "dataType": "@sys.number",
          "name": "final-value",
          "value": "$final-value",
          "promptMessages": [],
          "noMatchPromptMessages": [],
          "noInputPromptMessages": [],
          "outputDialogContexts": [],
          "isList": false
        }
      ],
      "messages": [
        {
          "type": 0,
          "lang": "en",
          "condition": "",
          "speech": []
        }
      ],
      "defaultResponsePlatforms": {},
      "speech": []
    }
  ],
  "priority": 500000,
  "webhookUsed": false,
  "webhookForSlotFilling": false,
  "fallbackIntent": false,
  "events": [],
  "conditionalResponses": [],
  "condition": "",
  "conditionalFollowupEvents": []
}