[
  {
    "id": "e3042a82-ad0c-468f-a413-d8638e31c136",
    "data": [
      {
        "text": "unmute the sound",
        "userDefined": false
      }
    ],
    "isTemplate": false,
    "count": 0,
    "updated": 0
  },
  {
    "id": "768d6dc5-c9e2-4cb6-9f18-44643cbdbf72",
    "data": [
      {
        "text": "could you unmute the sound",
        "userDefined": false
      }
    ],
    "isTemplate": false,
    "count": 0,
    "updated": 0
  },
  {
    "id": "b2efeb21-0e8d-40e0-b033-64101d73bf9d",
    "data": [
      {
        "text": "unmute",
        "userDefined": false
      }
    ],
    "isTemplate": false,
    "count": 0,
    "updated": 0
  },
  {
    "id": "f4eb553a-e84e-440e-8259-44f3b9a4c4b7",
    "data": [
      {
        "text": "turn the silent mode off",
        "userDefined": false
      }
    ],
    "isTemplate": false,
    "count": 0,
    "updated": 0
  },
  {
    "id": "370128bc-dd37-42c4-bfb3-e33a52ff3a9e",
    "data": [
      {
        "text": "I\u0027d like to turn off the silent mode",
        "userDefined": false
      }
    ],
    "isTemplate": false,
    "count": 0,
    "updated": 0
  },
  {
    "id": "f2072393-38b9-4364-9b2e-3fdb6e7c39b6",
    "data": [
      {
        "text": "turn the volume back on",
        "userDefined": false
      }
    ],
    "isTemplate": false,
    "count": 0,
    "updated": 0
  }
]