{
  "id": "cfeb6976-460a-4d30-b43a-f6938e449f4f",
  "name": "weather.temperature",
  "auto": true,
  "contexts": [],
  "responses": [
    {
      "resetContexts": false,
      "action": "weather.temperature",
      "affectedContexts": [
        {
          "name": "weather",
          "parameters": {},
          "lifespan": 2
        }
      ],
      "parameters": [
        {
          "id": "1157830b-a646-4bca-9b8e-c4c4b93db451",
          "required": false,
          "dataType": "@sys.location",
          "name": "address",
          "value": "$address",
          "promptMessages": [],
          "noMatchPromptMessages": [],
          "noInputPromptMessages": [],
          "outputDialogContexts": [],
          "isList": false
        },
        {
          "id": "9aceb65b-2448-423f-98bd-92fddf854894",
          "required": false,
          "dataType": "@temperature",
          "name": "temperature",
          "value": "$temperature",
          "promptMessages": [],
          "noMatchPromptMessages": [],
          "noInputPromptMessages": [],
          "outputDialogContexts": [],
          "isList": false
        },
        {
          "id": "729c8cfc-2804-434b-8ae6-a50a09a1236a",
          "required": false,
          "dataType": "@sys.date-time",
          "name": "date-time",
          "value": "$date-time",
          "promptMessages": [],
          "noMatchPromptMessages": [],
          "noInputPromptMessages": [],
          "outputDialogContexts": [],
          "isList": false
        },
        {
          "id": "ada79eaa-373a-46a3-9708-2dafc1c0f14c",
          "required": false,
          "dataType": "@unit-temperature",
          "name": "unit",
          "value": "$unit",
          "promptMessages": [],
          "noMatchPromptMessages": [],
          "noInputPromptMessages": [],
          "outputDialogContexts": [],
          "isList": false
        }
      ],
      "messages": [
        {
          "type": 0,
          "lang": "es",
          "condition": "",
          "speech": []
        },
        {
          "type": 0,
          "lang": "zh-cn",
          "condition": "",
          "speech": []
        },
        {
          "type": 0,
          "lang": "fr",
          "condition": "",
          "speech": []
        },
        {
          "type": 0,
          "lang": "it",
          "condition": "",
          "speech": []
        },
        {
          "type": 0,
          "lang": "en",
          "condition": "",
          "speech": []
        },
        {
          "type": 0,
          "lang": "ja",
          "condition": "",
          "speech": []
        },
        {
          "type": 0,
          "lang": "pt-br",
          "condition": "",
          "speech": []
        },
        {
          "type": 0,
          "lang": "zh-tw",
          "condition": "",
          "speech": []
        },
        {
          "type": 0,
          "lang": "zh-hk",
          "condition": "",
          "speech": []
        },
        {
          "type": 0,
          "lang": "pt",
          "condition": "",
          "speech": []
        },
        {
          "type": 0,
          "lang": "ru",
          "condition": "",
          "speech": []
        },
        {
          "type": 0,
          "lang": "de",
          "condition": "",
          "speech": []
        }
      ],
      "defaultResponsePlatforms": {},
      "speech": []
    }
  ],
  "priority": 500000,
  "webhookUsed": false,
  "webhookForSlotFilling": false,
  "fallbackIntent": false,
  "events": [],
  "conditionalResponses": [],
  "condition": "",
  "conditionalFollowupEvents": []
}