[
  {
    "id": "b40ef79a-5d60-41fd-a75a-8935fd0ab139",
    "data": [
      {
        "text": "und eine ",
        "userDefined": false
      },
      {
        "text": "Jacke",
        "alias": "outfit",
        "meta": "@outfit",
        "userDefined": false
      }
    ],
    "isTemplate": false,
    "count": 0,
    "updated": 0
  },
  {
    "id": "4cdf1b2d-657b-4e5d-8874-d1536e568535",
    "data": [
      {
        "text": "muss ich eine ",
        "userDefined": false
      },
      {
        "text": "Sonnenbrille",
        "alias": "outfit",
        "meta": "@outfit",
        "userDefined": false
      },
      {
        "text": " aufsetzen",
        "userDefined": false
      }
    ],
    "isTemplate": false,
    "count": 0,
    "updated": 0
  },
  {
    "id": "be8685a9-d871-40ec-978a-41aaa196a187",
    "data": [
      {
        "text": "sollte ich einen ",
        "userDefined": false
      },
      {
        "text": "Regenschirm",
        "alias": "outfit",
        "meta": "@outfit",
        "userDefined": false
      },
      {
        "text": " einpacken",
        "userDefined": false
      }
    ],
    "isTemplate": false,
    "count": 0,
    "updated": 0
  },
  {
    "id": "b70f0b08-e2e6-4390-b1f7-9e2935c42f81",
    "data": [
      {
        "text": "und was ",
        "userDefined": false
      },
      {
        "text": "ist",
        "meta": "@sys.ignore",
        "userDefined": false
      },
      {
        "text": " mit einer ",
        "userDefined": false
      },
      {
        "text": "Sonnenbrille",
        "alias": "outfit",
        "meta": "@outfit",
        "userDefined": false
      }
    ],
    "isTemplate": false,
    "count": 0,
    "updated": 0
  },
  {
    "id": "f056fd9c-6583-463e-a6d6-9a83fa67de68",
    "data": [
      {
        "text": "brauche ich auch einen ",
        "userDefined": false
      },
      {
        "text": "Mantel",
        "alias": "outfit",
        "meta": "@outfit",
        "userDefined": false
      }
    ],
    "isTemplate": false,
    "count": 0,
    "updated": 0
  },
  {
    "id": "4ff9d377-f6ff-4e5f-9d5e-5f18512524a4",
    "data": [
      {
        "text": "und einen ",
        "userDefined": false
      },
      {
        "text": "Regenschirm",
        "alias": "outfit",
        "meta": "@outfit",
        "userDefined": false
      }
    ],
    "isTemplate": false,
    "count": 0,
    "updated": 0
  },
  {
    "id": "e24b14c0-039b-4638-9394-032ed478334b",
    "data": [
      {
        "text": "sollte ",
        "userDefined": false
      },
      {
        "text": "man",
        "meta": "@sys.ignore",
        "userDefined": false
      },
      {
        "text": " einen ",
        "userDefined": false
      },
      {
        "text": "Schirm",
        "alias": "outfit",
        "meta": "@outfit",
        "userDefined": true
      },
      {
        "text": " mitnehmen",
        "userDefined": false
      }
    ],
    "isTemplate": false,
    "count": 0,
    "updated": 0
  },
  {
    "id": "43f77acb-8a2f-4f31-ac79-b83449b9c79f",
    "data": [
      {
        "text": "brauche ich einen ",
        "userDefined": false
      },
      {
        "text": "Schirm",
        "alias": "outfit",
        "meta": "@outfit",
        "userDefined": true
      }
    ],
    "isTemplate": false,
    "count": 0,
    "updated": 0
  }
]