[
  {
    "id": "10a7c196-e6aa-41be-9fd8-8dfded4217b7",
    "data": [
      {
        "text": "e ",
        "userDefined": false
      },
      {
        "text": "guarda-chuva",
        "alias": "outfit",
        "meta": "@outfit",
        "userDefined": true
      }
    ],
    "isTemplate": false,
    "count": 0,
    "updated": 0
  },
  {
    "id": "1d013d6a-3adb-4d00-9fa8-21302e1eb486",
    "data": [
      {
        "text": "meu ",
        "userDefined": false
      },
      {
        "text": "casaco",
        "alias": "outfit",
        "meta": "@outfit",
        "userDefined": true
      }
    ],
    "isTemplate": false,
    "count": 0,
    "updated": 0
  },
  {
    "id": "05253fb5-6b05-4d6f-ae90-6e8832e83489",
    "data": [
      {
        "text": "capa de chuva",
        "alias": "outfit",
        "meta": "@outfit",
        "userDefined": true
      }
    ],
    "isTemplate": false,
    "count": 0,
    "updated": 0
  },
  {
    "id": "f64e421a-bd5f-4de4-90ff-7f96b8585824",
    "data": [
      {
        "text": "e ",
        "userDefined": false
      },
      {
        "text": "óculos de sol",
        "alias": "outfit",
        "meta": "@outfit",
        "userDefined": true
      }
    ],
    "isTemplate": false,
    "count": 0,
    "updated": 0
  },
  {
    "id": "a45eb31c-f5ca-41b3-a118-ec8ceb0d01ab",
    "data": [
      {
        "text": "e ",
        "userDefined": false
      },
      {
        "text": "casaco de chuva",
        "alias": "outfit",
        "meta": "@outfit",
        "userDefined": true
      }
    ],
    "isTemplate": false,
    "count": 0,
    "updated": 0
  },
  {
    "id": "7bc14934-fd3e-4eaa-af08-cf1d84cfa7d8",
    "data": [
      {
        "text": "e ",
        "userDefined": false
      },
      {
        "text": "capa de chuva",
        "alias": "outfit",
        "meta": "@outfit",
        "userDefined": true
      }
    ],
    "isTemplate": false,
    "count": 0,
    "updated": 0
  },
  {
    "id": "8f8500a7-5292-41b9-9d8f-972adc8e49b9",
    "data": [
      {
        "text": "e quanto à minha ",
        "userDefined": false
      },
      {
        "text": "capa de chuva",
        "alias": "outfit",
        "meta": "@outfit",
        "userDefined": true
      }
    ],
    "isTemplate": false,
    "count": 0,
    "updated": 0
  },
  {
    "id": "d8a76ae3-6339-4873-9e9e-32a74b9c816c",
    "data": [
      {
        "text": "e meu ",
        "userDefined": false
      },
      {
        "text": "guarda-chuva",
        "alias": "outfit",
        "meta": "@outfit",
        "userDefined": true
      }
    ],
    "isTemplate": false,
    "count": 0,
    "updated": 0
  }
]