[
  {
    "id": "d6aba020-6da1-445e-bbaf-901307fced7d",
    "data": [
      {
        "text": "brauche ",
        "userDefined": false
      },
      {
        "text": "ich",
        "meta": "@sys.ignore",
        "userDefined": false
      },
      {
        "text": " einen ",
        "userDefined": false
      },
      {
        "text": "Regenschirm",
        "alias": "outfit",
        "meta": "@outfit",
        "userDefined": false
      }
    ],
    "isTemplate": false,
    "count": 0,
    "updated": 0
  },
  {
    "id": "78d0c46a-8c76-48df-99e8-a4cf7a930cd0",
    "data": [
      {
        "text": "brauche ",
        "userDefined": false
      },
      {
        "text": "ich",
        "meta": "@sys.ignore",
        "userDefined": false
      },
      {
        "text": " eine ",
        "userDefined": false
      },
      {
        "text": "Sonnenbrille",
        "alias": "outfit",
        "meta": "@outfit",
        "userDefined": false
      }
    ],
    "isTemplate": false,
    "count": 0,
    "updated": 0
  },
  {
    "id": "1d18c259-842e-492b-96c2-1a4f520abe3b",
    "data": [
      {
        "text": "muss ",
        "userDefined": false
      },
      {
        "text": "ich",
        "meta": "@sys.ignore",
        "userDefined": false
      },
      {
        "text": " ",
        "userDefined": false
      },
      {
        "text": "heute",
        "alias": "date-time",
        "meta": "@sys.date-time",
        "userDefined": false
      },
      {
        "text": " eine ",
        "userDefined": false
      },
      {
        "text": "Jacke",
        "alias": "outfit",
        "meta": "@outfit",
        "userDefined": false
      },
      {
        "text": " anziehen",
        "userDefined": false
      }
    ],
    "isTemplate": false,
    "count": 1,
    "updated": 0
  },
  {
    "id": "1d06004e-a90a-4781-9c8c-1fe1eaf917e8",
    "data": [
      {
        "text": "brauche ",
        "userDefined": false
      },
      {
        "text": "ich",
        "meta": "@sys.ignore",
        "userDefined": false
      },
      {
        "text": " ",
        "userDefined": false
      },
      {
        "text": "heute",
        "alias": "date-time",
        "meta": "@sys.date-time",
        "userDefined": false
      },
      {
        "text": " einen ",
        "userDefined": false
      },
      {
        "text": "Mantel",
        "alias": "outfit",
        "meta": "@outfit",
        "userDefined": false
      }
    ],
    "isTemplate": false,
    "count": 0,
    "updated": 0
  },
  {
    "id": "f363352b-fe75-43f5-be59-2fb36d7d5ce0",
    "data": [
      {
        "text": "brauche ",
        "userDefined": false
      },
      {
        "text": "ich",
        "meta": "@sys.ignore",
        "userDefined": false
      },
      {
        "text": " einen ",
        "userDefined": false
      },
      {
        "text": "Mantel",
        "alias": "outfit",
        "meta": "@outfit",
        "userDefined": false
      }
    ],
    "isTemplate": false,
    "count": 0,
    "updated": 0
  },
  {
    "id": "9ebca94a-7b51-4fa8-83ec-4a8f4c768510",
    "data": [
      {
        "text": "brauche ich ",
        "userDefined": false
      },
      {
        "text": "morgen",
        "alias": "date-time",
        "meta": "@sys.date-time",
        "userDefined": true
      },
      {
        "text": " in ",
        "userDefined": false
      },
      {
        "text": "Basel",
        "alias": "address",
        "meta": "@sys.location",
        "userDefined": true
      },
      {
        "text": " einen ",
        "userDefined": false
      },
      {
        "text": "Regenschirm",
        "alias": "outfit",
        "meta": "@outfit",
        "userDefined": true
      }
    ],
    "isTemplate": false,
    "count": 0,
    "updated": 0
  },
  {
    "id": "df8432f9-e499-47bc-9c4d-c0a68bd78d88",
    "data": [
      {
        "text": "brauche ",
        "userDefined": false
      },
      {
        "text": "ich",
        "meta": "@sys.ignore",
        "userDefined": false
      },
      {
        "text": " ",
        "userDefined": false
      },
      {
        "text": "morgen",
        "alias": "date-time",
        "meta": "@sys.date-time",
        "userDefined": false
      },
      {
        "text": " in ",
        "userDefined": false
      },
      {
        "text": "Suhl",
        "alias": "address",
        "meta": "@sys.location",
        "userDefined": false
      },
      {
        "text": " einen ",
        "userDefined": false
      },
      {
        "text": "Regenschirm",
        "alias": "outfit",
        "meta": "@outfit",
        "userDefined": false
      }
    ],
    "isTemplate": false,
    "count": 0,
    "updated": 0
  },
  {
    "id": "a5f3a753-69fd-492c-9cd5-a4fe19903af9",
    "data": [
      {
        "text": "sollte ",
        "userDefined": false
      },
      {
        "text": "ich",
        "meta": "@sys.ignore",
        "userDefined": false
      },
      {
        "text": " eine ",
        "userDefined": false
      },
      {
        "text": "Jacke",
        "alias": "outfit",
        "meta": "@outfit",
        "userDefined": false
      },
      {
        "text": " anziehen",
        "userDefined": false
      }
    ],
    "isTemplate": false,
    "count": 0,
    "updated": 0
  },
  {
    "id": "eba8f7af-400c-480d-b3c3-5811fb35b02f",
    "data": [
      {
        "text": "brauche ich ",
        "userDefined": false
      },
      {
        "text": "heute",
        "alias": "date-time",
        "meta": "@sys.date-time",
        "userDefined": true
      },
      {
        "text": " ",
        "userDefined": false
      },
      {
        "text": "Gummistiefel",
        "alias": "outfit",
        "meta": "@outfit",
        "userDefined": true
      }
    ],
    "isTemplate": false,
    "count": 0,
    "updated": 0
  },
  {
    "id": "08afc510-370a-4192-a23d-752fff4165ba",
    "data": [
      {
        "text": "brauche ",
        "userDefined": false
      },
      {
        "text": "ich",
        "meta": "@sys.ignore",
        "userDefined": false
      },
      {
        "text": " ",
        "userDefined": false
      },
      {
        "text": "morgen",
        "alias": "date-time",
        "meta": "@sys.date-time",
        "userDefined": false
      },
      {
        "text": " eine ",
        "userDefined": false
      },
      {
        "text": "Jacke",
        "alias": "outfit",
        "meta": "@outfit",
        "userDefined": false
      }
    ],
    "isTemplate": false,
    "count": 0,
    "updated": 0
  },
  {
    "id": "d2c28f3c-1968-4af2-9b21-c8060075b037",
    "data": [
      {
        "text": "brauche ",
        "userDefined": false
      },
      {
        "text": "ich",
        "meta": "@sys.ignore",
        "userDefined": false
      },
      {
        "text": " ",
        "userDefined": false
      },
      {
        "text": "heute",
        "alias": "date-time",
        "meta": "@sys.date-time",
        "userDefined": false
      },
      {
        "text": " ",
        "userDefined": false
      },
      {
        "text": "Regenschirm",
        "alias": "outfit",
        "meta": "@outfit",
        "userDefined": false
      }
    ],
    "isTemplate": false,
    "count": 0,
    "updated": 0
  },
  {
    "id": "086da5b9-30ce-4927-869a-f1e0a6f31a49",
    "data": [
      {
        "text": "muss ",
        "userDefined": false
      },
      {
        "text": "ich",
        "meta": "@sys.ignore",
        "userDefined": false
      },
      {
        "text": " ",
        "userDefined": false
      },
      {
        "text": "morgen",
        "alias": "date-time",
        "meta": "@sys.date-time",
        "userDefined": false
      },
      {
        "text": " einen ",
        "userDefined": false
      },
      {
        "text": "Mantel",
        "alias": "outfit",
        "meta": "@outfit",
        "userDefined": false
      },
      {
        "text": " anziehen",
        "userDefined": false
      }
    ],
    "isTemplate": false,
    "count": 1,
    "updated": 0
  },
  {
    "id": "9f82a0b8-44e2-4ff1-9d1f-52c234d1c723",
    "data": [
      {
        "text": "brauche ",
        "userDefined": false
      },
      {
        "text": "ich",
        "meta": "@sys.ignore",
        "userDefined": false
      },
      {
        "text": " ",
        "userDefined": false
      },
      {
        "text": "morgen",
        "alias": "date-time",
        "meta": "@sys.date-time",
        "userDefined": false
      },
      {
        "text": " einen ",
        "userDefined": false
      },
      {
        "text": "Regenschirm",
        "alias": "outfit",
        "meta": "@outfit",
        "userDefined": false
      }
    ],
    "isTemplate": false,
    "count": 2,
    "updated": 0
  },
  {
    "id": "cee52c68-b27a-402e-812e-3d85fb34365a",
    "data": [
      {
        "text": "muss ich ",
        "userDefined": false
      },
      {
        "text": "morgen",
        "alias": "date-time",
        "meta": "@sys.date-time",
        "userDefined": true
      },
      {
        "text": " einen ",
        "userDefined": false
      },
      {
        "text": "Regenschirm",
        "alias": "outfit",
        "meta": "@outfit",
        "userDefined": true
      },
      {
        "text": " mitnehmen",
        "userDefined": false
      }
    ],
    "isTemplate": false,
    "count": 1,
    "updated": 0
  },
  {
    "id": "6938c8c3-bd79-4bea-9224-a0ea09e8476a",
    "data": [
      {
        "text": "brauche ich ",
        "userDefined": false
      },
      {
        "text": "nächsten Freitag",
        "alias": "date-time",
        "meta": "@sys.date-time",
        "userDefined": true
      },
      {
        "text": " in ",
        "userDefined": false
      },
      {
        "text": "Wien",
        "alias": "address",
        "meta": "@sys.location",
        "userDefined": true
      },
      {
        "text": " einen ",
        "userDefined": false
      },
      {
        "text": "Regenschirm",
        "alias": "outfit",
        "meta": "@outfit",
        "userDefined": true
      }
    ],
    "isTemplate": false,
    "count": 0,
    "updated": 0
  },
  {
    "id": "3515cf65-708b-46c4-9b41-f87dc1b76536",
    "data": [
      {
        "text": "brauche ",
        "userDefined": false
      },
      {
        "text": "ich",
        "meta": "@sys.ignore",
        "userDefined": false
      },
      {
        "text": " eine ",
        "userDefined": false
      },
      {
        "text": "Jacke",
        "alias": "outfit",
        "meta": "@outfit",
        "userDefined": false
      }
    ],
    "isTemplate": false,
    "count": 1,
    "updated": 0
  },
  {
    "id": "65df0658-489f-48f6-bd56-596d6d6da822",
    "data": [
      {
        "text": "soll ich eine ",
        "userDefined": false
      },
      {
        "text": "Jacke",
        "alias": "outfit",
        "meta": "@outfit",
        "userDefined": true
      },
      {
        "text": " anziehen",
        "userDefined": false
      }
    ],
    "isTemplate": false,
    "count": 0,
    "updated": 0
  },
  {
    "id": "5309d732-4f32-4e6b-9033-f1c54b75fd6f",
    "data": [
      {
        "text": "brauche ",
        "userDefined": false
      },
      {
        "text": "ich",
        "meta": "@sys.ignore",
        "userDefined": false
      },
      {
        "text": " ",
        "userDefined": false
      },
      {
        "text": "heute",
        "alias": "date-time",
        "meta": "@sys.date-time",
        "userDefined": false
      },
      {
        "text": " einen ",
        "userDefined": false
      },
      {
        "text": "Regenschirm",
        "alias": "outfit",
        "meta": "@outfit",
        "userDefined": false
      }
    ],
    "isTemplate": false,
    "count": 1,
    "updated": 0
  },
  {
    "id": "83360737-27af-4123-aeb5-ebeeb6b7f59e",
    "data": [
      {
        "text": "brauche ",
        "userDefined": false
      },
      {
        "text": "ich",
        "meta": "@sys.ignore",
        "userDefined": false
      },
      {
        "text": " ",
        "userDefined": false
      },
      {
        "text": "morgen",
        "alias": "date-time",
        "meta": "@sys.date-time",
        "userDefined": false
      },
      {
        "text": " eine dicke ",
        "userDefined": false
      },
      {
        "text": "Jacke",
        "alias": "outfit",
        "meta": "@outfit",
        "userDefined": false
      }
    ],
    "isTemplate": false,
    "count": 0,
    "updated": 0
  },
  {
    "id": "86f9a556-3c44-4322-aa3a-8a1d9bfed4d9",
    "data": [
      {
        "text": "brauche ",
        "userDefined": false
      },
      {
        "text": "ich",
        "meta": "@sys.ignore",
        "userDefined": false
      },
      {
        "text": " am ",
        "userDefined": false
      },
      {
        "text": "Mittwoch",
        "alias": "date-time",
        "meta": "@sys.date-time",
        "userDefined": false
      },
      {
        "text": " einen ",
        "userDefined": false
      },
      {
        "text": "Regenschirm",
        "alias": "outfit",
        "meta": "@outfit",
        "userDefined": false
      }
    ],
    "isTemplate": false,
    "count": 0,
    "updated": 0
  },
  {
    "id": "6e42808e-1f50-412f-af09-3767d76f48fe",
    "data": [
      {
        "text": "brauche ",
        "userDefined": false
      },
      {
        "text": "ich",
        "meta": "@sys.ignore",
        "userDefined": false
      },
      {
        "text": " meinen ",
        "userDefined": false
      },
      {
        "text": "Regenschirm",
        "alias": "outfit",
        "meta": "@outfit",
        "userDefined": false
      }
    ],
    "isTemplate": false,
    "count": 0,
    "updated": 0
  },
  {
    "id": "d0c21293-9e8a-482a-9965-c3a30ece028f",
    "data": [
      {
        "text": "brauche ",
        "userDefined": false
      },
      {
        "text": "ich",
        "meta": "@sys.ignore",
        "userDefined": false
      },
      {
        "text": " ",
        "userDefined": false
      },
      {
        "text": "morgen",
        "alias": "date-time",
        "meta": "@sys.date-time",
        "userDefined": false
      },
      {
        "text": " einen ",
        "userDefined": false
      },
      {
        "text": "Mantel",
        "alias": "outfit",
        "meta": "@outfit",
        "userDefined": false
      }
    ],
    "isTemplate": false,
    "count": 0,
    "updated": 0
  },
  {
    "id": "fc0889db-8d6a-4d21-b07f-bc814eb62fdf",
    "data": [
      {
        "text": "heute",
        "alias": "date-time",
        "meta": "@sys.date-time",
        "userDefined": false
      },
      {
        "text": " ",
        "userDefined": false
      },
      {
        "text": "Regenschirm",
        "alias": "outfit",
        "meta": "@outfit",
        "userDefined": false
      },
      {
        "text": " in ",
        "userDefined": false
      },
      {
        "text": "Köln",
        "alias": "address",
        "meta": "@sys.location",
        "userDefined": false
      }
    ],
    "isTemplate": false,
    "count": 0,
    "updated": 0
  },
  {
    "id": "7ad59f11-f5cb-4423-9404-7f4f9884962b",
    "data": [
      {
        "text": "brauche ",
        "userDefined": false
      },
      {
        "text": "ich",
        "meta": "@sys.ignore",
        "userDefined": false
      },
      {
        "text": " ",
        "userDefined": false
      },
      {
        "text": "morgen",
        "alias": "date-time",
        "meta": "@sys.date-time",
        "userDefined": false
      },
      {
        "text": " meinen ",
        "userDefined": false
      },
      {
        "text": "Regenschirm",
        "alias": "outfit",
        "meta": "@outfit",
        "userDefined": false
      }
    ],
    "isTemplate": false,
    "count": 0,
    "updated": 0
  },
  {
    "id": "ebbc9904-bec5-4157-9388-bf5a8a33d5a6",
    "data": [
      {
        "text": "muss ",
        "userDefined": false
      },
      {
        "text": "ich",
        "meta": "@sys.ignore",
        "userDefined": false
      },
      {
        "text": " ",
        "userDefined": false
      },
      {
        "text": "morgen",
        "alias": "date-time",
        "meta": "@sys.date-time",
        "userDefined": false
      },
      {
        "text": " ",
        "userDefined": false
      },
      {
        "text": "Regenschirm",
        "alias": "outfit",
        "meta": "@outfit",
        "userDefined": false
      },
      {
        "text": " mitnehmen",
        "userDefined": false
      }
    ],
    "isTemplate": false,
    "count": 0,
    "updated": 0
  },
  {
    "id": "05b5e925-3fdd-41a7-887b-ccef5ec98230",
    "data": [
      {
        "text": "brauche ",
        "userDefined": false
      },
      {
        "text": "ich",
        "meta": "@sys.ignore",
        "userDefined": false
      },
      {
        "text": " ",
        "userDefined": false
      },
      {
        "text": "jetzt",
        "alias": "date-time",
        "meta": "@sys.date-time",
        "userDefined": true
      },
      {
        "text": " einen ",
        "userDefined": false
      },
      {
        "text": "Regenschirm",
        "alias": "outfit",
        "meta": "@outfit",
        "userDefined": false
      }
    ],
    "isTemplate": false,
    "count": 1,
    "updated": 0
  },
  {
    "id": "05e630d0-172e-469b-81a4-4e58ce9d9568",
    "data": [
      {
        "text": "brauche ",
        "userDefined": false
      },
      {
        "text": "ich",
        "meta": "@sys.ignore",
        "userDefined": false
      },
      {
        "text": " ",
        "userDefined": false
      },
      {
        "text": "morgen früh",
        "alias": "date-time",
        "meta": "@sys.date-time",
        "userDefined": false
      },
      {
        "text": " einen ",
        "userDefined": false
      },
      {
        "text": "Regenschirm",
        "alias": "outfit",
        "meta": "@outfit",
        "userDefined": false
      }
    ],
    "isTemplate": false,
    "count": 0,
    "updated": 0
  },
  {
    "id": "e3328d52-b3aa-4fb4-a01d-0fc837d72960",
    "data": [
      {
        "text": "brauche ",
        "userDefined": false
      },
      {
        "text": "ich",
        "meta": "@sys.ignore",
        "userDefined": false
      },
      {
        "text": " ",
        "userDefined": false
      },
      {
        "text": "heute",
        "alias": "date-time",
        "meta": "@sys.date-time",
        "userDefined": false
      },
      {
        "text": " ",
        "userDefined": false
      },
      {
        "text": "Regenschirm",
        "alias": "outfit",
        "meta": "@outfit",
        "userDefined": false
      },
      {
        "text": " in ",
        "userDefined": false
      },
      {
        "text": "München",
        "alias": "address",
        "meta": "@sys.location",
        "userDefined": false
      }
    ],
    "isTemplate": false,
    "count": 2,
    "updated": 0
  },
  {
    "id": "76e57cca-ffdf-4f76-842b-a735f3aa5d7e",
    "data": [
      {
        "text": "brauche ich ",
        "userDefined": false
      },
      {
        "text": "morgen",
        "alias": "date-time",
        "meta": "@sys.date-time",
        "userDefined": true
      },
      {
        "text": " eine ",
        "userDefined": false
      },
      {
        "text": "Sonnenbrille",
        "alias": "outfit",
        "meta": "@outfit",
        "userDefined": true
      }
    ],
    "isTemplate": false,
    "count": 0,
    "updated": 0
  }
]