{
  "id": "78b4a1bb-785b-44ac-a2c9-52a204e5b668",
  "name": "smarthome.heating.down - context:heating - comment:not cold enough",
  "auto": true,
  "contexts": [
    "heating"
  ],
  "responses": [
    {
      "resetContexts": false,
      "action": "smarthome.heating.down",
      "affectedContexts": [],
      "parameters": [],
      "messages": [
        {
          "type": 0,
          "lang": "en",
          "condition": "",
          "speech": []
        }
      ],
      "defaultResponsePlatforms": {},
      "speech": []
    }
  ],
  "priority": 500000,
  "webhookUsed": false,
  "webhookForSlotFilling": false,
  "fallbackIntent": false,
  "events": [],
  "conditionalResponses": [],
  "condition": "",
  "conditionalFollowupEvents": []
}