[
  {
    "id": "5ca35d73-7909-4a90-b3c6-f5bc74cf65e9",
    "data": [
      {
        "text": "also the ",
        "userDefined": false
      },
      {
        "text": "air conditioner",
        "alias": "device",
        "meta": "@device",
        "userDefined": true
      }
    ],
    "isTemplate": false,
    "count": 0,
    "updated": 0
  },
  {
    "id": "c5749be5-23ee-4039-95a9-5cc12a5528dc",
    "data": [
      {
        "text": "and ",
        "userDefined": false
      },
      {
        "text": "air conditioner",
        "alias": "device",
        "meta": "@device",
        "userDefined": false
      }
    ],
    "isTemplate": false,
    "count": 0,
    "updated": 0
  },
  {
    "id": "152177a3-6915-4024-a408-4609c5dc247c",
    "data": [
      {
        "text": "and ",
        "userDefined": false
      },
      {
        "text": "tv",
        "alias": "device",
        "meta": "@device",
        "userDefined": false
      }
    ],
    "isTemplate": false,
    "count": 0,
    "updated": 0
  },
  {
    "id": "bfc6b8a3-4098-4657-8e3d-2c95b30ee0ad",
    "data": [
      {
        "text": "video player",
        "alias": "device",
        "meta": "@device",
        "userDefined": false
      },
      {
        "text": " too",
        "userDefined": false
      }
    ],
    "isTemplate": false,
    "count": 0,
    "updated": 0
  },
  {
    "id": "a406cea6-50ff-4adf-9e03-b6f0b72d6a9f",
    "data": [
      {
        "text": "and the ",
        "userDefined": false
      },
      {
        "text": "video player",
        "alias": "device",
        "meta": "@device",
        "userDefined": false
      },
      {
        "text": " too please",
        "userDefined": false
      }
    ],
    "isTemplate": false,
    "count": 0,
    "updated": 0
  },
  {
    "id": "03d02da9-59d5-4302-89cf-36a9b01941e7",
    "data": [
      {
        "text": "video player",
        "alias": "device",
        "meta": "@device",
        "userDefined": false
      }
    ],
    "isTemplate": false,
    "count": 0,
    "updated": 0
  },
  {
    "id": "6e9b7111-60a1-4dff-be38-372fdcb1cd68",
    "data": [
      {
        "text": "what about ",
        "userDefined": false
      },
      {
        "text": "thermostat",
        "alias": "device",
        "meta": "@device",
        "userDefined": false
      }
    ],
    "isTemplate": false,
    "count": 0,
    "updated": 0
  }
]