{
  "id": "01f19453-79d2-4790-b4e3-577d4145cf8e",
  "name": "smarthome.device.switch - context:color - comment:change color",
  "auto": true,
  "contexts": [
    "color"
  ],
  "responses": [
    {
      "resetContexts": false,
      "action": "smarthome.switch.on",
      "affectedContexts": [
        {
          "name": "color",
          "parameters": {},
          "lifespan": 1
        }
      ],
      "parameters": [
        {
          "id": "cc942387-45aa-4a0c-b6e0-c4a284be565a",
          "required": false,
          "dataType": "@color",
          "name": "color",
          "value": "$color",
          "promptMessages": [],
          "noMatchPromptMessages": [],
          "noInputPromptMessages": [],
          "outputDialogContexts": [],
          "isList": false
        }
      ],
      "messages": [
        {
          "type": 0,
          "lang": "en",
          "condition": "",
          "speech": []
        }
      ],
      "defaultResponsePlatforms": {},
      "speech": []
    }
  ],
  "priority": 500000,
  "webhookUsed": false,
  "webhookForSlotFilling": false,
  "fallbackIntent": false,
  "events": [],
  "conditionalResponses": [],
  "condition": "",
  "conditionalFollowupEvents": []
}