{
  "id": "843bd61b-44b1-427d-8478-7a6167649109",
  "name": "smarthome.device.brightness.down",
  "auto": true,
  "contexts": [],
  "responses": [
    {
      "resetContexts": false,
      "action": "smarthome.device.brightness.down",
      "affectedContexts": [
        {
          "name": "room",
          "parameters": {},
          "lifespan": 3
        },
        {
          "name": "device-brightness",
          "parameters": {},
          "lifespan": 5
        }
      ],
      "parameters": [
        {
          "id": "5045bee5-ac8d-49ee-b9d6-7aa1d0e53695",
          "required": false,
          "dataType": "@device",
          "name": "device",
          "value": "$device",
          "promptMessages": [],
          "noMatchPromptMessages": [],
          "noInputPromptMessages": [],
          "outputDialogContexts": [],
          "isList": false
        },
        {
          "id": "c9d622b2-3ef1-4748-94d3-168c458c2427",
          "required": false,
          "dataType": "@sys.number",
          "name": "change-value",
          "value": "$change-value",
          "promptMessages": [],
          "noMatchPromptMessages": [],
          "noInputPromptMessages": [],
          "outputDialogContexts": [],
          "isList": false
        },
        {
          "id": "76e83cf2-11b5-483d-b793-f3ddb186318b",
          "required": false,
          "dataType": "@sys.number",
          "name": "final-value",
          "value": "$final-value",
          "promptMessages": [],
          "noMatchPromptMessages": [],
          "noInputPromptMessages": [],
          "outputDialogContexts": [],
          "isList": false
        },
        {
          "id": "2c34336e-7b48-46dc-b8c6-21c1840e4a42",
          "required": false,
          "dataType": "@room",
          "name": "room",
          "value": "$room",
          "promptMessages": [],
          "noMatchPromptMessages": [],
          "noInputPromptMessages": [],
          "outputDialogContexts": [],
          "isList": false
        },
        {
          "id": "87378213-989f-4706-ac8b-6e83a1bb5fef",
          "required": false,
          "dataType": "@all",
          "name": "all",
          "value": "$all",
          "promptMessages": [],
          "noMatchPromptMessages": [],
          "noInputPromptMessages": [],
          "outputDialogContexts": [],
          "isList": false
        }
      ],
      "messages": [
        {
          "type": 0,
          "lang": "en",
          "condition": "",
          "speech": []
        }
      ],
      "defaultResponsePlatforms": {},
      "speech": []
    }
  ],
  "priority": 500000,
  "webhookUsed": false,
  "webhookForSlotFilling": false,
  "fallbackIntent": false,
  "events": [],
  "conditionalResponses": [],
  "condition": "",
  "conditionalFollowupEvents": []
}