[
  {
    "id": "8b773d6f-dc3a-486d-9f89-0daa3b02f4d4",
    "data": [
      {
        "text": "it is bright",
        "userDefined": false
      }
    ],
    "isTemplate": false,
    "count": 0,
    "updated": 0
  },
  {
    "id": "aca5bc4b-c632-4b7b-857a-34a8ef4176af",
    "data": [
      {
        "text": "too ",
        "userDefined": false
      },
      {
        "text": "bright",
        "meta": "@sys.ignore",
        "userDefined": false
      },
      {
        "text": " for ",
        "userDefined": false
      },
      {
        "text": "me",
        "meta": "@sys.ignore",
        "userDefined": false
      }
    ],
    "isTemplate": false,
    "count": 1,
    "updated": 0
  },
  {
    "id": "aea18e89-ec90-4cb9-96b1-0c991046fa4b",
    "data": [
      {
        "text": "it\u0027s really bright in here",
        "userDefined": false
      }
    ],
    "isTemplate": false,
    "count": 0,
    "updated": 0
  },
  {
    "id": "03124b92-37c1-48f3-a882-928bf741de93",
    "data": [
      {
        "text": "too ",
        "userDefined": false
      },
      {
        "text": "bright",
        "meta": "@sys.ignore",
        "userDefined": false
      },
      {
        "text": " ",
        "userDefined": false
      },
      {
        "text": "here",
        "meta": "@sys.ignore",
        "userDefined": false
      }
    ],
    "isTemplate": false,
    "count": 0,
    "updated": 0
  },
  {
    "id": "bd328317-0ac9-468d-a6c7-7d7295ba6328",
    "data": [
      {
        "text": "it is bright here",
        "userDefined": false
      }
    ],
    "isTemplate": false,
    "count": 0,
    "updated": 0
  },
  {
    "id": "67de70f0-73f4-4488-b818-3d3a9367f360",
    "data": [
      {
        "text": "less",
        "userDefined": false
      }
    ],
    "isTemplate": false,
    "count": 0,
    "updated": 0
  },
  {
    "id": "7b9fae16-b30e-4e9e-bcf0-7bc770b52809",
    "data": [
      {
        "text": "it",
        "meta": "@sys.ignore",
        "userDefined": false
      },
      {
        "text": "\u0027s ",
        "userDefined": false
      },
      {
        "text": "really",
        "meta": "@sys.ignore",
        "userDefined": false
      },
      {
        "text": " ",
        "userDefined": false
      },
      {
        "text": "bright",
        "meta": "@sys.ignore",
        "userDefined": false
      }
    ],
    "isTemplate": false,
    "count": 0,
    "updated": 0
  },
  {
    "id": "b109129a-9fed-47f4-a00a-4b8c8e445596",
    "data": [
      {
        "text": "still bright",
        "userDefined": false
      }
    ],
    "isTemplate": false,
    "count": 0,
    "updated": 0
  },
  {
    "id": "59ac1529-c382-45db-bd14-4d923ca5180c",
    "data": [
      {
        "text": "still too bright",
        "userDefined": false
      }
    ],
    "isTemplate": false,
    "count": 0,
    "updated": 0
  },
  {
    "id": "70590b1e-f074-4fec-b7e4-76f3fe611943",
    "data": [
      {
        "text": "too bright",
        "userDefined": false
      }
    ],
    "isTemplate": false,
    "count": 1,
    "updated": 0
  },
  {
    "id": "29d97a80-0c90-4d1b-b987-02352e37ebbc",
    "data": [
      {
        "text": "it\u0027s too bright",
        "userDefined": false
      }
    ],
    "isTemplate": false,
    "count": 0,
    "updated": 0
  },
  {
    "id": "41783ea3-b1c9-41f9-970f-9648fa565cd0",
    "data": [
      {
        "text": "not dim enough",
        "userDefined": false
      }
    ],
    "isTemplate": false,
    "count": 0,
    "updated": 0
  },
  {
    "id": "1ef0d79c-0fc3-47e6-beb7-75e470c5221f",
    "data": [
      {
        "text": "a little less",
        "userDefined": false
      }
    ],
    "isTemplate": false,
    "count": 0,
    "updated": 0
  }
]