{
  "id": "47aa68c6-2bac-4194-bd99-a908a481961f",
  "name": "smarthome.locks.schedule.unlock",
  "auto": true,
  "contexts": [],
  "responses": [
    {
      "resetContexts": false,
      "action": "smarthome.locks.schedule.unlock",
      "affectedContexts": [
        {
          "name": "schedule",
          "parameters": {},
          "lifespan": 5
        }
      ],
      "parameters": [
        {
          "id": "8c369fe9-dbe3-4c84-9a31-c14dfb50ac2c",
          "required": false,
          "dataType": "@lock",
          "name": "lock",
          "value": "$lock",
          "promptMessages": [],
          "noMatchPromptMessages": [],
          "noInputPromptMessages": [],
          "outputDialogContexts": [],
          "defaultValue": "door",
          "isList": true
        },
        {
          "id": "20045105-f582-4ee1-b8e1-2d6bc08fd95a",
          "required": false,
          "dataType": "@room",
          "name": "room",
          "value": "$room",
          "promptMessages": [],
          "noMatchPromptMessages": [],
          "noInputPromptMessages": [],
          "outputDialogContexts": [],
          "isList": false
        },
        {
          "id": "dc0c9833-97d9-4587-87ae-e46b764e0004",
          "required": false,
          "dataType": "@sys.date-time",
          "name": "date-time",
          "value": "$date-time",
          "prompts": [
            {
              "lang": "en",
              "value": "What time?"
            }
          ],
          "promptMessages": [],
          "noMatchPromptMessages": [],
          "noInputPromptMessages": [],
          "outputDialogContexts": [],
          "isList": false
        },
        {
          "id": "af4577eb-5ec6-468e-9534-cd147af6110c",
          "required": false,
          "dataType": "@condition",
          "name": "condition",
          "value": "$condition",
          "promptMessages": [],
          "noMatchPromptMessages": [],
          "noInputPromptMessages": [],
          "outputDialogContexts": [],
          "isList": false
        },
        {
          "id": "2063b841-3e91-4e24-b1b5-0c21dd9e75e9",
          "required": false,
          "dataType": "@recurrence",
          "name": "recurrence",
          "value": "$recurrence",
          "promptMessages": [],
          "noMatchPromptMessages": [],
          "noInputPromptMessages": [],
          "outputDialogContexts": [],
          "isList": false
        },
        {
          "id": "accfd75f-f63a-4a8a-ab22-887aba48cbcb",
          "required": false,
          "dataType": "@all",
          "name": "all",
          "value": "$all",
          "promptMessages": [],
          "noMatchPromptMessages": [],
          "noInputPromptMessages": [],
          "outputDialogContexts": [],
          "isList": false
        }
      ],
      "messages": [
        {
          "type": 0,
          "lang": "en",
          "condition": "",
          "speech": []
        }
      ],
      "defaultResponsePlatforms": {},
      "speech": []
    }
  ],
  "priority": 500000,
  "webhookUsed": false,
  "webhookForSlotFilling": false,
  "fallbackIntent": false,
  "events": [],
  "conditionalResponses": [],
  "condition": "",
  "conditionalFollowupEvents": []
}