{
  "id": "b6138288-4fe4-4c95-a5d6-e4a11115965d",
  "name": "smarthome.heating - context:heating - comment:increase or decrease grad",
  "auto": true,
  "contexts": [
    "heating"
  ],
  "responses": [
    {
      "resetContexts": false,
      "action": "smarthome.heating.set",
      "affectedContexts": [
        {
          "name": "heating",
          "parameters": {},
          "lifespan": 5
        }
      ],
      "parameters": [
        {
          "id": "1ac4002f-3210-431a-ab34-02121f78a06b",
          "required": false,
          "dataType": "@sys.number",
          "name": "change-value",
          "value": "$change-value",
          "promptMessages": [],
          "noMatchPromptMessages": [],
          "noInputPromptMessages": [],
          "outputDialogContexts": [],
          "isList": false
        }
      ],
      "messages": [
        {
          "type": 0,
          "lang": "en",
          "condition": "",
          "speech": []
        }
      ],
      "defaultResponsePlatforms": {},
      "speech": []
    }
  ],
  "priority": 500000,
  "webhookUsed": false,
  "webhookForSlotFilling": false,
  "fallbackIntent": false,
  "events": [],
  "conditionalResponses": [],
  "condition": "",
  "conditionalFollowupEvents": []
}