{
  "id": "00d2292f-e9e8-4286-a957-21b8b8648819",
  "name": "smarthome.locks.unlock",
  "auto": true,
  "contexts": [],
  "responses": [
    {
      "resetContexts": false,
      "action": "smarthome.locks.unlock",
      "affectedContexts": [
        {
          "name": "schedule",
          "parameters": {},
          "lifespan": 3
        },
        {
          "name": "room",
          "parameters": {},
          "lifespan": 5
        }
      ],
      "parameters": [
        {
          "id": "e7d7b17b-2b4e-4d02-995d-1a80c9ae66e8",
          "required": false,
          "dataType": "@lock",
          "name": "lock",
          "value": "$lock",
          "promptMessages": [],
          "noMatchPromptMessages": [],
          "noInputPromptMessages": [],
          "outputDialogContexts": [],
          "defaultValue": "door",
          "isList": false
        },
        {
          "id": "e41c979b-7b60-455c-bfe5-cddb35f673f6",
          "required": false,
          "dataType": "@room",
          "name": "room",
          "value": "$room",
          "promptMessages": [],
          "noMatchPromptMessages": [],
          "noInputPromptMessages": [],
          "outputDialogContexts": [],
          "isList": false
        },
        {
          "id": "1650b737-0775-4e82-8e48-168d62ef192f",
          "required": false,
          "dataType": "@all",
          "name": "all",
          "value": "$all",
          "promptMessages": [],
          "noMatchPromptMessages": [],
          "noInputPromptMessages": [],
          "outputDialogContexts": [],
          "isList": false
        }
      ],
      "messages": [
        {
          "type": 0,
          "lang": "en",
          "condition": "",
          "speech": []
        }
      ],
      "defaultResponsePlatforms": {},
      "speech": []
    }
  ],
  "priority": 500000,
  "webhookUsed": false,
  "webhookForSlotFilling": false,
  "fallbackIntent": false,
  "events": [],
  "conditionalResponses": [],
  "condition": "",
  "conditionalFollowupEvents": []
}