[
  {
    "id": "db83544d-0f71-4165-9e50-5ee90fd75bc8",
    "data": [
      {
        "text": "turn the device off",
        "userDefined": false
      }
    ],
    "isTemplate": false,
    "count": 0,
    "updated": 0
  },
  {
    "id": "07266bd7-e844-433b-8c95-23e85d28f0d9",
    "data": [
      {
        "text": "can you turn off ",
        "userDefined": false
      },
      {
        "text": "computer",
        "alias": "device",
        "meta": "@device",
        "userDefined": false
      },
      {
        "text": " for me",
        "userDefined": false
      }
    ],
    "isTemplate": false,
    "count": 0,
    "updated": 0
  },
  {
    "id": "87b04ae3-9163-4b2f-a171-e5de30c3fa12",
    "data": [
      {
        "text": "you should turn the device off",
        "userDefined": false
      }
    ],
    "isTemplate": false,
    "count": 0,
    "updated": 0
  },
  {
    "id": "65a0c868-70d8-42c0-a6b4-6e62b208984e",
    "data": [
      {
        "text": "please turn off my device",
        "userDefined": false
      }
    ],
    "isTemplate": false,
    "count": 0,
    "updated": 0
  },
  {
    "id": "b75cdaf5-3f92-4f61-b77d-f1fabec672fd",
    "data": [
      {
        "text": "turn off ",
        "userDefined": false
      },
      {
        "text": "heating",
        "alias": "device",
        "meta": "@device",
        "userDefined": false
      },
      {
        "text": " in the ",
        "userDefined": false
      },
      {
        "text": "dining room",
        "alias": "room",
        "meta": "@room",
        "userDefined": false
      }
    ],
    "isTemplate": false,
    "count": 0,
    "updated": 0
  },
  {
    "id": "921717a5-fb11-4311-9f5e-ca4bd9dc2b6b",
    "data": [
      {
        "text": "turn off ",
        "userDefined": false
      },
      {
        "text": "heating",
        "alias": "device",
        "meta": "@device",
        "userDefined": false
      },
      {
        "text": " in the ",
        "userDefined": false
      },
      {
        "text": "conference room",
        "alias": "room",
        "meta": "@room",
        "userDefined": false
      }
    ],
    "isTemplate": false,
    "count": 0,
    "updated": 0
  },
  {
    "id": "3aedd364-55a4-4184-8caa-6af1a034c9d8",
    "data": [
      {
        "text": "switch off the ",
        "userDefined": false
      },
      {
        "text": "heating",
        "alias": "device",
        "meta": "@device",
        "userDefined": false
      }
    ],
    "isTemplate": false,
    "count": 1,
    "updated": 0
  },
  {
    "id": "17f04e02-d677-4039-bb9c-9508f0714312",
    "data": [
      {
        "text": "turn off ",
        "userDefined": false
      },
      {
        "text": "all",
        "alias": "all",
        "meta": "@all",
        "userDefined": false
      },
      {
        "text": " devices",
        "userDefined": false
      }
    ],
    "isTemplate": false,
    "count": 0,
    "updated": 0
  },
  {
    "id": "2af790a2-aaaa-4352-a09a-908d83761868",
    "data": [
      {
        "text": "turn off the ",
        "userDefined": false
      },
      {
        "text": "TV",
        "alias": "device",
        "meta": "@device",
        "userDefined": false
      },
      {
        "text": " in the ",
        "userDefined": false
      },
      {
        "text": "kitchen",
        "alias": "room",
        "meta": "@room",
        "userDefined": false
      },
      {
        "text": " please",
        "userDefined": false
      }
    ],
    "isTemplate": false,
    "count": 0,
    "updated": 0
  },
  {
    "id": "536bd133-fe5c-49de-85c8-92861907ea8b",
    "data": [
      {
        "text": "turn off ",
        "userDefined": false
      },
      {
        "text": "air conditioner",
        "alias": "device",
        "meta": "@device",
        "userDefined": false
      }
    ],
    "isTemplate": false,
    "count": 0,
    "updated": 0
  },
  {
    "id": "0acbf49b-d127-46fc-b204-9f1a63f61b9f",
    "data": [
      {
        "text": "turn the appliance off",
        "userDefined": false
      }
    ],
    "isTemplate": false,
    "count": 0,
    "updated": 0
  },
  {
    "id": "06fcc368-a840-4213-91c3-a6d3980dce07",
    "data": [
      {
        "text": "turn my device off for me",
        "userDefined": false
      }
    ],
    "isTemplate": false,
    "count": 0,
    "updated": 0
  },
  {
    "id": "fc5b1e7b-646b-40c1-b9a3-fffcb5f55d9c",
    "data": [
      {
        "text": "can you turn off ",
        "userDefined": false
      },
      {
        "text": "washing machine",
        "alias": "device",
        "meta": "@device",
        "userDefined": false
      }
    ],
    "isTemplate": false,
    "count": 0,
    "updated": 0
  },
  {
    "id": "5530ac8d-524e-4872-8097-f72f4a73ea7d",
    "data": [
      {
        "text": "can you turn off appliance",
        "userDefined": false
      }
    ],
    "isTemplate": false,
    "count": 0,
    "updated": 0
  },
  {
    "id": "25ff81bb-448f-4f35-943a-bfc5c9b4ef37",
    "data": [
      {
        "text": "turn off the ",
        "userDefined": false
      },
      {
        "text": "air conditioning",
        "alias": "device",
        "meta": "@device",
        "userDefined": false
      },
      {
        "text": " in ",
        "userDefined": false
      },
      {
        "text": "bedroom",
        "alias": "room",
        "meta": "@room",
        "userDefined": false
      }
    ],
    "isTemplate": false,
    "count": 1,
    "updated": 0
  },
  {
    "id": "eb6d35c4-3c16-4f00-94e4-82e6381bfa23",
    "data": [
      {
        "text": "turn the device off for me",
        "userDefined": false
      }
    ],
    "isTemplate": false,
    "count": 0,
    "updated": 0
  },
  {
    "id": "363f69ee-5c7d-46b8-b74f-92c8d4003f06",
    "data": [
      {
        "text": "turn ",
        "userDefined": false
      },
      {
        "text": "off",
        "meta": "@sys.ignore",
        "userDefined": true
      },
      {
        "text": " ",
        "userDefined": false
      },
      {
        "text": "TV",
        "alias": "device",
        "meta": "@device",
        "userDefined": true
      },
      {
        "text": " in the ",
        "userDefined": false
      },
      {
        "text": "kitchen",
        "alias": "room",
        "meta": "@room",
        "userDefined": true
      }
    ],
    "isTemplate": false,
    "count": 0,
    "updated": 0
  },
  {
    "id": "ef7080cf-7245-400a-9402-b4782b937266",
    "data": [
      {
        "text": "you should turn my device off",
        "userDefined": false
      }
    ],
    "isTemplate": false,
    "count": 0,
    "updated": 0
  },
  {
    "id": "308aa1cf-68d7-4539-b377-2516a1309f81",
    "data": [
      {
        "text": "can you turn off ",
        "userDefined": false
      },
      {
        "text": "air conditioner",
        "alias": "device",
        "meta": "@device",
        "userDefined": false
      },
      {
        "text": " for me please",
        "userDefined": false
      }
    ],
    "isTemplate": false,
    "count": 0,
    "updated": 0
  },
  {
    "id": "b96e7a78-0b03-4001-ac1a-bfb1c195aab5",
    "data": [
      {
        "text": "TV",
        "alias": "device",
        "meta": "@device",
        "userDefined": true
      },
      {
        "text": " ",
        "userDefined": false
      },
      {
        "text": "off",
        "meta": "@sys.ignore",
        "userDefined": true
      }
    ],
    "isTemplate": false,
    "count": 0,
    "updated": 0
  },
  {
    "id": "8568a74e-ba85-4a80-b9f8-86c6a3a70222",
    "data": [
      {
        "text": "no more ",
        "userDefined": false
      },
      {
        "text": "heat",
        "alias": "device",
        "meta": "@device",
        "userDefined": false
      }
    ],
    "isTemplate": false,
    "count": 0,
    "updated": 0
  },
  {
    "id": "ba56af33-0927-4a35-8317-76251b63767d",
    "data": [
      {
        "text": "I feel hot turn the ",
        "userDefined": false
      },
      {
        "text": "heating",
        "alias": "device",
        "meta": "@device",
        "userDefined": false
      },
      {
        "text": " off",
        "userDefined": false
      }
    ],
    "isTemplate": false,
    "count": 1,
    "updated": 0
  },
  {
    "id": "b009275a-c328-4e41-9c7d-8f6d142a843f",
    "data": [
      {
        "text": "turn off the ",
        "userDefined": false
      },
      {
        "text": "heating",
        "alias": "device",
        "meta": "@device",
        "userDefined": false
      }
    ],
    "isTemplate": false,
    "count": 0,
    "updated": 0
  },
  {
    "id": "e59f6069-3240-4915-bcb9-6b55033fa7a5",
    "data": [
      {
        "text": "turn off my ",
        "userDefined": false
      },
      {
        "text": "computer",
        "alias": "device",
        "meta": "@device",
        "userDefined": false
      }
    ],
    "isTemplate": false,
    "count": 1,
    "updated": 0
  },
  {
    "id": "e895abc2-d401-45c2-a490-de39b5e1ab18",
    "data": [
      {
        "text": "turn the appliance off for me",
        "userDefined": false
      }
    ],
    "isTemplate": false,
    "count": 0,
    "updated": 0
  },
  {
    "id": "d81dc1f9-5b50-43e8-96d2-ae7abd218647",
    "data": [
      {
        "text": "can you turn off ",
        "userDefined": false
      },
      {
        "text": "video player",
        "alias": "device",
        "meta": "@device",
        "userDefined": false
      },
      {
        "text": " for me please",
        "userDefined": false
      }
    ],
    "isTemplate": false,
    "count": 0,
    "updated": 0
  },
  {
    "id": "33d8d3d6-161d-4657-a1ed-cb1fe86f1865",
    "data": [
      {
        "text": "can you turn off ",
        "userDefined": false
      },
      {
        "text": "water cooker",
        "alias": "device",
        "meta": "@device",
        "userDefined": false
      }
    ],
    "isTemplate": false,
    "count": 0,
    "updated": 0
  },
  {
    "id": "bb2f5b07-7378-48b1-861f-50c4c9f58f96",
    "data": [
      {
        "text": "I want to turn off device",
        "userDefined": false
      }
    ],
    "isTemplate": false,
    "count": 0,
    "updated": 0
  },
  {
    "id": "14157a89-6396-40f4-8f5a-cf4af271a456",
    "data": [
      {
        "text": "turn off device",
        "userDefined": false
      }
    ],
    "isTemplate": false,
    "count": 0,
    "updated": 0
  },
  {
    "id": "bf625008-3ff6-43bd-952e-4451e4b0d364",
    "data": [
      {
        "text": "can you turn off ",
        "userDefined": false
      },
      {
        "text": "microwave",
        "alias": "device",
        "meta": "@device",
        "userDefined": false
      },
      {
        "text": " for me please",
        "userDefined": false
      }
    ],
    "isTemplate": false,
    "count": 0,
    "updated": 0
  },
  {
    "id": "8e6c8ecc-87d1-4e9b-b369-f7566c2ff21e",
    "data": [
      {
        "text": "can you turn off ",
        "userDefined": false
      },
      {
        "text": "humidifier",
        "alias": "device",
        "meta": "@device",
        "userDefined": false
      },
      {
        "text": " for me please",
        "userDefined": false
      }
    ],
    "isTemplate": false,
    "count": 0,
    "updated": 0
  },
  {
    "id": "c1d95aaf-580e-43dc-adc6-878121b9d5b0",
    "data": [
      {
        "text": "turn off the ",
        "userDefined": false
      },
      {
        "text": "TV",
        "alias": "device",
        "meta": "@device",
        "userDefined": false
      },
      {
        "text": " in ",
        "userDefined": false
      },
      {
        "text": "foyer",
        "alias": "room",
        "meta": "@room",
        "userDefined": false
      }
    ],
    "isTemplate": false,
    "count": 0,
    "updated": 0
  },
  {
    "id": "fb7d550a-6232-4886-a29e-39a9c526f2cf",
    "data": [
      {
        "text": "turn ",
        "userDefined": false
      },
      {
        "text": "off",
        "meta": "@sys.ignore",
        "userDefined": true
      },
      {
        "text": " ",
        "userDefined": false
      },
      {
        "text": "TV",
        "alias": "device",
        "meta": "@device",
        "userDefined": true
      },
      {
        "text": " ",
        "userDefined": false
      },
      {
        "text": "everywhere",
        "alias": "all",
        "meta": "@all",
        "userDefined": true
      }
    ],
    "isTemplate": false,
    "count": 0,
    "updated": 0
  },
  {
    "id": "cedbabee-fc09-40a8-aee7-a626d26dafc6",
    "data": [
      {
        "text": "can you turn off ",
        "userDefined": false
      },
      {
        "text": "refrigerator",
        "alias": "device",
        "meta": "@device",
        "userDefined": false
      },
      {
        "text": " for me please",
        "userDefined": false
      }
    ],
    "isTemplate": false,
    "count": 0,
    "updated": 0
  },
  {
    "id": "3449e6fe-af78-4791-90dc-8b35293d8b68",
    "data": [
      {
        "text": "can you turn off ",
        "userDefined": false
      },
      {
        "text": "water heater",
        "alias": "device",
        "meta": "@device",
        "userDefined": false
      },
      {
        "text": " for me please",
        "userDefined": false
      }
    ],
    "isTemplate": false,
    "count": 0,
    "updated": 0
  },
  {
    "id": "8702add7-3d56-456f-ad87-b319ea6cd4cd",
    "data": [
      {
        "text": "can you turn off device",
        "userDefined": false
      }
    ],
    "isTemplate": false,
    "count": 0,
    "updated": 0
  },
  {
    "id": "b36d44b7-2f0c-4bc3-a799-840734e2aa27",
    "data": [
      {
        "text": "turn off the ",
        "userDefined": false
      },
      {
        "text": "video player",
        "alias": "device",
        "meta": "@device",
        "userDefined": false
      }
    ],
    "isTemplate": false,
    "count": 1,
    "updated": 0
  },
  {
    "id": "ea1a2486-022b-4056-93e0-224b0045133f",
    "data": [
      {
        "text": "turn off ",
        "userDefined": false
      },
      {
        "text": "pump circuit",
        "alias": "device",
        "meta": "@device",
        "userDefined": false
      }
    ],
    "isTemplate": false,
    "count": 0,
    "updated": 0
  },
  {
    "id": "a9ad5d7c-328c-4a4e-a2ab-c63873b76204",
    "data": [
      {
        "text": "can you turn off ",
        "userDefined": false
      },
      {
        "text": "water cooker",
        "alias": "device",
        "meta": "@device",
        "userDefined": false
      },
      {
        "text": " in the ",
        "userDefined": false
      },
      {
        "text": "kitchen",
        "alias": "room",
        "meta": "@room",
        "userDefined": false
      }
    ],
    "isTemplate": false,
    "count": 1,
    "updated": 0
  },
  {
    "id": "7f95de11-23b7-48e6-a239-4b8c8e713430",
    "data": [
      {
        "text": "turn ",
        "userDefined": false
      },
      {
        "text": "off",
        "meta": "@sys.ignore",
        "userDefined": true
      },
      {
        "text": " ",
        "userDefined": false
      },
      {
        "text": "coffee pot",
        "alias": "device",
        "meta": "@device",
        "userDefined": true
      }
    ],
    "isTemplate": false,
    "count": 0,
    "updated": 0
  },
  {
    "id": "341f384a-e6b7-4fea-ad8f-3df099a1a516",
    "data": [
      {
        "text": "turn off ",
        "userDefined": false
      },
      {
        "text": "computer",
        "alias": "device",
        "meta": "@device",
        "userDefined": false
      }
    ],
    "isTemplate": false,
    "count": 0,
    "updated": 0
  },
  {
    "id": "b5215061-1276-4a3a-9ba2-c1b3b367fe1f",
    "data": [
      {
        "text": "I need you to turn off appliance",
        "userDefined": false
      }
    ],
    "isTemplate": false,
    "count": 0,
    "updated": 0
  },
  {
    "id": "9424b6d4-e9db-4938-983a-854e00ac84ba",
    "data": [
      {
        "text": "turn off appliance please",
        "userDefined": false
      }
    ],
    "isTemplate": false,
    "count": 0,
    "updated": 0
  },
  {
    "id": "a9b9ac17-df00-45dc-9e59-d8456b3c40c7",
    "data": [
      {
        "text": "turn off ",
        "userDefined": false
      },
      {
        "text": "gas",
        "alias": "device",
        "meta": "@device",
        "userDefined": false
      }
    ],
    "isTemplate": false,
    "count": 0,
    "updated": 0
  },
  {
    "id": "07a69ddd-b4cc-4909-8cec-1e03c65edbca",
    "data": [
      {
        "text": "can you turn off ",
        "userDefined": false
      },
      {
        "text": "video player",
        "alias": "device",
        "meta": "@device",
        "userDefined": false
      }
    ],
    "isTemplate": false,
    "count": 0,
    "updated": 0
  },
  {
    "id": "e67fd8aa-3f60-4160-9eec-5f6e97706665",
    "data": [
      {
        "text": "it\u0027s boiling here turn the ",
        "userDefined": false
      },
      {
        "text": "heater",
        "alias": "device",
        "meta": "@device",
        "userDefined": true
      },
      {
        "text": " off",
        "userDefined": false
      }
    ],
    "isTemplate": false,
    "count": 0,
    "updated": 0
  },
  {
    "id": "5b654777-5d2c-4c70-ad7e-e663dec0cec3",
    "data": [
      {
        "text": "heating",
        "alias": "device",
        "meta": "@device",
        "userDefined": false
      },
      {
        "text": " off",
        "userDefined": false
      }
    ],
    "isTemplate": false,
    "count": 1,
    "updated": 0
  },
  {
    "id": "7103e2f4-7283-4712-81a1-462563db5f8f",
    "data": [
      {
        "text": "turn off ",
        "userDefined": false
      },
      {
        "text": "heating",
        "alias": "device",
        "meta": "@device",
        "userDefined": false
      },
      {
        "text": " in the ",
        "userDefined": false
      },
      {
        "text": "common room",
        "alias": "room",
        "meta": "@room",
        "userDefined": false
      }
    ],
    "isTemplate": false,
    "count": 0,
    "updated": 0
  },
  {
    "id": "3ead641a-04fa-4d0f-bc50-bd55721f4f08",
    "data": [
      {
        "text": "turn my device off",
        "userDefined": false
      }
    ],
    "isTemplate": false,
    "count": 0,
    "updated": 0
  },
  {
    "id": "4e57051e-0002-4017-af5c-d6ca4e0afb42",
    "data": [
      {
        "text": "turn off ",
        "userDefined": false
      },
      {
        "text": "heating",
        "alias": "device",
        "meta": "@device",
        "userDefined": false
      },
      {
        "text": " in the ",
        "userDefined": false
      },
      {
        "text": "cloakroom",
        "alias": "room",
        "meta": "@room",
        "userDefined": false
      }
    ],
    "isTemplate": false,
    "count": 0,
    "updated": 0
  },
  {
    "id": "d2ceee79-7506-4b21-bc81-29eeb0e3c202",
    "data": [
      {
        "text": "can you turn off ",
        "userDefined": false
      },
      {
        "text": "video player",
        "alias": "device",
        "meta": "@device",
        "userDefined": false
      },
      {
        "text": " in the ",
        "userDefined": false
      },
      {
        "text": "kitchen",
        "alias": "room",
        "meta": "@room",
        "userDefined": false
      }
    ],
    "isTemplate": false,
    "count": 0,
    "updated": 0
  },
  {
    "id": "39bf8c2c-58e5-44d1-a19a-c25ec5452e40",
    "data": [
      {
        "text": "can you turn off ",
        "userDefined": false
      },
      {
        "text": "water cooker",
        "alias": "device",
        "meta": "@device",
        "userDefined": false
      },
      {
        "text": " for me please",
        "userDefined": false
      }
    ],
    "isTemplate": false,
    "count": 0,
    "updated": 0
  },
  {
    "id": "eabad9cb-62c4-444a-a625-bffd340d821a",
    "data": [
      {
        "text": "turn off ",
        "userDefined": false
      },
      {
        "text": "PC",
        "alias": "device",
        "meta": "@device",
        "userDefined": false
      }
    ],
    "isTemplate": false,
    "count": 0,
    "updated": 0
  },
  {
    "id": "6297114e-ca32-4b61-b061-ffbfcdab191e",
    "data": [
      {
        "text": "can you please turn off ",
        "userDefined": false
      },
      {
        "text": "coffee machine",
        "alias": "device",
        "meta": "@device",
        "userDefined": false
      },
      {
        "text": " for me",
        "userDefined": false
      }
    ],
    "isTemplate": false,
    "count": 0,
    "updated": 0
  },
  {
    "id": "99e736ff-3f00-467d-b20a-6cee9a831e13",
    "data": [
      {
        "text": "turn off ",
        "userDefined": false
      },
      {
        "text": "heating",
        "alias": "device",
        "meta": "@device",
        "userDefined": false
      },
      {
        "text": " in the ",
        "userDefined": false
      },
      {
        "text": "family room",
        "alias": "room",
        "meta": "@room",
        "userDefined": false
      }
    ],
    "isTemplate": false,
    "count": 0,
    "updated": 0
  },
  {
    "id": "3183e6ce-6991-4d1b-8dd4-86826ddbf656",
    "data": [
      {
        "text": "you should turn the appliance off",
        "userDefined": false
      }
    ],
    "isTemplate": false,
    "count": 0,
    "updated": 0
  },
  {
    "id": "e2a4436b-8059-4e4c-b09e-2c50c7741545",
    "data": [
      {
        "text": "can you turn off ",
        "userDefined": false
      },
      {
        "text": "TV",
        "alias": "device",
        "meta": "@device",
        "userDefined": false
      },
      {
        "text": " for me please",
        "userDefined": false
      }
    ],
    "isTemplate": false,
    "count": 0,
    "updated": 0
  },
  {
    "id": "3c4ff407-ef72-42e2-a6bd-5e2775520d08",
    "data": [
      {
        "text": "turn off ",
        "userDefined": false
      },
      {
        "text": "all",
        "alias": "all",
        "meta": "@all",
        "userDefined": false
      },
      {
        "text": " appliances",
        "userDefined": false
      }
    ],
    "isTemplate": false,
    "count": 1,
    "updated": 0
  },
  {
    "id": "4f2f57fb-8ae3-4502-8e3c-811f0aeaddaf",
    "data": [
      {
        "text": "I need you to turn off my device",
        "userDefined": false
      }
    ],
    "isTemplate": false,
    "count": 0,
    "updated": 0
  },
  {
    "id": "e51c782f-077f-4724-aaf1-bafb5c76f2a4",
    "data": [
      {
        "text": "turn off my device for me",
        "userDefined": false
      }
    ],
    "isTemplate": false,
    "count": 0,
    "updated": 0
  },
  {
    "id": "18a2306f-a181-452f-967b-d184cb1be8c6",
    "data": [
      {
        "text": "turn off ",
        "userDefined": false
      },
      {
        "text": "video",
        "alias": "device",
        "meta": "@device",
        "userDefined": false
      }
    ],
    "isTemplate": false,
    "count": 0,
    "updated": 0
  },
  {
    "id": "1f87a1dd-0708-40b2-89cc-00db432aba49",
    "data": [
      {
        "text": "turn off the ",
        "userDefined": false
      },
      {
        "text": "heating",
        "alias": "device",
        "meta": "@device",
        "userDefined": false
      },
      {
        "text": " in the ",
        "userDefined": false
      },
      {
        "text": "bathroom",
        "alias": "room",
        "meta": "@room",
        "userDefined": false
      }
    ],
    "isTemplate": false,
    "count": 0,
    "updated": 0
  },
  {
    "id": "db9af672-af19-48b4-bb49-94a27d14bbd5",
    "data": [
      {
        "text": "can you turn off ",
        "userDefined": false
      },
      {
        "text": "heating",
        "alias": "device",
        "meta": "@device",
        "userDefined": false
      },
      {
        "text": " for me please",
        "userDefined": false
      }
    ],
    "isTemplate": false,
    "count": 0,
    "updated": 0
  },
  {
    "id": "359a2b46-14f4-4703-b627-4f8c8f37fdb8",
    "data": [
      {
        "text": "turn off appliance for me",
        "userDefined": false
      }
    ],
    "isTemplate": false,
    "count": 0,
    "updated": 0
  },
  {
    "id": "2601a1cc-449d-41bc-80d6-a89e789560fd",
    "data": [
      {
        "text": "turn off ",
        "userDefined": false
      },
      {
        "text": "outlets",
        "alias": "device",
        "meta": "@device",
        "userDefined": false
      },
      {
        "text": " in ",
        "userDefined": false
      },
      {
        "text": "bathroom",
        "alias": "room",
        "meta": "@room",
        "userDefined": false
      }
    ],
    "isTemplate": false,
    "count": 0,
    "updated": 0
  },
  {
    "id": "1cd5de1f-6adf-4ca8-8711-b67ac743c8bf",
    "data": [
      {
        "text": "can you turn off ",
        "userDefined": false
      },
      {
        "text": "water heater",
        "alias": "device",
        "meta": "@device",
        "userDefined": false
      }
    ],
    "isTemplate": false,
    "count": 0,
    "updated": 0
  },
  {
    "id": "d55057a8-5d16-4f77-9429-cfa3e87c0dd4",
    "data": [
      {
        "text": "turn off ",
        "userDefined": false
      },
      {
        "text": "coffee machine",
        "alias": "device",
        "meta": "@device",
        "userDefined": false
      }
    ],
    "isTemplate": false,
    "count": 0,
    "updated": 0
  },
  {
    "id": "a4583ca1-e0f5-42e3-bf84-969a137ec2b4",
    "data": [
      {
        "text": "can you turn off ",
        "userDefined": false
      },
      {
        "text": "water heater",
        "alias": "device",
        "meta": "@device",
        "userDefined": false
      },
      {
        "text": " in the ",
        "userDefined": false
      },
      {
        "text": "kitchen",
        "alias": "room",
        "meta": "@room",
        "userDefined": false
      }
    ],
    "isTemplate": false,
    "count": 0,
    "updated": 0
  },
  {
    "id": "d5139de4-2d64-44e8-9b6e-f5b9ecbfb31f",
    "data": [
      {
        "text": "turn off the ",
        "userDefined": false
      },
      {
        "text": "TV",
        "alias": "device",
        "meta": "@device",
        "userDefined": false
      },
      {
        "text": " please",
        "userDefined": false
      }
    ],
    "isTemplate": false,
    "count": 0,
    "updated": 0
  },
  {
    "id": "3a87956c-93af-4388-80cf-b6150acfaf4c",
    "data": [
      {
        "text": "please turn off device",
        "userDefined": false
      }
    ],
    "isTemplate": false,
    "count": 0,
    "updated": 0
  },
  {
    "id": "9cfab488-8f17-42f8-a6db-190413ed0c9c",
    "data": [
      {
        "text": "turn off",
        "meta": "@sys.ignore",
        "userDefined": true
      },
      {
        "text": " ",
        "userDefined": false
      },
      {
        "text": "air conditioning",
        "alias": "device",
        "meta": "@device",
        "userDefined": true
      }
    ],
    "isTemplate": false,
    "count": 0,
    "updated": 0
  },
  {
    "id": "523bf006-389e-4988-94c8-59a665235631",
    "data": [
      {
        "text": "turn off device for me",
        "userDefined": false
      }
    ],
    "isTemplate": false,
    "count": 0,
    "updated": 0
  },
  {
    "id": "80e9cf3e-cc39-4657-b728-6a0ebfaf4544",
    "data": [
      {
        "text": "hey smart things turn off the ",
        "userDefined": false
      },
      {
        "text": "oven bulb",
        "alias": "device",
        "meta": "@device",
        "userDefined": false
      }
    ],
    "isTemplate": false,
    "count": 0,
    "updated": 0
  },
  {
    "id": "cdc8f62e-3264-45d4-8e3c-9ac03651acdd",
    "data": [
      {
        "text": "turn off ",
        "userDefined": false
      },
      {
        "text": "everything",
        "alias": "all",
        "meta": "@all",
        "userDefined": true
      }
    ],
    "isTemplate": false,
    "count": 1,
    "updated": 0
  },
  {
    "id": "a5a5aad7-c8e2-469a-be83-f534c6ef5504",
    "data": [
      {
        "text": "switch off the device",
        "userDefined": false
      }
    ],
    "isTemplate": false,
    "count": 0,
    "updated": 0
  },
  {
    "id": "94cd37d9-227f-4ba7-82ed-79760f6bcedd",
    "data": [
      {
        "text": "can you turn off ",
        "userDefined": false
      },
      {
        "text": "dishwasher",
        "alias": "device",
        "meta": "@device",
        "userDefined": false
      },
      {
        "text": " in the ",
        "userDefined": false
      },
      {
        "text": "kitchen",
        "alias": "room",
        "meta": "@room",
        "userDefined": false
      }
    ],
    "isTemplate": false,
    "count": 0,
    "updated": 0
  },
  {
    "id": "81ce9aee-105c-4eb5-b856-1df1836a6cf1",
    "data": [
      {
        "text": "turn off my ",
        "userDefined": false
      },
      {
        "text": "laptop",
        "alias": "device",
        "meta": "@device",
        "userDefined": false
      }
    ],
    "isTemplate": false,
    "count": 0,
    "updated": 0
  },
  {
    "id": "49a9dc6f-279e-43f3-bcab-6c88f448dac1",
    "data": [
      {
        "text": "turn off my device please",
        "userDefined": false
      }
    ],
    "isTemplate": false,
    "count": 0,
    "updated": 0
  },
  {
    "id": "2b116007-4053-42b3-83c1-213ec7743fb6",
    "data": [
      {
        "text": "I want to turn off appliance",
        "userDefined": false
      }
    ],
    "isTemplate": false,
    "count": 0,
    "updated": 0
  },
  {
    "id": "de121d6a-da29-4d21-964c-27aad0461cde",
    "data": [
      {
        "text": "turn off ",
        "userDefined": false
      },
      {
        "text": "all",
        "alias": "all",
        "meta": "@all",
        "userDefined": false
      },
      {
        "text": " ",
        "userDefined": false
      },
      {
        "text": "things",
        "meta": "@sys.ignore",
        "userDefined": false
      }
    ],
    "isTemplate": false,
    "count": 0,
    "updated": 0
  },
  {
    "id": "1ba78f9f-567d-4cf2-8a3b-9b1d2a5aef0a",
    "data": [
      {
        "text": "turn off ",
        "userDefined": false
      },
      {
        "text": "water heater",
        "alias": "device",
        "meta": "@device",
        "userDefined": false
      },
      {
        "text": " in the ",
        "userDefined": false
      },
      {
        "text": "front room",
        "alias": "room",
        "meta": "@room",
        "userDefined": false
      }
    ],
    "isTemplate": false,
    "count": 0,
    "updated": 0
  },
  {
    "id": "16beca77-97e6-4b78-a7b7-034cee609148",
    "data": [
      {
        "text": "turn off ",
        "userDefined": false
      },
      {
        "text": "heating",
        "alias": "device",
        "meta": "@device",
        "userDefined": false
      },
      {
        "text": " in the ",
        "userDefined": false
      },
      {
        "text": "dressing room",
        "alias": "room",
        "meta": "@room",
        "userDefined": false
      }
    ],
    "isTemplate": false,
    "count": 0,
    "updated": 0
  },
  {
    "id": "20d7fd81-373a-482b-96e8-f99917360b82",
    "data": [
      {
        "text": "turn off the ",
        "userDefined": false
      },
      {
        "text": "washing machine",
        "alias": "device",
        "meta": "@device",
        "userDefined": false
      },
      {
        "text": " in the ",
        "userDefined": false
      },
      {
        "text": "kitchen",
        "alias": "room",
        "meta": "@room",
        "userDefined": false
      },
      {
        "text": " for me please",
        "userDefined": false
      }
    ],
    "isTemplate": false,
    "count": 0,
    "updated": 0
  },
  {
    "id": "939a6a9d-4f9e-4fd4-84b8-b7af7473e3dc",
    "data": [
      {
        "text": "I want to turn off my device",
        "userDefined": false
      }
    ],
    "isTemplate": false,
    "count": 0,
    "updated": 0
  },
  {
    "id": "4ad20827-20db-497a-a4e8-598d757ae260",
    "data": [
      {
        "text": "can you turn off ",
        "userDefined": false
      },
      {
        "text": "washing machine",
        "alias": "device",
        "meta": "@device",
        "userDefined": false
      },
      {
        "text": " for me please",
        "userDefined": false
      }
    ],
    "isTemplate": false,
    "count": 0,
    "updated": 0
  },
  {
    "id": "765e66d0-87d2-4a80-ba59-2e4c8a2ef092",
    "data": [
      {
        "text": "turn off ",
        "userDefined": false
      },
      {
        "text": "heating",
        "alias": "device",
        "meta": "@device",
        "userDefined": false
      },
      {
        "text": " in the ",
        "userDefined": false
      },
      {
        "text": "kitchen",
        "alias": "room",
        "meta": "@room",
        "userDefined": false
      }
    ],
    "isTemplate": false,
    "count": 1,
    "updated": 0
  },
  {
    "id": "b56fafc7-786c-4516-9f6d-d29999e09b63",
    "data": [
      {
        "text": "switch the device off",
        "userDefined": false
      }
    ],
    "isTemplate": false,
    "count": 0,
    "updated": 0
  },
  {
    "id": "9dcbd1d6-0a06-4cbb-85b8-cc5319c60b38",
    "data": [
      {
        "text": "turn off appliance",
        "userDefined": false
      }
    ],
    "isTemplate": false,
    "count": 0,
    "updated": 0
  },
  {
    "id": "2dc2b192-398d-42ae-b063-41b76e72f292",
    "data": [
      {
        "text": "can you turn off my device",
        "userDefined": false
      }
    ],
    "isTemplate": false,
    "count": 0,
    "updated": 0
  },
  {
    "id": "9e748e0b-ac08-490c-bc90-d4f778b9fd25",
    "data": [
      {
        "text": "turn off ",
        "userDefined": false
      },
      {
        "text": "coffee pot",
        "alias": "device",
        "meta": "@device",
        "userDefined": false
      },
      {
        "text": " in the ",
        "userDefined": false
      },
      {
        "text": "kitchen",
        "alias": "room",
        "meta": "@room",
        "userDefined": false
      }
    ],
    "isTemplate": false,
    "count": 0,
    "updated": 0
  },
  {
    "id": "57eba26e-168c-47b2-9abd-e66eae42cef1",
    "data": [
      {
        "text": "please turn off appliance",
        "userDefined": false
      }
    ],
    "isTemplate": false,
    "count": 0,
    "updated": 0
  },
  {
    "id": "12dcdf05-4df2-4632-b47c-59f5b0f2a399",
    "data": [
      {
        "text": "can you turn off ",
        "userDefined": false
      },
      {
        "text": "washing machine",
        "alias": "device",
        "meta": "@device",
        "userDefined": false
      },
      {
        "text": " in the ",
        "userDefined": false
      },
      {
        "text": "kitchen",
        "alias": "room",
        "meta": "@room",
        "userDefined": false
      }
    ],
    "isTemplate": false,
    "count": 0,
    "updated": 0
  },
  {
    "id": "73977c50-be77-4317-be46-7b0c206a7fed",
    "data": [
      {
        "text": "turn off device please",
        "userDefined": false
      }
    ],
    "isTemplate": false,
    "count": 0,
    "updated": 0
  },
  {
    "id": "04a802b8-6b46-4af3-9244-724dab41749e",
    "data": [
      {
        "text": "turn off my ",
        "userDefined": false
      },
      {
        "text": "TV",
        "alias": "device",
        "meta": "@device",
        "userDefined": false
      }
    ],
    "isTemplate": false,
    "count": 1,
    "updated": 0
  },
  {
    "id": "7e1704e8-f6df-4733-bad7-256a3f4870b9",
    "data": [
      {
        "text": "I need you to turn off device",
        "userDefined": false
      }
    ],
    "isTemplate": false,
    "count": 0,
    "updated": 0
  }
]