{
  "id": "46d58ee0-a1c6-45b7-8e7a-ca97631f05e6",
  "name": "smarthome.locks.close",
  "auto": true,
  "contexts": [],
  "responses": [
    {
      "resetContexts": false,
      "action": "smarthome.locks.close",
      "affectedContexts": [
        {
          "name": "schedule",
          "parameters": {},
          "lifespan": 3
        },
        {
          "name": "room",
          "parameters": {},
          "lifespan": 3
        }
      ],
      "parameters": [
        {
          "id": "ea4aecd3-e53a-46b5-a1d2-9029595a1042",
          "required": false,
          "dataType": "@lock",
          "name": "lock",
          "value": "$lock",
          "promptMessages": [],
          "noMatchPromptMessages": [],
          "noInputPromptMessages": [],
          "outputDialogContexts": [],
          "isList": false
        },
        {
          "id": "23b8bdbb-0213-49e0-a443-97730e4eb3bc",
          "required": false,
          "dataType": "@room",
          "name": "room",
          "value": "$room",
          "promptMessages": [],
          "noMatchPromptMessages": [],
          "noInputPromptMessages": [],
          "outputDialogContexts": [],
          "isList": false
        },
        {
          "id": "9272ee38-2146-4136-847b-3aa59d3f906b",
          "required": false,
          "dataType": "@all",
          "name": "all",
          "value": "$all",
          "promptMessages": [],
          "noMatchPromptMessages": [],
          "noInputPromptMessages": [],
          "outputDialogContexts": [],
          "isList": false
        }
      ],
      "messages": [
        {
          "type": 0,
          "lang": "en",
          "condition": "",
          "speech": []
        }
      ],
      "defaultResponsePlatforms": {},
      "speech": []
    }
  ],
  "priority": 500000,
  "webhookUsed": false,
  "webhookForSlotFilling": false,
  "fallbackIntent": false,
  "events": [],
  "conditionalResponses": [],
  "condition": "",
  "conditionalFollowupEvents": []
}