[
  {
    "value": "T-shirt",
    "synonyms": [
      "T-shirt"
    ]
  },
  {
    "value": "book",
    "synonyms": [
      "book"
    ]
  },
  {
    "value": "glasses",
    "synonyms": [
      "glasses"
    ]
  },
  {
    "value": "hat",
    "synonyms": [
      "hat"
    ]
  },
  {
    "value": "laptop",
    "synonyms": [
      "laptop"
    ]
  },
  {
    "value": "shoes",
    "synonyms": [
      "shoes"
    ]
  }
]