[
  {
    "id": "e93e5db0-e57a-4851-ac4a-2f1d715c196c",
    "data": [
      {
        "text": "buy it",
        "userDefined": false
      }
    ],
    "isTemplate": false,
    "count": 0,
    "updated": 0
  },
  {
    "id": "dd17314d-25b9-492f-9b9a-e4ad3e623547",
    "data": [
      {
        "text": "book it for me",
        "userDefined": false
      }
    ],
    "isTemplate": false,
    "count": 0,
    "updated": 0
  },
  {
    "id": "5b2eab29-5aa9-4b84-9fe7-74a631aa4cd6",
    "data": [
      {
        "text": "book ",
        "userDefined": false
      },
      {
        "text": "2",
        "alias": "amount",
        "meta": "@sys.number",
        "userDefined": false
      }
    ],
    "isTemplate": false,
    "count": 0,
    "updated": 0
  },
  {
    "id": "4321fb5a-c003-44e5-be1e-e5bc9086368f",
    "data": [
      {
        "text": "I want these tickets",
        "userDefined": false
      }
    ],
    "isTemplate": false,
    "count": 0,
    "updated": 0
  },
  {
    "id": "ac816e7c-5cf0-460f-ae8e-e5c7ddc34a52",
    "data": [
      {
        "text": "book it",
        "userDefined": false
      }
    ],
    "isTemplate": false,
    "count": 0,
    "updated": 0
  },
  {
    "id": "a5891307-c545-4316-b10b-ecb499ee18c6",
    "data": [
      {
        "text": "can you book it for me",
        "userDefined": false
      }
    ],
    "isTemplate": false,
    "count": 0,
    "updated": 0
  }
]