{
  "id": "5dfd4a45-18a3-4623-bb7c-22dd743e7d07",
  "name": "venues.accomodation.search",
  "auto": true,
  "contexts": [],
  "responses": [
    {
      "resetContexts": false,
      "action": "venues.accomodation.search",
      "affectedContexts": [
        {
          "name": "venuesaccomodationsearch-followup",
          "parameters": {},
          "lifespan": 2
        },
        {
          "name": "venues",
          "parameters": {},
          "lifespan": 2
        }
      ],
      "parameters": [
        {
          "id": "a15745ea-4b17-4907-8a43-f17e3062886f",
          "required": false,
          "dataType": "@sys.location",
          "name": "location",
          "value": "$location",
          "promptMessages": [],
          "noMatchPromptMessages": [],
          "noInputPromptMessages": [],
          "outputDialogContexts": [],
          "isList": true
        },
        {
          "id": "b614e075-a127-4e7f-85ee-9b36a0d5be39",
          "required": false,
          "dataType": "@venue-accomodation-type",
          "name": "venue-type",
          "value": "$venue-type",
          "promptMessages": [],
          "noMatchPromptMessages": [],
          "noInputPromptMessages": [],
          "outputDialogContexts": [],
          "isList": false
        },
        {
          "id": "b1c3b7b9-b65c-4b42-9244-dba6dac057bd",
          "required": false,
          "dataType": "@venue-accomodation-chain",
          "name": "venue-chain",
          "value": "$venue-chain",
          "promptMessages": [],
          "noMatchPromptMessages": [],
          "noInputPromptMessages": [],
          "outputDialogContexts": [],
          "isList": false
        },
        {
          "id": "0592d9a8-05bd-42a6-9ccb-7fcd1fcdce15",
          "required": false,
          "dataType": "@venue-accomodation-title",
          "name": "venue-title",
          "value": "$venue-title",
          "promptMessages": [],
          "noMatchPromptMessages": [],
          "noInputPromptMessages": [],
          "outputDialogContexts": [],
          "isList": false
        },
        {
          "id": "91a58d66-e1cb-400c-aee2-dd9aa5f0a5cd",
          "required": false,
          "dataType": "@venue-facility",
          "name": "venue-facility",
          "value": "$venue-facility",
          "promptMessages": [],
          "noMatchPromptMessages": [],
          "noInputPromptMessages": [],
          "outputDialogContexts": [],
          "isList": true
        },
        {
          "id": "814b1e22-8617-42ca-8490-344f6c1f8c4f",
          "required": false,
          "dataType": "@room-facility",
          "name": "room-facility",
          "value": "$room-facility",
          "promptMessages": [],
          "noMatchPromptMessages": [],
          "noInputPromptMessages": [],
          "outputDialogContexts": [],
          "isList": true
        },
        {
          "id": "6e129fba-4b07-4662-9185-d7a013637df2",
          "required": false,
          "dataType": "@board-type",
          "name": "board-type",
          "value": "$board-type",
          "promptMessages": [],
          "noMatchPromptMessages": [],
          "noInputPromptMessages": [],
          "outputDialogContexts": [],
          "isList": false
        },
        {
          "id": "46739862-6f30-426c-b7d7-959d80e9054a",
          "required": false,
          "dataType": "@map-sort",
          "name": "sort",
          "value": "$sort",
          "promptMessages": [],
          "noMatchPromptMessages": [],
          "noInputPromptMessages": [],
          "outputDialogContexts": [],
          "isList": true
        },
        {
          "id": "0be0bb8e-4d02-41d6-92f9-f398b09a36da",
          "required": false,
          "dataType": "@open",
          "name": "open",
          "value": "$open",
          "promptMessages": [],
          "noMatchPromptMessages": [],
          "noInputPromptMessages": [],
          "outputDialogContexts": [],
          "isList": false
        },
        {
          "id": "a4c5b1a8-b3b1-4c05-aa89-ffb09df4b98d",
          "required": false,
          "dataType": "@rating",
          "name": "rating",
          "value": "$rating",
          "promptMessages": [],
          "noMatchPromptMessages": [],
          "noInputPromptMessages": [],
          "outputDialogContexts": [],
          "isList": false
        },
        {
          "id": "49a78e8e-a628-462f-84f2-24472dc1d5b7",
          "required": false,
          "dataType": "@sys.unit-currency",
          "name": "price",
          "value": "$price",
          "promptMessages": [],
          "noMatchPromptMessages": [],
          "noInputPromptMessages": [],
          "outputDialogContexts": [],
          "isList": false
        },
        {
          "id": "22d15375-2b35-481b-a66c-eb517ce3e846",
          "required": false,
          "dataType": "@sys.date-time",
          "name": "checkin-date",
          "value": "$checkin-date",
          "promptMessages": [],
          "noMatchPromptMessages": [],
          "noInputPromptMessages": [],
          "outputDialogContexts": [],
          "isList": false
        },
        {
          "id": "7ebe7910-d65e-4de8-9eca-4b7ba1378ab8",
          "required": false,
          "dataType": "@sys.number",
          "name": "night",
          "value": "$night",
          "promptMessages": [],
          "noMatchPromptMessages": [],
          "noInputPromptMessages": [],
          "outputDialogContexts": [],
          "isList": false
        },
        {
          "id": "968c790f-b0bd-43a0-8441-ccc1e3fde987",
          "required": false,
          "dataType": "@sys.date-period",
          "name": "date-period",
          "value": "$date-period",
          "promptMessages": [],
          "noMatchPromptMessages": [],
          "noInputPromptMessages": [],
          "outputDialogContexts": [],
          "isList": false
        },
        {
          "id": "3e031494-4eb0-443b-8e9a-91b75bfb978e",
          "required": false,
          "dataType": "@sys.date-time",
          "name": "checkout-date",
          "value": "$checkout-date",
          "promptMessages": [],
          "noMatchPromptMessages": [],
          "noInputPromptMessages": [],
          "outputDialogContexts": [],
          "isList": false
        },
        {
          "id": "2411106f-a2f8-4ee9-b7bb-e9f40981fbbf",
          "required": false,
          "dataType": "@sys.number",
          "name": "stars",
          "value": "$stars",
          "promptMessages": [],
          "noMatchPromptMessages": [],
          "noInputPromptMessages": [],
          "outputDialogContexts": [],
          "isList": false
        }
      ],
      "messages": [
        {
          "type": 0,
          "lang": "en",
          "condition": "",
          "speech": []
        }
      ],
      "defaultResponsePlatforms": {},
      "speech": []
    }
  ],
  "priority": 500000,
  "webhookUsed": false,
  "webhookForSlotFilling": false,
  "fallbackIntent": false,
  "events": [],
  "conditionalResponses": [],
  "condition": "",
  "conditionalFollowupEvents": []
}