{
  "id": "23e3d790-ab11-4f49-9f17-4acfe0c3478e",
  "parentId": "5dfd4a45-18a3-4623-bb7c-22dd743e7d07",
  "rootParentId": "5dfd4a45-18a3-4623-bb7c-22dd743e7d07",
  "name": "venues.accomodation.search - new venue",
  "auto": true,
  "contexts": [
    "venuesaccomodationsearch-followup"
  ],
  "responses": [
    {
      "resetContexts": false,
      "action": "venues.accomodation.search",
      "affectedContexts": [],
      "parameters": [
        {
          "id": "f339072c-dfbd-4e0e-9cc0-a683f0adb26f",
          "required": false,
          "dataType": "@venue-accomodation-type",
          "name": "venue-type",
          "value": "$venue-type",
          "promptMessages": [],
          "noMatchPromptMessages": [],
          "noInputPromptMessages": [],
          "outputDialogContexts": [],
          "isList": false
        },
        {
          "id": "f47a9f18-7b38-4792-878c-1132ab5d58ed",
          "required": false,
          "dataType": "",
          "name": "location",
          "value": "#venuesaccomodationsearch-followup.location",
          "promptMessages": [],
          "noMatchPromptMessages": [],
          "noInputPromptMessages": [],
          "outputDialogContexts": [],
          "isList": false
        },
        {
          "id": "0f4f92fd-1a99-4c8d-840f-8b665f685917",
          "required": false,
          "dataType": "",
          "name": "venue-facility",
          "value": "#venuesaccomodationsearch-followup.venue-facility",
          "promptMessages": [],
          "noMatchPromptMessages": [],
          "noInputPromptMessages": [],
          "outputDialogContexts": [],
          "isList": true
        },
        {
          "id": "afe207bf-0580-4511-83a6-0acd48578781",
          "required": false,
          "dataType": "",
          "name": "room-facility",
          "value": "#venues-accomodation.room-facility",
          "promptMessages": [],
          "noMatchPromptMessages": [],
          "noInputPromptMessages": [],
          "outputDialogContexts": [],
          "isList": true
        },
        {
          "id": "6d9db9f3-3de7-4523-a6a9-78af3578d7a1",
          "required": false,
          "dataType": "",
          "name": "board-type",
          "value": "#venuesaccomodationsearch-followup.board-type",
          "promptMessages": [],
          "noMatchPromptMessages": [],
          "noInputPromptMessages": [],
          "outputDialogContexts": [],
          "isList": false
        },
        {
          "id": "0a4d5cac-63e8-4c99-aa59-435dcc0f8771",
          "required": false,
          "dataType": "",
          "name": "rating",
          "value": "#venuesaccomodationsearch-followup.rating",
          "promptMessages": [],
          "noMatchPromptMessages": [],
          "noInputPromptMessages": [],
          "outputDialogContexts": [],
          "isList": false
        },
        {
          "id": "503dc371-15a1-4e46-82a0-751d33fb1fa0",
          "required": false,
          "dataType": "",
          "name": "stars",
          "value": "#venuesaccomodationsearch-followup.stars",
          "promptMessages": [],
          "noMatchPromptMessages": [],
          "noInputPromptMessages": [],
          "outputDialogContexts": [],
          "isList": false
        },
        {
          "id": "b1474706-3418-4dbb-9074-c3fb1a177b96",
          "required": false,
          "dataType": "",
          "name": "price",
          "value": "#venuesaccomodationsearch-followup.price",
          "promptMessages": [],
          "noMatchPromptMessages": [],
          "noInputPromptMessages": [],
          "outputDialogContexts": [],
          "isList": false
        },
        {
          "id": "9a579589-7fa0-4f25-acc6-568661d71336",
          "required": false,
          "dataType": "",
          "name": "sort",
          "value": "#venuesaccomodationsearch-followup.sort",
          "promptMessages": [],
          "noMatchPromptMessages": [],
          "noInputPromptMessages": [],
          "outputDialogContexts": [],
          "isList": true
        }
      ],
      "messages": [
        {
          "type": 0,
          "lang": "en",
          "condition": "",
          "speech": []
        }
      ],
      "defaultResponsePlatforms": {},
      "speech": []
    }
  ],
  "priority": 500000,
  "webhookUsed": false,
  "webhookForSlotFilling": false,
  "fallbackIntent": false,
  "events": [],
  "conditionalResponses": [],
  "condition": "",
  "conditionalFollowupEvents": []
}