[
  {
    "id": "8be99775-328d-4ac8-b9a5-1394265508ae",
    "data": [
      {
        "text": "how about ",
        "userDefined": false
      },
      {
        "text": "Los Angeles",
        "alias": "location",
        "meta": "@sys.location",
        "userDefined": false
      }
    ],
    "isTemplate": false,
    "count": 0,
    "updated": 0
  },
  {
    "id": "918d90cd-46eb-4e50-8590-1755e506f51b",
    "data": [
      {
        "text": "and ",
        "userDefined": false
      },
      {
        "text": "SF",
        "alias": "location",
        "meta": "@sys.location",
        "userDefined": false
      }
    ],
    "isTemplate": false,
    "count": 0,
    "updated": 0
  },
  {
    "id": "accf7781-9999-4624-b4f9-c812a2a973f8",
    "data": [
      {
        "text": "show in ",
        "userDefined": false
      },
      {
        "text": "Belgrade",
        "alias": "location",
        "meta": "@sys.location",
        "userDefined": false
      }
    ],
    "isTemplate": false,
    "count": 0,
    "updated": 0
  },
  {
    "id": "055a82dd-7460-4f14-a89a-0dcb7ef3bd57",
    "data": [
      {
        "text": "in ",
        "userDefined": false
      },
      {
        "text": "Moscow",
        "alias": "location",
        "meta": "@sys.location",
        "userDefined": true
      }
    ],
    "isTemplate": false,
    "count": 0,
    "updated": 0
  },
  {
    "id": "f7ba2b35-bfe3-4bf0-a35e-da18190c112e",
    "data": [
      {
        "text": "find for ",
        "userDefined": false
      },
      {
        "text": "LA",
        "alias": "location",
        "meta": "@sys.location",
        "userDefined": false
      }
    ],
    "isTemplate": false,
    "count": 0,
    "updated": 0
  },
  {
    "id": "21232fcb-83b9-431b-b408-3cf5657e5811",
    "data": [
      {
        "text": "find in ",
        "userDefined": false
      },
      {
        "text": "Berlin",
        "alias": "location",
        "meta": "@sys.location",
        "userDefined": false
      }
    ],
    "isTemplate": false,
    "count": 0,
    "updated": 0
  },
  {
    "id": "2187a1c0-9b34-4acf-b409-cd96ec2a2263",
    "data": [
      {
        "text": "show for ",
        "userDefined": false
      },
      {
        "text": "Miami",
        "alias": "location",
        "meta": "@sys.location",
        "userDefined": false
      }
    ],
    "isTemplate": false,
    "count": 0,
    "updated": 0
  },
  {
    "id": "a26a0052-1c82-436d-8096-8465b3009410",
    "data": [
      {
        "text": "what about ",
        "userDefined": false
      },
      {
        "text": "London",
        "alias": "location",
        "meta": "@sys.location",
        "userDefined": false
      }
    ],
    "isTemplate": false,
    "count": 0,
    "updated": 0
  }
]