[
  {
    "id": "ee1df5d3-8f40-4864-bbb3-dab807b51cb6",
    "data": [
      {
        "text": "navigate to ",
        "userDefined": false
      },
      {
        "text": "work",
        "alias": "to",
        "meta": "@sys.location",
        "userDefined": true
      },
      {
        "text": " without taking ",
        "userDefined": false
      },
      {
        "text": "Center Avenue",
        "alias": "exlcude-point",
        "meta": "@sys.location",
        "userDefined": true
      }
    ],
    "isTemplate": false,
    "count": 0,
    "updated": 0
  },
  {
    "id": "2b7c1691-284c-4a9e-bcaa-2df5df9b9d82",
    "data": [
      {
        "text": "let\u0027",
        "userDefined": false
      },
      {
        "text": "s",
        "meta": "@sys.ignore",
        "userDefined": false
      },
      {
        "text": " ",
        "userDefined": false
      },
      {
        "text": "go",
        "meta": "@sys.ignore",
        "userDefined": false
      },
      {
        "text": " ",
        "userDefined": false
      },
      {
        "text": "to",
        "meta": "@sys.ignore",
        "userDefined": false
      },
      {
        "text": " the ",
        "userDefined": false
      },
      {
        "text": "nearest",
        "alias": "sort",
        "meta": "@map-sort",
        "userDefined": true
      },
      {
        "text": " ",
        "userDefined": false
      },
      {
        "text": "Starbucks",
        "alias": "to",
        "meta": "@sys.location",
        "userDefined": false
      }
    ],
    "isTemplate": false,
    "count": 0,
    "updated": 0
  },
  {
    "id": "1ad6cb12-5412-4ddc-ac1b-246d539f47f0",
    "data": [
      {
        "text": "go ",
        "userDefined": false
      },
      {
        "text": "home",
        "alias": "to",
        "meta": "@sys.location",
        "userDefined": true
      },
      {
        "text": " please",
        "userDefined": false
      }
    ],
    "isTemplate": false,
    "count": 0,
    "updated": 0
  },
  {
    "id": "8b493734-a0fa-4408-9d03-c493b57ee462",
    "data": [
      {
        "text": "open navigation from ",
        "userDefined": false
      },
      {
        "text": "London",
        "alias": "from",
        "meta": "@sys.location",
        "userDefined": true
      },
      {
        "text": " to ",
        "userDefined": false
      },
      {
        "text": "Liverpool",
        "alias": "to",
        "meta": "@sys.location",
        "userDefined": true
      }
    ],
    "isTemplate": false,
    "count": 0,
    "updated": 0
  },
  {
    "id": "c6320a4b-bd41-4c16-b703-8742e4e69c30",
    "data": [
      {
        "text": "navigate me ",
        "userDefined": false
      },
      {
        "text": "home",
        "alias": "to",
        "meta": "@sys.location",
        "userDefined": true
      },
      {
        "text": " from the ",
        "userDefined": false
      },
      {
        "text": "Main Street",
        "alias": "from",
        "meta": "@sys.location",
        "userDefined": true
      },
      {
        "text": " via ",
        "userDefined": false
      },
      {
        "text": "M30",
        "alias": "include-point",
        "meta": "@sys.location",
        "userDefined": true
      }
    ],
    "isTemplate": false,
    "count": 0,
    "updated": 0
  },
  {
    "id": "df2629ba-df65-4668-84cd-c898b2b9f9ef",
    "data": [
      {
        "text": "let\u0027s go from ",
        "userDefined": false
      },
      {
        "text": "20 Ingram Street Forest Hills Queens",
        "alias": "from",
        "meta": "@sys.location",
        "userDefined": true
      },
      {
        "text": " to ",
        "userDefined": false
      },
      {
        "text": "1313 Webfoot Walk Duckburg Calisota",
        "alias": "to",
        "meta": "@sys.location",
        "userDefined": true
      }
    ],
    "isTemplate": false,
    "count": 0,
    "updated": 0
  },
  {
    "id": "81db1555-47f9-4822-ba70-33c36851a864",
    "data": [
      {
        "text": "navigate me to ",
        "userDefined": false
      },
      {
        "text": "New York",
        "alias": "to",
        "meta": "@sys.location",
        "userDefined": true
      },
      {
        "text": " ",
        "userDefined": false
      },
      {
        "text": "avoiding traffic",
        "alias": "road-type",
        "meta": "@navigation-road-type",
        "userDefined": true
      }
    ],
    "isTemplate": false,
    "count": 0,
    "updated": 0
  },
  {
    "id": "1c5c1442-de1f-49a9-9514-f29e4afa515b",
    "data": [
      {
        "text": "navigate me to the ",
        "userDefined": false
      },
      {
        "text": "nearest",
        "alias": "sort",
        "meta": "@map-sort",
        "userDefined": true
      },
      {
        "text": " ",
        "userDefined": false
      },
      {
        "text": "restaurant",
        "alias": "to",
        "meta": "@sys.location",
        "userDefined": true
      }
    ],
    "isTemplate": false,
    "count": 0,
    "updated": 0
  },
  {
    "id": "6b13e420-3578-4149-ac50-544c3b27561b",
    "data": [
      {
        "text": "let\u0027s go ",
        "userDefined": false
      },
      {
        "text": "home",
        "alias": "to",
        "meta": "@sys.location",
        "userDefined": true
      }
    ],
    "isTemplate": false,
    "count": 0,
    "updated": 0
  },
  {
    "id": "1565e714-eba3-4a15-ac66-d51faedcd839",
    "data": [
      {
        "text": "open navigation to ",
        "userDefined": false
      },
      {
        "text": "Starbucks",
        "alias": "to",
        "meta": "@sys.location",
        "userDefined": true
      },
      {
        "text": " ",
        "userDefined": false
      },
      {
        "text": "avoiding heavy traffic",
        "alias": "road-type",
        "meta": "@navigation-road-type",
        "userDefined": true
      }
    ],
    "isTemplate": false,
    "count": 0,
    "updated": 0
  },
  {
    "id": "af361c9e-5798-4a1e-80c3-204396d11f3d",
    "data": [
      {
        "text": "start navigation to the ",
        "userDefined": false
      },
      {
        "text": "nearest",
        "alias": "sort",
        "meta": "@map-sort",
        "userDefined": true
      },
      {
        "text": " ",
        "userDefined": false
      },
      {
        "text": "petrol station",
        "alias": "to",
        "meta": "@sys.location",
        "userDefined": true
      }
    ],
    "isTemplate": false,
    "count": 0,
    "updated": 0
  },
  {
    "id": "71030407-d8d6-4f4d-b85a-87eb1139150c",
    "data": [
      {
        "text": "start navigation to ",
        "userDefined": false
      },
      {
        "text": "petrol station",
        "alias": "to",
        "meta": "@sys.location",
        "userDefined": true
      }
    ],
    "isTemplate": false,
    "count": 0,
    "updated": 0
  },
  {
    "id": "4c1ccd93-0f9c-425b-8ed5-e6472e5d7868",
    "data": [
      {
        "text": "can you navigate me to the ",
        "userDefined": false
      },
      {
        "text": "closest",
        "alias": "sort",
        "meta": "@map-sort",
        "userDefined": true
      },
      {
        "text": " ",
        "userDefined": false
      },
      {
        "text": "shop",
        "alias": "to",
        "meta": "@sys.location",
        "userDefined": true
      }
    ],
    "isTemplate": false,
    "count": 0,
    "updated": 0
  },
  {
    "id": "bddd4a50-3961-480f-a66c-35d0e5e99349",
    "data": [
      {
        "text": "navigation from ",
        "userDefined": false
      },
      {
        "text": "Skypad Apartments Orbit City",
        "alias": "from",
        "meta": "@sys.location",
        "userDefined": true
      },
      {
        "text": " to ",
        "userDefined": false
      },
      {
        "text": "17 Cherry Tree Lane",
        "alias": "to",
        "meta": "@sys.location",
        "userDefined": true
      }
    ],
    "isTemplate": false,
    "count": 0,
    "updated": 0
  },
  {
    "id": "cd44ba3e-848f-4f13-b66c-bfe03cdada52",
    "data": [
      {
        "text": "start navigation to ",
        "userDefined": false
      },
      {
        "text": "nearest",
        "alias": "sort",
        "meta": "@map-sort",
        "userDefined": true
      },
      {
        "text": " ",
        "userDefined": false
      },
      {
        "text": "Starbucks",
        "alias": "to",
        "meta": "@sys.location",
        "userDefined": true
      },
      {
        "text": " via ",
        "userDefined": false
      },
      {
        "text": "fastest route",
        "alias": "route-type",
        "meta": "@navigation-route-type",
        "userDefined": true
      }
    ],
    "isTemplate": false,
    "count": 0,
    "updated": 0
  },
  {
    "id": "03afe62f-9e8c-4bb6-abca-e046366aa22d",
    "data": [
      {
        "text": "how can I go to the ",
        "userDefined": false
      },
      {
        "text": "airport",
        "alias": "to",
        "meta": "@sys.location",
        "userDefined": true
      },
      {
        "text": " from my location",
        "userDefined": false
      }
    ],
    "isTemplate": false,
    "count": 0,
    "updated": 0
  },
  {
    "id": "dee566dc-09e8-42d1-af92-988362049cee",
    "data": [
      {
        "text": "open navigation",
        "userDefined": false
      }
    ],
    "isTemplate": false,
    "count": 0,
    "updated": 0
  },
  {
    "id": "9f1eb218-deac-4289-869c-d64fd23f08e3",
    "data": [
      {
        "text": "can you take me the ",
        "userDefined": false
      },
      {
        "text": "nearest",
        "alias": "sort",
        "meta": "@map-sort",
        "userDefined": true
      },
      {
        "text": " ",
        "userDefined": false
      },
      {
        "text": "hotel",
        "alias": "to",
        "meta": "@sys.location",
        "userDefined": true
      }
    ],
    "isTemplate": false,
    "count": 0,
    "updated": 0
  },
  {
    "id": "28c66a5d-6af5-4656-9878-d6534990d682",
    "data": [
      {
        "text": "could you navigate me to ",
        "userDefined": false
      },
      {
        "text": "454 W 35th Street New York NY 10001",
        "alias": "to",
        "meta": "@sys.location",
        "userDefined": true
      },
      {
        "text": " with ",
        "userDefined": false
      },
      {
        "text": "fastest way",
        "alias": "route-type",
        "meta": "@navigation-route-type",
        "userDefined": true
      }
    ],
    "isTemplate": false,
    "count": 0,
    "updated": 0
  },
  {
    "id": "35cfc3de-c314-4e4c-9715-bac50360652e",
    "data": [
      {
        "text": "navigation to ",
        "userDefined": false
      },
      {
        "text": "restaurant",
        "alias": "to",
        "meta": "@sys.location",
        "userDefined": true
      },
      {
        "text": " ",
        "userDefined": false
      },
      {
        "text": "with light traffic",
        "alias": "road-type",
        "meta": "@navigation-road-type",
        "userDefined": true
      }
    ],
    "isTemplate": false,
    "count": 0,
    "updated": 0
  },
  {
    "id": "dee85d22-9b38-4094-8457-f6658aff2d58",
    "data": [
      {
        "text": "navigate to the ",
        "userDefined": false
      },
      {
        "text": "closest",
        "alias": "sort",
        "meta": "@map-sort",
        "userDefined": true
      },
      {
        "text": " ",
        "userDefined": false
      },
      {
        "text": "sushi bar",
        "alias": "to",
        "meta": "@sys.location",
        "userDefined": true
      },
      {
        "text": " you can find",
        "userDefined": false
      }
    ],
    "isTemplate": false,
    "count": 0,
    "updated": 0
  },
  {
    "id": "8855eaf2-2cad-4857-af72-0b716c8e61ef",
    "data": [
      {
        "text": "navigate me to ",
        "userDefined": false
      },
      {
        "text": "London",
        "alias": "to",
        "meta": "@sys.location",
        "userDefined": true
      },
      {
        "text": " using the ",
        "userDefined": false
      },
      {
        "text": "fastest way",
        "alias": "route-type",
        "meta": "@navigation-route-type",
        "userDefined": true
      }
    ],
    "isTemplate": false,
    "count": 0,
    "updated": 0
  },
  {
    "id": "8b4f76d2-70f8-4d13-81fc-f16da39a91e5",
    "data": [
      {
        "text": "navigation",
        "userDefined": false
      }
    ],
    "isTemplate": false,
    "count": 0,
    "updated": 0
  },
  {
    "id": "3e273c58-c256-4a80-86d6-5fe02e95399c",
    "data": [
      {
        "text": "navigate from ",
        "userDefined": false
      },
      {
        "text": "New York",
        "alias": "from",
        "meta": "@sys.location",
        "userDefined": true
      }
    ],
    "isTemplate": false,
    "count": 0,
    "updated": 0
  },
  {
    "id": "33e44979-30d5-446d-b015-831601c680d4",
    "data": [
      {
        "text": "can you take me ",
        "userDefined": false
      },
      {
        "text": "home",
        "alias": "to",
        "meta": "@sys.location",
        "userDefined": true
      }
    ],
    "isTemplate": false,
    "count": 0,
    "updated": 0
  },
  {
    "id": "ba8b79a8-f2b1-4a71-8b4f-88ed3d8d4e48",
    "data": [
      {
        "text": "activate navigation",
        "userDefined": false
      }
    ],
    "isTemplate": false,
    "count": 0,
    "updated": 0
  },
  {
    "id": "6d05fd3b-b920-469f-a1a7-d9482505b1b1",
    "data": [
      {
        "text": "navigate me to ",
        "userDefined": false
      },
      {
        "text": "New York",
        "alias": "to",
        "meta": "@sys.location",
        "userDefined": true
      },
      {
        "text": " ",
        "userDefined": false
      },
      {
        "text": "avoiding toll roads",
        "alias": "road-type",
        "meta": "@navigation-road-type",
        "userDefined": true
      }
    ],
    "isTemplate": false,
    "count": 0,
    "updated": 0
  },
  {
    "id": "9b0f8f64-4634-4114-8516-fe58d927de5a",
    "data": [
      {
        "text": "open navigation to ",
        "userDefined": false
      },
      {
        "text": "London",
        "alias": "to",
        "meta": "@sys.location",
        "userDefined": true
      },
      {
        "text": " with ",
        "userDefined": false
      },
      {
        "text": "light traffic",
        "alias": "route-type",
        "meta": "@navigation-route-type",
        "userDefined": true
      }
    ],
    "isTemplate": false,
    "count": 1,
    "updated": 0
  },
  {
    "id": "6165203b-b784-4b4c-8adf-16e11cbeb31a",
    "data": [
      {
        "text": "start navigation to the ",
        "userDefined": false
      },
      {
        "text": "nearest",
        "alias": "sort",
        "meta": "@map-sort",
        "userDefined": true
      },
      {
        "text": " ",
        "userDefined": false
      },
      {
        "text": "Cheesecake Factory",
        "alias": "to",
        "meta": "@sys.location",
        "userDefined": true
      },
      {
        "text": " via ",
        "userDefined": false
      },
      {
        "text": "fastest route",
        "alias": "route-type",
        "meta": "@navigation-route-type",
        "userDefined": true
      }
    ],
    "isTemplate": false,
    "count": 0,
    "updated": 0
  },
  {
    "id": "b1de2324-31eb-42a1-893c-ba809b19e9a9",
    "data": [
      {
        "text": "take me to ",
        "userDefined": false
      },
      {
        "text": "Wayne Manor 1007 Mountain Drive Gotham",
        "alias": "to",
        "meta": "@sys.location",
        "userDefined": true
      }
    ],
    "isTemplate": false,
    "count": 1,
    "updated": 0
  },
  {
    "id": "b0ae49ce-dd09-4993-b91d-43b7e313a0b8",
    "data": [
      {
        "text": "navigate to ",
        "userDefined": false
      },
      {
        "text": "London",
        "alias": "to",
        "meta": "@sys.location",
        "userDefined": true
      }
    ],
    "isTemplate": false,
    "count": 0,
    "updated": 0
  },
  {
    "id": "54b258a1-d637-4fb4-9c59-dde3c38157ee",
    "data": [
      {
        "text": "navigate to ",
        "userDefined": false
      },
      {
        "text": "P Sherman 42 Wallaby Way Sydney",
        "alias": "to",
        "meta": "@sys.location",
        "userDefined": true
      }
    ],
    "isTemplate": false,
    "count": 1,
    "updated": 0
  },
  {
    "id": "23d7f6e6-0811-4a34-8c83-e0884808382a",
    "data": [
      {
        "text": "navigate from ",
        "userDefined": false
      },
      {
        "text": "home",
        "alias": "from",
        "meta": "@sys.location",
        "userDefined": true
      },
      {
        "text": " to ",
        "userDefined": false
      },
      {
        "text": "office",
        "alias": "to",
        "meta": "@sys.location",
        "userDefined": true
      }
    ],
    "isTemplate": false,
    "count": 0,
    "updated": 0
  },
  {
    "id": "c4e1bfc7-cb55-4dc7-bb2d-55cd967b99d5",
    "data": [
      {
        "text": "navigation to ",
        "userDefined": false
      },
      {
        "text": "nearest",
        "alias": "sort",
        "meta": "@map-sort",
        "userDefined": true
      },
      {
        "text": " ",
        "userDefined": false
      },
      {
        "text": "shop",
        "alias": "to",
        "meta": "@sys.location",
        "userDefined": true
      }
    ],
    "isTemplate": false,
    "count": 0,
    "updated": 0
  }
]