[
  {
    "id": "28e70d76-5869-46a0-87ed-a397e3ccbb6d",
    "data": [
      {
        "text": "and ",
        "userDefined": false
      },
      {
        "text": "for the noon",
        "alias": "time-period",
        "meta": "@sys.time-period",
        "userDefined": false
      }
    ],
    "isTemplate": false,
    "count": 0,
    "updated": 0
  },
  {
    "id": "59672081-4ce6-4753-bf14-905d15b155f7",
    "data": [
      {
        "text": "and tell me ",
        "userDefined": false
      },
      {
        "text": "for this night",
        "alias": "time-period",
        "meta": "@sys.time-period",
        "userDefined": false
      }
    ],
    "isTemplate": false,
    "count": 0,
    "updated": 0
  },
  {
    "id": "02a0bfd1-917d-4a23-a610-e7917bc549c1",
    "data": [
      {
        "text": "and ",
        "userDefined": false
      },
      {
        "text": "between 7 pm and 9 pm",
        "alias": "time-period",
        "meta": "@sys.time-period",
        "userDefined": false
      }
    ],
    "isTemplate": false,
    "count": 0,
    "updated": 0
  },
  {
    "id": "e68397f2-ff27-428a-8d7d-36b3a94f7ed5",
    "data": [
      {
        "text": "for this evening",
        "alias": "time-period",
        "meta": "@sys.time-period",
        "userDefined": false
      },
      {
        "text": " now",
        "userDefined": false
      }
    ],
    "isTemplate": false,
    "count": 1,
    "updated": 0
  },
  {
    "id": "72f512b7-d03f-47c4-9c38-214a0dcf5581",
    "data": [
      {
        "text": "what ",
        "userDefined": false
      },
      {
        "text": "about",
        "meta": "@sys.ignore",
        "userDefined": false
      },
      {
        "text": " ",
        "userDefined": false
      },
      {
        "text": "noon",
        "alias": "time-period",
        "meta": "@sys.time-period",
        "userDefined": true
      }
    ],
    "isTemplate": false,
    "count": 0,
    "updated": 0
  },
  {
    "id": "d7373ad0-ca88-4964-91a4-c9157a8bf582",
    "data": [
      {
        "text": "for the morning",
        "alias": "time-period",
        "meta": "@sys.time-period",
        "userDefined": false
      },
      {
        "text": " also",
        "userDefined": false
      }
    ],
    "isTemplate": false,
    "count": 0,
    "updated": 0
  },
  {
    "id": "970a200f-72c0-44f1-960a-93df50dc8b7a",
    "data": [
      {
        "text": "show me also ",
        "userDefined": false
      },
      {
        "text": "between 8 am and 11 am",
        "alias": "time-period",
        "meta": "@sys.time-period",
        "userDefined": false
      }
    ],
    "isTemplate": false,
    "count": 0,
    "updated": 0
  },
  {
    "id": "a316781e-b26b-4ef9-a880-0e9ebb8c7f5b",
    "data": [
      {
        "text": "for this evening",
        "alias": "time-period",
        "meta": "@sys.time-period",
        "userDefined": false
      },
      {
        "text": " as ",
        "userDefined": false
      },
      {
        "text": "well",
        "meta": "@sys.ignore",
        "userDefined": false
      }
    ],
    "isTemplate": false,
    "count": 0,
    "updated": 0
  },
  {
    "id": "d5d1737b-8ed2-4faf-a2bc-66f81e4fea6c",
    "data": [
      {
        "text": "and what about ",
        "userDefined": false
      },
      {
        "text": "this evening",
        "alias": "time-period",
        "meta": "@sys.time-period",
        "userDefined": true
      }
    ],
    "isTemplate": false,
    "count": 0,
    "updated": 0
  }
]