[
  {
    "id": "d614b4c4-ba98-4dcc-974f-04bdbfd4225a",
    "data": [
      {
        "text": "what is the ",
        "userDefined": false
      },
      {
        "text": "traffic",
        "meta": "@sys.ignore",
        "userDefined": true
      },
      {
        "text": " like in ",
        "userDefined": false
      },
      {
        "text": "Louisville",
        "alias": "address",
        "meta": "@sys.location",
        "userDefined": true
      }
    ],
    "isTemplate": false,
    "count": 0,
    "updated": 0
  },
  {
    "id": "3b6716e2-7675-4eb6-9c31-6527c04baeb6",
    "data": [
      {
        "text": "are",
        "meta": "@sys.ignore",
        "userDefined": true
      },
      {
        "text": " there any ",
        "userDefined": false
      },
      {
        "text": "accidents",
        "alias": "event",
        "meta": "@traffic-event",
        "userDefined": true
      },
      {
        "text": " ",
        "userDefined": false
      },
      {
        "text": "right now",
        "meta": "@sys.ignore",
        "userDefined": true
      }
    ],
    "isTemplate": false,
    "count": 0,
    "updated": 0
  },
  {
    "id": "b68db659-d7f6-44e4-aafb-1b99c219e3a2",
    "data": [
      {
        "text": "traffic in ",
        "userDefined": false
      },
      {
        "text": "San Francisco",
        "alias": "address",
        "meta": "@sys.location",
        "userDefined": true
      }
    ],
    "isTemplate": false,
    "count": 0,
    "updated": 0
  },
  {
    "id": "fca64e38-b480-4368-bf03-eaed2b080930",
    "data": [
      {
        "text": "any ",
        "userDefined": false
      },
      {
        "text": "road works",
        "alias": "event",
        "meta": "@traffic-event",
        "userDefined": true
      },
      {
        "text": " ",
        "userDefined": false
      },
      {
        "text": "nearby",
        "meta": "@sys.ignore",
        "userDefined": true
      }
    ],
    "isTemplate": false,
    "count": 0,
    "updated": 0
  },
  {
    "id": "b7b50650-9636-4add-b0fb-fcad8ea802bc",
    "data": [
      {
        "text": "report if there are any ",
        "userDefined": false
      },
      {
        "text": "accidents",
        "alias": "event",
        "meta": "@traffic-event",
        "userDefined": true
      },
      {
        "text": " near here",
        "userDefined": false
      }
    ],
    "isTemplate": false,
    "count": 0,
    "updated": 0
  },
  {
    "id": "635c540d-7c0d-4850-9a17-5e34f01187c8",
    "data": [
      {
        "text": "road ",
        "userDefined": false
      },
      {
        "text": "accidents",
        "alias": "event",
        "meta": "@traffic-event",
        "userDefined": true
      },
      {
        "text": " ",
        "userDefined": false
      },
      {
        "text": "nearby",
        "meta": "@sys.ignore",
        "userDefined": true
      }
    ],
    "isTemplate": false,
    "count": 1,
    "updated": 0
  },
  {
    "id": "49276f87-f7ca-4027-b4a8-db966cc8a01c",
    "data": [
      {
        "text": "how is the traffic in ",
        "userDefined": false
      },
      {
        "text": "San Francisco",
        "alias": "address",
        "meta": "@sys.location",
        "userDefined": true
      }
    ],
    "isTemplate": false,
    "count": 0,
    "updated": 0
  },
  {
    "id": "469b89ed-e178-49cd-bc65-50819e03da7d",
    "data": [
      {
        "text": "are",
        "meta": "@sys.ignore",
        "userDefined": true
      },
      {
        "text": " there ",
        "userDefined": false
      },
      {
        "text": "road works",
        "alias": "event",
        "meta": "@traffic-event",
        "userDefined": true
      },
      {
        "text": " near ",
        "userDefined": false
      },
      {
        "text": "Paris",
        "alias": "address",
        "meta": "@sys.location",
        "userDefined": true
      }
    ],
    "isTemplate": false,
    "count": 0,
    "updated": 0
  },
  {
    "id": "4f42b705-1807-4d07-98fe-83d6589f10d3",
    "data": [
      {
        "text": "tell me the traffic for my location",
        "userDefined": false
      }
    ],
    "isTemplate": false,
    "count": 1,
    "updated": 0
  },
  {
    "id": "7cf4542d-f263-4832-b3c0-c5e223dca888",
    "data": [
      {
        "text": "what is the ",
        "userDefined": false
      },
      {
        "text": "traffic",
        "meta": "@sys.ignore",
        "userDefined": true
      },
      {
        "text": " like near ",
        "userDefined": false
      },
      {
        "text": "Hollywood",
        "alias": "address",
        "meta": "@sys.location",
        "userDefined": true
      }
    ],
    "isTemplate": false,
    "count": 0,
    "updated": 0
  },
  {
    "id": "955e942d-1d56-469f-814b-9f868d0ac865",
    "data": [
      {
        "text": "please show me a ",
        "userDefined": false
      },
      {
        "text": "traffic",
        "meta": "@sys.ignore",
        "userDefined": true
      },
      {
        "text": " ",
        "userDefined": false
      },
      {
        "text": "map",
        "meta": "@sys.ignore",
        "userDefined": true
      },
      {
        "text": " ",
        "userDefined": false
      },
      {
        "text": "of",
        "meta": "@sys.ignore",
        "userDefined": true
      },
      {
        "text": " my location",
        "userDefined": false
      }
    ],
    "isTemplate": false,
    "count": 0,
    "updated": 0
  },
  {
    "id": "73397d28-7d04-4f9c-a8cd-f22240724c7a",
    "data": [
      {
        "text": "where ",
        "userDefined": false
      },
      {
        "text": "are",
        "meta": "@sys.ignore",
        "userDefined": true
      },
      {
        "text": " the ",
        "userDefined": false
      },
      {
        "text": "traffic jams",
        "alias": "event",
        "meta": "@traffic-event",
        "userDefined": true
      }
    ],
    "isTemplate": false,
    "count": 0,
    "updated": 0
  },
  {
    "id": "66729a21-4084-4aaf-b287-b69f0cb83662",
    "data": [
      {
        "text": "are",
        "meta": "@sys.ignore",
        "userDefined": true
      },
      {
        "text": " there ",
        "userDefined": false
      },
      {
        "text": "traffic jams",
        "alias": "event",
        "meta": "@traffic-event",
        "userDefined": true
      },
      {
        "text": " ",
        "userDefined": false
      },
      {
        "text": "around here",
        "meta": "@sys.ignore",
        "userDefined": true
      }
    ],
    "isTemplate": false,
    "count": 0,
    "updated": 0
  },
  {
    "id": "44b6d374-7662-4dff-b509-0935d048d2b6",
    "data": [
      {
        "text": "any ",
        "userDefined": false
      },
      {
        "text": "accidents",
        "alias": "event",
        "meta": "@traffic-event",
        "userDefined": true
      },
      {
        "text": " on the road",
        "userDefined": false
      }
    ],
    "isTemplate": false,
    "count": 0,
    "updated": 0
  },
  {
    "id": "34fea9f7-3c27-49ef-bcd6-7f33297b13a8",
    "data": [
      {
        "text": "are there ",
        "userDefined": false
      },
      {
        "text": "speed cameras",
        "alias": "event",
        "meta": "@traffic-event",
        "userDefined": true
      },
      {
        "text": " near me",
        "userDefined": false
      }
    ],
    "isTemplate": false,
    "count": 0,
    "updated": 0
  },
  {
    "id": "08699f27-cbf6-4d9b-8a90-7b3fdbc1a175",
    "data": [
      {
        "text": "traffic",
        "meta": "@sys.ignore",
        "userDefined": true
      },
      {
        "text": " report",
        "userDefined": false
      }
    ],
    "isTemplate": false,
    "count": 0,
    "updated": 0
  },
  {
    "id": "53602c7c-4872-4dd1-ab13-5efebb5dc03c",
    "data": [
      {
        "text": "are there any ",
        "userDefined": false
      },
      {
        "text": "road works",
        "alias": "event",
        "meta": "@traffic-event",
        "userDefined": true
      },
      {
        "text": " nearby",
        "userDefined": false
      }
    ],
    "isTemplate": false,
    "count": 0,
    "updated": 0
  },
  {
    "id": "1f19a60c-383e-4fbb-a5b3-f6b67dece83f",
    "data": [
      {
        "text": "are",
        "meta": "@sys.ignore",
        "userDefined": true
      },
      {
        "text": " there any ",
        "userDefined": false
      },
      {
        "text": "accidents",
        "alias": "event",
        "meta": "@traffic-event",
        "userDefined": true
      },
      {
        "text": " nearby",
        "userDefined": false
      }
    ],
    "isTemplate": false,
    "count": 0,
    "updated": 0
  },
  {
    "id": "96a59b32-be36-4b69-be56-4432e37d4640",
    "data": [
      {
        "text": "how is the traffic today",
        "userDefined": false
      }
    ],
    "isTemplate": false,
    "count": 0,
    "updated": 0
  },
  {
    "id": "0bff5697-1882-45cb-ac64-443c5d33c866",
    "data": [
      {
        "text": "are",
        "meta": "@sys.ignore",
        "userDefined": true
      },
      {
        "text": " there ",
        "userDefined": false
      },
      {
        "text": "speed cameras",
        "alias": "event",
        "meta": "@traffic-event",
        "userDefined": true
      },
      {
        "text": " near ",
        "userDefined": false
      },
      {
        "text": "Munich",
        "alias": "address",
        "meta": "@sys.location",
        "userDefined": true
      }
    ],
    "isTemplate": false,
    "count": 0,
    "updated": 0
  },
  {
    "id": "49a4f2af-26d7-4763-8567-e52e148e9c62",
    "data": [
      {
        "text": "what\u0027s ",
        "userDefined": false
      },
      {
        "text": "I-95",
        "alias": "address",
        "meta": "@sys.location",
        "userDefined": true
      },
      {
        "text": " looking like right now",
        "userDefined": false
      }
    ],
    "isTemplate": false,
    "count": 0,
    "updated": 0
  },
  {
    "id": "afbffe35-9f08-48c3-a2b0-1e1d1b272cac",
    "data": [
      {
        "text": "what\u0027s the ",
        "userDefined": false
      },
      {
        "text": "traffic",
        "meta": "@sys.ignore",
        "userDefined": true
      },
      {
        "text": " now in ",
        "userDefined": false
      },
      {
        "text": "London",
        "alias": "address",
        "meta": "@sys.location",
        "userDefined": true
      }
    ],
    "isTemplate": false,
    "count": 0,
    "updated": 0
  },
  {
    "id": "b413725c-bb93-45b5-a114-958d1cae1c7e",
    "data": [
      {
        "text": "how\u0027s the ",
        "userDefined": false
      },
      {
        "text": "traffic",
        "meta": "@sys.ignore",
        "userDefined": true
      },
      {
        "text": " on the ",
        "userDefined": false
      },
      {
        "text": "I-205",
        "alias": "address",
        "meta": "@sys.location",
        "userDefined": true
      }
    ],
    "isTemplate": false,
    "count": 1,
    "updated": 0
  },
  {
    "id": "d14f3e9b-d297-4d9d-8ac0-b1425a7d7f46",
    "data": [
      {
        "text": "give",
        "meta": "@sys.ignore",
        "userDefined": true
      },
      {
        "text": " me a ",
        "userDefined": false
      },
      {
        "text": "traffic",
        "meta": "@sys.ignore",
        "userDefined": true
      },
      {
        "text": " report for ",
        "userDefined": false
      },
      {
        "text": "Manhattan",
        "alias": "address",
        "meta": "@sys.location",
        "userDefined": true
      }
    ],
    "isTemplate": false,
    "count": 0,
    "updated": 0
  }
]