[
  {
    "id": "0694c95c-e75f-4475-b416-98086aff5dd2",
    "data": [
      {
        "text": "keep the door opened",
        "userDefined": false
      }
    ],
    "isTemplate": false,
    "count": 0,
    "updated": 0
  },
  {
    "id": "64ad34e2-1434-45ed-b9b7-874d71599bad",
    "data": [
      {
        "text": "not in Berlin",
        "userDefined": false
      }
    ],
    "isTemplate": false,
    "count": 0,
    "updated": 0
  },
  {
    "id": "e4ff5156-c355-4809-87da-d0d3034b6802",
    "data": [
      {
        "text": "I would like to have a vacation",
        "userDefined": false
      }
    ],
    "isTemplate": false,
    "count": 0,
    "updated": 0
  },
  {
    "id": "1e6238c5-d86e-4ce8-a834-ca459cf6c7d6",
    "data": [
      {
        "text": "I don\u0027t want to get drunk",
        "userDefined": false
      }
    ],
    "isTemplate": false,
    "count": 0,
    "updated": 0
  },
  {
    "id": "11684f4d-f390-4e0b-819d-f8e248364154",
    "data": [
      {
        "text": "can you find cinema in the area",
        "userDefined": false
      }
    ],
    "isTemplate": false,
    "count": 0,
    "updated": 0
  },
  {
    "id": "a1aa1da0-3a78-4d26-ae49-b29e0df0d8f4",
    "data": [
      {
        "text": "I don\u0027t want to drink coffee",
        "userDefined": false
      }
    ],
    "isTemplate": false,
    "count": 0,
    "updated": 0
  },
  {
    "id": "6a13051d-afae-4f26-97a6-546af06a25ef",
    "data": [
      {
        "text": "where can I find Mexican hats",
        "userDefined": false
      }
    ],
    "isTemplate": false,
    "count": 0,
    "updated": 0
  }
]