[
  {
    "id": "1d4405f5-4d67-40d2-b5fc-b22f0504eaae",
    "data": [
      {
        "text": "bar",
        "alias": "venue-type",
        "meta": "@venue-nightlife-type",
        "userDefined": false
      }
    ],
    "isTemplate": false,
    "count": 0,
    "updated": 0
  },
  {
    "id": "9328686f-f033-4eb3-8d21-e827e0f8c074",
    "data": [
      {
        "text": "gay bar",
        "alias": "venue-type",
        "meta": "@venue-nightlife-type",
        "userDefined": false
      }
    ],
    "isTemplate": false,
    "count": 0,
    "updated": 0
  },
  {
    "id": "7f4bd38a-8134-4e88-b5e2-c38dca60f67f",
    "data": [
      {
        "text": "search for a ",
        "userDefined": false
      },
      {
        "text": "night club",
        "alias": "venue-type",
        "meta": "@venue-nightlife-type",
        "userDefined": false
      },
      {
        "text": " now",
        "userDefined": false
      }
    ],
    "isTemplate": false,
    "count": 0,
    "updated": 0
  },
  {
    "id": "5de57f65-d4b1-4bea-846f-3d6e30d45a69",
    "data": [
      {
        "text": "I also need a ",
        "userDefined": false
      },
      {
        "text": "wine bar",
        "alias": "venue-type",
        "meta": "@venue-nightlife-type",
        "userDefined": false
      }
    ],
    "isTemplate": false,
    "count": 0,
    "updated": 0
  },
  {
    "id": "0418686c-8d7b-459f-b947-414fbe453877",
    "data": [
      {
        "text": "and a ",
        "userDefined": false
      },
      {
        "text": "bar",
        "alias": "venue-type",
        "meta": "@venue-nightlife-type",
        "userDefined": false
      }
    ],
    "isTemplate": false,
    "count": 0,
    "updated": 0
  },
  {
    "id": "7e292e8d-5249-4be8-b0b6-7de24e0b2c15",
    "data": [
      {
        "text": "now a ",
        "userDefined": false
      },
      {
        "text": "pub",
        "alias": "venue-type",
        "meta": "@venue-nightlife-type",
        "userDefined": false
      }
    ],
    "isTemplate": false,
    "count": 0,
    "updated": 0
  },
  {
    "id": "0b156be5-f9f9-448a-ae54-19e4db1e21e9",
    "data": [
      {
        "text": "what about a ",
        "userDefined": false
      },
      {
        "text": "strip club",
        "alias": "venue-type",
        "meta": "@venue-nightlife-type",
        "userDefined": false
      }
    ],
    "isTemplate": false,
    "count": 0,
    "updated": 0
  },
  {
    "id": "e55bf175-581b-4b7f-97dd-cdcbe550d278",
    "data": [
      {
        "text": "how about a ",
        "userDefined": false
      },
      {
        "text": "bar",
        "alias": "venue-type",
        "meta": "@venue-nightlife-type",
        "userDefined": false
      }
    ],
    "isTemplate": false,
    "count": 0,
    "updated": 0
  }
]