{
  "description": "With your app, this agent allows users to manage their apps and app settings. This is ideal for hand-free situations and can help when your app has a more complex UI. Instead of tapping around for what they need, users can just ask.",
  "language": "en",
  "shortDescription": "Manage your applications, user controlled settings, and preferences",
  "examples": "User: Could you launch Spotify please?\nUser: I want to download Vine from the Play Store.\nUser: Update all my apps.\nUser: Search for a new music player app.\nUser: Open Notifications settings.\nUser: What can this app do?\nUser: Clear history.\nUser: Can you show me your voice settings?",
  "linkToDocs": "",
  "disableInteractionLogs": false,
  "disableStackdriverLogs": true,
  "googleAssistant": {
    "googleAssistantCompatible": false,
    "project": "",
    "welcomeIntentSignInRequired": false,
    "startIntents": [],
    "systemIntents": [],
    "endIntentIds": [],
    "oAuthLinking": {
      "required": false,
      "providerId": "",
      "authorizationUrl": "",
      "tokenUrl": "",
      "scopes": "",
      "privacyPolicyUrl": "",
      "grantType": "AUTH_CODE_GRANT"
    },
    "voiceType": "MALE_1",
    "capabilities": [],
    "env": "",
    "protocolVersion": "V1",
    "autoPreviewEnabled": false,
    "isDeviceAgent": false
  },
  "defaultTimezone": "America/New_York",
  "webhook": {
    "url": "",
    "username": "",
    "headers": {},
    "available": false,
    "useForDomains": false,
    "cloudFunctionsEnabled": false,
    "cloudFunctionsInitialized": false
  },
  "isPrivate": false,
  "customClassifierMode": "use.instead",
  "mlMinConfidence": 0.3,
  "supportedLanguages": [],
  "onePlatformApiVersion": "v2",
  "analyzeQueryTextSentiment": false,
  "enabledKnowledgeBaseNames": [],
  "knowledgeServiceConfidenceAdjustment": -0.4,
  "dialogBuilderMode": false,
  "baseActionPackagesUrl": ""
}