{
  "id": "8c23597e-2648-483b-bbcc-ef9f8d8f8a55",
  "parentId": "09cef83a-4959-4edf-ac83-0bc9825ee19c",
  "rootParentId": "09cef83a-4959-4edf-ac83-0bc9825ee19c",
  "name": "reminders.get - back",
  "auto": true,
  "contexts": [
    "reminders",
    "remindersget-followup"
  ],
  "responses": [
    {
      "resetContexts": false,
      "action": "reminders.get.back",
      "affectedContexts": [],
      "parameters": [],
      "messages": [
        {
          "type": 0,
          "lang": "en",
          "condition": "",
          "speech": []
        }
      ],
      "defaultResponsePlatforms": {},
      "speech": []
    }
  ],
  "priority": 500000,
  "webhookUsed": false,
  "webhookForSlotFilling": false,
  "fallbackIntent": false,
  "events": [],
  "conditionalResponses": [],
  "condition": "",
  "conditionalFollowupEvents": []
}