{
  "description": "Let your users ask for translations when travelling in a foreign land. Users can quickly switch between the many supported languages, to ensure they have the phrase they need when they need it.",
  "language": "en",
  "shortDescription": "Translate phrases to and from languages",
  "examples": "User: Translate \"I love you\" into French.\nUser: How do you say \"Santa Claus\" in Finnish?\nUser: What\u0027s the German word for \"breakfast\"?",
  "linkToDocs": "",
  "disableInteractionLogs": false,
  "disableStackdriverLogs": true,
  "googleAssistant": {
    "googleAssistantCompatible": false,
    "project": "",
    "welcomeIntentSignInRequired": false,
    "startIntents": [],
    "systemIntents": [],
    "endIntentIds": [],
    "oAuthLinking": {
      "required": false,
      "providerId": "",
      "authorizationUrl": "",
      "tokenUrl": "",
      "scopes": "",
      "privacyPolicyUrl": "",
      "grantType": "AUTH_CODE_GRANT"
    },
    "voiceType": "MALE_1",
    "capabilities": [],
    "env": "",
    "protocolVersion": "V1",
    "autoPreviewEnabled": false,
    "isDeviceAgent": false
  },
  "defaultTimezone": "America/New_York",
  "webhook": {
    "url": "",
    "username": "",
    "headers": {
      "": ""
    },
    "available": false,
    "useForDomains": false,
    "cloudFunctionsEnabled": false,
    "cloudFunctionsInitialized": false
  },
  "isPrivate": false,
  "customClassifierMode": "use.after",
  "mlMinConfidence": 0.3,
  "supportedLanguages": [
    "pt-br",
    "de",
    "es",
    "fr",
    "zh-hk",
    "it",
    "pt",
    "ru",
    "zh-tw",
    "zh-cn",
    "ja"
  ],
  "onePlatformApiVersion": "v2",
  "analyzeQueryTextSentiment": false,
  "enabledKnowledgeBaseNames": [],
  "knowledgeServiceConfidenceAdjustment": -0.4,
  "dialogBuilderMode": false,
  "baseActionPackagesUrl": ""
}