{
  "id": "856382d2-d1a6-4309-aba3-bab311430e3d",
  "name": "date.get - context:date-get",
  "auto": true,
  "contexts": [
    "date-get"
  ],
  "responses": [
    {
      "resetContexts": false,
      "action": "date.get",
      "affectedContexts": [],
      "parameters": [
        {
          "id": "ad4c54e7-e639-4ddb-bb49-323eabccaa05",
          "required": false,
          "dataType": "@sys.date",
          "name": "date",
          "value": "$date",
          "promptMessages": [],
          "noMatchPromptMessages": [],
          "noInputPromptMessages": [],
          "outputDialogContexts": [],
          "isList": false
        },
        {
          "id": "97da2911-fc0c-4fb9-84ba-1e8edf4caf21",
          "required": false,
          "dataType": "@dayofweek",
          "name": "dayofweek",
          "value": "$dayofweek",
          "promptMessages": [],
          "noMatchPromptMessages": [],
          "noInputPromptMessages": [],
          "outputDialogContexts": [],
          "isList": false
        }
      ],
      "messages": [
        {
          "type": 0,
          "lang": "en",
          "condition": "",
          "speech": []
        }
      ],
      "defaultResponsePlatforms": {},
      "speech": []
    }
  ],
  "priority": 500000,
  "webhookUsed": false,
  "webhookForSlotFilling": false,
  "fallbackIntent": false,
  "events": [],
  "conditionalResponses": [],
  "condition": "",
  "conditionalFollowupEvents": []
}