{
  "id": "0734d2aa-fe9f-4967-ba23-2fb7b2bc4637",
  "name": "date.holiday",
  "auto": true,
  "contexts": [],
  "responses": [
    {
      "resetContexts": false,
      "action": "date.holiday",
      "affectedContexts": [],
      "parameters": [
        {
          "id": "716b84ef-cb4b-4539-962e-cb1343da7127",
          "required": false,
          "dataType": "@holiday",
          "name": "holiday",
          "value": "$holiday",
          "promptMessages": [],
          "noMatchPromptMessages": [],
          "noInputPromptMessages": [],
          "outputDialogContexts": [],
          "isList": false
        },
        {
          "id": "9e39a524-1073-4aa5-ae0e-52b71c67beb1",
          "required": false,
          "dataType": "@sys.date-time",
          "name": "date",
          "value": "$date",
          "promptMessages": [],
          "noMatchPromptMessages": [],
          "noInputPromptMessages": [],
          "outputDialogContexts": [],
          "isList": false
        }
      ],
      "messages": [
        {
          "type": 0,
          "lang": "en",
          "condition": "",
          "speech": []
        }
      ],
      "defaultResponsePlatforms": {},
      "speech": []
    }
  ],
  "priority": 500000,
  "webhookUsed": false,
  "webhookForSlotFilling": false,
  "fallbackIntent": false,
  "events": [],
  "conditionalResponses": [],
  "condition": "",
  "conditionalFollowupEvents": []
}