{
  "id": "d2296efa-2dc5-4982-9955-8d3da58f3292",
  "name": "date.holiday.between",
  "auto": true,
  "contexts": [],
  "responses": [
    {
      "resetContexts": false,
      "action": "date.holiday.between",
      "affectedContexts": [],
      "parameters": [
        {
          "id": "cbbfe086-d6d0-41b2-8c8f-3a2e00a57994",
          "required": false,
          "dataType": "@holiday",
          "name": "holiday-1",
          "value": "$holiday-1",
          "promptMessages": [],
          "noMatchPromptMessages": [],
          "noInputPromptMessages": [],
          "outputDialogContexts": [],
          "isList": false
        },
        {
          "id": "0b969089-b3d8-44b0-988f-aac678cc6887",
          "required": false,
          "dataType": "@holiday",
          "name": "holiday-2",
          "value": "$holiday-2",
          "promptMessages": [],
          "noMatchPromptMessages": [],
          "noInputPromptMessages": [],
          "outputDialogContexts": [],
          "isList": false
        },
        {
          "id": "e5d87d9e-ed58-419a-8efd-1cf36ea59847",
          "required": false,
          "dataType": "@unit-time",
          "name": "unit",
          "value": "$unit",
          "promptMessages": [],
          "noMatchPromptMessages": [],
          "noInputPromptMessages": [],
          "outputDialogContexts": [],
          "isList": false
        }
      ],
      "messages": [
        {
          "type": 0,
          "lang": "en",
          "condition": "",
          "speech": []
        }
      ],
      "defaultResponsePlatforms": {},
      "speech": []
    }
  ],
  "priority": 500000,
  "webhookUsed": false,
  "webhookForSlotFilling": false,
  "fallbackIntent": false,
  "events": [],
  "conditionalResponses": [],
  "condition": "",
  "conditionalFollowupEvents": []
}