{
  "id": "844d9a64-77e9-4ab3-b36f-a5298bd43e1f",
  "name": "Default Welcome Intent",
  "auto": true,
  "contexts": [],
  "responses": [
    {
      "resetContexts": false,
      "action": "input.welcome",
      "affectedContexts": [],
      "parameters": [],
      "messages": [
        {
          "type": 0,
          "lang": "en",
          "condition": "",
          "speech": [
            "Hello! How can I help you?",
            "Greetings! How can I help you?"
          ]
        }
      ],
      "defaultResponsePlatforms": {},
      "speech": []
    }
  ],
  "priority": 500000,
  "webhookUsed": false,
  "webhookForSlotFilling": false,
  "fallbackIntent": false,
  "events": [
    {
      "name": "WELCOME"
    }
  ],
  "conditionalResponses": [],
  "condition": "",
  "conditionalFollowupEvents": []
}