[
  {
    "id": "ec72305a-38e4-4b34-a3d6-87ecd7118a7d",
    "data": [
      {
        "text": "I\u0027m looking for a gift",
        "userDefined": false
      }
    ],
    "isTemplate": false,
    "count": 0,
    "updated": 0
  },
  {
    "id": "f02eacf5-ca79-4633-9aeb-fc0564cc21a0",
    "data": [
      {
        "text": "are there any gift cards available",
        "userDefined": false
      }
    ],
    "isTemplate": false,
    "count": 0,
    "updated": 0
  },
  {
    "id": "ba4d0a5a-4460-45a2-bf4c-f0a57b1372de",
    "data": [
      {
        "text": "I\u0027m interested in buying gift cards",
        "userDefined": false
      }
    ],
    "isTemplate": false,
    "count": 0,
    "updated": 0
  },
  {
    "id": "7d11ae2e-f82d-49a4-a1ad-0078b390a6c7",
    "data": [
      {
        "text": "do you have gift cards",
        "userDefined": false
      }
    ],
    "isTemplate": false,
    "count": 0,
    "updated": 0
  },
  {
    "id": "867118e1-f00d-4fa1-8a62-112be9d35beb",
    "data": [
      {
        "text": "I want to order a gift card for my friends birthday",
        "userDefined": false
      }
    ],
    "isTemplate": false,
    "count": 0,
    "updated": 0
  },
  {
    "id": "fd9d5207-5840-4582-9b28-1dd44ed50cb8",
    "data": [
      {
        "text": "can you give me gift cards",
        "userDefined": false
      }
    ],
    "isTemplate": false,
    "count": 0,
    "updated": 0
  },
  {
    "id": "247c01b9-0023-43e3-bb82-aca69d6d226f",
    "data": [
      {
        "text": "gift card",
        "userDefined": false
      }
    ],
    "isTemplate": false,
    "count": 0,
    "updated": 0
  }
]