[
  {
    "id": "2782dfbf-60ef-4a31-920c-73c11b71caf8",
    "data": [
      {
        "text": "100",
        "meta": "@sys.ignore",
        "userDefined": false
      }
    ],
    "isTemplate": false,
    "count": 0,
    "updated": 0
  },
  {
    "id": "875ca80b-b618-4e96-a17b-6f9d46fe673b",
    "data": [
      {
        "text": "$100",
        "meta": "@sys.ignore",
        "userDefined": false
      }
    ],
    "isTemplate": false,
    "count": 0,
    "updated": 0
  },
  {
    "id": "2adb78b0-a030-4814-bc8d-6034f48eaf2d",
    "data": [
      {
        "text": "hundred",
        "meta": "@sys.ignore",
        "userDefined": false
      }
    ],
    "isTemplate": false,
    "count": 0,
    "updated": 0
  },
  {
    "id": "ccd4e992-a94b-4e1f-ba69-7358fd2a1138",
    "data": [
      {
        "text": "second one",
        "meta": "@sys.ignore",
        "userDefined": false
      }
    ],
    "isTemplate": false,
    "count": 0,
    "updated": 0
  },
  {
    "id": "c5da11c5-3150-47e9-87da-2873f31cae74",
    "data": [
      {
        "text": "how about the ",
        "userDefined": false
      },
      {
        "text": "second",
        "meta": "@sys.ignore",
        "userDefined": false
      },
      {
        "text": " option",
        "userDefined": false
      }
    ],
    "isTemplate": false,
    "count": 0,
    "updated": 0
  }
]