[
  {
    "id": "7292c99f-86f8-4279-8251-187b4bf85ee8",
    "data": [
      {
        "text": "fifty",
        "meta": "@sys.ignore",
        "userDefined": false
      }
    ],
    "isTemplate": false,
    "count": 0,
    "updated": 0
  },
  {
    "id": "651d3e53-b0f8-46fb-a021-b22e17d450b5",
    "data": [
      {
        "text": "the cheapest option",
        "userDefined": false
      }
    ],
    "isTemplate": false,
    "count": 0,
    "updated": 0
  },
  {
    "id": "81b84b73-7b21-475a-aa62-1f6695d96ced",
    "data": [
      {
        "text": "$50",
        "meta": "@sys.ignore",
        "userDefined": false
      }
    ],
    "isTemplate": false,
    "count": 0,
    "updated": 0
  },
  {
    "id": "ce139dd6-75c0-4846-bc21-eb4646e165e0",
    "data": [
      {
        "text": "the ",
        "userDefined": false
      },
      {
        "text": "first one",
        "meta": "@sys.ignore",
        "userDefined": false
      }
    ],
    "isTemplate": false,
    "count": 0,
    "updated": 0
  },
  {
    "id": "3235da2d-f3f6-43ec-8e33-031c400ec776",
    "data": [
      {
        "text": "50",
        "meta": "@sys.ignore",
        "userDefined": false
      }
    ],
    "isTemplate": false,
    "count": 0,
    "updated": 0
  }
]