{
  "id": "2afb7396-ec1a-4295-ae04-a2020f3a68ad",
  "parentId": "cc793086-dc9f-4d0d-acf7-bb6400660673",
  "rootParentId": "cc793086-dc9f-4d0d-acf7-bb6400660673",
  "name": "gift_card - $200",
  "auto": true,
  "contexts": [
    "gift_card-followup"
  ],
  "responses": [
    {
      "resetContexts": false,
      "action": "gift_card.200",
      "affectedContexts": [],
      "parameters": [],
      "messages": [
        {
          "type": 0,
          "lang": "en",
          "condition": "",
          "speech": "I\u0027ve put it into your cart."
        }
      ],
      "defaultResponsePlatforms": {},
      "speech": []
    }
  ],
  "priority": 500000,
  "webhookUsed": false,
  "webhookForSlotFilling": false,
  "fallbackIntent": false,
  "events": [],
  "conditionalResponses": [],
  "condition": "",
  "conditionalFollowupEvents": []
}