{
  "id": "a41591ea-f65a-4179-8593-a93dc83fad1e",
  "name": "item.remove",
  "auto": true,
  "contexts": [],
  "responses": [
    {
      "resetContexts": false,
      "action": "item.remove",
      "affectedContexts": [],
      "parameters": [
        {
          "id": "b458e6e5-1e1f-4245-be84-051337ee9f87",
          "required": false,
          "dataType": "@product",
          "name": "product",
          "value": "$product",
          "promptMessages": [],
          "noMatchPromptMessages": [],
          "noInputPromptMessages": [],
          "outputDialogContexts": [],
          "isList": false
        }
      ],
      "messages": [
        {
          "type": 0,
          "lang": "en",
          "condition": "",
          "speech": "Removed."
        }
      ],
      "defaultResponsePlatforms": {},
      "speech": []
    }
  ],
  "priority": 500000,
  "webhookUsed": false,
  "webhookForSlotFilling": false,
  "fallbackIntent": false,
  "events": [],
  "conditionalResponses": [],
  "condition": "",
  "conditionalFollowupEvents": []
}