[
  {
    "id": "36fcc485-e434-4d3b-9f52-ebef369edc9c",
    "data": [
      {
        "text": "I changed my mind about the order",
        "userDefined": false
      }
    ],
    "isTemplate": false,
    "count": 0,
    "updated": 0
  },
  {
    "id": "1d270d9d-5a2e-46a6-a5b9-6633ab49db18",
    "data": [
      {
        "text": "how to cancel my order",
        "userDefined": false
      }
    ],
    "isTemplate": false,
    "count": 0,
    "updated": 0
  },
  {
    "id": "989242ab-1ce5-409d-9e70-4c2e1fe71de7",
    "data": [
      {
        "text": "I no longer need this order",
        "userDefined": false
      }
    ],
    "isTemplate": false,
    "count": 0,
    "updated": 0
  },
  {
    "id": "8bb6a7a9-588d-494a-b4bc-b0ff33ffcf4d",
    "data": [
      {
        "text": "I want to cancel my order",
        "userDefined": false
      }
    ],
    "isTemplate": false,
    "count": 0,
    "updated": 0
  },
  {
    "id": "87f0b1f9-82c8-4ef8-a80f-03099e3374bc",
    "data": [
      {
        "text": "delete my order",
        "userDefined": false
      }
    ],
    "isTemplate": false,
    "count": 0,
    "updated": 0
  },
  {
    "id": "41b0ade9-3372-42a4-97c1-dadfa96725c0",
    "data": [
      {
        "text": "I don\u0027t want this order anymore",
        "userDefined": false
      }
    ],
    "isTemplate": false,
    "count": 0,
    "updated": 0
  },
  {
    "id": "8499c7f7-fb0d-41a9-a638-e1c368d14f5a",
    "data": [
      {
        "text": "remove the order",
        "userDefined": false
      }
    ],
    "isTemplate": false,
    "count": 0,
    "updated": 0
  }
]