[
  {
    "id": "86f7acd6-10f5-478f-b613-3b6c92e079e2",
    "data": [
      {
        "text": "put the ",
        "userDefined": false
      },
      {
        "text": "T-Shirt",
        "alias": "product",
        "meta": "@product",
        "userDefined": false
      },
      {
        "text": " to my cart",
        "userDefined": false
      }
    ],
    "isTemplate": false,
    "count": 0,
    "updated": 0
  },
  {
    "id": "049c939d-e020-4773-a27b-ca8e337d9c19",
    "data": [
      {
        "text": "I\u0027m looking for a ",
        "userDefined": false
      },
      {
        "text": "laptop",
        "alias": "product",
        "meta": "@product",
        "userDefined": false
      }
    ],
    "isTemplate": false,
    "count": 0,
    "updated": 0
  },
  {
    "id": "8287026b-7ed7-4729-8176-2809c6539c2a",
    "data": [
      {
        "text": "add the ",
        "userDefined": false
      },
      {
        "text": "hat",
        "alias": "product",
        "meta": "@product",
        "userDefined": false
      },
      {
        "text": " to my busket",
        "userDefined": false
      }
    ],
    "isTemplate": false,
    "count": 0,
    "updated": 0
  },
  {
    "id": "5b94a5f2-8432-4fad-8938-a4b91060e3a1",
    "data": [
      {
        "text": "I want to buy ",
        "userDefined": false
      },
      {
        "text": "glasses",
        "alias": "product",
        "meta": "@product",
        "userDefined": true
      }
    ],
    "isTemplate": false,
    "count": 0,
    "updated": 0
  },
  {
    "id": "7d6294d1-7808-4ee7-a5bf-ea49f088f91c",
    "data": [
      {
        "text": "I want to buy something",
        "userDefined": false
      }
    ],
    "isTemplate": false,
    "count": 0,
    "updated": 0
  },
  {
    "id": "ae08c00e-14b8-434e-bae5-7e4f77db2c46",
    "data": [
      {
        "text": "I need new ",
        "userDefined": false
      },
      {
        "text": "shoes",
        "alias": "product",
        "meta": "@product",
        "userDefined": true
      }
    ],
    "isTemplate": false,
    "count": 0,
    "updated": 0
  }
]