{
  "id": "2bac6a1b-d836-4dd8-85d5-3712016b18e8",
  "name": "car-seat",
  "isOverridable": true,
  "isEnum": false,
  "isRegexp": false,
  "automatedExpansion": false,
  "allowFuzzyExtraction": false
}