[
  {
    "value": "down",
    "synonyms": [
      "down"
    ]
  },
  {
    "value": "left",
    "synonyms": [
      "left"
    ]
  },
  {
    "value": "right",
    "synonyms": [
      "right"
    ]
  },
  {
    "value": "towards user",
    "synonyms": [
      "towards me",
      "towards user"
    ]
  },
  {
    "value": "up",
    "synonyms": [
      "up"
    ]
  },
  {
    "value": "upright",
    "synonyms": [
      "upright"
    ]
  }
]