{
  "id": "07c17da1-e757-4137-873e-dbbec67765d6",
  "name": "app-store-name",
  "isOverridable": true,
  "isEnum": false,
  "isRegexp": false,
  "automatedExpansion": false,
  "allowFuzzyExtraction": false
}