{
  "id": "c2a2dcc6-bff9-42f9-8756-61e22aff250b",
  "name": "car - context:schedule - comment:schedule previous action",
  "auto": true,
  "contexts": [
    "schedule"
  ],
  "responses": [
    {
      "resetContexts": false,
      "action": "#schedule.intent_action",
      "affectedContexts": [],
      "parameters": [
        {
          "id": "c377fb55-7f6a-410f-b35c-9fbf006c12ab",
          "required": false,
          "dataType": "@recurrence",
          "name": "recurrence",
          "value": "$recurrence",
          "promptMessages": [],
          "noMatchPromptMessages": [],
          "noInputPromptMessages": [],
          "outputDialogContexts": [],
          "isList": false
        },
        {
          "id": "0b007fa4-32a1-4085-bf3e-9878a9391b24",
          "required": false,
          "dataType": "@sys.date-time",
          "name": "date-time",
          "value": "$date-time",
          "promptMessages": [],
          "noMatchPromptMessages": [],
          "noInputPromptMessages": [],
          "outputDialogContexts": [],
          "isList": false
        }
      ],
      "messages": [
        {
          "type": 0,
          "lang": "en",
          "condition": "",
          "speech": []
        }
      ],
      "defaultResponsePlatforms": {},
      "speech": []
    }
  ],
  "priority": 500000,
  "webhookUsed": false,
  "webhookForSlotFilling": false,
  "fallbackIntent": false,
  "events": [],
  "conditionalResponses": [],
  "condition": "",
  "conditionalFollowupEvents": []
}