{
  "id": "4bf8f8ae-701e-4563-a8b5-ba00651166d1",
  "name": "car.lights.switch.check",
  "auto": true,
  "contexts": [],
  "responses": [
    {
      "resetContexts": false,
      "action": "car.lights.switch.check",
      "affectedContexts": [],
      "parameters": [
        {
          "id": "947ff802-5d36-435f-8558-ff7d40f0c058",
          "required": false,
          "dataType": "@car-light",
          "name": "car-part",
          "value": "$car-part",
          "promptMessages": [],
          "noMatchPromptMessages": [],
          "noInputPromptMessages": [],
          "outputDialogContexts": [],
          "isList": false
        },
        {
          "id": "119c6866-6df0-40ac-894d-4c110be4b535",
          "required": false,
          "dataType": "@sys.number",
          "name": "value",
          "value": "$value",
          "promptMessages": [],
          "noMatchPromptMessages": [],
          "noInputPromptMessages": [],
          "outputDialogContexts": [],
          "isList": false
        },
        {
          "id": "ea71f1ef-dbff-4939-bbe0-7974958d3273",
          "required": false,
          "dataType": "@all",
          "name": "all",
          "value": "$all",
          "promptMessages": [],
          "noMatchPromptMessages": [],
          "noInputPromptMessages": [],
          "outputDialogContexts": [],
          "isList": false
        }
      ],
      "messages": [
        {
          "type": 0,
          "lang": "en",
          "condition": "",
          "speech": []
        }
      ],
      "defaultResponsePlatforms": {},
      "speech": []
    }
  ],
  "priority": 500000,
  "webhookUsed": false,
  "webhookForSlotFilling": false,
  "fallbackIntent": false,
  "events": [],
  "conditionalResponses": [],
  "condition": "",
  "conditionalFollowupEvents": []
}