{
  "id": "4a12fa3a-cdeb-4585-b376-889dea1becbb",
  "name": "car.seat_heater.up - context:seat-heater - comment:not warm enough",
  "auto": true,
  "contexts": [
    "seat-heater"
  ],
  "responses": [
    {
      "resetContexts": false,
      "action": "car.seat_heater.up",
      "affectedContexts": [],
      "parameters": [],
      "messages": [
        {
          "type": 0,
          "lang": "en",
          "condition": "",
          "speech": []
        }
      ],
      "defaultResponsePlatforms": {},
      "speech": []
    }
  ],
  "priority": 500000,
  "webhookUsed": false,
  "webhookForSlotFilling": false,
  "fallbackIntent": false,
  "events": [],
  "conditionalResponses": [],
  "condition": "",
  "conditionalFollowupEvents": []
}