{
  "id": "373d3a79-f367-47a3-9a2c-d741c63b2e5b",
  "name": "car.seat_heater.on",
  "auto": true,
  "contexts": [],
  "responses": [
    {
      "resetContexts": false,
      "action": "car.seat_heater.on",
      "affectedContexts": [
        {
          "name": "seat-heater",
          "parameters": {},
          "lifespan": 5
        },
        {
          "name": "schedule",
          "parameters": {},
          "lifespan": 5
        }
      ],
      "parameters": [
        {
          "id": "897c55d1-77b3-4c80-845a-f28c2d21b637",
          "required": false,
          "dataType": "@car-seat",
          "name": "car-part",
          "value": "$car-part",
          "promptMessages": [],
          "noMatchPromptMessages": [],
          "noInputPromptMessages": [],
          "outputDialogContexts": [],
          "isList": false
        },
        {
          "id": "ee23db87-de93-43b9-841a-f91c5291498a",
          "required": false,
          "dataType": "@sys.given-name",
          "name": "passenger",
          "value": "$passenger",
          "promptMessages": [],
          "noMatchPromptMessages": [],
          "noInputPromptMessages": [],
          "outputDialogContexts": [],
          "isList": false
        },
        {
          "id": "c68b4c8c-8bf1-4575-aeeb-bf9148733c9e",
          "required": false,
          "dataType": "@all",
          "name": "all",
          "value": "$all",
          "promptMessages": [],
          "noMatchPromptMessages": [],
          "noInputPromptMessages": [],
          "outputDialogContexts": [],
          "isList": false
        },
        {
          "id": "f0218de6-3507-4823-a937-bf305a9af7ec",
          "required": false,
          "dataType": "@sys.number",
          "name": "temperature",
          "value": "$temperature",
          "promptMessages": [],
          "noMatchPromptMessages": [],
          "noInputPromptMessages": [],
          "outputDialogContexts": [],
          "isList": false
        }
      ],
      "messages": [
        {
          "type": 0,
          "lang": "en",
          "condition": "",
          "speech": []
        }
      ],
      "defaultResponsePlatforms": {},
      "speech": []
    }
  ],
  "priority": 500000,
  "webhookUsed": false,
  "webhookForSlotFilling": false,
  "fallbackIntent": false,
  "events": [],
  "conditionalResponses": [],
  "condition": "",
  "conditionalFollowupEvents": []
}