[
  {
    "id": "c78f9c9f-7276-4411-b16f-bd4f1ed616d9",
    "data": [
      {
        "text": "driver\u0027s seat",
        "alias": "car-part",
        "meta": "@car-part",
        "userDefined": false
      },
      {
        "text": " is too hot",
        "userDefined": false
      }
    ],
    "isTemplate": false,
    "count": 0,
    "updated": 0
  },
  {
    "id": "dc0e67a3-d140-4316-8ce4-302a849840cd",
    "data": [
      {
        "text": "my seat",
        "alias": "car-part",
        "meta": "@car-part",
        "userDefined": true
      },
      {
        "text": " is too ",
        "userDefined": false
      },
      {
        "text": "hot",
        "meta": "@sys.ignore",
        "userDefined": false
      }
    ],
    "isTemplate": false,
    "count": 0,
    "updated": 0
  },
  {
    "id": "414b1aa9-1c67-4417-bc7d-f27210b9c71b",
    "data": [
      {
        "text": "my seat",
        "alias": "car-part",
        "meta": "@car-part",
        "userDefined": true
      },
      {
        "text": " is boiling",
        "userDefined": false
      }
    ],
    "isTemplate": false,
    "count": 0,
    "updated": 0
  },
  {
    "id": "b1092f7d-a266-4ebc-9c1a-63b2426cad7a",
    "data": [
      {
        "text": "Mary\u0027s",
        "alias": "passenger",
        "meta": "@sys.given-name",
        "userDefined": true
      },
      {
        "text": " seat is too ",
        "userDefined": false
      },
      {
        "text": "hot",
        "meta": "@sys.ignore",
        "userDefined": false
      }
    ],
    "isTemplate": false,
    "count": 0,
    "updated": 0
  }
]