[
  {
    "id": "685836e8-f47e-4792-b699-803f3989086a",
    "data": [
      {
        "text": "open the ",
        "userDefined": false
      },
      {
        "text": "rooftop",
        "alias": "car-part",
        "meta": "@car-part",
        "userDefined": true
      }
    ],
    "isTemplate": false,
    "count": 0,
    "updated": 0
  },
  {
    "id": "996255b6-58f9-4395-960b-f64692fcf6c4",
    "data": [
      {
        "text": "can you open the ",
        "userDefined": false
      },
      {
        "text": "passenger door",
        "alias": "car-part",
        "meta": "@car-part",
        "userDefined": true
      },
      {
        "text": " for me please",
        "userDefined": false
      }
    ],
    "isTemplate": false,
    "count": 0,
    "updated": 0
  },
  {
    "id": "68e72f82-da1d-4ec1-aa08-91d83eef1526",
    "data": [
      {
        "text": "lower",
        "meta": "@sys.ignore",
        "userDefined": true
      },
      {
        "text": " the ",
        "userDefined": false
      },
      {
        "text": "passenger side window",
        "alias": "car-part",
        "meta": "@car-part",
        "userDefined": true
      }
    ],
    "isTemplate": false,
    "count": 0,
    "updated": 0
  },
  {
    "id": "61ed0020-7c32-4c32-bf9a-424f866af18b",
    "data": [
      {
        "text": "remove the ",
        "userDefined": false
      },
      {
        "text": "roof",
        "alias": "car-part",
        "meta": "@car-part",
        "userDefined": true
      }
    ],
    "isTemplate": false,
    "count": 0,
    "updated": 0
  },
  {
    "id": "c65ce336-8913-4c57-9c4a-2e05b5e61a30",
    "data": [
      {
        "text": "I need to open the ",
        "userDefined": false
      },
      {
        "text": "left passenger door",
        "alias": "car-part",
        "meta": "@car-part",
        "userDefined": true
      }
    ],
    "isTemplate": false,
    "count": 0,
    "updated": 0
  },
  {
    "id": "a705955d-86b3-45ea-9981-3e0ae922a97f",
    "data": [
      {
        "text": "open ",
        "userDefined": false
      },
      {
        "text": "side mirror",
        "alias": "car-part",
        "meta": "@car-part",
        "userDefined": false
      }
    ],
    "isTemplate": false,
    "count": 0,
    "updated": 0
  },
  {
    "id": "cd91f4e5-7579-4f95-85d1-38c69e4e8167",
    "data": [
      {
        "text": "open ",
        "userDefined": false
      },
      {
        "text": "every",
        "alias": "all",
        "meta": "@all",
        "userDefined": true
      },
      {
        "text": " ",
        "userDefined": false
      },
      {
        "text": "door",
        "alias": "car-part",
        "meta": "@car-part",
        "userDefined": false
      },
      {
        "text": " in the car",
        "userDefined": false
      }
    ],
    "isTemplate": false,
    "count": 0,
    "updated": 0
  },
  {
    "id": "e8e9cba0-ffef-4eda-abea-9281d9376630",
    "data": [
      {
        "text": "open",
        "meta": "@sys.ignore",
        "userDefined": false
      },
      {
        "text": " ",
        "userDefined": false
      },
      {
        "text": "left front window",
        "alias": "car-part",
        "meta": "@car-part",
        "userDefined": false
      },
      {
        "text": " of my ",
        "userDefined": false
      },
      {
        "text": "car",
        "meta": "@sys.ignore",
        "userDefined": false
      }
    ],
    "isTemplate": false,
    "count": 0,
    "updated": 0
  },
  {
    "id": "7da8f56a-ac49-4752-89ac-3cbe8447d10b",
    "data": [
      {
        "text": "open ",
        "userDefined": false
      },
      {
        "text": "my window",
        "alias": "car-part",
        "meta": "@car-part",
        "userDefined": true
      }
    ],
    "isTemplate": false,
    "count": 0,
    "updated": 0
  },
  {
    "id": "03b942e0-5fc2-459c-a7cf-4733caab6dff",
    "data": [
      {
        "text": "open the ",
        "userDefined": false
      },
      {
        "text": "sunroof",
        "alias": "car-part",
        "meta": "@car-part",
        "userDefined": true
      }
    ],
    "isTemplate": false,
    "count": 0,
    "updated": 0
  },
  {
    "id": "9ac91e6b-8cb4-433b-990e-a4f2f64cde83",
    "data": [
      {
        "text": "roll ",
        "userDefined": false
      },
      {
        "text": "my window",
        "alias": "car-part",
        "meta": "@car-part",
        "userDefined": true
      },
      {
        "text": " down",
        "userDefined": false
      }
    ],
    "isTemplate": false,
    "count": 0,
    "updated": 0
  },
  {
    "id": "d6d243a8-38f2-45a7-9fde-c8bf1b84c7fa",
    "data": [
      {
        "text": "can",
        "meta": "@sys.ignore",
        "userDefined": false
      },
      {
        "text": " ",
        "userDefined": false
      },
      {
        "text": "you",
        "meta": "@sys.ignore",
        "userDefined": false
      },
      {
        "text": " ",
        "userDefined": false
      },
      {
        "text": "open",
        "meta": "@sys.ignore",
        "userDefined": false
      },
      {
        "text": " ",
        "userDefined": false
      },
      {
        "text": "every",
        "alias": "all",
        "meta": "@all",
        "userDefined": false
      },
      {
        "text": " ",
        "userDefined": false
      },
      {
        "text": "window",
        "alias": "car-part",
        "meta": "@car-part",
        "userDefined": false
      },
      {
        "text": " in my ",
        "userDefined": false
      },
      {
        "text": "car",
        "meta": "@sys.ignore",
        "userDefined": false
      }
    ],
    "isTemplate": false,
    "count": 0,
    "updated": 0
  },
  {
    "id": "e3af563a-ac3a-4707-a6f8-2d723f164087",
    "data": [
      {
        "text": "open",
        "meta": "@sys.ignore",
        "userDefined": false
      },
      {
        "text": " both ",
        "userDefined": false
      },
      {
        "text": "front windows",
        "alias": "car-part",
        "meta": "@car-part",
        "userDefined": true
      },
      {
        "text": " in the car",
        "userDefined": false
      }
    ],
    "isTemplate": false,
    "count": 0,
    "updated": 0
  },
  {
    "id": "6119ef63-9e8f-46dd-ab7f-af5482b05d4b",
    "data": [
      {
        "text": "can you open ",
        "userDefined": false
      },
      {
        "text": "my door",
        "alias": "car-part",
        "meta": "@car-part",
        "userDefined": true
      },
      {
        "text": " please",
        "userDefined": false
      }
    ],
    "isTemplate": false,
    "count": 0,
    "updated": 0
  },
  {
    "id": "d12daf47-0c2c-4e78-94ea-14ba594e28a2",
    "data": [
      {
        "text": "open",
        "meta": "@sys.ignore",
        "userDefined": false
      },
      {
        "text": " ",
        "userDefined": false
      },
      {
        "text": "luggage compartment",
        "alias": "car-part",
        "meta": "@car-part",
        "userDefined": false
      }
    ],
    "isTemplate": false,
    "count": 0,
    "updated": 0
  },
  {
    "id": "5dbc92ea-4197-4685-9dc9-b73db418b819",
    "data": [
      {
        "text": "all of",
        "alias": "all",
        "meta": "@all",
        "userDefined": false
      },
      {
        "text": " the ",
        "userDefined": false
      },
      {
        "text": "doors",
        "alias": "car-part",
        "meta": "@car-part",
        "userDefined": false
      },
      {
        "text": " in ",
        "userDefined": false
      },
      {
        "text": "the car",
        "meta": "@sys.ignore",
        "userDefined": false
      },
      {
        "text": " should be ",
        "userDefined": false
      },
      {
        "text": "opened",
        "meta": "@sys.ignore",
        "userDefined": false
      }
    ],
    "isTemplate": false,
    "count": 0,
    "updated": 0
  },
  {
    "id": "ba78eb33-2608-491a-b7a8-e42faa6f0e90",
    "data": [
      {
        "text": "I need to open the ",
        "userDefined": false
      },
      {
        "text": "rear right passenger door",
        "alias": "car-part",
        "meta": "@car-part",
        "userDefined": true
      }
    ],
    "isTemplate": false,
    "count": 0,
    "updated": 0
  }
]