{
  "id": "63939d86-210d-48fc-b627-7034a7f4eb60",
  "name": "car.lights.brightness.down",
  "auto": true,
  "contexts": [],
  "responses": [
    {
      "resetContexts": false,
      "action": "car.lights.brightness.down",
      "affectedContexts": [
        {
          "name": "car-brightness",
          "parameters": {},
          "lifespan": 5
        }
      ],
      "parameters": [
        {
          "id": "a316804e-8003-4868-9a75-f30896cc0f02",
          "required": false,
          "dataType": "@car-light",
          "name": "car-part",
          "value": "$car-part",
          "promptMessages": [],
          "noMatchPromptMessages": [],
          "noInputPromptMessages": [],
          "outputDialogContexts": [],
          "isList": false
        },
        {
          "id": "a055f771-cf08-4ed6-a4bb-b58511ed9a7f",
          "required": false,
          "dataType": "@all",
          "name": "all",
          "value": "$all",
          "promptMessages": [],
          "noMatchPromptMessages": [],
          "noInputPromptMessages": [],
          "outputDialogContexts": [],
          "isList": false
        },
        {
          "id": "d402d451-fa37-491d-8a57-b47906d4946a",
          "required": false,
          "dataType": "@sys.given-name",
          "name": "passenger",
          "value": "$passenger",
          "promptMessages": [],
          "noMatchPromptMessages": [],
          "noInputPromptMessages": [],
          "outputDialogContexts": [],
          "isList": false
        },
        {
          "id": "ef02acc1-9545-4f7f-85cd-961c6335bae5",
          "required": false,
          "dataType": "@sys.number",
          "name": "change-value",
          "value": "$change-value",
          "promptMessages": [],
          "noMatchPromptMessages": [],
          "noInputPromptMessages": [],
          "outputDialogContexts": [],
          "isList": false
        }
      ],
      "messages": [
        {
          "type": 0,
          "lang": "en",
          "condition": "",
          "speech": []
        }
      ],
      "defaultResponsePlatforms": {},
      "speech": []
    }
  ],
  "priority": 500000,
  "webhookUsed": false,
  "webhookForSlotFilling": false,
  "fallbackIntent": false,
  "events": [],
  "conditionalResponses": [],
  "condition": "",
  "conditionalFollowupEvents": []
}