{
  "id": "8c14741d-1f92-4d02-8480-51818cd7e909",
  "name": "car.mirror.set",
  "auto": true,
  "contexts": [],
  "responses": [
    {
      "resetContexts": false,
      "action": "car.mirror.set",
      "affectedContexts": [],
      "parameters": [
        {
          "id": "b83889e8-2dfa-44f1-ae71-3a410c9b69b2",
          "required": false,
          "dataType": "@car-mirror",
          "name": "car-part",
          "value": "$car-part",
          "promptMessages": [],
          "noMatchPromptMessages": [],
          "noInputPromptMessages": [],
          "outputDialogContexts": [],
          "isList": false
        },
        {
          "id": "dcc47e02-69d1-4b5c-9a4e-57019ef5f7a4",
          "required": false,
          "dataType": "@rotation",
          "name": "rotation",
          "value": "$rotation",
          "promptMessages": [],
          "noMatchPromptMessages": [],
          "noInputPromptMessages": [],
          "outputDialogContexts": [],
          "isList": false
        }
      ],
      "messages": [
        {
          "type": 0,
          "lang": "en",
          "condition": "",
          "speech": []
        }
      ],
      "defaultResponsePlatforms": {},
      "speech": []
    }
  ],
  "priority": 500000,
  "webhookUsed": false,
  "webhookForSlotFilling": false,
  "fallbackIntent": false,
  "events": [],
  "conditionalResponses": [],
  "condition": "",
  "conditionalFollowupEvents": []
}