{
  "id": "4c55ad53-ffdf-4ac9-8794-12bb01fb73b0",
  "name": "car.locks.unlock",
  "auto": true,
  "contexts": [],
  "responses": [
    {
      "resetContexts": false,
      "action": "car.locks.unlock",
      "affectedContexts": [
        {
          "name": "car-lock-unlock",
          "parameters": {},
          "lifespan": 5
        }
      ],
      "parameters": [
        {
          "id": "01c28ddf-7786-4b0b-887b-ec6aa8445a78",
          "required": false,
          "dataType": "@car-part",
          "name": "car-part",
          "value": "$car-part",
          "promptMessages": [],
          "noMatchPromptMessages": [],
          "noInputPromptMessages": [],
          "outputDialogContexts": [],
          "isList": false
        },
        {
          "id": "255351dc-fc41-4281-87bb-d6eefcb7dbe7",
          "required": false,
          "dataType": "@all",
          "name": "all",
          "value": "$all",
          "promptMessages": [],
          "noMatchPromptMessages": [],
          "noInputPromptMessages": [],
          "outputDialogContexts": [],
          "isList": false
        }
      ],
      "messages": [
        {
          "type": 0,
          "lang": "en",
          "condition": "",
          "speech": []
        }
      ],
      "defaultResponsePlatforms": {},
      "speech": []
    }
  ],
  "priority": 500000,
  "webhookUsed": false,
  "webhookForSlotFilling": false,
  "fallbackIntent": false,
  "events": [],
  "conditionalResponses": [],
  "condition": "",
  "conditionalFollowupEvents": []
}