{
  "id": "6ef1e663-d712-423a-9b0a-8bf19564ceca",
  "name": "car.lights.switch.schedule.off",
  "auto": true,
  "contexts": [],
  "responses": [
    {
      "resetContexts": false,
      "action": "car.lights.switch.schedule.off",
      "affectedContexts": [],
      "parameters": [
        {
          "id": "414cf290-f240-4532-a8d4-6e36bd631fd6",
          "required": false,
          "dataType": "@condition",
          "name": "condition",
          "value": "$condition",
          "promptMessages": [],
          "noMatchPromptMessages": [],
          "noInputPromptMessages": [],
          "outputDialogContexts": [],
          "isList": false
        },
        {
          "id": "3bfde5d2-9be2-438d-8463-2f11dfc6331f",
          "required": false,
          "dataType": "@car-part",
          "name": "car-part",
          "value": "$car-part",
          "promptMessages": [],
          "noMatchPromptMessages": [],
          "noInputPromptMessages": [],
          "outputDialogContexts": [],
          "isList": false
        },
        {
          "id": "acafe3eb-f3eb-4bc6-85ae-d28040f6d049",
          "required": false,
          "dataType": "@sys.given-name",
          "name": "passenger",
          "value": "$passenger",
          "promptMessages": [],
          "noMatchPromptMessages": [],
          "noInputPromptMessages": [],
          "outputDialogContexts": [],
          "isList": false
        },
        {
          "id": "d8976807-e2e8-45c4-86e3-dd69e017b56e",
          "required": false,
          "dataType": "@all",
          "name": "all",
          "value": "$all",
          "promptMessages": [],
          "noMatchPromptMessages": [],
          "noInputPromptMessages": [],
          "outputDialogContexts": [],
          "isList": false
        }
      ],
      "messages": [
        {
          "type": 0,
          "lang": "en",
          "condition": "",
          "speech": []
        }
      ],
      "defaultResponsePlatforms": {},
      "speech": []
    }
  ],
  "priority": 500000,
  "webhookUsed": false,
  "webhookForSlotFilling": false,
  "fallbackIntent": false,
  "events": [],
  "conditionalResponses": [],
  "condition": "",
  "conditionalFollowupEvents": []
}