[
  {
    "id": "f6b532b3-1399-46c8-b841-945e2001b7de",
    "data": [
      {
        "text": "each",
        "alias": "all",
        "meta": "@all",
        "userDefined": true
      },
      {
        "text": " car lights status",
        "userDefined": false
      }
    ],
    "isTemplate": false,
    "count": 0,
    "updated": 0
  },
  {
    "id": "a60bdade-ae53-45da-9e24-c6a530cccbc2",
    "data": [
      {
        "text": "is the ",
        "userDefined": false
      },
      {
        "text": "fog light",
        "alias": "car-part",
        "meta": "@car-light",
        "userDefined": false
      },
      {
        "text": " set for ",
        "userDefined": false
      },
      {
        "text": "50",
        "alias": "value",
        "meta": "@sys.number",
        "userDefined": true
      },
      {
        "text": " points",
        "userDefined": false
      }
    ],
    "isTemplate": false,
    "count": 0,
    "updated": 0
  },
  {
    "id": "72f8a249-09eb-4cba-9c4e-18f0a4f27171",
    "data": [
      {
        "text": "tell the ",
        "userDefined": false
      },
      {
        "text": "fog light",
        "alias": "car-part",
        "meta": "@car-light",
        "userDefined": true
      },
      {
        "text": " status please",
        "userDefined": false
      }
    ],
    "isTemplate": false,
    "count": 0,
    "updated": 0
  },
  {
    "id": "4ef09edc-a244-4547-8929-f087ae93c2b8",
    "data": [
      {
        "text": "what is",
        "meta": "@sys.ignore",
        "userDefined": false
      },
      {
        "text": " the ",
        "userDefined": false
      },
      {
        "text": "fog light",
        "alias": "car-part",
        "meta": "@car-light",
        "userDefined": false
      },
      {
        "text": " status",
        "userDefined": false
      }
    ],
    "isTemplate": false,
    "count": 0,
    "updated": 0
  },
  {
    "id": "00448c49-6c83-4643-9e4f-3b2e98dc1275",
    "data": [
      {
        "text": "fog light",
        "alias": "car-part",
        "meta": "@car-light",
        "userDefined": false
      },
      {
        "text": " status",
        "userDefined": false
      }
    ],
    "isTemplate": false,
    "count": 0,
    "updated": 0
  },
  {
    "id": "06d561c8-4679-4bd9-9dab-10c9d0a76a94",
    "data": [
      {
        "text": "check ",
        "userDefined": false
      },
      {
        "text": "lights",
        "meta": "@sys.ignore",
        "userDefined": true
      },
      {
        "text": " in the car",
        "userDefined": false
      }
    ],
    "isTemplate": false,
    "count": 0,
    "updated": 0
  },
  {
    "id": "1569c3bf-ab7e-4ca4-9df7-f701d7b84be4",
    "data": [
      {
        "text": "check the car lights",
        "userDefined": false
      }
    ],
    "isTemplate": false,
    "count": 0,
    "updated": 0
  }
]