{
  "id": "43cfac7f-fd20-401b-aa74-e1a920d77066",
  "name": "music.download",
  "auto": true,
  "contexts": [],
  "responses": [
    {
      "resetContexts": false,
      "action": "music.download",
      "affectedContexts": [],
      "parameters": [
        {
          "id": "70bd60bd-3267-410e-8e0c-475f9981426e",
          "required": false,
          "dataType": "@song",
          "name": "song",
          "value": "$song",
          "promptMessages": [],
          "noMatchPromptMessages": [],
          "noInputPromptMessages": [],
          "outputDialogContexts": [],
          "isList": false
        },
        {
          "id": "80a9cd0d-2ecc-44cb-8ccf-ca8f5e3e3bc4",
          "required": false,
          "dataType": "@sys.music-artist",
          "name": "artist",
          "value": "$artist",
          "promptMessages": [],
          "noMatchPromptMessages": [],
          "noInputPromptMessages": [],
          "outputDialogContexts": [],
          "isList": true
        },
        {
          "id": "a55a6cb2-3ec0-4c9a-b6b7-1c4cf86bef6e",
          "required": false,
          "dataType": "@sys.music-genre",
          "name": "genre",
          "value": "$genre",
          "promptMessages": [],
          "noMatchPromptMessages": [],
          "noInputPromptMessages": [],
          "outputDialogContexts": [],
          "isList": false
        },
        {
          "id": "9ee2ff8b-0cd6-4eb2-a252-7fa58724b94d",
          "required": false,
          "dataType": "@music-service",
          "name": "service",
          "value": "$service",
          "promptMessages": [],
          "noMatchPromptMessages": [],
          "noInputPromptMessages": [],
          "outputDialogContexts": [],
          "isList": false
        },
        {
          "id": "af4743af-822b-4a98-8dcd-02dae6ebff32",
          "required": false,
          "dataType": "@music-album",
          "name": "album",
          "value": "$album",
          "promptMessages": [],
          "noMatchPromptMessages": [],
          "noInputPromptMessages": [],
          "outputDialogContexts": [],
          "isList": false
        },
        {
          "id": "5ad8b53e-20dc-4af3-914d-856f40ddfb9d",
          "required": false,
          "dataType": "@music-sort",
          "name": "sort",
          "value": "$sort",
          "promptMessages": [],
          "noMatchPromptMessages": [],
          "noInputPromptMessages": [],
          "outputDialogContexts": [],
          "isList": false
        },
        {
          "id": "d0d03899-1c1f-4608-8f37-a0dda24ce79f",
          "required": false,
          "dataType": "@sys.number",
          "name": "start-year",
          "value": "$start-year",
          "promptMessages": [],
          "noMatchPromptMessages": [],
          "noInputPromptMessages": [],
          "outputDialogContexts": [],
          "isList": false
        },
        {
          "id": "ccb22f73-cf3a-47e6-9d9b-8c7b3ae26109",
          "required": false,
          "dataType": "@sys.number",
          "name": "end-year",
          "value": "$end-year",
          "promptMessages": [],
          "noMatchPromptMessages": [],
          "noInputPromptMessages": [],
          "outputDialogContexts": [],
          "isList": false
        }
      ],
      "messages": [
        {
          "type": 0,
          "lang": "en",
          "condition": "",
          "speech": []
        }
      ],
      "defaultResponsePlatforms": {},
      "speech": []
    }
  ],
  "priority": 500000,
  "webhookUsed": false,
  "webhookForSlotFilling": false,
  "fallbackIntent": false,
  "events": [],
  "conditionalResponses": [],
  "condition": "",
  "conditionalFollowupEvents": []
}