[
  {
    "id": "7a9c6b52-fe29-4bbf-93e0-7877c12e78e0",
    "data": [
      {
        "text": "shuffle ",
        "userDefined": false
      },
      {
        "text": "Lucky Star",
        "alias": "album",
        "meta": "@music-album",
        "userDefined": true
      },
      {
        "text": " album by ",
        "userDefined": false
      },
      {
        "text": "Madonna",
        "alias": "artist",
        "meta": "@sys.music-artist",
        "userDefined": true
      },
      {
        "text": " year ",
        "userDefined": false
      },
      {
        "text": "1968",
        "alias": "year",
        "meta": "@sys.number",
        "userDefined": true
      }
    ],
    "isTemplate": false,
    "count": 0,
    "updated": 0
  },
  {
    "id": "6e8973fe-4511-4c77-b0b0-72144110730c",
    "data": [
      {
        "text": "shuffle ",
        "userDefined": false
      },
      {
        "text": "country",
        "alias": "genre",
        "meta": "@sys.music-genre",
        "userDefined": true
      },
      {
        "text": " music ",
        "userDefined": false
      },
      {
        "text": "on",
        "meta": "@sys.ignore",
        "userDefined": true
      },
      {
        "text": " my device",
        "userDefined": false
      }
    ],
    "isTemplate": false,
    "count": 0,
    "updated": 0
  },
  {
    "id": "88d58969-667b-413d-96f9-799b7002edf5",
    "data": [
      {
        "text": "shuffle ",
        "userDefined": false
      },
      {
        "text": "White Album",
        "alias": "album",
        "meta": "@music-album",
        "userDefined": true
      },
      {
        "text": " by ",
        "userDefined": false
      },
      {
        "text": "The Beatles",
        "alias": "artist",
        "meta": "@sys.music-artist",
        "userDefined": true
      }
    ],
    "isTemplate": false,
    "count": 0,
    "updated": 0
  },
  {
    "id": "d186eaa2-5224-4e5d-9fca-3fb9e97869d6",
    "data": [
      {
        "text": "could you shuffle my ",
        "userDefined": false
      },
      {
        "text": "Work",
        "alias": "playlist",
        "meta": "@playlist",
        "userDefined": true
      },
      {
        "text": " playlist",
        "userDefined": false
      }
    ],
    "isTemplate": false,
    "count": 0,
    "updated": 0
  },
  {
    "id": "4588ae5b-9fd5-4a09-a6b1-b48b740cc0e2",
    "data": [
      {
        "text": "shuffle ",
        "userDefined": false
      },
      {
        "text": "songs",
        "meta": "@sys.ignore",
        "userDefined": false
      },
      {
        "text": " from ",
        "userDefined": false
      },
      {
        "text": "the year",
        "meta": "@sys.ignore",
        "userDefined": false
      },
      {
        "text": " ",
        "userDefined": false
      },
      {
        "text": "2000",
        "alias": "year",
        "meta": "@sys.number",
        "userDefined": false
      }
    ],
    "isTemplate": false,
    "count": 0,
    "updated": 0
  },
  {
    "id": "8503e197-0641-44fe-828b-68ebf9d86cbb",
    "data": [
      {
        "text": "shuffle songs by ",
        "userDefined": false
      },
      {
        "text": "Rihanna",
        "alias": "artist",
        "meta": "@sys.music-artist",
        "userDefined": true
      },
      {
        "text": " feat ",
        "userDefined": false
      },
      {
        "text": "Eminem",
        "alias": "artist",
        "meta": "@sys.music-artist",
        "userDefined": true
      }
    ],
    "isTemplate": false,
    "count": 0,
    "updated": 0
  },
  {
    "id": "b910ce9f-bc69-4b38-9a7c-583f520eaeb7",
    "data": [
      {
        "text": "shuffle ",
        "userDefined": false
      },
      {
        "text": "Nirvana",
        "alias": "artist",
        "meta": "@sys.music-artist",
        "userDefined": true
      },
      {
        "text": "\u0027s ",
        "userDefined": false
      },
      {
        "text": "Nevermind",
        "alias": "album",
        "meta": "@music-album",
        "userDefined": true
      },
      {
        "text": " album",
        "userDefined": false
      }
    ],
    "isTemplate": false,
    "count": 0,
    "updated": 0
  },
  {
    "id": "874bfe2a-e2c5-4ddf-b0aa-affe94d87d3d",
    "data": [
      {
        "text": "shuffle the album ",
        "userDefined": false
      },
      {
        "text": "Songs about Jane",
        "alias": "album",
        "meta": "@music-album",
        "userDefined": true
      }
    ],
    "isTemplate": false,
    "count": 0,
    "updated": 0
  },
  {
    "id": "d47688cc-138d-4366-9f14-21ee5eed186f",
    "data": [
      {
        "text": "I\u0027d like you to shuffle my ",
        "userDefined": false
      },
      {
        "text": "Gym",
        "alias": "playlist",
        "meta": "@playlist",
        "userDefined": true
      },
      {
        "text": " playlist",
        "userDefined": false
      }
    ],
    "isTemplate": false,
    "count": 0,
    "updated": 0
  },
  {
    "id": "79222ebf-8468-49c4-9ff9-6610801d943b",
    "data": [
      {
        "text": "shuffle ",
        "userDefined": false
      },
      {
        "text": "Eminem",
        "alias": "artist",
        "meta": "@sys.music-artist",
        "userDefined": true
      },
      {
        "text": "\u0027s songs",
        "userDefined": false
      }
    ],
    "isTemplate": false,
    "count": 0,
    "updated": 0
  },
  {
    "id": "3fcbf2c0-695e-4792-9c1c-8f3cefd40c7f",
    "data": [
      {
        "text": "shuffle ",
        "userDefined": false
      },
      {
        "text": "Kanye West",
        "alias": "artist",
        "meta": "@sys.music-artist",
        "userDefined": true
      },
      {
        "text": "\u0027s albums",
        "userDefined": false
      }
    ],
    "isTemplate": false,
    "count": 0,
    "updated": 0
  },
  {
    "id": "ee42ea43-a408-46de-8e9c-1d4c1b90b6d6",
    "data": [
      {
        "text": "shuffle my playlist",
        "userDefined": false
      }
    ],
    "isTemplate": false,
    "count": 0,
    "updated": 0
  },
  {
    "id": "dcd27f22-fb32-467a-a4a4-23ee08298f15",
    "data": [
      {
        "text": "shuffle ",
        "userDefined": false
      },
      {
        "text": "all",
        "meta": "@sys.ignore",
        "userDefined": true
      },
      {
        "text": " my ",
        "userDefined": false
      },
      {
        "text": "jazz",
        "alias": "genre",
        "meta": "@sys.music-genre",
        "userDefined": true
      },
      {
        "text": " ",
        "userDefined": false
      },
      {
        "text": "music",
        "meta": "@sys.ignore",
        "userDefined": true
      }
    ],
    "isTemplate": false,
    "count": 0,
    "updated": 0
  },
  {
    "id": "0931ad9e-7f5a-4ba1-be21-0b3108def142",
    "data": [
      {
        "text": "can you shuffle tracks",
        "userDefined": false
      }
    ],
    "isTemplate": false,
    "count": 0,
    "updated": 0
  },
  {
    "id": "a7c0182b-a046-4d2d-8b70-8ef418e6e9e5",
    "data": [
      {
        "text": "shuffle ",
        "userDefined": false
      },
      {
        "text": "Faves",
        "alias": "playlist",
        "meta": "@playlist",
        "userDefined": true
      },
      {
        "text": " playlist",
        "userDefined": false
      }
    ],
    "isTemplate": false,
    "count": 0,
    "updated": 0
  }
]