[
  {
    "id": "92087aba-cdbe-4010-a4b0-939c3c3e839b",
    "data": [
      {
        "text": "shuffle",
        "userDefined": false
      }
    ],
    "isTemplate": false,
    "count": 0,
    "updated": 0
  },
  {
    "id": "bdce0880-8cbe-40ee-84c3-ce9d2a045ac7",
    "data": [
      {
        "text": "shuffle mode on",
        "userDefined": false
      }
    ],
    "isTemplate": false,
    "count": 0,
    "updated": 0
  },
  {
    "id": "e3f5a35e-74b5-422e-afee-9250ef5a9a9b",
    "data": [
      {
        "text": "shuffle this playlist",
        "userDefined": false
      }
    ],
    "isTemplate": false,
    "count": 0,
    "updated": 0
  },
  {
    "id": "9f569298-5c79-40d6-a291-dab43bfddaeb",
    "data": [
      {
        "text": "turn on shuffle mode",
        "userDefined": false
      }
    ],
    "isTemplate": false,
    "count": 0,
    "updated": 0
  },
  {
    "id": "7fed39c3-f18f-4ee6-a5d4-0f3933338828",
    "data": [
      {
        "text": "shuffle them",
        "userDefined": false
      }
    ],
    "isTemplate": false,
    "count": 0,
    "updated": 0
  }
]