[
  {
    "id": "732e6f05-9210-45ec-a563-7e1535d3f866",
    "data": [
      {
        "text": "ist es ",
        "userDefined": false
      },
      {
        "text": "kalt",
        "alias": "temperature",
        "meta": "@temperature",
        "userDefined": true
      },
      {
        "text": " in ",
        "userDefined": false
      },
      {
        "text": "Dresden",
        "alias": "address",
        "meta": "@sys.location",
        "userDefined": true
      }
    ],
    "isTemplate": false,
    "count": 0,
    "updated": 0
  },
  {
    "id": "290740e5-1565-4643-a528-f0b01a3978d2",
    "data": [
      {
        "text": "Temperaturen ",
        "userDefined": false
      },
      {
        "text": "in",
        "meta": "@sys.ignore",
        "userDefined": false
      },
      {
        "text": " ",
        "userDefined": false
      },
      {
        "text": "Grad Celsius",
        "alias": "unit",
        "meta": "@unit-temperature",
        "userDefined": false
      },
      {
        "text": " anzeigen",
        "userDefined": false
      }
    ],
    "isTemplate": false,
    "count": 1,
    "updated": 0
  },
  {
    "id": "737563bf-0528-4151-a095-edbc6d16b936",
    "data": [
      {
        "text": "wie ",
        "userDefined": false
      },
      {
        "text": "warm",
        "alias": "temperature",
        "meta": "@temperature",
        "userDefined": false
      },
      {
        "text": " wird es ",
        "userDefined": false
      },
      {
        "text": "morgen",
        "alias": "date-time",
        "meta": "@sys.date-time",
        "userDefined": false
      },
      {
        "text": " in ",
        "userDefined": false
      },
      {
        "text": "Wuppertal",
        "alias": "address",
        "meta": "@sys.location",
        "userDefined": false
      }
    ],
    "isTemplate": false,
    "count": 0,
    "updated": 0
  },
  {
    "id": "79d33a8b-dd98-49ff-95cf-c2f0ebf82b9c",
    "data": [
      {
        "text": "wie ",
        "userDefined": false
      },
      {
        "text": "warm",
        "alias": "temperature",
        "meta": "@temperature",
        "userDefined": false
      },
      {
        "text": " ist es ",
        "userDefined": false
      },
      {
        "text": "heute",
        "alias": "date-time",
        "meta": "@sys.date-time",
        "userDefined": false
      }
    ],
    "isTemplate": false,
    "count": 0,
    "updated": 0
  },
  {
    "id": "82f7bb5f-3e40-44a6-aaa2-c5d36c389a50",
    "data": [
      {
        "text": "wie ",
        "userDefined": false
      },
      {
        "text": "warm",
        "alias": "temperature",
        "meta": "@temperature",
        "userDefined": false
      },
      {
        "text": " ist es draußen",
        "userDefined": false
      }
    ],
    "isTemplate": false,
    "count": 1,
    "updated": 0
  },
  {
    "id": "139d8391-869b-4302-8f8e-66e179ef204e",
    "data": [
      {
        "text": "wie ",
        "userDefined": false
      },
      {
        "text": "kalt",
        "alias": "temperature",
        "meta": "@temperature",
        "userDefined": false
      },
      {
        "text": " ist es jetzt draußen",
        "userDefined": false
      }
    ],
    "isTemplate": false,
    "count": 0,
    "updated": 0
  },
  {
    "id": "628c7f6a-5a78-439f-aa1d-3bbef894b3ab",
    "data": [
      {
        "text": "ist es ",
        "userDefined": false
      },
      {
        "text": "kalt",
        "alias": "temperature",
        "meta": "@temperature",
        "userDefined": false
      },
      {
        "text": " ",
        "userDefined": false
      },
      {
        "text": "heute",
        "alias": "date-time",
        "meta": "@sys.date-time",
        "userDefined": false
      }
    ],
    "isTemplate": false,
    "count": 0,
    "updated": 0
  },
  {
    "id": "ccff96fd-b79a-498d-9227-2edd941b0cb4",
    "data": [
      {
        "text": "wie ",
        "userDefined": false
      },
      {
        "text": "warm",
        "alias": "temperature",
        "meta": "@temperature",
        "userDefined": false
      },
      {
        "text": " ist es ",
        "userDefined": false
      },
      {
        "text": "heute",
        "alias": "date-time",
        "meta": "@sys.date-time",
        "userDefined": false
      },
      {
        "text": " draußen",
        "userDefined": false
      }
    ],
    "isTemplate": false,
    "count": 0,
    "updated": 0
  },
  {
    "id": "a1546fe2-13a8-4cad-9ce4-3646d90ff0ac",
    "data": [
      {
        "text": "ist es ",
        "userDefined": false
      },
      {
        "text": "kalt",
        "alias": "temperature",
        "meta": "@temperature",
        "userDefined": false
      },
      {
        "text": " ",
        "userDefined": false
      },
      {
        "text": "heute",
        "alias": "date-time",
        "meta": "@sys.date-time",
        "userDefined": true
      },
      {
        "text": " in ",
        "userDefined": false
      },
      {
        "text": "Preetz",
        "alias": "address",
        "meta": "@sys.location",
        "userDefined": false
      }
    ],
    "isTemplate": false,
    "count": 0,
    "updated": 0
  },
  {
    "id": "deff5896-e2fe-4ddd-ab0f-74baeb052287",
    "data": [
      {
        "text": "wird es ",
        "userDefined": false
      },
      {
        "text": "morgen",
        "alias": "date-time",
        "meta": "@sys.date-time",
        "userDefined": false
      },
      {
        "text": " ",
        "userDefined": false
      },
      {
        "text": "kalt",
        "alias": "temperature",
        "meta": "@temperature",
        "userDefined": false
      }
    ],
    "isTemplate": false,
    "count": 0,
    "updated": 0
  },
  {
    "id": "2e9b2b68-23b1-4590-8a8a-f2a250772355",
    "data": [
      {
        "text": "wie ",
        "userDefined": false
      },
      {
        "text": "kalt",
        "alias": "temperature",
        "meta": "@temperature",
        "userDefined": false
      },
      {
        "text": " ist es draußen in ",
        "userDefined": false
      },
      {
        "text": "Bremerhaven",
        "alias": "address",
        "meta": "@sys.location",
        "userDefined": true
      }
    ],
    "isTemplate": false,
    "count": 1,
    "updated": 0
  },
  {
    "id": "16a18ab3-4e4b-4681-b8fe-f2199e7206d8",
    "data": [
      {
        "text": "wie ",
        "userDefined": false
      },
      {
        "text": "kalt",
        "alias": "temperature",
        "meta": "@temperature",
        "userDefined": false
      },
      {
        "text": " ist es ",
        "userDefined": false
      },
      {
        "text": "heute",
        "alias": "date-time",
        "meta": "@sys.date-time",
        "userDefined": false
      }
    ],
    "isTemplate": false,
    "count": 0,
    "updated": 0
  },
  {
    "id": "76de5e09-9075-4c3a-9a16-1c05e113ed00",
    "data": [
      {
        "text": "ist es ",
        "userDefined": false
      },
      {
        "text": "kalt",
        "alias": "temperature",
        "meta": "@temperature",
        "userDefined": false
      },
      {
        "text": " draussen",
        "userDefined": false
      }
    ],
    "isTemplate": false,
    "count": 0,
    "updated": 0
  },
  {
    "id": "4828d9c5-6950-41d6-8d38-e6c89778b0bb",
    "data": [
      {
        "text": "wie ",
        "userDefined": false
      },
      {
        "text": "kalt",
        "alias": "temperature",
        "meta": "@temperature",
        "userDefined": false
      },
      {
        "text": " ist es in ",
        "userDefined": false
      },
      {
        "text": "Kassel",
        "alias": "address",
        "meta": "@sys.location",
        "userDefined": false
      }
    ],
    "isTemplate": false,
    "count": 0,
    "updated": 0
  },
  {
    "id": "630debc6-9594-4aab-a9f2-3bf46b209bfb",
    "data": [
      {
        "text": "wie ",
        "userDefined": false
      },
      {
        "text": "kalt",
        "alias": "temperature",
        "meta": "@temperature",
        "userDefined": false
      },
      {
        "text": " wird es ",
        "userDefined": false
      },
      {
        "text": "morgen",
        "alias": "date-time",
        "meta": "@sys.date-time",
        "userDefined": false
      }
    ],
    "isTemplate": false,
    "count": 0,
    "updated": 0
  },
  {
    "id": "d4961dce-29db-4aff-86b1-d26465c7f36a",
    "data": [
      {
        "text": "wie ",
        "userDefined": false
      },
      {
        "text": "warm",
        "alias": "temperature",
        "meta": "@temperature",
        "userDefined": false
      },
      {
        "text": " wird es ",
        "userDefined": false
      },
      {
        "text": "morgen",
        "alias": "date-time",
        "meta": "@sys.date-time",
        "userDefined": false
      },
      {
        "text": " in ",
        "userDefined": false
      },
      {
        "text": "Sachsen",
        "alias": "address",
        "meta": "@sys.location",
        "userDefined": false
      }
    ],
    "isTemplate": false,
    "count": 0,
    "updated": 0
  },
  {
    "id": "37d3f495-7380-4785-9636-f4f73fcdccba",
    "data": [
      {
        "text": "ist es in ",
        "userDefined": false
      },
      {
        "text": "Dresden",
        "alias": "address",
        "meta": "@sys.location",
        "userDefined": true
      },
      {
        "text": " kalt",
        "userDefined": false
      }
    ],
    "isTemplate": false,
    "count": 0,
    "updated": 0
  },
  {
    "id": "d9603d56-9219-4807-9b2b-f9bc49e1403e",
    "data": [
      {
        "text": "wird es ",
        "userDefined": false
      },
      {
        "text": "heute",
        "alias": "date-time",
        "meta": "@sys.date-time",
        "userDefined": false
      },
      {
        "text": " ",
        "userDefined": false
      },
      {
        "text": "heiß",
        "alias": "temperature",
        "meta": "@temperature",
        "userDefined": false
      }
    ],
    "isTemplate": false,
    "count": 0,
    "updated": 0
  },
  {
    "id": "94045c6a-29f5-4f13-9136-0ed4c285ec12",
    "data": [
      {
        "text": "Temperatur in ",
        "userDefined": false
      },
      {
        "text": "Berlin",
        "alias": "address",
        "meta": "@sys.location",
        "userDefined": false
      }
    ],
    "isTemplate": false,
    "count": 0,
    "updated": 0
  },
  {
    "id": "ddc18c63-a03c-419c-9e38-b6fe79e8777c",
    "data": [
      {
        "text": "wird es ",
        "userDefined": false
      },
      {
        "text": "heute Abend",
        "alias": "date-time",
        "meta": "@sys.date-time",
        "userDefined": false
      },
      {
        "text": " ",
        "userDefined": false
      },
      {
        "text": "kalt",
        "alias": "temperature",
        "meta": "@temperature",
        "userDefined": false
      }
    ],
    "isTemplate": false,
    "count": 0,
    "updated": 0
  },
  {
    "id": "27a0b14a-70f2-4a78-83b5-5e3f5048aa76",
    "data": [
      {
        "text": "wie ",
        "userDefined": false
      },
      {
        "text": "warm",
        "alias": "temperature",
        "meta": "@temperature",
        "userDefined": false
      }
    ],
    "isTemplate": false,
    "count": 0,
    "updated": 0
  },
  {
    "id": "1fb61bb9-6c71-4c10-8853-448926442247",
    "data": [
      {
        "text": "und wird es ",
        "userDefined": false
      },
      {
        "text": "morgen",
        "alias": "date-time",
        "meta": "@sys.date-time",
        "userDefined": false
      },
      {
        "text": " ",
        "userDefined": false
      },
      {
        "text": "kalt",
        "alias": "temperature",
        "meta": "@temperature",
        "userDefined": false
      }
    ],
    "isTemplate": false,
    "count": 0,
    "updated": 0
  },
  {
    "id": "c7b9b58e-0bc1-4d2f-aa8a-5ed8a594f2ce",
    "data": [
      {
        "text": "Temperatur ",
        "userDefined": false
      },
      {
        "text": "heute",
        "alias": "date-time",
        "meta": "@sys.date-time",
        "userDefined": false
      },
      {
        "text": " ",
        "userDefined": false
      },
      {
        "text": "Deutschland",
        "alias": "address",
        "meta": "@sys.location",
        "userDefined": false
      }
    ],
    "isTemplate": false,
    "count": 0,
    "updated": 0
  },
  {
    "id": "fde1df28-6113-47c6-b879-ec26271f8a8e",
    "data": [
      {
        "text": "wie ",
        "userDefined": false
      },
      {
        "text": "kalt",
        "alias": "temperature",
        "meta": "@temperature",
        "userDefined": false
      },
      {
        "text": " ist es ",
        "userDefined": false
      },
      {
        "text": "morgen",
        "alias": "date-time",
        "meta": "@sys.date-time",
        "userDefined": false
      }
    ],
    "isTemplate": false,
    "count": 0,
    "updated": 0
  },
  {
    "id": "f010453c-5b78-4ae5-bbe4-f998aacf263b",
    "data": [
      {
        "text": "wie ",
        "userDefined": false
      },
      {
        "text": "warm",
        "alias": "temperature",
        "meta": "@temperature",
        "userDefined": false
      },
      {
        "text": " wird es in ",
        "userDefined": false
      },
      {
        "text": "Hameln",
        "alias": "address",
        "meta": "@sys.location",
        "userDefined": true
      }
    ],
    "isTemplate": false,
    "count": 0,
    "updated": 0
  },
  {
    "id": "3a16bffa-d565-4ffb-b29f-bc73fbeae8d0",
    "data": [
      {
        "text": "ist das ",
        "userDefined": false
      },
      {
        "text": "kalt",
        "alias": "temperature",
        "meta": "@temperature",
        "userDefined": false
      },
      {
        "text": " draußen",
        "userDefined": false
      }
    ],
    "isTemplate": false,
    "count": 0,
    "updated": 0
  },
  {
    "id": "bcf10d84-34b9-4080-8c39-28e2889e5a27",
    "data": [
      {
        "text": "wie ",
        "userDefined": false
      },
      {
        "text": "warm",
        "alias": "temperature",
        "meta": "@temperature",
        "userDefined": false
      },
      {
        "text": " ist es in ",
        "userDefined": false
      },
      {
        "text": "Aurich",
        "alias": "address",
        "meta": "@sys.location",
        "userDefined": false
      }
    ],
    "isTemplate": false,
    "count": 0,
    "updated": 0
  },
  {
    "id": "4f60ec55-c7b6-4238-a662-a92a95885f9f",
    "data": [
      {
        "text": "wie ",
        "userDefined": false
      },
      {
        "text": "warm",
        "alias": "temperature",
        "meta": "@temperature",
        "userDefined": false
      },
      {
        "text": " wird es ",
        "userDefined": false
      },
      {
        "text": "heute",
        "alias": "date-time",
        "meta": "@sys.date-time",
        "userDefined": false
      },
      {
        "text": " im ",
        "userDefined": false
      },
      {
        "text": "Wuppertal",
        "alias": "address",
        "meta": "@sys.location",
        "userDefined": false
      }
    ],
    "isTemplate": false,
    "count": 0,
    "updated": 0
  },
  {
    "id": "e314422e-23f6-4ec6-be6e-3f3e898b8825",
    "data": [
      {
        "text": "wie ",
        "userDefined": false
      },
      {
        "text": "kalt",
        "alias": "temperature",
        "meta": "@temperature",
        "userDefined": false
      },
      {
        "text": " wird es ",
        "userDefined": false
      },
      {
        "text": "heute",
        "alias": "date-time",
        "meta": "@sys.date-time",
        "userDefined": false
      }
    ],
    "isTemplate": false,
    "count": 0,
    "updated": 0
  },
  {
    "id": "3c8a6ad8-e852-424d-83e1-37a183819654",
    "data": [
      {
        "text": "ist es draußen ",
        "userDefined": false
      },
      {
        "text": "kalt",
        "alias": "temperature",
        "meta": "@temperature",
        "userDefined": false
      }
    ],
    "isTemplate": false,
    "count": 0,
    "updated": 0
  },
  {
    "id": "2a0e566f-23da-4161-9ba5-304e96c4629a",
    "data": [
      {
        "text": "wie ",
        "userDefined": false
      },
      {
        "text": "warm",
        "alias": "temperature",
        "meta": "@temperature",
        "userDefined": false
      },
      {
        "text": " ist es in ",
        "userDefined": false
      },
      {
        "text": "Cuxhaven",
        "alias": "address",
        "meta": "@sys.location",
        "userDefined": false
      }
    ],
    "isTemplate": false,
    "count": 0,
    "updated": 0
  },
  {
    "id": "48290c12-f92c-4caf-94ab-819492efa063",
    "data": [
      {
        "text": "ist es ",
        "userDefined": false
      },
      {
        "text": "warm",
        "alias": "temperature",
        "meta": "@temperature",
        "userDefined": false
      },
      {
        "text": " im ",
        "userDefined": false
      },
      {
        "text": "Koblenz",
        "alias": "address",
        "meta": "@sys.location",
        "userDefined": false
      }
    ],
    "isTemplate": false,
    "count": 0,
    "updated": 0
  },
  {
    "id": "bf5c0742-2f66-40f2-bd43-6753963c2d24",
    "data": [
      {
        "text": "wie ",
        "userDefined": false
      },
      {
        "text": "warm",
        "alias": "temperature",
        "meta": "@temperature",
        "userDefined": false
      },
      {
        "text": " ist es ",
        "userDefined": false
      },
      {
        "text": "heute",
        "alias": "date-time",
        "meta": "@sys.date-time",
        "userDefined": false
      },
      {
        "text": " in ",
        "userDefined": false
      },
      {
        "text": "Wuppertal",
        "alias": "address",
        "meta": "@sys.location",
        "userDefined": false
      }
    ],
    "isTemplate": false,
    "count": 1,
    "updated": 0
  },
  {
    "id": "fb7e6e05-6b71-4e1f-8cfd-3c41fdadb713",
    "data": [
      {
        "text": "ist es ",
        "userDefined": false
      },
      {
        "text": "kalt",
        "alias": "temperature",
        "meta": "@temperature",
        "userDefined": false
      }
    ],
    "isTemplate": false,
    "count": 0,
    "updated": 0
  },
  {
    "id": "07c0d340-a2e0-4799-99d8-31f8ba408904",
    "data": [
      {
        "text": "wie ",
        "userDefined": false
      },
      {
        "text": "kalt",
        "alias": "temperature",
        "meta": "@temperature",
        "userDefined": false
      },
      {
        "text": " ist es ",
        "userDefined": false
      },
      {
        "text": "heute",
        "alias": "date-time",
        "meta": "@sys.date-time",
        "userDefined": false
      },
      {
        "text": " draußen",
        "userDefined": false
      }
    ],
    "isTemplate": false,
    "count": 1,
    "updated": 0
  },
  {
    "id": "5754ee17-924b-4da0-af6f-9737605026d5",
    "data": [
      {
        "text": "wird es ",
        "userDefined": false
      },
      {
        "text": "kalt",
        "alias": "temperature",
        "meta": "@temperature",
        "userDefined": false
      },
      {
        "text": " ",
        "userDefined": false
      },
      {
        "text": "morgen",
        "alias": "date-time",
        "meta": "@sys.date-time",
        "userDefined": false
      }
    ],
    "isTemplate": false,
    "count": 0,
    "updated": 0
  },
  {
    "id": "5f4c27d0-a945-4b98-9644-6fdb5c1a70db",
    "data": [
      {
        "text": "wie ",
        "userDefined": false
      },
      {
        "text": "warm",
        "alias": "temperature",
        "meta": "@temperature",
        "userDefined": false
      },
      {
        "text": " wird es ",
        "userDefined": false
      },
      {
        "text": "morgen",
        "alias": "date-time",
        "meta": "@sys.date-time",
        "userDefined": false
      }
    ],
    "isTemplate": false,
    "count": 0,
    "updated": 0
  },
  {
    "id": "ff6c2d8d-e949-47f6-8ae9-a6fd85668c5f",
    "data": [
      {
        "text": "wie ",
        "userDefined": false
      },
      {
        "text": "heiß",
        "alias": "temperature",
        "meta": "@temperature",
        "userDefined": false
      },
      {
        "text": " ist es jetzt",
        "userDefined": false
      }
    ],
    "isTemplate": false,
    "count": 0,
    "updated": 0
  },
  {
    "id": "338f0d91-e609-40a3-ad59-27e11bc645b3",
    "data": [
      {
        "text": "Temperatur",
        "userDefined": false
      }
    ],
    "isTemplate": false,
    "count": 0,
    "updated": 0
  },
  {
    "id": "23b1c323-8e20-4713-bf52-fc42d555cbdb",
    "data": [
      {
        "text": "wie ",
        "userDefined": false
      },
      {
        "text": "warm",
        "alias": "temperature",
        "meta": "@temperature",
        "userDefined": false
      },
      {
        "text": " ist es in ",
        "userDefined": false
      },
      {
        "text": "Nienburg Weser",
        "alias": "address",
        "meta": "@sys.location",
        "userDefined": false
      }
    ],
    "isTemplate": false,
    "count": 1,
    "updated": 0
  },
  {
    "id": "22ca83f1-b585-4e44-acfc-ade8346e97dc",
    "data": [
      {
        "text": "ist draußen ",
        "userDefined": false
      },
      {
        "text": "kalt",
        "alias": "temperature",
        "meta": "@temperature",
        "userDefined": false
      }
    ],
    "isTemplate": false,
    "count": 0,
    "updated": 0
  },
  {
    "id": "fbd1c089-7404-403d-a509-f1b7915b10d7",
    "data": [
      {
        "text": "wie ",
        "userDefined": false
      },
      {
        "text": "warm",
        "alias": "temperature",
        "meta": "@temperature",
        "userDefined": false
      },
      {
        "text": " ist es ",
        "userDefined": false
      },
      {
        "text": "morgen",
        "alias": "date-time",
        "meta": "@sys.date-time",
        "userDefined": false
      }
    ],
    "isTemplate": false,
    "count": 0,
    "updated": 0
  },
  {
    "id": "f214511e-8b95-4ecf-b133-7b3a58844c44",
    "data": [
      {
        "text": "wie ",
        "userDefined": false
      },
      {
        "text": "warm",
        "alias": "temperature",
        "meta": "@temperature",
        "userDefined": false
      },
      {
        "text": " ist es in ",
        "userDefined": false
      },
      {
        "text": "Koblenz",
        "alias": "address",
        "meta": "@sys.location",
        "userDefined": false
      }
    ],
    "isTemplate": false,
    "count": 0,
    "updated": 0
  },
  {
    "id": "004c4fef-353b-499d-b7c4-ae92afafc42c",
    "data": [
      {
        "text": "wie ",
        "userDefined": false
      },
      {
        "text": "kalt",
        "alias": "temperature",
        "meta": "@temperature",
        "userDefined": false
      },
      {
        "text": " wird es ",
        "userDefined": false
      },
      {
        "text": "heute Abend",
        "alias": "date-time",
        "meta": "@sys.date-time",
        "userDefined": false
      }
    ],
    "isTemplate": false,
    "count": 0,
    "updated": 0
  },
  {
    "id": "62c738f9-31f8-42c1-b4d3-6040961f0ed7",
    "data": [
      {
        "text": "wie ",
        "userDefined": false
      },
      {
        "text": "warm",
        "alias": "temperature",
        "meta": "@temperature",
        "userDefined": false
      },
      {
        "text": " ist es gerade in ",
        "userDefined": false
      },
      {
        "text": "Olbernhau",
        "alias": "address",
        "meta": "@sys.location",
        "userDefined": false
      }
    ],
    "isTemplate": false,
    "count": 0,
    "updated": 0
  },
  {
    "id": "ee4a8601-4b70-4c2e-8b17-09777089b89b",
    "data": [
      {
        "text": "wie ",
        "userDefined": false
      },
      {
        "text": "kalt",
        "alias": "temperature",
        "meta": "@temperature",
        "userDefined": false
      },
      {
        "text": " ist es jetzt",
        "userDefined": false
      }
    ],
    "isTemplate": false,
    "count": 0,
    "updated": 0
  },
  {
    "id": "cd135799-f683-4b30-a7a8-fd5a60961083",
    "data": [
      {
        "text": "wie ",
        "userDefined": false
      },
      {
        "text": "kalt",
        "alias": "temperature",
        "meta": "@temperature",
        "userDefined": false
      },
      {
        "text": " ist es in ",
        "userDefined": false
      },
      {
        "text": "Moskau",
        "alias": "address",
        "meta": "@sys.location",
        "userDefined": true
      }
    ],
    "isTemplate": false,
    "count": 0,
    "updated": 0
  },
  {
    "id": "1df2fe3c-423f-49cf-9f0c-67d9b2c0eca0",
    "data": [
      {
        "text": "ist es ",
        "userDefined": false
      },
      {
        "text": "kalt",
        "alias": "temperature",
        "meta": "@temperature",
        "userDefined": false
      },
      {
        "text": " draußen",
        "userDefined": false
      }
    ],
    "isTemplate": false,
    "count": 0,
    "updated": 0
  },
  {
    "id": "e5b0af9a-c439-40f6-a94f-fd15d79f2d0a",
    "data": [
      {
        "text": "wie ",
        "userDefined": false
      },
      {
        "text": "kalt",
        "alias": "temperature",
        "meta": "@temperature",
        "userDefined": false
      },
      {
        "text": " ist es draußen",
        "userDefined": false
      }
    ],
    "isTemplate": false,
    "count": 1,
    "updated": 0
  },
  {
    "id": "cbd342f0-b8f1-4217-8360-5417c582999e",
    "data": [
      {
        "text": "wie ",
        "userDefined": false
      },
      {
        "text": "warm",
        "alias": "temperature",
        "meta": "@temperature",
        "userDefined": false
      },
      {
        "text": " wird es ",
        "userDefined": false
      },
      {
        "text": "heute",
        "alias": "date-time",
        "meta": "@sys.date-time",
        "userDefined": false
      }
    ],
    "isTemplate": false,
    "count": 0,
    "updated": 0
  },
  {
    "id": "c6d086bb-70a4-4408-997c-3b6a56e150d2",
    "data": [
      {
        "text": "heutige",
        "alias": "date-time",
        "meta": "@sys.date-time",
        "userDefined": false
      },
      {
        "text": " Temperatur in ",
        "userDefined": false
      },
      {
        "text": "Berlin",
        "alias": "address",
        "meta": "@sys.location",
        "userDefined": false
      }
    ],
    "isTemplate": false,
    "count": 0,
    "updated": 0
  },
  {
    "id": "6088ac35-dbcc-4a91-a650-88f9ebd29f66",
    "data": [
      {
        "text": "heutige",
        "alias": "date-time",
        "meta": "@sys.date-time",
        "userDefined": false
      },
      {
        "text": " Temperatur",
        "userDefined": false
      }
    ],
    "isTemplate": false,
    "count": 0,
    "updated": 0
  },
  {
    "id": "b11fae54-5bf8-4f73-84e3-073a3c91c6fb",
    "data": [
      {
        "text": "wie ",
        "userDefined": false
      },
      {
        "text": "kalt",
        "alias": "temperature",
        "meta": "@temperature",
        "userDefined": false
      },
      {
        "text": " ist es momentan",
        "userDefined": false
      }
    ],
    "isTemplate": false,
    "count": 0,
    "updated": 0
  },
  {
    "id": "b6ae4458-6c33-48f7-a268-4ca80eb1d11e",
    "data": [
      {
        "text": "wie ",
        "userDefined": false
      },
      {
        "text": "warm",
        "alias": "temperature",
        "meta": "@temperature",
        "userDefined": false
      },
      {
        "text": " ist es",
        "userDefined": false
      }
    ],
    "isTemplate": false,
    "count": 0,
    "updated": 0
  },
  {
    "id": "631e9c51-b2c5-45ab-99bf-e7fab88cb2bc",
    "data": [
      {
        "text": "wie ",
        "userDefined": false
      },
      {
        "text": "warm",
        "alias": "temperature",
        "meta": "@temperature",
        "userDefined": false
      },
      {
        "text": " wird es ",
        "userDefined": false
      },
      {
        "text": "heute",
        "alias": "date-time",
        "meta": "@sys.date-time",
        "userDefined": false
      },
      {
        "text": " in ",
        "userDefined": false
      },
      {
        "text": "Rhede",
        "alias": "address",
        "meta": "@sys.location",
        "userDefined": false
      }
    ],
    "isTemplate": false,
    "count": 0,
    "updated": 0
  },
  {
    "id": "1f83152c-c1a9-44d8-8615-a91e6aa3b6bb",
    "data": [
      {
        "text": "wie ",
        "userDefined": false
      },
      {
        "text": "kalt",
        "alias": "temperature",
        "meta": "@temperature",
        "userDefined": false
      },
      {
        "text": " ist es",
        "userDefined": false
      }
    ],
    "isTemplate": false,
    "count": 1,
    "updated": 0
  },
  {
    "id": "99e3ed17-44fa-48cd-9163-224386c0ec5e",
    "data": [
      {
        "text": "es ist draußen ",
        "userDefined": false
      },
      {
        "text": "kalt",
        "alias": "temperature",
        "meta": "@temperature",
        "userDefined": false
      }
    ],
    "isTemplate": false,
    "count": 0,
    "updated": 0
  }
]