{
  "id": "8a0366a0-d268-469f-92ba-86eb2e624ad8",
  "name": "weather.condition",
  "auto": true,
  "contexts": [],
  "responses": [
    {
      "resetContexts": false,
      "action": "weather.condition",
      "affectedContexts": [
        {
          "name": "weather",
          "parameters": {},
          "lifespan": 2
        },
        {
          "name": "weathercondition-followup",
          "parameters": {},
          "lifespan": 2
        }
      ],
      "parameters": [
        {
          "id": "c70b2e4c-f66e-4df4-b7aa-0714d61a67de",
          "required": false,
          "dataType": "@sys.date-time",
          "name": "date-time",
          "value": "$date-time",
          "promptMessages": [],
          "noMatchPromptMessages": [],
          "noInputPromptMessages": [],
          "outputDialogContexts": [],
          "isList": false
        },
        {
          "id": "eaead3a0-76cf-4856-be96-ee40959929f3",
          "required": false,
          "dataType": "@weather-condition",
          "name": "condition",
          "value": "$condition",
          "promptMessages": [],
          "noMatchPromptMessages": [],
          "noInputPromptMessages": [],
          "outputDialogContexts": [],
          "isList": false
        },
        {
          "id": "d3ffcf4f-36ce-463a-a22e-ae4f211e810c",
          "required": false,
          "dataType": "@sys.location",
          "name": "address",
          "value": "$address",
          "promptMessages": [],
          "noMatchPromptMessages": [],
          "noInputPromptMessages": [],
          "outputDialogContexts": [],
          "isList": false
        }
      ],
      "messages": [
        {
          "type": 0,
          "lang": "es",
          "condition": "",
          "speech": []
        },
        {
          "type": 0,
          "lang": "zh-cn",
          "condition": "",
          "speech": []
        },
        {
          "type": 0,
          "lang": "fr",
          "condition": "",
          "speech": []
        },
        {
          "type": 0,
          "lang": "it",
          "condition": "",
          "speech": []
        },
        {
          "type": 0,
          "lang": "en",
          "condition": "",
          "speech": []
        },
        {
          "type": 0,
          "lang": "ja",
          "condition": "",
          "speech": []
        },
        {
          "type": 0,
          "lang": "pt-br",
          "condition": "",
          "speech": []
        },
        {
          "type": 0,
          "lang": "zh-tw",
          "condition": "",
          "speech": []
        },
        {
          "type": 0,
          "lang": "zh-hk",
          "condition": "",
          "speech": []
        },
        {
          "type": 0,
          "lang": "pt",
          "condition": "",
          "speech": []
        },
        {
          "type": 0,
          "lang": "ru",
          "condition": "",
          "speech": []
        },
        {
          "type": 0,
          "lang": "de",
          "condition": "",
          "speech": []
        }
      ],
      "defaultResponsePlatforms": {},
      "speech": []
    }
  ],
  "priority": 500000,
  "webhookUsed": false,
  "webhookForSlotFilling": false,
  "fallbackIntent": false,
  "events": [],
  "conditionalResponses": [],
  "condition": "",
  "conditionalFollowupEvents": []
}