[
  {
    "id": "2bfd57b2-7e85-49e4-bee2-d70fe59a7650",
    "data": [
      {
        "text": "e para ",
        "userDefined": false
      },
      {
        "text": "andar de skate",
        "alias": "activity",
        "meta": "@activity",
        "userDefined": true
      }
    ],
    "isTemplate": false,
    "count": 0,
    "updated": 0
  },
  {
    "id": "14ab52d7-292a-4cb1-b4d9-b5577d14ad05",
    "data": [
      {
        "text": "e para ",
        "userDefined": false
      },
      {
        "text": "praticar natação",
        "alias": "activity",
        "meta": "@activity",
        "userDefined": true
      }
    ],
    "isTemplate": false,
    "count": 0,
    "updated": 0
  },
  {
    "id": "0b53883f-02f6-43bb-a706-fe519c98a7cf",
    "data": [
      {
        "text": "esquiar",
        "alias": "activity",
        "meta": "@activity",
        "userDefined": true
      }
    ],
    "isTemplate": false,
    "count": 0,
    "updated": 0
  }
]