[
  {
    "id": "86e5a335-39b5-462f-a950-5d37c2ec8478",
    "data": [
      {
        "text": "I ",
        "userDefined": false
      },
      {
        "text": "don",
        "meta": "@sys.ignore",
        "userDefined": true
      },
      {
        "text": "\u0027",
        "userDefined": false
      },
      {
        "text": "t",
        "meta": "@sys.ignore",
        "userDefined": true
      },
      {
        "text": " want to order ",
        "userDefined": false
      },
      {
        "text": "beer",
        "alias": "product",
        "meta": "@delivery-product",
        "userDefined": true
      }
    ],
    "isTemplate": false,
    "count": 0,
    "updated": 0
  },
  {
    "id": "3172985e-0695-4bf5-911a-aced3c50e6c1",
    "data": [
      {
        "text": "I don",
        "meta": "@sys.ignore",
        "userDefined": true
      },
      {
        "text": "\u0027",
        "userDefined": false
      },
      {
        "text": "t",
        "meta": "@sys.ignore",
        "userDefined": true
      },
      {
        "text": " want ",
        "userDefined": false
      },
      {
        "text": "to",
        "meta": "@sys.ignore",
        "userDefined": true
      },
      {
        "text": " order ",
        "userDefined": false
      },
      {
        "text": "2",
        "alias": "amount",
        "meta": "@sys.number",
        "userDefined": true
      },
      {
        "text": " ",
        "userDefined": false
      },
      {
        "text": "beers",
        "alias": "product",
        "meta": "@delivery-product",
        "userDefined": true
      }
    ],
    "isTemplate": false,
    "count": 0,
    "updated": 0
  },
  {
    "id": "cc3c43c3-e842-4fdd-8a50-83cfaec6db62",
    "data": [
      {
        "text": "remove ",
        "userDefined": false
      },
      {
        "text": "burger",
        "alias": "product",
        "meta": "@delivery-product",
        "userDefined": true
      },
      {
        "text": " from my order",
        "userDefined": false
      }
    ],
    "isTemplate": false,
    "count": 1,
    "updated": 0
  },
  {
    "id": "2eb1762a-3422-4e80-bb3d-5bdff45958c2",
    "data": [
      {
        "text": "remove ",
        "userDefined": false
      },
      {
        "text": "everything",
        "alias": "all",
        "meta": "@all",
        "userDefined": true
      },
      {
        "text": " from my order",
        "userDefined": false
      }
    ],
    "isTemplate": false,
    "count": 0,
    "updated": 0
  },
  {
    "id": "830979cb-6881-467f-aa68-7a817bdea7c1",
    "data": [
      {
        "text": "get",
        "meta": "@sys.ignore",
        "userDefined": true
      },
      {
        "text": " rid of ",
        "userDefined": false
      },
      {
        "text": "sushi",
        "alias": "product",
        "meta": "@delivery-product",
        "userDefined": true
      },
      {
        "text": " ",
        "userDefined": false
      },
      {
        "text": "in",
        "meta": "@sys.ignore",
        "userDefined": true
      },
      {
        "text": " my order",
        "userDefined": false
      }
    ],
    "isTemplate": false,
    "count": 0,
    "updated": 0
  },
  {
    "id": "5780b857-646b-4ab1-8611-25d8ddabb54d",
    "data": [
      {
        "text": "delete ",
        "userDefined": false
      },
      {
        "text": "pizza",
        "alias": "product",
        "meta": "@delivery-product",
        "userDefined": true
      },
      {
        "text": " from my order",
        "userDefined": false
      }
    ],
    "isTemplate": false,
    "count": 0,
    "updated": 0
  },
  {
    "id": "7739326d-426f-4fd9-a6c5-e88e974ab01c",
    "data": [
      {
        "text": "remove ",
        "userDefined": false
      },
      {
        "text": "pizza",
        "alias": "product",
        "meta": "@delivery-product",
        "userDefined": true
      }
    ],
    "isTemplate": false,
    "count": 0,
    "updated": 0
  },
  {
    "id": "4fb619a0-d57a-4a49-905f-c4ab083eb6c0",
    "data": [
      {
        "text": "remove ",
        "userDefined": false
      },
      {
        "text": "Italian",
        "alias": "cuisine",
        "meta": "@cuisine",
        "userDefined": true
      },
      {
        "text": " ",
        "userDefined": false
      },
      {
        "text": "dish",
        "meta": "@sys.ignore",
        "userDefined": true
      },
      {
        "text": " from my order",
        "userDefined": false
      }
    ],
    "isTemplate": false,
    "count": 0,
    "updated": 0
  },
  {
    "id": "604e066f-b2ab-4e80-9730-36f06a56fa99",
    "data": [
      {
        "text": "remove ",
        "userDefined": false
      },
      {
        "text": "3",
        "alias": "amount",
        "meta": "@sys.number",
        "userDefined": true
      },
      {
        "text": " ",
        "userDefined": false
      },
      {
        "text": "pizzas",
        "alias": "product",
        "meta": "@delivery-product",
        "userDefined": true
      },
      {
        "text": " from my order",
        "userDefined": false
      }
    ],
    "isTemplate": false,
    "count": 0,
    "updated": 0
  },
  {
    "id": "72edb40f-575b-44ae-9e66-7857df53366e",
    "data": [
      {
        "text": "delete ",
        "userDefined": false
      },
      {
        "text": "all",
        "alias": "all",
        "meta": "@all",
        "userDefined": true
      },
      {
        "text": " ",
        "userDefined": false
      },
      {
        "text": "Chinese",
        "alias": "cuisine",
        "meta": "@cuisine",
        "userDefined": true
      },
      {
        "text": " from my order",
        "userDefined": false
      }
    ],
    "isTemplate": false,
    "count": 0,
    "updated": 0
  },
  {
    "id": "743f160f-7441-4214-88f6-1cf6a473a892",
    "data": [
      {
        "text": "remove ",
        "userDefined": false
      },
      {
        "text": "all",
        "alias": "all",
        "meta": "@all",
        "userDefined": true
      },
      {
        "text": " products from my order",
        "userDefined": false
      }
    ],
    "isTemplate": false,
    "count": 0,
    "updated": 0
  },
  {
    "id": "4fe1e2cc-d727-49d6-8a60-6dbddc07070f",
    "data": [
      {
        "text": "and forget about ",
        "userDefined": false
      },
      {
        "text": "the",
        "meta": "@sys.ignore",
        "userDefined": true
      },
      {
        "text": " ",
        "userDefined": false
      },
      {
        "text": "bread sticks",
        "alias": "product",
        "meta": "@delivery-product",
        "userDefined": true
      }
    ],
    "isTemplate": false,
    "count": 0,
    "updated": 0
  },
  {
    "id": "7c09e6ee-485b-44a6-a7d2-7dd3ec6bd2d2",
    "data": [
      {
        "text": "remove ",
        "userDefined": false
      },
      {
        "text": "Coke",
        "alias": "product",
        "meta": "@delivery-product",
        "userDefined": true
      }
    ],
    "isTemplate": false,
    "count": 0,
    "updated": 0
  },
  {
    "id": "759b64a5-c46f-4956-ba5f-3e43eb77375f",
    "data": [
      {
        "text": "delete ",
        "userDefined": false
      },
      {
        "text": "everything",
        "alias": "all",
        "meta": "@all",
        "userDefined": true
      },
      {
        "text": " from my basket",
        "userDefined": false
      }
    ],
    "isTemplate": false,
    "count": 0,
    "updated": 0
  },
  {
    "id": "a14c5d9f-16ee-46c1-bce5-23e9f5dbce4e",
    "data": [
      {
        "text": "delete ",
        "userDefined": false
      },
      {
        "text": "the",
        "meta": "@sys.ignore",
        "userDefined": true
      },
      {
        "text": " ",
        "userDefined": false
      },
      {
        "text": "Coke",
        "alias": "product",
        "meta": "@delivery-product",
        "userDefined": true
      }
    ],
    "isTemplate": false,
    "count": 0,
    "updated": 0
  },
  {
    "id": "8416d6e6-05ce-416d-abaf-cc670bb9afbc",
    "data": [
      {
        "text": "yeah delete ",
        "userDefined": false
      },
      {
        "text": "the",
        "meta": "@sys.ignore",
        "userDefined": true
      },
      {
        "text": " ",
        "userDefined": false
      },
      {
        "text": "Coke",
        "alias": "product",
        "meta": "@delivery-product",
        "userDefined": true
      }
    ],
    "isTemplate": false,
    "count": 0,
    "updated": 0
  },
  {
    "id": "168945c2-d89a-491b-8d2a-841a53e0a69f",
    "data": [
      {
        "text": "I ",
        "userDefined": false
      },
      {
        "text": "don",
        "meta": "@sys.ignore",
        "userDefined": true
      },
      {
        "text": "\u0027",
        "userDefined": false
      },
      {
        "text": "t",
        "meta": "@sys.ignore",
        "userDefined": true
      },
      {
        "text": " want ",
        "userDefined": false
      },
      {
        "text": "pasta",
        "alias": "product",
        "meta": "@delivery-product",
        "userDefined": true
      },
      {
        "text": " ",
        "userDefined": false
      },
      {
        "text": "in",
        "meta": "@sys.ignore",
        "userDefined": true
      },
      {
        "text": " my order",
        "userDefined": false
      }
    ],
    "isTemplate": false,
    "count": 0,
    "updated": 0
  },
  {
    "id": "560bb93b-20f4-437e-aa6d-240172a71d20",
    "data": [
      {
        "text": "delete ",
        "userDefined": false
      },
      {
        "text": "the",
        "meta": "@sys.ignore",
        "userDefined": true
      },
      {
        "text": " ",
        "userDefined": false
      },
      {
        "text": "burger",
        "alias": "product",
        "meta": "@delivery-product",
        "userDefined": true
      }
    ],
    "isTemplate": false,
    "count": 0,
    "updated": 0
  },
  {
    "id": "15dcf03c-4a08-4237-819c-ffb06a89003e",
    "data": [
      {
        "text": "I don\u0027t want the ",
        "userDefined": false
      },
      {
        "text": "Coke",
        "alias": "product",
        "meta": "@delivery-product",
        "userDefined": true
      },
      {
        "text": " and ",
        "userDefined": false
      },
      {
        "text": "burger",
        "alias": "product",
        "meta": "@delivery-product",
        "userDefined": true
      }
    ],
    "isTemplate": false,
    "count": 0,
    "updated": 0
  }
]