{
  "id": "65a3cf36-00e2-473f-9616-737030c70aa9",
  "name": "easteregg.why_chicken_cross_road",
  "auto": true,
  "contexts": [],
  "responses": [
    {
      "resetContexts": false,
      "action": "easteregg.why_chicken_cross_road",
      "affectedContexts": [],
      "parameters": [],
      "messages": [
        {
          "type": 0,
          "lang": "en",
          "condition": "",
          "speech": [
            "To complete another level of Angry Birds.",
            "It was Chuck Norris\u0027s chicken. That\u0027s what she does."
          ]
        }
      ],
      "defaultResponsePlatforms": {},
      "speech": []
    }
  ],
  "priority": 500000,
  "webhookUsed": false,
  "webhookForSlotFilling": false,
  "fallbackIntent": false,
  "events": [],
  "conditionalResponses": [],
  "condition": "",
  "conditionalFollowupEvents": []
}