{
  "description": "Help users make restaurant reservations with your app. This agent lets them ask to get a table at their favorite place or try somewhere new. They can search by asking for a specific food type and when they\u0027ve found somewhere they\u0027d like to eat, they just say what time and how many people are coming.",
  "language": "en",
  "shortDescription": "Find, create and manage reservations for restaurants",
  "examples": "User: Book a table for two people at Delmonico\u0027s for 7 PM. We\u0027ll need a parking lot too.\nUser: Can you make a reservation at The Cheesecake Factory tonight?\nUser: Find a table at a sushi place around Castro Street for 8 PM tomorrow.\nUser: Can you make a reservation at Nobu in Las Vegas for 9 PM for 2 people?",
  "linkToDocs": "",
  "disableInteractionLogs": false,
  "disableStackdriverLogs": true,
  "googleAssistant": {
    "googleAssistantCompatible": false,
    "project": "",
    "welcomeIntentSignInRequired": false,
    "startIntents": [],
    "systemIntents": [],
    "endIntentIds": [],
    "oAuthLinking": {
      "required": false,
      "providerId": "",
      "authorizationUrl": "",
      "tokenUrl": "",
      "scopes": "",
      "privacyPolicyUrl": "",
      "grantType": "AUTH_CODE_GRANT"
    },
    "voiceType": "MALE_1",
    "capabilities": [],
    "env": "",
    "protocolVersion": "V1",
    "autoPreviewEnabled": false,
    "isDeviceAgent": false
  },
  "defaultTimezone": "America/New_York",
  "webhook": {
    "url": "",
    "username": "",
    "headers": {},
    "available": false,
    "useForDomains": false,
    "cloudFunctionsEnabled": false,
    "cloudFunctionsInitialized": false
  },
  "webhookTimeout": 12000,
  "isPrivate": false,
  "customClassifierMode": "use.instead",
  "mlMinConfidence": 0.3,
  "supportedLanguages": [],
  "onePlatformApiVersion": "v2",
  "analyzeQueryTextSentiment": false,
  "enabledKnowledgeBaseNames": [],
  "knowledgeServiceConfidenceAdjustment": -0.4,
  "dialogBuilderMode": false,
  "baseActionPackagesUrl": ""
}