{
  "id": "eaae2cf5-04b6-414d-bd48-486a37ce5e4b",
  "name": "map-sort",
  "isOverridable": true,
  "isEnum": false,
  "isRegexp": false,
  "automatedExpansion": false,
  "allowFuzzyExtraction": false
}