{
  "id": "a5a0bfeb-b0fa-4e1c-a1b2-7f0abff468c6",
  "name": "video_player_control.skip_forward",
  "auto": true,
  "contexts": [
    "video-player-control"
  ],
  "responses": [
    {
      "resetContexts": false,
      "action": "video_player_control.skip_forward",
      "affectedContexts": [
        {
          "name": "video-player-control",
          "parameters": {},
          "lifespan": 5
        }
      ],
      "parameters": [],
      "messages": [
        {
          "type": 0,
          "lang": "en",
          "condition": "",
          "speech": []
        }
      ],
      "defaultResponsePlatforms": {},
      "speech": []
    }
  ],
  "priority": 500000,
  "webhookUsed": false,
  "webhookForSlotFilling": false,
  "fallbackIntent": false,
  "events": [],
  "conditionalResponses": [],
  "condition": "",
  "conditionalFollowupEvents": []
}