[
  {
    "id": "679117db-24bf-43b5-954c-54c2a27d0b5e",
    "data": [
      {
        "text": "search for ",
        "userDefined": false
      },
      {
        "text": "Oblivion",
        "alias": "movie",
        "meta": "@movie",
        "userDefined": true
      },
      {
        "text": " on ",
        "userDefined": false
      },
      {
        "text": "IMDb",
        "alias": "service",
        "meta": "@video-service",
        "userDefined": true
      }
    ],
    "isTemplate": false,
    "count": 0,
    "updated": 0
  },
  {
    "id": "d1ac387c-69f9-45d5-aa2d-ec82360e3285",
    "data": [
      {
        "text": "find ",
        "userDefined": false
      },
      {
        "text": "Goldfrapp",
        "alias": "person",
        "meta": "@person",
        "userDefined": false
      },
      {
        "text": " ",
        "userDefined": false
      },
      {
        "text": "on",
        "meta": "@sys.ignore",
        "userDefined": false
      },
      {
        "text": " ",
        "userDefined": false
      },
      {
        "text": "YouTube",
        "alias": "service",
        "meta": "@video-service",
        "userDefined": false
      }
    ],
    "isTemplate": false,
    "count": 0,
    "updated": 0
  },
  {
    "id": "415a1fd5-b7c6-48f4-86a5-f741ee831f33",
    "data": [
      {
        "text": "search",
        "meta": "@sys.ignore",
        "userDefined": false
      },
      {
        "text": " ",
        "userDefined": false
      },
      {
        "text": "Monster",
        "alias": "song",
        "meta": "@song",
        "userDefined": false
      },
      {
        "text": " by ",
        "userDefined": false
      },
      {
        "text": "Rihanna",
        "alias": "person",
        "meta": "@person",
        "userDefined": true
      },
      {
        "text": " and ",
        "userDefined": false
      },
      {
        "text": "Eminem",
        "alias": "person",
        "meta": "@person",
        "userDefined": true
      },
      {
        "text": " ",
        "userDefined": false
      },
      {
        "text": "video",
        "meta": "@sys.ignore",
        "userDefined": false
      }
    ],
    "isTemplate": false,
    "count": 0,
    "updated": 0
  },
  {
    "id": "896f397c-ecc2-405b-8b25-b0f7c459918e",
    "data": [
      {
        "text": "find ",
        "userDefined": false
      },
      {
        "text": "Disney cartoons",
        "alias": "video",
        "meta": "@sys.any",
        "userDefined": true
      },
      {
        "text": " ",
        "userDefined": false
      },
      {
        "text": "on",
        "meta": "@sys.ignore",
        "userDefined": false
      },
      {
        "text": " ",
        "userDefined": false
      },
      {
        "text": "Youtube",
        "alias": "service",
        "meta": "@video-service",
        "userDefined": false
      }
    ],
    "isTemplate": false,
    "count": 0,
    "updated": 0
  },
  {
    "id": "ba3f85be-70e1-4dad-970c-0935bc1a0af5",
    "data": [
      {
        "text": "movies",
        "meta": "@sys.ignore",
        "userDefined": true
      },
      {
        "text": " with ",
        "userDefined": false
      },
      {
        "text": "Scarlett Johansson",
        "alias": "person",
        "meta": "@person",
        "userDefined": true
      }
    ],
    "isTemplate": false,
    "count": 0,
    "updated": 0
  },
  {
    "id": "54f1a75a-9dac-466a-91b1-8563b815e0a2",
    "data": [
      {
        "text": "find movies starring ",
        "userDefined": false
      },
      {
        "text": "Bruce Willis",
        "alias": "person",
        "meta": "@person",
        "userDefined": false
      }
    ],
    "isTemplate": false,
    "count": 0,
    "updated": 0
  },
  {
    "id": "4fc6ef5f-e011-4bec-85d0-7ec1771882a9",
    "data": [
      {
        "text": "can you find the lodge music from ",
        "userDefined": false
      },
      {
        "text": "Beastie Boys",
        "alias": "person",
        "meta": "@person",
        "userDefined": true
      },
      {
        "text": " on ",
        "userDefined": false
      },
      {
        "text": "YouTube",
        "alias": "service",
        "meta": "@video-service",
        "userDefined": true
      }
    ],
    "isTemplate": false,
    "count": 0,
    "updated": 0
  },
  {
    "id": "c5a8de94-f808-4068-9347-7d3f0c68368c",
    "data": [
      {
        "text": "can",
        "meta": "@sys.ignore",
        "userDefined": false
      },
      {
        "text": " you find ",
        "userDefined": false
      },
      {
        "text": "video song",
        "alias": "video",
        "meta": "@sys.any",
        "userDefined": true
      },
      {
        "text": " for ",
        "userDefined": false
      },
      {
        "text": "me",
        "meta": "@sys.ignore",
        "userDefined": false
      },
      {
        "text": " from my ",
        "userDefined": false
      },
      {
        "text": "mobile",
        "meta": "@sys.ignore",
        "userDefined": false
      }
    ],
    "isTemplate": false,
    "count": 0,
    "updated": 0
  },
  {
    "id": "f4878fc0-0d77-45ba-ad62-edc033d4e4ff",
    "data": [
      {
        "text": "Youtube",
        "alias": "service",
        "meta": "@video-service",
        "userDefined": false
      },
      {
        "text": " ",
        "userDefined": false
      },
      {
        "text": "search",
        "meta": "@sys.ignore",
        "userDefined": false
      },
      {
        "text": " for ",
        "userDefined": false
      },
      {
        "text": "sushi recipes",
        "alias": "video",
        "meta": "@sys.any",
        "userDefined": true
      }
    ],
    "isTemplate": false,
    "count": 0,
    "updated": 0
  },
  {
    "id": "e5e49a64-de45-4da3-a602-59fcac9968a1",
    "data": [
      {
        "text": "find the ",
        "userDefined": false
      },
      {
        "text": "trailer",
        "alias": "trailer",
        "meta": "@trailer",
        "userDefined": true
      },
      {
        "text": " for ",
        "userDefined": false
      },
      {
        "text": "The Angry Birds Movie",
        "alias": "movie",
        "meta": "@movie",
        "userDefined": true
      }
    ],
    "isTemplate": false,
    "count": 1,
    "updated": 0
  },
  {
    "id": "608c8ce8-2dd6-45bd-a6a6-e3ffaf36d5d0",
    "data": [
      {
        "text": "search ",
        "userDefined": false
      },
      {
        "text": "girls",
        "alias": "video",
        "meta": "@sys.any",
        "userDefined": true
      },
      {
        "text": " ",
        "userDefined": false
      },
      {
        "text": "video",
        "meta": "@sys.ignore",
        "userDefined": true
      }
    ],
    "isTemplate": false,
    "count": 0,
    "updated": 0
  },
  {
    "id": "cde96b0e-a0d0-4435-8bf5-ea82f5dd68ba",
    "data": [
      {
        "text": "find some videos in ",
        "userDefined": false
      },
      {
        "text": "Hindi",
        "alias": "language",
        "meta": "@sys.language",
        "userDefined": true
      }
    ],
    "isTemplate": false,
    "count": 1,
    "updated": 0
  },
  {
    "id": "aa5f6935-1183-495e-b522-5f9067543548",
    "data": [
      {
        "text": "can",
        "meta": "@sys.ignore",
        "userDefined": false
      },
      {
        "text": " you find me a movie",
        "userDefined": false
      }
    ],
    "isTemplate": false,
    "count": 0,
    "updated": 0
  },
  {
    "id": "4b3ff4fe-9c46-403b-9971-bdd7000c8d95",
    "data": [
      {
        "text": "find me ",
        "userDefined": false
      },
      {
        "text": "video",
        "meta": "@sys.ignore",
        "userDefined": false
      }
    ],
    "isTemplate": false,
    "count": 0,
    "updated": 0
  },
  {
    "id": "49e12574-6542-4950-b47d-527e668ed343",
    "data": [
      {
        "text": "I need some videos",
        "userDefined": false
      }
    ],
    "isTemplate": false,
    "count": 0,
    "updated": 0
  },
  {
    "id": "984a71c6-8cdc-47be-acac-96eb460d12fa",
    "data": [
      {
        "text": "find ",
        "userDefined": false
      },
      {
        "text": "romantic comedies",
        "alias": "movie-genre",
        "meta": "@movie-genre",
        "userDefined": true
      }
    ],
    "isTemplate": false,
    "count": 0,
    "updated": 0
  },
  {
    "id": "e53af054-236a-4c2a-9e31-9278a999f6e4",
    "data": [
      {
        "text": "Youtube",
        "alias": "service",
        "meta": "@video-service",
        "userDefined": false
      },
      {
        "text": " ",
        "userDefined": false
      },
      {
        "text": "search",
        "meta": "@sys.ignore",
        "userDefined": false
      },
      {
        "text": " for ",
        "userDefined": false
      },
      {
        "text": "funny puppies",
        "alias": "video",
        "meta": "@sys.any",
        "userDefined": true
      }
    ],
    "isTemplate": false,
    "count": 0,
    "updated": 0
  },
  {
    "id": "b84ebcf2-0839-4c4e-9d4d-de5f772339c0",
    "data": [
      {
        "text": "Youtube",
        "alias": "service",
        "meta": "@video-service",
        "userDefined": false
      },
      {
        "text": " ",
        "userDefined": false
      },
      {
        "text": "search",
        "meta": "@sys.ignore",
        "userDefined": false
      }
    ],
    "isTemplate": false,
    "count": 0,
    "updated": 0
  },
  {
    "id": "53c6fe05-b54d-46bc-ad3f-e8b7d201c819",
    "data": [
      {
        "text": "on ",
        "userDefined": false
      },
      {
        "text": "Youtube",
        "alias": "service",
        "meta": "@video-service",
        "userDefined": true
      },
      {
        "text": " search up ",
        "userDefined": false
      },
      {
        "text": "makeup",
        "alias": "video",
        "meta": "@sys.any",
        "userDefined": true
      },
      {
        "text": " videos",
        "userDefined": false
      }
    ],
    "isTemplate": false,
    "count": 0,
    "updated": 0
  },
  {
    "id": "96d5b276-7894-446f-96d0-88a90164df38",
    "data": [
      {
        "text": "find me ",
        "userDefined": false
      },
      {
        "text": "Blackbird",
        "alias": "song",
        "meta": "@song",
        "userDefined": true
      },
      {
        "text": " song ",
        "userDefined": false
      },
      {
        "text": "video",
        "meta": "@sys.ignore",
        "userDefined": true
      }
    ],
    "isTemplate": false,
    "count": 0,
    "updated": 0
  },
  {
    "id": "7d552f6f-6688-4115-86d3-4fdfc77f680e",
    "data": [
      {
        "text": "can",
        "meta": "@sys.ignore",
        "userDefined": false
      },
      {
        "text": " you find a movie",
        "userDefined": false
      }
    ],
    "isTemplate": false,
    "count": 0,
    "updated": 0
  },
  {
    "id": "2fdafa8a-595e-402b-893c-de10a7d31fc2",
    "data": [
      {
        "text": "I want to see ",
        "userDefined": false
      },
      {
        "text": "video",
        "meta": "@sys.ignore",
        "userDefined": false
      },
      {
        "text": " ",
        "userDefined": false
      },
      {
        "text": "of",
        "meta": "@sys.ignore",
        "userDefined": false
      },
      {
        "text": " ",
        "userDefined": false
      },
      {
        "text": "Cola Loca",
        "alias": "video",
        "meta": "@sys.any",
        "userDefined": true
      },
      {
        "text": " in ",
        "userDefined": false
      },
      {
        "text": "Youtube",
        "alias": "service",
        "meta": "@video-service",
        "userDefined": false
      }
    ],
    "isTemplate": false,
    "count": 0,
    "updated": 0
  },
  {
    "id": "1e834b52-3e13-4e64-af91-b4a1d76b0f70",
    "data": [
      {
        "text": "find me something to watch with ",
        "userDefined": false
      },
      {
        "text": "Peter Dinklage",
        "alias": "person",
        "meta": "@person",
        "userDefined": true
      }
    ],
    "isTemplate": false,
    "count": 0,
    "updated": 0
  },
  {
    "id": "61630d12-f249-402c-af1b-b9f9b6ee1a19",
    "data": [
      {
        "text": "find the ",
        "userDefined": false
      },
      {
        "text": "video",
        "meta": "@sys.ignore",
        "userDefined": false
      },
      {
        "text": " ",
        "userDefined": false
      },
      {
        "text": "Paint It Black",
        "alias": "video",
        "meta": "@sys.any",
        "userDefined": true
      }
    ],
    "isTemplate": false,
    "count": 0,
    "updated": 0
  },
  {
    "id": "a1c630f8-64e8-4f75-ae43-9a79e4e8b00b",
    "data": [
      {
        "text": "search ",
        "userDefined": false
      },
      {
        "text": "Youtube",
        "alias": "service",
        "meta": "@video-service",
        "userDefined": true
      }
    ],
    "isTemplate": false,
    "count": 1,
    "updated": 0
  },
  {
    "id": "f0a8c3ab-c4ee-4af2-820b-8b6887dff76e",
    "data": [
      {
        "text": "find some ",
        "userDefined": false
      },
      {
        "text": "horror",
        "alias": "movie-genre",
        "meta": "@movie-genre",
        "userDefined": true
      },
      {
        "text": " movies",
        "userDefined": false
      }
    ],
    "isTemplate": false,
    "count": 0,
    "updated": 0
  },
  {
    "id": "9bffd979-abf6-4ef3-a80b-4b01c72d85e8",
    "data": [
      {
        "text": "search ",
        "userDefined": false
      },
      {
        "text": "Jeeves and Wooster",
        "alias": "movie",
        "meta": "@movie",
        "userDefined": true
      },
      {
        "text": " ",
        "userDefined": false
      },
      {
        "text": "on",
        "meta": "@sys.ignore",
        "userDefined": false
      },
      {
        "text": " ",
        "userDefined": false
      },
      {
        "text": "Youtube",
        "alias": "service",
        "meta": "@video-service",
        "userDefined": false
      }
    ],
    "isTemplate": false,
    "count": 0,
    "updated": 0
  },
  {
    "id": "04f71a24-e5a3-42e9-b8eb-03223471854d",
    "data": [
      {
        "text": "search videos ",
        "userDefined": false
      },
      {
        "text": "of",
        "meta": "@sys.ignore",
        "userDefined": false
      },
      {
        "text": " ",
        "userDefined": false
      },
      {
        "text": "cheese",
        "alias": "video",
        "meta": "@sys.any",
        "userDefined": true
      }
    ],
    "isTemplate": false,
    "count": 0,
    "updated": 0
  },
  {
    "id": "f413c23a-3a89-4972-ae57-47a277b5f151",
    "data": [
      {
        "text": "look ",
        "userDefined": false
      },
      {
        "text": "up",
        "meta": "@sys.ignore",
        "userDefined": false
      },
      {
        "text": " the movie",
        "userDefined": false
      }
    ],
    "isTemplate": false,
    "count": 0,
    "updated": 0
  },
  {
    "id": "27e16d36-7c09-49db-9e7c-ce0d29bd28ab",
    "data": [
      {
        "text": "I want to watch some videos ",
        "userDefined": false
      },
      {
        "text": "of",
        "meta": "@sys.ignore",
        "userDefined": false
      },
      {
        "text": " ",
        "userDefined": false
      },
      {
        "text": "Pat and Jen",
        "alias": "video",
        "meta": "@sys.any",
        "userDefined": true
      }
    ],
    "isTemplate": false,
    "count": 0,
    "updated": 0
  },
  {
    "id": "e2756aa6-638a-4d44-bc57-d9ab3ecfa8dc",
    "data": [
      {
        "text": "can",
        "meta": "@sys.ignore",
        "userDefined": false
      },
      {
        "text": " you find the movie",
        "userDefined": false
      }
    ],
    "isTemplate": false,
    "count": 0,
    "updated": 0
  },
  {
    "id": "63e6341b-d58b-4391-828a-7fc72e336e24",
    "data": [
      {
        "text": "look ",
        "userDefined": false
      },
      {
        "text": "up",
        "meta": "@sys.ignore",
        "userDefined": false
      },
      {
        "text": " for ",
        "userDefined": false
      },
      {
        "text": "Lydia or field love Kesha",
        "alias": "video",
        "meta": "@sys.any",
        "userDefined": true
      },
      {
        "text": " ",
        "userDefined": false
      },
      {
        "text": "video",
        "meta": "@sys.ignore",
        "userDefined": false
      },
      {
        "text": " for ",
        "userDefined": false
      },
      {
        "text": "me",
        "meta": "@sys.ignore",
        "userDefined": false
      }
    ],
    "isTemplate": false,
    "count": 0,
    "updated": 0
  },
  {
    "id": "bc642da7-8216-4c9c-ab07-a84c6812e94a",
    "data": [
      {
        "text": "find videos",
        "userDefined": false
      }
    ],
    "isTemplate": false,
    "count": 0,
    "updated": 0
  },
  {
    "id": "0cbbe02a-550d-411e-b29c-08ee6b81350a",
    "data": [
      {
        "text": "search ",
        "userDefined": false
      },
      {
        "text": "on",
        "meta": "@sys.ignore",
        "userDefined": false
      },
      {
        "text": " ",
        "userDefined": false
      },
      {
        "text": "Youtube",
        "alias": "service",
        "meta": "@video-service",
        "userDefined": false
      },
      {
        "text": " for ",
        "userDefined": false
      },
      {
        "text": "Eat Pray Love",
        "alias": "movie",
        "meta": "@movie",
        "userDefined": true
      },
      {
        "text": " ",
        "userDefined": false
      },
      {
        "text": "trailer",
        "alias": "trailer",
        "meta": "@trailer",
        "userDefined": true
      }
    ],
    "isTemplate": false,
    "count": 0,
    "updated": 0
  },
  {
    "id": "c20a1750-b00a-4d3d-87df-7f3ad1db5809",
    "data": [
      {
        "text": "do you have ",
        "userDefined": false
      },
      {
        "text": "any",
        "meta": "@sys.ignore",
        "userDefined": false
      },
      {
        "text": " movie directed by ",
        "userDefined": false
      },
      {
        "text": "Tarantino",
        "alias": "person",
        "meta": "@person",
        "userDefined": true
      }
    ],
    "isTemplate": false,
    "count": 0,
    "updated": 0
  },
  {
    "id": "ecaf5ff7-4882-4666-8103-d03da12505e6",
    "data": [
      {
        "text": "can you find some ",
        "userDefined": false
      },
      {
        "text": "comedies",
        "alias": "movie-genre",
        "meta": "@movie-genre",
        "userDefined": true
      },
      {
        "text": " with ",
        "userDefined": false
      },
      {
        "text": "Bruce Willis",
        "alias": "person",
        "meta": "@person",
        "userDefined": true
      }
    ],
    "isTemplate": false,
    "count": 0,
    "updated": 0
  },
  {
    "id": "54206b40-daa6-4c69-aaef-c3aa5e958860",
    "data": [
      {
        "text": "find ",
        "userDefined": false
      },
      {
        "text": "Nirvana",
        "alias": "person",
        "meta": "@person",
        "userDefined": true
      },
      {
        "text": " videos ",
        "userDefined": false
      },
      {
        "text": "on",
        "meta": "@sys.ignore",
        "userDefined": true
      },
      {
        "text": " ",
        "userDefined": false
      },
      {
        "text": "Youtube",
        "alias": "service",
        "meta": "@video-service",
        "userDefined": true
      }
    ],
    "isTemplate": false,
    "count": 0,
    "updated": 0
  },
  {
    "id": "21857cb3-a0da-4ada-9cef-883a911db837",
    "data": [
      {
        "text": "find me a movie",
        "userDefined": false
      }
    ],
    "isTemplate": false,
    "count": 0,
    "updated": 0
  },
  {
    "id": "304b6554-e2a5-4319-83cb-396b13c54c8a",
    "data": [
      {
        "text": "search ",
        "userDefined": false
      },
      {
        "text": "Youtube",
        "alias": "service",
        "meta": "@video-service",
        "userDefined": false
      },
      {
        "text": " for ",
        "userDefined": false
      },
      {
        "text": "Justin Timberlake",
        "alias": "person",
        "meta": "@person",
        "userDefined": false
      }
    ],
    "isTemplate": false,
    "count": 0,
    "updated": 0
  },
  {
    "id": "5e204783-d84b-4308-ae97-a9c53c8f55b4",
    "data": [
      {
        "text": "look for videos ",
        "userDefined": false
      },
      {
        "text": "of",
        "meta": "@sys.ignore",
        "userDefined": false
      },
      {
        "text": " ",
        "userDefined": false
      },
      {
        "text": "funny cats",
        "alias": "video",
        "meta": "@sys.any",
        "userDefined": true
      }
    ],
    "isTemplate": false,
    "count": 0,
    "updated": 0
  },
  {
    "id": "bf6d6ba4-5171-45f5-849c-679e770195ac",
    "data": [
      {
        "text": "search",
        "meta": "@sys.ignore",
        "userDefined": false
      },
      {
        "text": " ",
        "userDefined": false
      },
      {
        "text": "Youtube",
        "alias": "service",
        "meta": "@video-service",
        "userDefined": false
      },
      {
        "text": " for ",
        "userDefined": false
      },
      {
        "text": "Italian cuisine",
        "alias": "video",
        "meta": "@sys.any",
        "userDefined": true
      }
    ],
    "isTemplate": false,
    "count": 0,
    "updated": 0
  },
  {
    "id": "90c81f00-e6e8-47da-b78f-2cc5ff8e1d48",
    "data": [
      {
        "text": "find ",
        "userDefined": false
      },
      {
        "text": "horror",
        "alias": "movie-genre",
        "meta": "@movie-genre",
        "userDefined": true
      },
      {
        "text": " movies ",
        "userDefined": false
      },
      {
        "text": "of year",
        "meta": "@sys.ignore",
        "userDefined": true
      },
      {
        "text": " ",
        "userDefined": false
      },
      {
        "text": "2016",
        "alias": "year",
        "meta": "@sys.number",
        "userDefined": true
      }
    ],
    "isTemplate": false,
    "count": 0,
    "updated": 0
  },
  {
    "id": "5a75e05c-03d0-41ac-88ab-7b364f9ebf20",
    "data": [
      {
        "text": "search ",
        "userDefined": false
      },
      {
        "text": "Chuck Norris vs Games",
        "alias": "video",
        "meta": "@sys.any",
        "userDefined": true
      },
      {
        "text": " ",
        "userDefined": false
      },
      {
        "text": "on",
        "meta": "@sys.ignore",
        "userDefined": true
      },
      {
        "text": " ",
        "userDefined": false
      },
      {
        "text": "Youtube",
        "alias": "service",
        "meta": "@video-service",
        "userDefined": true
      }
    ],
    "isTemplate": false,
    "count": 0,
    "updated": 0
  },
  {
    "id": "fe28ee94-f128-428f-ae4e-a94faf16bf1d",
    "data": [
      {
        "text": "find ",
        "userDefined": false
      },
      {
        "text": "rock",
        "alias": "movie-genre",
        "meta": "@movie-genre",
        "userDefined": false
      },
      {
        "text": " ",
        "userDefined": false
      },
      {
        "text": "music",
        "meta": "@sys.ignore",
        "userDefined": false
      },
      {
        "text": " videos",
        "userDefined": false
      }
    ],
    "isTemplate": false,
    "count": 1,
    "updated": 0
  },
  {
    "id": "084928fa-dfc7-4e61-accb-3b5888ca07dc",
    "data": [
      {
        "text": "search on the ",
        "userDefined": false
      },
      {
        "text": "YouTube",
        "alias": "service",
        "meta": "@video-service",
        "userDefined": false
      },
      {
        "text": " app",
        "userDefined": false
      }
    ],
    "isTemplate": false,
    "count": 0,
    "updated": 0
  },
  {
    "id": "ba52d047-da70-41f9-bfd7-7a2637a8e0fc",
    "data": [
      {
        "text": "find ",
        "userDefined": false
      },
      {
        "text": "music video",
        "alias": "video",
        "meta": "@sys.any",
        "userDefined": true
      },
      {
        "text": " please",
        "userDefined": false
      }
    ],
    "isTemplate": false,
    "count": 0,
    "updated": 0
  },
  {
    "id": "7b2cd4c1-c9a5-4e53-aa45-3f6d0ca5555a",
    "data": [
      {
        "text": "do you have a film directed by ",
        "userDefined": false
      },
      {
        "text": "Tarantino",
        "alias": "person",
        "meta": "@person",
        "userDefined": true
      }
    ],
    "isTemplate": false,
    "count": 0,
    "updated": 0
  },
  {
    "id": "ce085c6b-53c6-4487-86fd-d1a635e93c43",
    "data": [
      {
        "text": "can you find ",
        "userDefined": false
      },
      {
        "text": "cartoons",
        "alias": "video",
        "meta": "@sys.any",
        "userDefined": true
      },
      {
        "text": " ",
        "userDefined": false
      },
      {
        "text": "on",
        "meta": "@sys.ignore",
        "userDefined": true
      },
      {
        "text": " ",
        "userDefined": false
      },
      {
        "text": "Youtube",
        "alias": "service",
        "meta": "@video-service",
        "userDefined": true
      }
    ],
    "isTemplate": false,
    "count": 0,
    "updated": 0
  },
  {
    "id": "5ce528a2-bcfa-47e0-973d-1bcd69359ed1",
    "data": [
      {
        "text": "look ",
        "userDefined": false
      },
      {
        "text": "up",
        "meta": "@sys.ignore",
        "userDefined": false
      },
      {
        "text": " ",
        "userDefined": false
      },
      {
        "text": "Youtube",
        "alias": "service",
        "meta": "@video-service",
        "userDefined": false
      }
    ],
    "isTemplate": false,
    "count": 0,
    "updated": 0
  },
  {
    "id": "42db43ca-c10c-4cb7-9dc5-0441c3aeccf2",
    "data": [
      {
        "text": "search ",
        "userDefined": false
      },
      {
        "text": "up",
        "meta": "@sys.ignore",
        "userDefined": false
      },
      {
        "text": " ",
        "userDefined": false
      },
      {
        "text": "on",
        "meta": "@sys.ignore",
        "userDefined": false
      },
      {
        "text": " ",
        "userDefined": false
      },
      {
        "text": "Youtube",
        "alias": "service",
        "meta": "@video-service",
        "userDefined": false
      }
    ],
    "isTemplate": false,
    "count": 0,
    "updated": 0
  },
  {
    "id": "36af091b-8a4d-4ba5-b6d1-a8a496f56c38",
    "data": [
      {
        "text": "search for ",
        "userDefined": false
      },
      {
        "text": "blame it on me",
        "alias": "song",
        "meta": "@song",
        "userDefined": true
      },
      {
        "text": " ",
        "userDefined": false
      },
      {
        "text": "on",
        "meta": "@sys.ignore",
        "userDefined": false
      },
      {
        "text": " ",
        "userDefined": false
      },
      {
        "text": "Youtube",
        "alias": "service",
        "meta": "@video-service",
        "userDefined": false
      }
    ],
    "isTemplate": false,
    "count": 0,
    "updated": 0
  },
  {
    "id": "54a1d72b-2ad1-4f54-b076-50ebd8a2e272",
    "data": [
      {
        "text": "search for movies with ",
        "userDefined": false
      },
      {
        "text": "Emma Watson",
        "alias": "person",
        "meta": "@person",
        "userDefined": false
      }
    ],
    "isTemplate": false,
    "count": 0,
    "updated": 0
  },
  {
    "id": "74302deb-8cad-4fb0-a7aa-d6dcd7de860d",
    "data": [
      {
        "text": "find ",
        "userDefined": false
      },
      {
        "text": "video",
        "meta": "@sys.ignore",
        "userDefined": false
      },
      {
        "text": " ",
        "userDefined": false
      },
      {
        "text": "Sugar Art",
        "alias": "video",
        "meta": "@sys.any",
        "userDefined": true
      }
    ],
    "isTemplate": false,
    "count": 0,
    "updated": 0
  },
  {
    "id": "caaf4dc8-dd81-4b25-848b-67b68adc6613",
    "data": [
      {
        "text": "find ",
        "userDefined": false
      },
      {
        "text": "Youtube",
        "alias": "service",
        "meta": "@video-service",
        "userDefined": true
      }
    ],
    "isTemplate": false,
    "count": 0,
    "updated": 0
  },
  {
    "id": "5f9f27df-0a8d-42ae-9f5e-e1183607e001",
    "data": [
      {
        "text": "search for movies",
        "userDefined": false
      }
    ],
    "isTemplate": false,
    "count": 0,
    "updated": 0
  },
  {
    "id": "3f6dd462-e28b-44e1-9d70-26181ace2eb0",
    "data": [
      {
        "text": "search videos",
        "userDefined": false
      }
    ],
    "isTemplate": false,
    "count": 0,
    "updated": 0
  },
  {
    "id": "06477a51-3443-485c-ab6b-50b33fbbc278",
    "data": [
      {
        "text": "find some videos",
        "userDefined": false
      }
    ],
    "isTemplate": false,
    "count": 0,
    "updated": 0
  },
  {
    "id": "3f089344-8a77-4790-94ed-a7b1c8c89f49",
    "data": [
      {
        "text": "look for movies",
        "userDefined": false
      }
    ],
    "isTemplate": false,
    "count": 0,
    "updated": 0
  },
  {
    "id": "2145292c-f4ab-41ad-91eb-95e133b03429",
    "data": [
      {
        "text": "can",
        "meta": "@sys.ignore",
        "userDefined": false
      },
      {
        "text": " you search me ",
        "userDefined": false
      },
      {
        "text": "Youtube",
        "alias": "service",
        "meta": "@video-service",
        "userDefined": false
      }
    ],
    "isTemplate": false,
    "count": 0,
    "updated": 0
  },
  {
    "id": "77206bc0-160e-4874-98ba-d7298db18e19",
    "data": [
      {
        "text": "find me ",
        "userDefined": false
      },
      {
        "text": "Daniel Redcliff",
        "alias": "person",
        "meta": "@person",
        "userDefined": true
      },
      {
        "text": " video",
        "userDefined": false
      }
    ],
    "isTemplate": false,
    "count": 0,
    "updated": 0
  },
  {
    "id": "68dd2ac1-69ca-4756-9ed1-6ea420fe0015",
    "data": [
      {
        "text": "do you have a movie with ",
        "userDefined": false
      },
      {
        "text": "Paula Echevaria",
        "alias": "person",
        "meta": "@person",
        "userDefined": false
      }
    ],
    "isTemplate": false,
    "count": 0,
    "updated": 0
  },
  {
    "id": "193e6086-c694-498c-a1c0-912fe4ab3d99",
    "data": [
      {
        "text": "find ",
        "userDefined": false
      },
      {
        "text": "Mayfair Audi",
        "alias": "video",
        "meta": "@sys.any",
        "userDefined": false
      },
      {
        "text": " on ",
        "userDefined": false
      },
      {
        "text": "Piccadilly",
        "alias": "service",
        "meta": "@video-service",
        "userDefined": false
      }
    ],
    "isTemplate": false,
    "count": 0,
    "updated": 0
  },
  {
    "id": "c4182639-3fd1-47dc-9d23-e76337d27841",
    "data": [
      {
        "text": "find ",
        "userDefined": false
      },
      {
        "text": "Tarantino",
        "alias": "person",
        "meta": "@person",
        "userDefined": true
      },
      {
        "text": " movie",
        "userDefined": false
      }
    ],
    "isTemplate": false,
    "count": 0,
    "updated": 0
  },
  {
    "id": "6d316b1c-f6e6-41d4-bdfc-57af0b8ac15a",
    "data": [
      {
        "text": "search ",
        "userDefined": false
      },
      {
        "text": "on",
        "meta": "@sys.ignore",
        "userDefined": true
      },
      {
        "text": " ",
        "userDefined": false
      },
      {
        "text": "Youtube",
        "alias": "service",
        "meta": "@video-service",
        "userDefined": true
      }
    ],
    "isTemplate": false,
    "count": 0,
    "updated": 0
  },
  {
    "id": "535360f6-aa12-4063-b2a6-1c761e8a1348",
    "data": [
      {
        "text": "search ",
        "userDefined": false
      },
      {
        "text": "Somebody that I used to know",
        "alias": "song",
        "meta": "@song",
        "userDefined": false
      },
      {
        "text": " ",
        "userDefined": false
      },
      {
        "text": "on",
        "meta": "@sys.ignore",
        "userDefined": false
      },
      {
        "text": " ",
        "userDefined": false
      },
      {
        "text": "Youtube",
        "alias": "service",
        "meta": "@video-service",
        "userDefined": false
      }
    ],
    "isTemplate": false,
    "count": 0,
    "updated": 0
  },
  {
    "id": "e9feb4f5-e60c-4e21-9cd4-9451b98c1a59",
    "data": [
      {
        "text": "search for videos",
        "userDefined": false
      }
    ],
    "isTemplate": false,
    "count": 0,
    "updated": 0
  },
  {
    "id": "d40cffda-903c-4b4e-9fdc-8dfcaf3b61df",
    "data": [
      {
        "text": "can",
        "meta": "@sys.ignore",
        "userDefined": false
      },
      {
        "text": " you search ",
        "userDefined": false
      },
      {
        "text": "up",
        "meta": "@sys.ignore",
        "userDefined": false
      },
      {
        "text": " ",
        "userDefined": false
      },
      {
        "text": "on",
        "meta": "@sys.ignore",
        "userDefined": false
      },
      {
        "text": " ",
        "userDefined": false
      },
      {
        "text": "Youtube",
        "alias": "service",
        "meta": "@video-service",
        "userDefined": false
      }
    ],
    "isTemplate": false,
    "count": 0,
    "updated": 0
  },
  {
    "id": "5193c001-f07f-4cb4-8fb6-dbbdcaea6ca1",
    "data": [
      {
        "text": "show me ",
        "userDefined": false
      },
      {
        "text": "Michael Jackson",
        "alias": "person",
        "meta": "@person",
        "userDefined": true
      },
      {
        "text": " on ",
        "userDefined": false
      },
      {
        "text": "YouTube",
        "alias": "service",
        "meta": "@video-service",
        "userDefined": true
      }
    ],
    "isTemplate": false,
    "count": 0,
    "updated": 0
  },
  {
    "id": "312095f2-9467-4d0b-bcb1-5a355e6284f2",
    "data": [
      {
        "text": "find ",
        "userDefined": false
      },
      {
        "text": "video",
        "meta": "@sys.ignore",
        "userDefined": true
      },
      {
        "text": " ",
        "userDefined": false
      },
      {
        "text": "Lego Lord Business Lair review",
        "alias": "video",
        "meta": "@sys.any",
        "userDefined": true
      }
    ],
    "isTemplate": false,
    "count": 0,
    "updated": 0
  },
  {
    "id": "6660e748-2500-4675-9b58-0fd5db8f37e0",
    "data": [
      {
        "text": "search in ",
        "userDefined": false
      },
      {
        "text": "Youtube",
        "alias": "service",
        "meta": "@video-service",
        "userDefined": true
      }
    ],
    "isTemplate": false,
    "count": 0,
    "updated": 0
  },
  {
    "id": "f4debdd8-89ae-4b97-81c2-f759762a2e4f",
    "data": [
      {
        "text": "search ",
        "userDefined": false
      },
      {
        "text": "video",
        "meta": "@sys.ignore",
        "userDefined": false
      }
    ],
    "isTemplate": false,
    "count": 0,
    "updated": 0
  },
  {
    "id": "44517ca9-907a-4465-8c0e-85076dac2abf",
    "data": [
      {
        "text": "find my videos",
        "userDefined": false
      }
    ],
    "isTemplate": false,
    "count": 0,
    "updated": 0
  },
  {
    "id": "f2c84bdb-f817-4722-a1d0-8a566a385a23",
    "data": [
      {
        "text": "can",
        "meta": "@sys.ignore",
        "userDefined": false
      },
      {
        "text": " you find videos for me",
        "userDefined": false
      }
    ],
    "isTemplate": false,
    "count": 0,
    "updated": 0
  },
  {
    "id": "763f0181-a6a7-4ad0-9146-de7b87084b5c",
    "data": [
      {
        "text": "search for ",
        "userDefined": false
      },
      {
        "text": "Bengali",
        "alias": "language",
        "meta": "@sys.language",
        "userDefined": true
      },
      {
        "text": " ",
        "userDefined": false
      },
      {
        "text": "movies",
        "meta": "@sys.ignore",
        "userDefined": true
      }
    ],
    "isTemplate": false,
    "count": 0,
    "updated": 0
  },
  {
    "id": "daf77fd0-ce19-4926-8d19-c777abc89c8f",
    "data": [
      {
        "text": "find the ",
        "userDefined": false
      },
      {
        "text": "video",
        "meta": "@sys.ignore",
        "userDefined": false
      },
      {
        "text": " ",
        "userDefined": false
      },
      {
        "text": "Paint It Black",
        "alias": "video",
        "meta": "@sys.any",
        "userDefined": true
      },
      {
        "text": " ",
        "userDefined": false
      },
      {
        "text": "on",
        "meta": "@sys.ignore",
        "userDefined": false
      },
      {
        "text": " ",
        "userDefined": false
      },
      {
        "text": "Youtube",
        "alias": "service",
        "meta": "@video-service",
        "userDefined": false
      }
    ],
    "isTemplate": false,
    "count": 1,
    "updated": 0
  },
  {
    "id": "19bfa2a4-32de-4f06-9ded-e6a8dcc76009",
    "data": [
      {
        "text": "find a ",
        "userDefined": false
      },
      {
        "text": "video",
        "meta": "@sys.ignore",
        "userDefined": true
      }
    ],
    "isTemplate": false,
    "count": 0,
    "updated": 0
  },
  {
    "id": "da82b003-7d23-498f-9029-a855cc23e748",
    "data": [
      {
        "text": "search ",
        "userDefined": false
      },
      {
        "text": "abs exercises",
        "alias": "video",
        "meta": "@sys.any",
        "userDefined": true
      },
      {
        "text": " on ",
        "userDefined": false
      },
      {
        "text": "Youtube",
        "alias": "service",
        "meta": "@video-service",
        "userDefined": false
      }
    ],
    "isTemplate": false,
    "count": 0,
    "updated": 0
  },
  {
    "id": "81f45d13-8122-458c-8e3a-049903f4c52e",
    "data": [
      {
        "text": "find me a ",
        "userDefined": false
      },
      {
        "text": "video",
        "meta": "@sys.ignore",
        "userDefined": false
      }
    ],
    "isTemplate": false,
    "count": 0,
    "updated": 0
  },
  {
    "id": "4319fb96-7b1c-4cdb-a55c-4650ad218c91",
    "data": [
      {
        "text": "find movies",
        "userDefined": false
      }
    ],
    "isTemplate": false,
    "count": 0,
    "updated": 0
  },
  {
    "id": "9a386073-a8d2-474b-befc-f63deec0a18e",
    "data": [
      {
        "text": "can",
        "meta": "@sys.ignore",
        "userDefined": false
      },
      {
        "text": " you search ",
        "userDefined": false
      },
      {
        "text": "up",
        "meta": "@sys.ignore",
        "userDefined": false
      },
      {
        "text": " ",
        "userDefined": false
      },
      {
        "text": "Youtube",
        "alias": "service",
        "meta": "@video-service",
        "userDefined": false
      }
    ],
    "isTemplate": false,
    "count": 0,
    "updated": 0
  },
  {
    "id": "4e68e8ca-c863-4230-8b84-8bda72a87cdd",
    "data": [
      {
        "text": "find the movie",
        "userDefined": false
      }
    ],
    "isTemplate": false,
    "count": 0,
    "updated": 0
  },
  {
    "id": "0ac0a020-dd48-40a7-aec8-fca7e1a8adce",
    "data": [
      {
        "text": "find me a ",
        "userDefined": false
      },
      {
        "text": "horror",
        "alias": "movie-genre",
        "meta": "@movie-genre",
        "userDefined": false
      },
      {
        "text": " movie",
        "userDefined": false
      }
    ],
    "isTemplate": false,
    "count": 0,
    "updated": 0
  },
  {
    "id": "c073b677-1cf4-4270-85f4-fbd97c6e231b",
    "data": [
      {
        "text": "please find me ",
        "userDefined": false
      },
      {
        "text": "Michael Jackson",
        "alias": "person",
        "meta": "@person",
        "userDefined": true
      },
      {
        "text": " video",
        "userDefined": false
      }
    ],
    "isTemplate": false,
    "count": 0,
    "updated": 0
  },
  {
    "id": "e8dd301d-489e-49d6-8f6a-e4f7df535e79",
    "data": [
      {
        "text": "search for ",
        "userDefined": false
      },
      {
        "text": "pop",
        "alias": "music-genre",
        "meta": "@sys.music-genre",
        "userDefined": false
      },
      {
        "text": " ",
        "userDefined": false
      },
      {
        "text": "music",
        "meta": "@sys.ignore",
        "userDefined": false
      },
      {
        "text": " ",
        "userDefined": false
      },
      {
        "text": "video",
        "meta": "@sys.ignore",
        "userDefined": false
      }
    ],
    "isTemplate": false,
    "count": 0,
    "updated": 0
  },
  {
    "id": "01eb36aa-a0f7-4391-b2f7-aa31ba459d62",
    "data": [
      {
        "text": "do",
        "meta": "@sys.ignore",
        "userDefined": true
      },
      {
        "text": " you have some ",
        "userDefined": false
      },
      {
        "text": "Michael Jackson",
        "alias": "person",
        "meta": "@person",
        "userDefined": true
      },
      {
        "text": " ",
        "userDefined": false
      },
      {
        "text": "videos",
        "meta": "@sys.ignore",
        "userDefined": true
      }
    ],
    "isTemplate": false,
    "count": 0,
    "updated": 0
  },
  {
    "id": "57cd9df9-93ea-4d96-9ece-02a194428931",
    "data": [
      {
        "text": "I want you to look for some ",
        "userDefined": false
      },
      {
        "text": "video",
        "meta": "@sys.ignore",
        "userDefined": true
      }
    ],
    "isTemplate": false,
    "count": 0,
    "updated": 0
  },
  {
    "id": "2be6f214-d7c7-4741-8167-cbeff57d6925",
    "data": [
      {
        "text": "can",
        "meta": "@sys.ignore",
        "userDefined": false
      },
      {
        "text": " you find me videos",
        "userDefined": false
      }
    ],
    "isTemplate": false,
    "count": 0,
    "updated": 0
  },
  {
    "id": "fa4d62ab-800c-4d95-a0d3-b11791e6f922",
    "data": [
      {
        "text": "find ",
        "userDefined": false
      },
      {
        "text": "horror",
        "alias": "movie-genre",
        "meta": "@movie-genre",
        "userDefined": true
      },
      {
        "text": " movies of ",
        "userDefined": false
      },
      {
        "text": "2016",
        "alias": "year",
        "meta": "@sys.number",
        "userDefined": true
      },
      {
        "text": " year",
        "userDefined": false
      }
    ],
    "isTemplate": false,
    "count": 1,
    "updated": 0
  },
  {
    "id": "af375019-c684-49df-96d0-0461f010e70f",
    "data": [
      {
        "text": "family",
        "alias": "movie-genre",
        "meta": "@movie-genre",
        "userDefined": true
      },
      {
        "text": " ",
        "userDefined": false
      },
      {
        "text": "movies",
        "meta": "@sys.ignore",
        "userDefined": true
      }
    ],
    "isTemplate": false,
    "count": 0,
    "updated": 0
  },
  {
    "id": "e700d844-6dca-4c28-89f4-4314f6409e13",
    "data": [
      {
        "text": "find me ",
        "userDefined": false
      },
      {
        "text": "Michael Jackson",
        "alias": "person",
        "meta": "@person",
        "userDefined": true
      },
      {
        "text": " video",
        "userDefined": false
      }
    ],
    "isTemplate": false,
    "count": 0,
    "updated": 0
  },
  {
    "id": "e8c7d802-bb14-4171-9ddf-03c3513e11a4",
    "data": [
      {
        "text": "find me ",
        "userDefined": false
      },
      {
        "text": "Enrique Iglesias",
        "alias": "person",
        "meta": "@person",
        "userDefined": true
      },
      {
        "text": " video",
        "userDefined": false
      }
    ],
    "isTemplate": false,
    "count": 0,
    "updated": 0
  },
  {
    "id": "6ac2c509-6a91-4db1-b4db-3001b33c34ae",
    "data": [
      {
        "text": "give",
        "meta": "@sys.ignore",
        "userDefined": false
      },
      {
        "text": " me a movie",
        "userDefined": false
      }
    ],
    "isTemplate": false,
    "count": 0,
    "updated": 0
  },
  {
    "id": "b292e11b-7462-46ba-a4c5-e4da792b51de",
    "data": [
      {
        "text": "look ",
        "userDefined": false
      },
      {
        "text": "up",
        "meta": "@sys.ignore",
        "userDefined": false
      },
      {
        "text": " videos ",
        "userDefined": false
      },
      {
        "text": "of",
        "meta": "@sys.ignore",
        "userDefined": false
      },
      {
        "text": " ",
        "userDefined": false
      },
      {
        "text": "monster high",
        "alias": "video",
        "meta": "@sys.any",
        "userDefined": true
      }
    ],
    "isTemplate": false,
    "count": 0,
    "updated": 0
  },
  {
    "id": "a322a3c3-9a28-4581-a7ef-494a2ab613b9",
    "data": [
      {
        "text": "I want a movie",
        "userDefined": false
      }
    ],
    "isTemplate": false,
    "count": 0,
    "updated": 0
  },
  {
    "id": "66857bdc-3aeb-44e9-b7fb-4aaf3bb4853d",
    "data": [
      {
        "text": "find movies directed by ",
        "userDefined": false
      },
      {
        "text": "Tarantino",
        "alias": "person",
        "meta": "@person",
        "userDefined": false
      }
    ],
    "isTemplate": false,
    "count": 0,
    "updated": 0
  },
  {
    "id": "60c91ec1-1c05-47ef-9ccd-e5b0fca676a4",
    "data": [
      {
        "text": "search",
        "meta": "@sys.ignore",
        "userDefined": true
      },
      {
        "text": " ",
        "userDefined": false
      },
      {
        "text": "trailer",
        "alias": "trailer",
        "meta": "@trailer",
        "userDefined": true
      },
      {
        "text": " for ",
        "userDefined": false
      },
      {
        "text": "Ex-Machina",
        "alias": "movie",
        "meta": "@movie",
        "userDefined": true
      }
    ],
    "isTemplate": false,
    "count": 0,
    "updated": 0
  },
  {
    "id": "ee8eac88-dd56-4e6c-a3f7-ba6c471215b9",
    "data": [
      {
        "text": "find ",
        "userDefined": false
      },
      {
        "text": "me",
        "meta": "@sys.ignore",
        "userDefined": false
      },
      {
        "text": " something ",
        "userDefined": false
      },
      {
        "text": "to",
        "meta": "@sys.ignore",
        "userDefined": false
      },
      {
        "text": " watch with ",
        "userDefined": false
      },
      {
        "text": "Peter Dinklage",
        "alias": "person",
        "meta": "@person",
        "userDefined": false
      }
    ],
    "isTemplate": false,
    "count": 0,
    "updated": 0
  },
  {
    "id": "d3f6ec54-accb-4d1e-98b5-6fb5284e8a2d",
    "data": [
      {
        "text": "find some movies",
        "userDefined": false
      }
    ],
    "isTemplate": false,
    "count": 0,
    "updated": 0
  },
  {
    "id": "db8a4025-e2f7-48d9-8480-cfcec8d15600",
    "data": [
      {
        "text": "find me ",
        "userDefined": false
      },
      {
        "text": "apple pie recipes",
        "alias": "video",
        "meta": "@sys.any",
        "userDefined": true
      },
      {
        "text": " ",
        "userDefined": false
      },
      {
        "text": "on",
        "meta": "@sys.ignore",
        "userDefined": false
      },
      {
        "text": " ",
        "userDefined": false
      },
      {
        "text": "Youtube",
        "alias": "service",
        "meta": "@video-service",
        "userDefined": false
      }
    ],
    "isTemplate": false,
    "count": 0,
    "updated": 0
  },
  {
    "id": "1e112a6d-c645-4804-9db1-4e4e1cff058a",
    "data": [
      {
        "text": "search ",
        "userDefined": false
      },
      {
        "text": "Harry Potter parody",
        "alias": "video",
        "meta": "@sys.any",
        "userDefined": true
      },
      {
        "text": " ",
        "userDefined": false
      },
      {
        "text": "on",
        "meta": "@sys.ignore",
        "userDefined": false
      },
      {
        "text": " ",
        "userDefined": false
      },
      {
        "text": "Youtube",
        "alias": "service",
        "meta": "@video-service",
        "userDefined": false
      }
    ],
    "isTemplate": false,
    "count": 0,
    "updated": 0
  },
  {
    "id": "ff99ca07-47c8-480d-b341-77e2410ec101",
    "data": [
      {
        "text": "look ",
        "userDefined": false
      },
      {
        "text": "up",
        "meta": "@sys.ignore",
        "userDefined": false
      },
      {
        "text": " ",
        "userDefined": false
      },
      {
        "text": "video",
        "meta": "@sys.ignore",
        "userDefined": false
      }
    ],
    "isTemplate": false,
    "count": 0,
    "updated": 0
  },
  {
    "id": "170e235f-0882-4ea6-9671-e617bf8621f9",
    "data": [
      {
        "text": "search ",
        "userDefined": false
      },
      {
        "text": "Youtube",
        "alias": "service",
        "meta": "@video-service",
        "userDefined": false
      },
      {
        "text": " for ",
        "userDefined": false
      },
      {
        "text": "Nirvana",
        "alias": "person",
        "meta": "@person",
        "userDefined": true
      }
    ],
    "isTemplate": false,
    "count": 0,
    "updated": 0
  },
  {
    "id": "48fbdc2f-ea15-49e3-8116-b00739f2d25c",
    "data": [
      {
        "text": "search for movie",
        "userDefined": false
      }
    ],
    "isTemplate": false,
    "count": 0,
    "updated": 0
  },
  {
    "id": "55d51a75-b2f7-4b8a-bdef-0ffdb388c133",
    "data": [
      {
        "text": "find ",
        "userDefined": false
      },
      {
        "text": "video",
        "meta": "@sys.ignore",
        "userDefined": false
      }
    ],
    "isTemplate": false,
    "count": 0,
    "updated": 0
  },
  {
    "id": "548dadf2-a39d-4e85-b7e1-67aee219025e",
    "data": [
      {
        "text": "look ",
        "userDefined": false
      },
      {
        "text": "up",
        "meta": "@sys.ignore",
        "userDefined": false
      },
      {
        "text": " ",
        "userDefined": false
      },
      {
        "text": "Lego Batman 3 Beyond Gotham",
        "alias": "video",
        "meta": "@sys.any",
        "userDefined": true
      },
      {
        "text": " ",
        "userDefined": false
      },
      {
        "text": "on",
        "meta": "@sys.ignore",
        "userDefined": false
      },
      {
        "text": " ",
        "userDefined": false
      },
      {
        "text": "Youtube",
        "alias": "service",
        "meta": "@video-service",
        "userDefined": false
      }
    ],
    "isTemplate": false,
    "count": 0,
    "updated": 0
  },
  {
    "id": "3717662d-784a-4c3b-8ea7-cbd205fe4016",
    "data": [
      {
        "text": "I want movies",
        "userDefined": false
      }
    ],
    "isTemplate": false,
    "count": 0,
    "updated": 0
  },
  {
    "id": "c4fb98dd-c3c1-4d57-a967-77a6bcfa0752",
    "data": [
      {
        "text": "search ",
        "userDefined": false
      },
      {
        "text": "Madonna",
        "alias": "person",
        "meta": "@person",
        "userDefined": true
      },
      {
        "text": " ",
        "userDefined": false
      },
      {
        "text": "video",
        "meta": "@sys.ignore",
        "userDefined": true
      }
    ],
    "isTemplate": false,
    "count": 0,
    "updated": 0
  },
  {
    "id": "6a4d7eb6-18ac-46da-8f83-c2cbdb1b618b",
    "data": [
      {
        "text": "I want you to search for me a movie",
        "userDefined": false
      }
    ],
    "isTemplate": false,
    "count": 0,
    "updated": 0
  },
  {
    "id": "483c2857-0763-4967-a0f9-a939d3a1cfd6",
    "data": [
      {
        "text": "find a movie",
        "userDefined": false
      }
    ],
    "isTemplate": false,
    "count": 0,
    "updated": 0
  },
  {
    "id": "2e6425b0-76eb-4fdb-8091-5ca3c934c4a6",
    "data": [
      {
        "text": "search ",
        "userDefined": false
      },
      {
        "text": "Sponge Bob",
        "alias": "movie",
        "meta": "@movie",
        "userDefined": true
      },
      {
        "text": " in ",
        "userDefined": false
      },
      {
        "text": "Youtube",
        "alias": "service",
        "meta": "@video-service",
        "userDefined": false
      }
    ],
    "isTemplate": false,
    "count": 0,
    "updated": 0
  },
  {
    "id": "1ca7ebb0-0812-462f-bfea-8f48a9c19044",
    "data": [
      {
        "text": "find me some videos",
        "userDefined": false
      }
    ],
    "isTemplate": false,
    "count": 0,
    "updated": 0
  },
  {
    "id": "83975252-171f-487e-b3de-5cdab854dffa",
    "data": [
      {
        "text": "can",
        "meta": "@sys.ignore",
        "userDefined": false
      },
      {
        "text": " you find videos",
        "userDefined": false
      }
    ],
    "isTemplate": false,
    "count": 0,
    "updated": 0
  }
]