[
  {
    "id": "2a8d4a80-4f20-466c-981b-14c09cd937c2",
    "data": [
      {
        "text": "now ",
        "userDefined": false
      },
      {
        "text": "video",
        "meta": "@sys.ignore",
        "userDefined": false
      },
      {
        "text": " about ",
        "userDefined": false
      },
      {
        "text": "cats",
        "alias": "video",
        "meta": "@sys.any",
        "userDefined": true
      }
    ],
    "isTemplate": false,
    "count": 0,
    "updated": 0
  },
  {
    "id": "944df710-7c35-4666-956f-fd5992327aef",
    "data": [
      {
        "text": "now ",
        "userDefined": false
      },
      {
        "text": "Adele",
        "alias": "person",
        "meta": "@person",
        "userDefined": true
      }
    ],
    "isTemplate": false,
    "count": 0,
    "updated": 0
  },
  {
    "id": "f9f6b77d-0b06-425a-8370-2fe13e3b7d1d",
    "data": [
      {
        "text": "show ",
        "userDefined": false
      },
      {
        "text": "it",
        "meta": "@sys.ignore",
        "userDefined": false
      },
      {
        "text": " ",
        "userDefined": false
      },
      {
        "text": "on",
        "meta": "@sys.ignore",
        "userDefined": false
      },
      {
        "text": " ",
        "userDefined": false
      },
      {
        "text": "Youtube",
        "alias": "service",
        "meta": "@video-service",
        "userDefined": true
      }
    ],
    "isTemplate": false,
    "count": 0,
    "updated": 0
  },
  {
    "id": "3df38894-7fae-47a2-9fdf-c6faf603dff6",
    "data": [
      {
        "text": "what about ",
        "userDefined": false
      },
      {
        "text": "Avengers",
        "alias": "movie",
        "meta": "@movie",
        "userDefined": false
      }
    ],
    "isTemplate": false,
    "count": 0,
    "updated": 0
  },
  {
    "id": "4cef799a-d6d1-47bd-b799-14e5ade11972",
    "data": [
      {
        "text": "now on ",
        "userDefined": false
      },
      {
        "text": "Youtube",
        "alias": "service",
        "meta": "@video-service",
        "userDefined": true
      }
    ],
    "isTemplate": false,
    "count": 0,
    "updated": 0
  },
  {
    "id": "803f6f8f-1191-4110-a53c-693b4419ca60",
    "data": [
      {
        "text": "now ",
        "userDefined": false
      },
      {
        "text": "Madonna",
        "alias": "person",
        "meta": "@person",
        "userDefined": true
      },
      {
        "text": "\u0027s ",
        "userDefined": false
      },
      {
        "text": "video",
        "meta": "@sys.ignore",
        "userDefined": false
      }
    ],
    "isTemplate": false,
    "count": 0,
    "updated": 0
  },
  {
    "id": "0e1f6459-25dc-4540-9a0c-1d430c1384ed",
    "data": [
      {
        "text": "now show ",
        "userDefined": false
      },
      {
        "text": "it",
        "meta": "@sys.ignore",
        "userDefined": false
      },
      {
        "text": " to me ",
        "userDefined": false
      },
      {
        "text": "on",
        "meta": "@sys.ignore",
        "userDefined": false
      },
      {
        "text": " ",
        "userDefined": false
      },
      {
        "text": "Youtube",
        "alias": "service",
        "meta": "@video-service",
        "userDefined": true
      }
    ],
    "isTemplate": false,
    "count": 0,
    "updated": 0
  },
  {
    "id": "52f860ee-1ae8-4c54-af67-d9b28a50ba16",
    "data": [
      {
        "text": "and now ",
        "userDefined": false
      },
      {
        "text": "Tom Waits",
        "alias": "person",
        "meta": "@person",
        "userDefined": true
      }
    ],
    "isTemplate": false,
    "count": 0,
    "updated": 0
  },
  {
    "id": "3bfe22a1-dc05-48e4-a609-86aae1956791",
    "data": [
      {
        "text": "now ",
        "userDefined": false
      },
      {
        "text": "Titanic",
        "alias": "movie",
        "meta": "@movie",
        "userDefined": true
      }
    ],
    "isTemplate": false,
    "count": 0,
    "updated": 0
  },
  {
    "id": "f92f5328-6742-46e0-bfdf-edc50632b10a",
    "data": [
      {
        "text": "now ",
        "userDefined": false
      },
      {
        "text": "Tarantino",
        "alias": "person",
        "meta": "@person",
        "userDefined": true
      },
      {
        "text": "\u0027s",
        "userDefined": false
      }
    ],
    "isTemplate": false,
    "count": 1,
    "updated": 0
  },
  {
    "id": "b9c9711e-e099-471d-8131-928868a72f9b",
    "data": [
      {
        "text": "now ",
        "userDefined": false
      },
      {
        "text": "Bugs Bunny orchestra",
        "alias": "video",
        "meta": "@sys.any",
        "userDefined": true
      }
    ],
    "isTemplate": false,
    "count": 0,
    "updated": 0
  },
  {
    "id": "88bde55f-4aed-4409-9b0c-1c3119649f0b",
    "data": [
      {
        "text": "find ",
        "userDefined": false
      },
      {
        "text": "it",
        "meta": "@sys.ignore",
        "userDefined": false
      },
      {
        "text": " ",
        "userDefined": false
      },
      {
        "text": "on",
        "meta": "@sys.ignore",
        "userDefined": false
      },
      {
        "text": " ",
        "userDefined": false
      },
      {
        "text": "Youtube",
        "alias": "service",
        "meta": "@video-service",
        "userDefined": true
      }
    ],
    "isTemplate": false,
    "count": 0,
    "updated": 0
  },
  {
    "id": "5fa86433-20de-4fb8-abdc-d4129292b963",
    "data": [
      {
        "text": "now ",
        "userDefined": false
      },
      {
        "text": "jazz",
        "alias": "music-genre",
        "meta": "@sys.music-genre",
        "userDefined": true
      },
      {
        "text": " ",
        "userDefined": false
      },
      {
        "text": "video",
        "meta": "@sys.ignore",
        "userDefined": false
      }
    ],
    "isTemplate": false,
    "count": 0,
    "updated": 0
  },
  {
    "id": "d4b1902b-e7fd-44f5-9fea-5126bbf22189",
    "data": [
      {
        "text": "open",
        "meta": "@sys.ignore",
        "userDefined": false
      },
      {
        "text": " ",
        "userDefined": false
      },
      {
        "text": "it",
        "meta": "@sys.ignore",
        "userDefined": false
      },
      {
        "text": " ",
        "userDefined": false
      },
      {
        "text": "on",
        "meta": "@sys.ignore",
        "userDefined": false
      },
      {
        "text": " ",
        "userDefined": false
      },
      {
        "text": "Youtube",
        "alias": "service",
        "meta": "@video-service",
        "userDefined": true
      }
    ],
    "isTemplate": false,
    "count": 0,
    "updated": 0
  },
  {
    "id": "4ee111b3-3769-4fe0-b275-fb1e30a67c9a",
    "data": [
      {
        "text": "and what about ",
        "userDefined": false
      },
      {
        "text": "Bruce Lee",
        "alias": "person",
        "meta": "@person",
        "userDefined": true
      }
    ],
    "isTemplate": false,
    "count": 0,
    "updated": 0
  },
  {
    "id": "f73f2d9a-b9c0-42ea-b2c6-a3b902cd69dc",
    "data": [
      {
        "text": "what about a ",
        "userDefined": false
      },
      {
        "text": "horror",
        "alias": "movie-genre",
        "meta": "@movie-genre",
        "userDefined": true
      }
    ],
    "isTemplate": false,
    "count": 1,
    "updated": 0
  },
  {
    "id": "0bf20007-1698-402e-9e80-d29280bbc227",
    "data": [
      {
        "text": "how about ",
        "userDefined": false
      },
      {
        "text": "Masha and a bear",
        "alias": "video",
        "meta": "@sys.any",
        "userDefined": true
      }
    ],
    "isTemplate": false,
    "count": 1,
    "updated": 0
  },
  {
    "id": "b9fcdd9d-2c1e-4349-854b-ff80394459a3",
    "data": [
      {
        "text": "now ",
        "userDefined": false
      },
      {
        "text": "Justin Bieber",
        "alias": "person",
        "meta": "@person",
        "userDefined": true
      }
    ],
    "isTemplate": false,
    "count": 0,
    "updated": 0
  },
  {
    "id": "36f01ef5-b044-4793-8328-a5b79fe0f149",
    "data": [
      {
        "text": "now ",
        "userDefined": false
      },
      {
        "text": "the one",
        "meta": "@sys.ignore",
        "userDefined": false
      },
      {
        "text": " from ",
        "userDefined": false
      },
      {
        "text": "Rihanna",
        "alias": "person",
        "meta": "@person",
        "userDefined": true
      }
    ],
    "isTemplate": false,
    "count": 0,
    "updated": 0
  },
  {
    "id": "f329b39a-d659-41df-b65f-6cad5e8d6357",
    "data": [
      {
        "text": "now let\u0027s watch ",
        "userDefined": false
      },
      {
        "text": "Harry Potter",
        "alias": "movie",
        "meta": "@movie",
        "userDefined": false
      }
    ],
    "isTemplate": false,
    "count": 0,
    "updated": 0
  },
  {
    "id": "7578a26d-ddc6-4ce3-95de-fe25f0e49300",
    "data": [
      {
        "text": "now the same ",
        "userDefined": false
      },
      {
        "text": "one",
        "meta": "@sys.ignore",
        "userDefined": false
      },
      {
        "text": " ",
        "userDefined": false
      },
      {
        "text": "on",
        "meta": "@sys.ignore",
        "userDefined": false
      },
      {
        "text": " ",
        "userDefined": false
      },
      {
        "text": "Youtube",
        "alias": "service",
        "meta": "@video-service",
        "userDefined": true
      }
    ],
    "isTemplate": false,
    "count": 0,
    "updated": 0
  },
  {
    "id": "4651ae1d-e777-43d4-8324-8175d7bdbc59",
    "data": [
      {
        "text": "no ",
        "userDefined": false
      },
      {
        "text": "open",
        "meta": "@sys.ignore",
        "userDefined": false
      },
      {
        "text": " ",
        "userDefined": false
      },
      {
        "text": "it",
        "meta": "@sys.ignore",
        "userDefined": false
      },
      {
        "text": " ",
        "userDefined": false
      },
      {
        "text": "on",
        "meta": "@sys.ignore",
        "userDefined": false
      },
      {
        "text": " ",
        "userDefined": false
      },
      {
        "text": "Youtube",
        "alias": "service",
        "meta": "@video-service",
        "userDefined": true
      }
    ],
    "isTemplate": false,
    "count": 0,
    "updated": 0
  },
  {
    "id": "e7a5ea8f-cdbd-44b0-8604-fd202f68de02",
    "data": [
      {
        "text": "now with ",
        "userDefined": false
      },
      {
        "text": "George Clooney",
        "alias": "person",
        "meta": "@person",
        "userDefined": true
      },
      {
        "text": " and ",
        "userDefined": false
      },
      {
        "text": "Brad Pitt",
        "alias": "person",
        "meta": "@person",
        "userDefined": true
      }
    ],
    "isTemplate": false,
    "count": 1,
    "updated": 0
  },
  {
    "id": "dba05de4-18b7-48f7-b502-9a76938f6fb7",
    "data": [
      {
        "text": "now ",
        "userDefined": false
      },
      {
        "text": "open",
        "meta": "@sys.ignore",
        "userDefined": false
      },
      {
        "text": " ",
        "userDefined": false
      },
      {
        "text": "it",
        "meta": "@sys.ignore",
        "userDefined": false
      },
      {
        "text": " ",
        "userDefined": false
      },
      {
        "text": "on",
        "meta": "@sys.ignore",
        "userDefined": false
      },
      {
        "text": " ",
        "userDefined": false
      },
      {
        "text": "Youtube",
        "alias": "service",
        "meta": "@video-service",
        "userDefined": true
      }
    ],
    "isTemplate": false,
    "count": 0,
    "updated": 0
  },
  {
    "id": "e57fd03b-1adf-4fe9-beb7-6e122f401910",
    "data": [
      {
        "text": "what about ",
        "userDefined": false
      },
      {
        "text": "Adele",
        "alias": "person",
        "meta": "@person",
        "userDefined": true
      }
    ],
    "isTemplate": false,
    "count": 0,
    "updated": 0
  },
  {
    "id": "22dab1bf-bc06-4255-af01-e91109e6eb96",
    "data": [
      {
        "text": "now ",
        "userDefined": false
      },
      {
        "text": "Avengers",
        "alias": "movie",
        "meta": "@movie",
        "userDefined": false
      }
    ],
    "isTemplate": false,
    "count": 0,
    "updated": 0
  },
  {
    "id": "4e7f6707-69b0-4719-857c-0a85809c5c65",
    "data": [
      {
        "text": "now from ",
        "userDefined": false
      },
      {
        "text": "Tarantino",
        "alias": "person",
        "meta": "@person",
        "userDefined": true
      }
    ],
    "isTemplate": false,
    "count": 0,
    "updated": 0
  },
  {
    "id": "9696d45e-9776-4895-b7cb-cbdb23a24d93",
    "data": [
      {
        "text": "what about ",
        "userDefined": false
      },
      {
        "text": "Bruce Willis",
        "alias": "person",
        "meta": "@person",
        "userDefined": true
      }
    ],
    "isTemplate": false,
    "count": 0,
    "updated": 0
  },
  {
    "id": "c22af18b-14ef-4189-9974-2d3f0da417ee",
    "data": [
      {
        "text": "now ",
        "userDefined": false
      },
      {
        "text": "horror",
        "alias": "movie-genre",
        "meta": "@movie-genre",
        "userDefined": true
      }
    ],
    "isTemplate": false,
    "count": 0,
    "updated": 0
  },
  {
    "id": "692a6de9-8c23-413f-98a2-96a29cd4c010",
    "data": [
      {
        "text": "how about ",
        "userDefined": false
      },
      {
        "text": "Brad Pitt",
        "alias": "person",
        "meta": "@person",
        "userDefined": true
      }
    ],
    "isTemplate": false,
    "count": 0,
    "updated": 0
  },
  {
    "id": "8ddacef4-e4a3-4bf2-ae3d-a89fdfcd3f9d",
    "data": [
      {
        "text": "how about a ",
        "userDefined": false
      },
      {
        "text": "horror",
        "alias": "movie-genre",
        "meta": "@movie-genre",
        "userDefined": true
      }
    ],
    "isTemplate": false,
    "count": 0,
    "updated": 0
  },
  {
    "id": "f6811ae7-6f67-4e9c-9a48-4922f9c199ea",
    "data": [
      {
        "text": "now ",
        "userDefined": false
      },
      {
        "text": "jazz",
        "alias": "music-genre",
        "meta": "@sys.music-genre",
        "userDefined": true
      },
      {
        "text": " ",
        "userDefined": false
      },
      {
        "text": "music",
        "meta": "@sys.ignore",
        "userDefined": false
      },
      {
        "text": " ",
        "userDefined": false
      },
      {
        "text": "video",
        "meta": "@sys.ignore",
        "userDefined": false
      }
    ],
    "isTemplate": false,
    "count": 0,
    "updated": 0
  }
]