[
  {
    "id": "c151f04c-f258-4882-91f4-19faeb61892f",
    "data": [
      {
        "text": "continue the movie",
        "userDefined": false
      }
    ],
    "isTemplate": false,
    "count": 0,
    "updated": 0
  },
  {
    "id": "96394b71-5cf3-4ec8-9ba7-82c02c7954c9",
    "data": [
      {
        "text": "resume",
        "userDefined": false
      }
    ],
    "isTemplate": false,
    "count": 0,
    "updated": 0
  },
  {
    "id": "0cbf89ba-15e1-4c45-9665-fcba695abd15",
    "data": [
      {
        "text": "continue playing",
        "userDefined": false
      }
    ],
    "isTemplate": false,
    "count": 0,
    "updated": 0
  },
  {
    "id": "701b2639-dd89-457d-8d73-c2e75ba9d8fa",
    "data": [
      {
        "text": "restart movie",
        "userDefined": false
      }
    ],
    "isTemplate": false,
    "count": 0,
    "updated": 0
  },
  {
    "id": "c529b549-1c41-4dc1-a8d9-15af14611174",
    "data": [
      {
        "text": "continue",
        "userDefined": false
      }
    ],
    "isTemplate": false,
    "count": 0,
    "updated": 0
  },
  {
    "id": "c1b342a9-779a-4370-a99f-b429e6db047a",
    "data": [
      {
        "text": "resume video",
        "userDefined": false
      }
    ],
    "isTemplate": false,
    "count": 0,
    "updated": 0
  },
  {
    "id": "d12b04d7-bb84-42dd-b9ee-ddf96231c3b5",
    "data": [
      {
        "text": "resume ",
        "userDefined": false
      },
      {
        "text": "it",
        "meta": "@sys.ignore",
        "userDefined": false
      }
    ],
    "isTemplate": false,
    "count": 0,
    "updated": 0
  },
  {
    "id": "5295db16-abe3-42d2-afe5-0d16926b54ad",
    "data": [
      {
        "text": "start",
        "meta": "@sys.ignore",
        "userDefined": true
      },
      {
        "text": " video again",
        "userDefined": false
      }
    ],
    "isTemplate": false,
    "count": 0,
    "updated": 0
  },
  {
    "id": "911a9720-938b-4acd-a72b-95c1dc4767b5",
    "data": [
      {
        "text": "resume playing",
        "userDefined": false
      }
    ],
    "isTemplate": false,
    "count": 0,
    "updated": 0
  },
  {
    "id": "8bbcea44-4a42-4169-aef1-9d7128a115ab",
    "data": [
      {
        "text": "resume this video",
        "userDefined": false
      }
    ],
    "isTemplate": false,
    "count": 0,
    "updated": 0
  }
]